vt# ver

Magpie PLC Platform - Copyright (c) 2015 Vango Technologies, Inc.

version: v6.1.3.103_0.0.0   2019/03/27 14:58:24
vt#
vt#
vt# s2e
LBS Short Address to EUI64 address Table
=====================================================


vt# s2e
LBS Short Address to EUI64 address Table
=====================================================


vt# s2e
LBS Short Address to EUI64 address Table
=====================================================


vt#
vt#
vt#
vt# s2ew
Unknown Command !!
vt# s2e
LBS Short Address to EUI64 address Table
=====================================================


vt# route
Route discovery requset usage:
route a [short addr 0x??]
Routing Table : [000]-[099]
                    Dest   Next_Hop  Route_Cost  Hop_Count  Weak_Link_Count


vt#
vt#
vt#
vt#
vt#
vt#
vt# s2e


LBS Short Address to EUI64 address Table
=====================================================


vt#
vt# ifconfig


Bandplan   : FCC
EUI-64      : abcd:abcd:abcd:abcd
Device      : LBS (FFD)  (uptime 350159 sec)
Already joined a pan
PAN ID      :  0x2c76
Short Addr  :  0x0000
IPv6 addr   :  fe800000 00000000 020000ff fe000000
vt#






2526180

806152fffe020000

Magpie PLC Platform - Copyright (c) 2015 Vango Technologies, Inc.

version: v6.1.3.102_0.0.0   2019/05/21 09:44:37

vt#
vt#
vt# ifconfig


Bandplan   : FCC
EUI-64      : 8061:52ff:fe02:0000
Device      : LBD (RFD)  (uptime 6183 sec)
Not yet joined a pan

vt#
vt#
vt#
vt# ifconfig


Bandplan   : FCC
EUI-64      : 8061:52ff:fe02:0000
Device      : LBD (RFD)  (uptime 6441 sec)
Not yet joined a pan


 PHY_CR1               a00000c0        <- 00011003
ChipVer : V6306
Eable SWTD 86541236
Role = (1)....as LBD
task_init: nv_table_t.wd_cnt(86400)
>> holley_send_3088(58)
Send Beacon Request
vtmac_pkt_submit() Tx pause(wiat bbp 967 ms)
bbp adaptive scale ready

Receive beacon_request
    ->form: 446252FFFE020000

Receive beacon_request
    ->form: 786152FFFE020000

Receive beacon_request
    ->form: 756152FFFE020000

Receive beacon_request
    ->form: 436252FFFE020000

Receive beacon_request
    ->form: 366861FFFE020000

Receive beacon_request
    ->form: 796152FFFE020000

Receive beacon_request
    ->form: 408042FFFE020000

Receive beacon_request
    ->form: 438042FFFE020000

Receive beacon_request
    ->form: 756738FFFE020000

Receive beacon_request
    ->form: 468042FFFE020000

Receive beacon_request
    ->form: 286252FFFE020000

Receive beacon_request
    ->form: 096252FFFE020000

Receive beacon_request
    ->form: 585552FFFE020000


Receive beacon_request
    ->form: 147549FFFE020000

Receive beacon_request
    ->form: 806738FFFE020000

Receive beacon_request
    ->form: 806152FFFE020000
adpm_discovery_comfirm_cb: No Beacon
No Find PAN Network, Retry again, phase_fail_num=0

Send Beacon Request

Receive beacon_request
    ->form: 446252FFFE020000

Receive beacon_request
    ->form: 786152FFFE020000

Receive beacon_request
    ->form: 756152FFFE020000

Receive beacon_request
    ->form: 436252FFFE020000

Receive beacon_request
    ->form: 796152FFFE020000

Receive beacon_request
    ->form: 408042FFFE020000

Receive beacon_request
    ->form: 756738FFFE020000

Receive beacon_request
    ->form: 468042FFFE020000

Receive beacon_request
    ->form: 286252FFFE020000

Receive beacon_request
    ->form: 096252FFFE020000

Receive beacon_request
    ->form: 625552FFFE020000

Receive beacon_request
    ->form: 585552FFFE020000

Receive beacon_request
    ->form: 147549FFFE020000

Receive beacon_request
    ->form: 806738FFFE020000

Receive beacon_request
    ->form: 806152FFFE020000
adpm_discovery_comfirm_cb: No Beacon
No Find PAN Network, Retry again, phase_fail_num=1

Send Beacon Request

Receive beacon_request
    ->form: 446252FFFE020000

Receive beacon_request
    ->form: 786152FFFE020000

Receive beacon_request
    ->form: 147549FFFE020000

Receive beacon_request
    ->form: 806738FFFE020000

Receive beacon_request
    ->form: 806152FFFE020000
adpm_discovery_comfirm_cb: No Beacon
No Find PAN Network, Retry again, phase_fail_num=2

Send Beacon Request

Receive beacon_request
    ->form: 446252FFFE020000


Receive beacon_request
    ->form: 796152FFFE020000

Receive beacon_request
    ->form: 408042FFFE020000
adpm_discovery_comfirm_cb: No Beacon
No Find PAN Network, Retry again, phase_fail_num=1

Receive beacon_request
    ->form: 786152FFFE020000

Send Beacon Request

Receive beacon_request
    ->form: 438042FFFE020000

Receive beacon_request
    ->form: 468042FFFE020000

Receive beacon_request
    ->form: 756738FFFE020000

Receive beacon_request
    ->form: 096252FFFE020000

Receive beacon_request
    ->form: 625552FFFE020000

Receive beacon_request
    ->form: 585552FFFE020000

Receive beacon_request
    ->form: 286252FFFE020000

Receive beacon_request
    ->form: 147549FFFE020000

Receive beacon_request
    ->form: 806152FFFE020000

Receive beacon_request
    ->form: 436252FFFE020000

Receive beacon_request
    ->form: 806738FFFE020000

Receive beacon_request
    ->form: 756152FFFE020000

Receive beacon_request
    ->form: 446252FFFE020000


PAN:2c76 LBA:0x0000 R_C:0x0000 L_C: 0x23, Priority 0
adpm_discovery_comfirm_cb: Select PAN 2c76
adpm_discovery_comfirm_cb: History PAN 2c76, join cnt = 1
Choose Beacon Table[0].join_cost 0023 (0x2C76), Join Wait 3 sec
Join PAN 2C76 by 0000, Please Wait...
Tx Packet Give Up (TxCMP, nack_or_ackto = 3)
Robust retry fail
Set Neighbor Table[0] : 0x0000 tmr valid time to zero
Add 0000 to BlackList[0]
