1168
2420
-5624
8372
-1144
-6884
8304
-4088
-2972
6360
-7112
5492
5056
-11568
3656
164
-1084
10632
-7964
-5032
4364
-3324
6344
2224
-8088
3240
-1176
-2768
9264
-3476
-4456
3652
-6960
5268
7160
-8056
2708
-3500
-2396
10628
-4572
-3920
2152
-3784
6412
1944
-8024
5700
-1492
-4188
6436
-3648
172
4868
-6976
856
3704
-3288
6052
-3800
-7500
9004
296
-3196
2752
-6188
3916
5340
-9644
4600
4156
-8280
5868
-1808
-2504
6956
-9396
5468
5960
-10932
5828
-2228
-4316
9164
-4716
2324
4112
-10764
2524
3048
-2392
4716
-1156
-3664
2644
204
-1456
1128
-4608
2444
8436
-7056
-592
2044
-6704
6984
-856
-2172
7528
-9252
1772
5688
-10156
7124
1460
-6680
8484
-3372
-3200
2852
-4884
4584
1376
-2844
7452
-6864
-7640
11012
-640
-6924
6148
1780
-3744
268
-1376
3040
-2772
-3784
11572
-4300
-7040
8788
-6808
-576
8032
-7668
5580
2164
-10640
5052
2060
-916
80
-3408
7476
-2556
-6228
7640
-5272
-3060
8740
-2740
792
2472
-10656
3784
8120
-10216
4208
7508
-10372
3476
1564
-6352
8472
-6088
-1196
12460
-9968
-2296
4776
-6300
5260
2792
-2624
3376
-7748
-456
8760
-4344
-2656
1252
1788
3196
-2552
-3336
2268
-2052
-2240
6872
1944
-4644
32
-2536
848
3452
-6292
8560
1024
-11940
10220
-3784
-2512
5812
-9516
12524
-1612
-10448
11064
-9068
-948
11008
-9244
9268
-2860
-13132
15608
-7052
-652
3508
-4612
8408
-3792
-3436
3336
-1824
-4624
4084
5764
-3128
556
-3412
-1988
4572
-5880
5968
5644
-11120
5324
-360
-4260
5240
-7296
7124
6924
-10852
1364
-1308
-3792
8160
684
1348
276
-11848
2788
7632
-4948
3832
2240
-5856
1308
-2852
3164
4936
-6004
-3884
6184
1004
-1356
3056
-8516
2580
176
-188
12556
-9556
-7480
6896
-3416
5356
-904
-4372
9676
-8776
-2468
9824
-8540
-604
5064
588
4636
-7416
-5784
7760
-320
-2696
4028
-924
-1348
2424
-3984
1172
1080
-5996
8676
1720
-8048
5180
-3296
-1420
5348
-6768
7440
2524
-13356
7524
2948
-3812
1924
-6948
7676
6048
-11108
1804
972
-3604
5552
360
192
2388
-9064
-460
8272
-3824
808
2652
-4416
2840
-1028
-3880
6488
-3660
-2688
7876
-4704
1828
-216
-8628
9888
-372
-4620
7760
-7120
-1552
5476
-4996
5248
-1808
-5012
10404
-3416
-6744
3484
-1104
-168
3984
832
1376
-5096
-7436
10552
744
-9052
11352
-624
-10516
6380
-572
132
-192
-4388
10688
-4424
-6228
8680
-8372
536
8788
-7088
4540
1280
-10936
5648
5136
-4560
-264
984
2152
-1096
-2812
3548
-2948
-4696
8100
2096
-4148
3288
-7468
-1196
10676
-9112
3384
9028
-15308
5072
6232
-9604
7536
-3836
-2344
11312
-9212
-1600
5772
-7716
2604
6256
-784
-548
-5112
-2812
6704
236
-4268
5632
-892
-4144
2996
-2384
1576
-1196
-3724
10012
-20
-8244
2572
-2288
868
4120
-3464
5540
-1888
-9532
8216
1012
-5664
5996
-3540
2940
2000
-10916
9328
-1384
-7408
11352
-2972
-228
428
-10736
9708
1792
-6568
8472
-3484
-3636
2968
-3152
3816
812
-7676
7388
4228
-9516
3320
-384
-2424
6988
-6208
3172
4212
-13044
7192
5228
-6152
3868
-4352
412
5128
-6888
3708
4160
-7904
1016
4440
-1800
1284
-1264
-2624
5644
-6432
-1848
11456
-6320
-104
3332
-8348
5340
-2920
-868
14120
-10052
-5240
4512
-4976
7648
696
-3444
3548
-8312
-440
11932
-4020
-6264
2968
-1236
5260
1116
-8704
4816
-2968
-3544
14296
-4236
-7568
4052
-5416
6872
1008
-11000
13496
-1068
-8976
7696
-7116
2432
5268
-8032
7780
-884
-7980
10100
-4928
-6132
8164
-1192
2988
-1036
-9740
7060
4404
-8800
5536
2680
-6500
4412
-3540
736
6104
-12048
5468
9380
-8976
4832
-8268
-2472
14320
-9200
1648
6860
-11356
3108
4220
-7048
9248
-4868
-2768
7772
-8168
2420
3328
-6328
4912
2956
-7060
5536
-1536
-6548
8248
-4408
644
8112
-10948
4392
3012
-10752
10956
-3356
-6576
14048
-6584
-2764
3472
-8924
8232
248
-4280
12232
-10512
-7740
13980
-4848
-4608
7136
-1564
-904
1032
-4220
4528
-4516
-3212
15852
-8244
-4448
5836
-9100
4008
7256
-8940
7972
296
-11504
9484
-3536
84
1216
-4724
12728
-6124
-9040
11656
-6128
-5096
11172
-3564
-768
4436
-12096
5708
8736
-14404
8164
6908
-13904
7372
504
-5856
8720
-9636
3064
11716
-13132
2156
2380
-7356
7876
-548
472
4268
-11376
2076
7716
-6204
1324
940
-1180
3980
-3144
-2024
4032
-5468
-748
10716
-3928
-4196
1820
-5568
6856
560
-6092
11424
-7884
-6080
11572
-8876
3036
4368
-8300
12820
-7868
-7924
14212
-11260
1620
8680
-8372
8084
-5204
-7496
12904
-7388
-1392
9604
-8648
1748
3008
-5396
6240
-3564
-8028
13164
-824
-6904
7256
-8324
1316
6212
-7480
8356
-2388
-8732
12044
-4708
-5604
5768
-4012
6224
3140
-8328
2724
-2560
-7040
12076
3972
-7116
4232
-8788
-1380
9152
-8024
10756
1688
-15508
8780
-1580
-1680
7636
-8832
4128
3212
-9192
8840
-392
-9692
6532
1424
-180
4756
-8376
-1464
6460
-8424
6768
8176
-12404
3064
-476
-2552
9704
-11672
2216
12200
-11956
4532
204
-10604
9800
-232
1624
5304
-14716
1804
10640
-7132
460
2760
-2340
5252
-5108
-4404
8324
-6236
-696
11272
-7452
-1296
1972
-7892
10240
-736
-5656
10388
-11844
-180
12384
-10596
2564
40
-3852
11788
-8452
-3548
11100
-9400
-2736
8092
-944
1636
-4024
-5056
10328
-3480
-9024
12744
-1120
-6144
4088
-5980
6876
-12
-10772
15368
-1740
-12436
8580
-4028
1268
2880
-4824
12076
-6344
-13280
13116
1692
-9020
5764
1624
-2196
1108
-5100
6244
-364
-12804
15440
3304
-13972
9560
-4596
-5372
9608
-5400
6280
-88
-11108
9956
-4988
-1556
10376
-10648
4204
7076
-12704
3004
5148
-9296
5420
9536
-6600
-2064
-3600
-88
7052
-7220
6264
3436
-11584
9568
-3528
-5032
10812
-11512
4404
11224
-17352
5644
7924
-13396
7508
3232
-5644
7132
-6296
-4592
10620
-6952
-2664
11640
-7052
-1924
5060
-6408
4284
-1972
-3372
12980
-6968
-5568
6036
-6796
4056
2496
-1528
6048
-8560
-3820
8672
-1548
-2680
2956
-392
-1504
1304
-1224
704
24
-7380
12068
788
-11360
11688
-12960
6188
6388
-14328
17516
-8136
-8896
16008
-10668
760
5468
-11712
15232
-2792
-9480
11216
-11372
-592
10976
-3316
3344
-2812
-10976
8380
2044
-6476
13144
-5252
-8316
9284
-9136
3568
5464
-7976
11548
-4732
-10980
8824
-1672
228
6172
-4868
464
-996
-8080
10680
4952
-12208
5880
-36
-4892
5448
-1744
1924
1032
-10460
6928
8468
-10804
6640
-4136
-6376
8184
-4148
8752
1536
-14356
4336
3056
-3096
4676
1424
-2688
-1180
-3572
4012
5332
-9508
1056
6732
-4680
4096
-1536
-5888
4340
-3512
5700
6452
-12888
692
5004
-2940
2968
-3980
3084
4632
-6788
1036
108
-3100
2852
4332
-732
-3996
-1024
1436
1988
-3988
664
7852
-4680
-2948
788
-664
3520
-5364
3648
6492
-7628
-12
-1384
56
3616
-1760
3844
-1784
-2780
264
-1824
2408
924
2660
-1624
-4184
2952
-1444
-1216
1188
2532
4588
-6900
-2748
4196
-1556
-104
644
4828
-3140
-6468
5648
2124
-3184
-2728
3156
5468
-6068
-940
4552
-4748
-2144
3592
4900
-3232
-3768
4600
-1924
-3468
1644
3544
1792
-3660
620
-1864
-3040
4748
-188
1804
1276
-4028
-2484
1336
4984
-4564
-356
7164
-5520
-3664
4748
884
-4772
-700
8840
-2996
-4636
4416
-4284
188
2556
244
2224
-2352
-2208
-1188
4452
-808
-5424
9012
-904
-7768
5328
-664
-3748
2224
3368
1168
-2040
-3084
-2060
4780
-2004
-2176
9652
-4872
-4212
4860
-5748
1732
2252
-1720
6988
-4416
-6048
5128
-596
-2920
4508
2304
-3660
-544
-1056
744
1796
-3944
5676
824
-7936
5720
-1960
-1180
2948
-4744
9736
-2624
-9568
7916
-4156
272
3888
-2944
5900
-6172
-1400
6592
-7384
1088
3032
2536
1112
-8116
3068
1176
-3920
3284
2772
668
-2972
-2944
2356
-72
-2324
3920
4144
-3720
-4440
744
684
-756
1944
5240
-320
-6252
-2272
1592
1740
-764
3808
3048
-6104
-2304
572
1188
724
-236
5384
-1636
-6424
592
1244
1124
1092
2564
-440
-6532
-296
3604
3304
-1672
-3560
3288
-1676
436
3344
-4252
-2168
-1036
6928
4036
-5900
-2500
-3188
2040
3180
2668
3112
-6836
-4612
4272
2436
-676
-2616
2716
2096
-4280
1264
-696
-1388
616
3972
3448
-7784
-1736
3384
1284
-1260
-2184
4944
-396
-3288
232
148
1476
-2872
2784
3244
-5164
1232
684
-2244
-1764
2556
6928
-5644
-2928
3372
-2124
1084
-2884
4968
2828
-7344
2792
-2692
4388
-3472
-2668
9864
-3340
-2860
-2144
1380
1980
-2152
2876
1092
-2396
-740
-2248
2856
1028
-1760
2468
-784
-1504
-612
2716
-3732
-2180
10240
-3784
-3652
1744
-2800
2592
-2564
4664
2960
-7928
2920
320
-1772
-1144
2312
5472
-5968
-152
224
-1124
4348
-6464
5532
2384
-6536
3372
-1932
1168
-3180
3012
5364
-4996
-2972
672
2800
60
-3192
5036
212
-5816
1972
1552
-360
-3924
5136
3320
-8020
2692
1196
-1076
132
-2016
4760
-40
-3100
-1400
2412
-124
-4716
7048
784
-4628
2580
-3176
308
736
444
4812
-4380
668
-3100
-2812
7440
-2404
4020
-1304
-6140
2996
-2048
3468
684
-2504
3904
-2756
-2484
2132
-928
-1276
3652
3144
-3372
-3144
360
508
1704
-1260
2680
1388
-5804
64
1344
4212
-3472
-2836
7708
-4760
-1820
4400
-3604
-1544
2292
2520
548
-2364
-2656
964
2076
-1392
2056
2988
-5724
-2548
4328
1448
-3072
-192
5064
-3156
-2388
2504
-392
-988
-1652
4880
304
-4340
1688
-740
356
-1508
2124
3360
-4152
-188
-208
676
932
-4744
6320
2560
-6712
1472
-1636
2332
-1716
120
7432
-7556
-1212
3280
-784
404
-1984
3920
-236
-3424
-108
1008
860
-1992
3040
1232
-2968
-64
-1408
2752
-2252
-1392
9060
-5956
-2732
3020
-4656
4036
52
3168
560
-7796
1400
3996
-64
-3980
2184
3672
-3220
-1336
824
164
100
-1176
3048
2276
-6360
-80
4160
-1996
-1604
2704
776
-2080
1116
-1260
1224
-2216
56
4704
-2956
1404
-1712
-2060
528
-1368
5272
2864
-3584
-4316
228
2888
-1888
2148
4732
-5616
-2632
2164
-244
948
736
1720
-3028
448
1676
-3044
1180
-2552
2620
5372
-4008
-1188
-1476
-2228
2904
1540
2960
1432
-8204
-672
4956
-2324
180
4356
-360
-4668
-476
2296
340
-3188
2692
5108
-4608
-2104
960
488
-1596
-752
8048
-1080
-7916
1424
-244
196
5668
-600
-432
-4352
-4080
7132
2188
-4136
-640
3240
-2176
-1812
4292
-564
-3240
-2544
5504
3020
-4400
-1444
460
2380
-3456
980
5480
-3752
-3944
2736
1432
28
-1228
-8
2532
-2488
-520
1056
-932
-1992
2484
5464
-4016
-2788
-604
924
660
740
5228
-4112
-5800
1904
4388
-680
-3656
4720
1096
-5492
1820
568
-592
-468
-1244
6612
-3128
-4388
3924
-1608
192
-1952
4852
3312
-8060
-1160
2388
3568
-3540
1200
4972
-9144
2072
2068
3484
-2832
-6296
8540
-1928
-1100
2136
-4748
1112
676
604
5988
-4560
-4748
1084
2612
348
-332
3104
-2460
-1508
-804
-932
3956
-1616
296
2544
-3980
760
476
-820
1664
-2156
3084
-544
-2476
2312
-1760
-572
56
2192
964
-1700
196
-652
-1176
-1552
5324
412
-3296
2396
-5916
5296
-3076
-2436
11140
-5476
-2508
2632
-4016
-612
1060
5468
2288
-7264
-152
-616
560
300
3368
4988
-9152
4
1968
-1336
2320
-2076
3960
-572
-4008
1772
-1600
1716
340
-1744
6504
-3204
-6252
3528
1108
-1328
1312
3924
-4988
-1952
3496
-240
408
-2596
2496
132
-1456
968
-468
236
-3784
3808
4628
-4740
-976
64
-648
128
1576
4396
-4904
-2236
3784
-3644
2008
1144
676
-348
-3188
3420
-1468
-796
-712
1752
1984
-2584
1860
-2000
984
-1904
-3936
11172
-1968
-7192
4708
-2660
-400
1644
-44
4572
-4024
-2392
428
1048
1496
-3068
5364
-1728
-3184
2544
-1936
-348
-452
3784
1848
-4336
-1172
684
664
-1264
1892
5112
-4384
-4508
2040
2116
-588
-2232
7008
-4292
-5768
8048
-2216
-840
-940
-520
5520
-3280
-1832
2368
-940
-4612
2660
7048
-2892
-3120
-348
-1096
312
3156
2812
-2080
-4112
-872
2332
2544
-3492
1948
3028
-5768
2756
964
-692
-3052
-1124
8108
-4612
528
1872
-5072
168
796
3508
2084
-1352
-4920
-692
3760
-3040
4436
3604
-8480
-44
2960
988
-760
-2584
5584
-2284
-3340
2876
-708
344
-3392
4852
1476
-3544
604
-3016
3664
-2488
616
6140
-5144
-388
-1220
-544
3916
-2664
3188
-756
-5644
5996
-576
-3192
500
1696
2060
-2140
1148
-3528
2504
-1864
-2644
10216
-4244
-1944
-1420
-3128
6788
-2528
2072
3412
-7768
-1152
3652
2688
-2936
-1924
5316
-3420
-272
2988
-3876
-68
448
3196
1932
-4444
-1552
1788
-2324
-768
8308
-996
-4108
-528
-2920
3904
-1860
2172
5624
-7804
-2164
4064
1180
-2740
-1084
5648
-2500
-776
1024
-4184
3424
-2064
1928
5884
-7508
-1284
1608
904
-420
644
5392
-4868
-3160
444
1624
1428
-2568
3588
772
-3064
-528
-136
368
-1672
3200
3828
-4520
-1256
672
-2144
-140
4416
3040
-4288
-744
-3948
1764
6760
-5316
3584
-1492
-6024
5700
-540
2652
-3108
-4492
7204
-2408
-628
4828
-4704
-4344
924
7584
2892
-7508
-3264
3300
92
-1000
4316
1820
-5024
-3508
5344
-888
-1424
-408
3032
1324
-3492
444
-288
-1512
-928
4692
1692
-1180
-2776
-2808
1820
-464
3416
4028
-5344
-3972
1832
3096
-1568
832
3108
-4552
-1228
1892
1896
-380
-4384
4672
-1300
-1052
3668
-3644
24
-2420
3644
3776
-3732
1032
-4468
1504
1572
-2956
7168
-1940
-4108
248
1680
192
-1984
2196
1616
-2332
540
-1156
-560
-556
932
6008
-4404
-3128
876
3284
-1508
-3548
7252
-2568
-3308
1888
-1504
1552
-1348
3532
2112
-7008
1008
1336
836
-120
-1700
4128
-2772
-1132
1196
968
-2536
-3084
9548
-3124
-2852
2868
-4704
2104
-1528
3080
4776
-6280
-1204
544
-916
3772
-1080
1816
844
-7436
1832
4644
-2160
-1168
4384
-2552
-4584
5528
-16
-4028
60
4532
776
-1784
-1300
-2972
2248
-1424
3516
3660
-4828
-492
-2528
2368
2672
-4060
3488
356
-3664
1916
1812
-1708
-4976
3344
5704
-3384
1284
-2980
-1756
476
-956
8888
-2392
-4468
-488
-1548
1796
100
6068
-1496
-6728
1700
1208
1160
-1472
-776
5136
-2520
-3376
2404
-268
-844
-2112
4892
1736
-3404
-296
-1972
1800
-2380
2964
6804
-7788
-5220
5680
2876
-4724
2692
2944
-5444
1092
1140
-888
948
-2072
2416
836
-3448
2836
224
-2244
-2376
3380
4612
-3548
-1480
-1876
1544
-1280
360
8348
-5832
-3884
3044
-760
-64
-176
4544
-792
-7080
1820
5088
-32
-5512
592
5696
-4716
1328
3828
-3836
-3332
-808
6968
276
-2624
812
-4696
992
1348
3796
3024
-7432
-1876
2776
1244
-512
788
1776
-3952
-508
2620
788
-1688
-3244
4864
1500
-3408
1240
-1696
-184
-1920
2800
7084
-7040
-3464
3604
1692
-3464
428
5112
-4268
-544
1304
1060
-760
-4988
6744
556
-6336
4584
432
-2432
-768
1144
3000
-2108
700
-1120
-1980
-276
1048
6384
-4224
-2364
2604
-3720
2096
-432
1892
2296
-4436
2004
-372
-2528
-1564
3600
4816
-4388
-1136
1516
-1744
-1392
660
5160
-1048
-2792
616
-4340
2168
2184
2504
3660
-8276
-3544
3876
1840
464
2816
-684
-6140
-168
3348
2456
-4000
1216
3380
-3916
1436
-2236
2364
2600
-10324
7468
5268
-7688
3360
-2616
-548
3080
-4528
7008
-372
-6916
2996
476
-708
-524
4732
-1512
-5084
1012
3224
2160
-6152
1852
4156
-2644
-1176
-1036
2996
-2956
-1980
6988
2296
-5300
-4508
2456
872
-616
5352
-1456
-3592
3596
-7760
4484
3224
-4108
5628
-6064
1920
160
2920
-4548
-3372
10608
-5924
1084
-112
-3364
3516
-5480
6724
6696
-11648
640
1372
-1448
3172
12
4620
-5568
-4712
4968
-272
348
-676
2912
-1296
-3352
2564
976
-728
-5008
4536
3316
-3860
348
8
536
-2600
252
5536
-904
-3980
-824
36
2440
240
480
2584
-7148
528
3152
3488
-4236
-2628
7096
-6604
2440
2540
-1752
-2424
-2940
8000
-808
-3644
3512
-2936
-2016
644
3568
2284
-4784
-532
1104
372
-1564
964
4592
-4368
-276
288
-860
1056
-1720
6224
-2324
-6012
2464
2180
1340
-5188
4100
3140
-6512
2044
732
-424
-2156
1100
6188
-4684
-2480
1824
-1072
960
-524
4400
-440
-6032
1064
1120
2672
-2940
888
3272
-6000
4104
-368
-1968
-252
-1056
6140
-120
-4088
-3472
3300
1128
-2760
6128
-696
-5100
424
-896
1884
2324
1160
-1276
-3756
588
-1364
4420
2224
-8028
5788
-20
-3108
3140
-1624
516
-4180
2404
5536
-2636
-2760
920
664
-4712
4908
4100
-5516
520
-1128
620
1460
-2140
5496
-2556
-5936
4996
-820
200
56
-176
2660
-2836
316
908
-1464
-4608
4704
6976
-5128
-776
-3644
-436
3172
-232
6132
-2212
-6700
1392
-196
1764
2548
688
-604
-7504
2108
5736
-632
-804
-3028
2308
-308
-1312
2140
296
-2224
-3636
6340
2648
-3152
-2736
-804
352
-968
8788
-1056
-8428
2324
-1356
2768
764
-1792
6060
-6788
-1840
6168
-2560
-792
-2456
4536
1564
-5820
5384
-700
-5004
-1760
5856
5028
-6604
1156
-2552
324
2144
-4200
10108
-2036
-9664
3204
656
1592
1264
816
156
-4024
-460
-12
4240
-384
-5532
6268
-1760
-2196
2872
-1316
-824
-3152
5832
2172
-4528
-4
-944
-96
-528
4236
0
-2604
476
-1408
1596
-2772
1780
6828
-5644
-4020
1116
2228
2060
-2408
2692
-1652
-3508
4308
-1192
-1720
704
1940
736
-2104
2288
-3856
180
-100
-628
8232
-3068
-5140
1000
84
380
384
5044
-2236
-7824
4444
3232
-2356
-580
2052
500
-4332
1472
3284
24
-6624
1020
10572
-7456
-1108
2216
-3368
1960
-1996
6344
-180
-4836
384
-2824
5848
-2544
-1768
8152
-8208
-1412
6220
-2988
1700
-3028
1072
1784
-1600
2372
-4504
3036
-1136
-80
5592
-6468
-616
2272
-832
-520
2780
3424
-5892
-1972
1700
1192
1360
-2776
3732
-816
-4948
3804
1912
-2112
-2876
1764
3760
-1840
-2228
4164
-4860
-2024
3656
2792
1212
-4532
492
-472
-1704
296
8524
-3268
-7116
2800
-1188
3520
216
-288
2772
-5136
-1340
1704
1448
-108
-404
3224
-3336
-2336
2296
-128
2584
-3824
436
3908
-2776
1868
-2068
-1840
-2692
4936
6952
-7244
-840
-1424
1600
2400
-4704
8892
-4128
-7824
6532
-760
2600
-3220
952
2704
-5112
2404
980
-480
-2228
-856
5292
152
-3120
1020
-2576
-3144
4032
6740
-2584
-3316
-2072
-800
1728
180
5968
-1328
-6828
1128
1856
328
1028
100
-892
-2656
1128
3296
1232
-4080
-4784
6880
1012
-2772
3268
-2904
-1920
-3048
4216
8184
-4580
-4940
-508
1636
-1672
3492
5176
-5336
-3316
1132
2204
-1052
-1424
3260
340
-1628
-828
1804
332
-6632
2880
7132
-3376
-1352
-1644
1224
-1960
-492
10204
-5004
-6804
2668
1988
-1380
-644
6720
-2744
-5700
1620
1764
1456
-2584
2916
0
-4644
3288
492
36
-3092
-1832
8004
-1868
-2092
596
-3272
1612
-92
3472
692
-3804
-1108
-524
3028
-2296
4604
1972
-8484
1636
644
2652
-100
-2452
3128
-3432
404
2516
-1992
1432
-2920
980
4800
-3488
-412
692
-2676
-1860
5120
4636
-7004
0
1548
-704
-1632
780
6168
-4244
-1984
-688
2244
28
-4872
9564
-992
-7536
2984
152
1176
-3836
2792
5812
-7528
2672
-44
-3944
3936
-5220
8384
3412
-10632
2192
-1508
672
2296
3468
96
-5316
-668
-1484
5056
-324
-1212
5092
-7880
-1416
6056
-760
-8
-2056
1428
2084
-4224
908
2292
-2456
-3824
6204
6196
-7780
-1924
772
-212
184
1376
5796
-3768
-5268
-800
4156
1552
-2028
5312
-4524
-7200
6416
5648
-4288
-4484
2888
832
-320
2320
-1632
-816
-4628
3284
9408
-6980
-2384
228
-2356
4032
-1336
5520
-700
-8332
2908
596
1540
260
320
496
-3168
80
1868
1340
-4852
1328
6448
-5324
-932
3940
-2252
-3212
892
5900
-1072
-3988
808
-1940
1024
1568
2572
604
-4908
928
-1572
2468
304
-2340
5896
-4064
-1464
824
696
-56
-4268
8300
376
-8192
3116
768
68
-3052
3644
3784
-7028
3784
-3568
1592
-48
-1056
7908
-5116
-3980
560
2184
1044
-3140
6424
-1216
-7256
3440
492
1616
-2612
1316
3560
-6280
3636
528
-2992
1828
-3868
4932
2868
-6384
2936
88
-4692
1520
5392
2824
-6776
-4080
5028
844
-4404
6140
2868
-8232
-772
2444
5228
-4620
-3316
7544
-2852
-3064
1732
2892
-4784
-1624
5356
2292
-2128
-2564
-608
796
-656
924
5188
-4388
-3352
1780
904
1304
-592
1992
-1752
-3176
536
2824
2660
-5428
2456
-116
-4276
5408
548
-1176
-2620
-216
2736
2168
-1816
-3536
3360
-3492
-1248
8092
-2272
-2596
2388
-4092
-1160
3092
4480
-2076
-3720
1192
-3376
6576
-2256
-3908
7576
-4840
856
240
-1628
876
-3072
6992
304
-5756
144
-168
1244
-32
3456
780
-5960
1832
52
-1084
2196
-1404
4452
-3764
-3152
4508
-2520
1360
1036
-304
-1548
-232
2156
-252
-1408
-3248
5044
196
-2704
3040
-1548
-1248
-2888
3012
6080
-3104
-3736
-248
644
-1412
1488
5820
-1996
-3660
-1484
-412
4804
-2412
952
3352
-7940
2292
4260
-1664
-2388
-660
4636
-1996
-1960
2320
1056
-4148
-492
4764
4
64
-4280
-728
2184
-516
5256
-1248
-3460
-660
-3204
5844
1144
-4152
5248
-4416
-2540
4684
468
-1616
-4424
5392
1820
-3940
1864
636
-3552
-2584
7568
504
-3312
-300
-3184
2432
-788
3372
5680
-7224
-4376
1016
1692
3964
-1052
2216
-3092
-6952
6400
2812
-2412
-1132
1652
-24
-2552
2232
-232
1244
-4920
928
7308
-4528
352
-2696
1044
2224
-4276
7352
-1796
-6484
4008
-1652
372
2916
-400
908
-2452
-2872
1920
4392
-3676
-1836
6412
-6560
128
5948
-2204
-3232
-3544
7592
2068
-3632
-1472
-452
1116
-4488
7632
2020
-8380
3548
-1848
672
1660
-480
4748
-6056
-3056
5020
-648
648
-2876
2452
2504
-5172
2344
432
-636
-1520
1456
2960
-3276
340
-808
1296
-1260
-1848
5528
-1452
-284
-2464
-412
2572
-3408
5196
1252
-5416
-316
-1304
4068
436
-444
3620
-7476
188
2928
-548
1820
-2480
3792
-1716
-4988
6120
-2432
-932
-236
1400
5944
-8180
712
1580
-72
-1308
784
6720
-7628
-3484
6040
964
-2420
-1040
2804
-264
-1344
-20
-1552
2540
-2400
1672
4500
-5068
-1316
2492
-1340
-3520
5236
4020
-3980
-28
-4260
8
2472
736
5984
-4436
-4528
808
1028
2392
-1532
3216
32
-8408
3264
6324
-3596
-3988
3460
3784
-5960
3664
-1348
-1352
292
-3052
10092
-6384
36
2648
-6668
3796
-2500
5096
3920
-8236
436
900
112
180
1600
3024
-6804
-100
4640
-1596
-244
-1084
2060
-976
-592
3248
-4240
64
-684
3144
5188
-7900
-276
408
480
1432
-228
5720
-5396
-5668
5368
604
-2636
4072
592
-4708
112
504
3820
-320
-5320
4508
-184
-3868
4032
308
-1584
-3864
1656
6936
-3404
-844
-812
-2440
-264
1876
7848
-4912
-3804
2332
-4880
3324
1456
1832
3516
-6952
-3548
5464
2076
-5568
2600
3004
-4020
1548
364
1304
-4244
-4136
11632
88
-6736
1120
-2668
1180
0
3740
4912
-6716
-2524
-684
1452
64
4132
4252
-8592
-440
604
-616
3548
-360
1960
-2108
-4832
2744
4404
-2172
-3232
1612
2212
-1288
324
-136
-2648
-88
2628
3776
-3312
-576
-1624
-2276
2640
2536
3664
-5504
-2044
1616
-452
2596
-2124
2284
-1024
-3292
4156
68
-588
-2748
-1420
5528
-1072
-516
1184
-3332
-1204
-544
5736
3072
-5232
-2668
424
-340
-376
8016
20
-7528
-576
-1504
5804
-224
-2420
4388
-3724
-144
-336
880
-300
-3692
8476
-1660
-6216
4312
-2460
-248
2080
220
3512
-3268
-3624
1224
1152
-1076
1852
5508
-6232
-2720
2952
-1104
524
688
4168
-1800
-5300
516
2272
1800
-3340
1676
3240
-4196
-832
4368
-1296
-5132
3064
2596
-996
616
-2272
44
-184
-1856
5712
1072
-3776
-1856
-808
2544
-1880
3296
3624
-5196
-2664
-728
5300
-1416
-1188
5220
-5268
-1632
2408
1996
-2544
-2840
6228
-1672
-2680
3312
-1656
-1364
-1072
2596
2580
-1224
-336
-4692
1068
1744
560
6624
-6664
-2916
1896
-1476
4412
-1524
2480
-336
-5860
940
2240
2356
-1896
-1676
2384
-1192
808
2012
-4824
492
-216
4324
1144
-3836
-1232
-2492
4936
-252
2932
-1844
-4688
1228
928
3388
-4632
2320
3732
-7024
2272
2268
-2016
-1384
1028
4020
-1548
-2160
-224
-240
-1876
2312
4124
-1608
-412
-3328
-3264
5348
408
1572
2536
-7032
-1672
2476
2040
-256
1800
1716
-8128
2032
3392
-1184
1272
-4256
5500
-588
-5300
6956
-5060
-528
1136
1120
3088
-4116
-632
1080
2412
-4932
816
8304
-6892
-3168
5552
-1944
-132
-1976
4188
1548
-7224
3332
784
-400
540
-868
2068
-1428
-1576
1428
116
-4576
3468
5228
-1892
-808
-5368
1624
2160
-3064
6776
1232
-7320
-1156
1572
2668
904
-1032
1308
-3020
-3192
5520
2304
-6844
1608
6788
-6312
-996
1828
-476
1628
-1972
4208
-2108
-2280
1548
-2040
1296
-1944
3784
3660
-5508
-2272
2408
560
-2448
4344
2212
-6512
-912
3600
572
-1712
-308
3384
-2248
-1968
1984
756
44
-5124
5596
1832
-5436
4100
-3024
-740
-1584
3248
6920
-6068
-448
-3068
-188
2812
-504
5968
-4412
-3432
2456
-1968
2604
-1412
2792
1324
-6412
3516
-304
-672
-304
-520
5612
-4944
536
1860
-3800
304
-624
6872
-1040
-4728
40
564
1076
-3900
4604
4860
-5380
-4436
1736
4528
-3588
1708
3824
-6548
384
1896
820
708
-5108
5388
756
-4884
2692
-708
872
-3584
3728
3540
-5520
2164
-1212
-1612
-220
1576
4060
-1360
-2364
-1732
2300
-1256
-1308
4280
352
-1244
-3384
1056
1828
-3692
4816
848
-3036
2044
-3940
1680
-1376
300
9092
-6632
-3628
1452
-980
2152
-816
6236
-1304
-7180
1188
1384
60
-52
3920
-1528
-3748
792
924
1456
-2300
684
3388
-2156
-2340
900
1800
-2244
-1468
6240
-1924
-4632
3408
-528
-832
-1256
4176
3008
-4612
-3764
-356
4464
-2780
3936
3396
-7188
1400
-1632
728
2276
-368
1908
-2868
-456
-272
620
1356
-3404
3592
2948
-5996
1100
2160
-1340
-2192
1508
4308
-3280
-1100
-24
-1264
704
2692
3380
-4368
-1424
-2052
2364
3900
-5764
4256
304
-4112
2092
-452
1484
-972
-1768
3428
460
-3432
1500
968
-5672
3772
5348
-4480
916
-2492
-1896
4488
-2016
4920
-2456
-4000
2648
-3436
4696
-2772
1988
4772
-9368
2216
2712
292
-2028
-2020
6444
-3656
-2228
3388
-656
-904
-4112
6548
3248
-8788
3756
496
-3452
1428
2048
3344
-4284
-2740
2036
1640
-2344
1384
5320
-6256
-1068
176
2180
2644
-5456
3788
1116
-6244
4948
2260
-6564
1996
760
3128
-1092
-1172
-2080
-1040
2368
-12
7176
-5812
-5668
2460
736
2932
864
732
-2652
-4028
644
4032
2288
-4236
1112
148
-1168
492
-992
4868
-6116
-252
6864
-4432
1940
-1504
-548
-1892
-2132
9972
-3084
-4248
4296
-5908
188
3752
3264
1204
-8920
2560
1632
-3372
3836
1308
1492
-6440
1596
3600
-3536
1528
-4016
8024
-2336
-3364
3512
-5344
1044
-412
4696
4636
-6704
-2404
1688
-1132
-200
3700
3140
-4600
-3736
876
4168
740
-4032
3268
-772
-2700
3256
232
-2532
-3236
5972
980
-3644
2344
-2420
1072
-3208
1180
8608
-5020
-3196
-84
424
-312
-392
7196
-1644
-7316
1308
3332
112
-3396
3516
2500
-6792
2580
1828
-1116
-1968
-448
5500
-1468
-1760
-632
-416
-1728
676
7236
-1532
-5196
-1684
2208
-348
904
6020
-4900
-2484
944
-1144
3712
-2296
228
3292
-4192
620
1560
-2172
-528
2480
2156
-3496
1116
-148
-2504
1852
-1816
4936
540
-5328
1404
-508
548
-1540
5128
1440
-7508
1180
200
2772
-504
-1060
3904
-5360
-384
3296
-308
200
-4132
3852
1656
-4412
4316
-1112
-2808
-2192
3132
6808
-5104
-2520
992
-1612
40
3040
3224
-2888
-2520
-460
1108
-1264
2156
5260
-5224
-3892
1720
3648
-736
-3464
3468
748
-2668
988
1372
-2540
-3880
6240
3868
-5136
-656
-1532
616
188
1592
6576
-7128
-2828
1392
-756
6416
-5740
3208
3008
-9720
4388
2720
-876
-2648
-796
6520
-2708
-3528
2460
720
-4276
1092
6636
-1764
-3444
-808
-60
276
608
4748
-1764
-4312
1040
-336
1580
-1012
3264
292
-6852
4576
-64
-476
-880
-1444
6808
-4392
-428
2152
-3708
-472
240
5368
8
-3712
-424
-428
1620
-2256
2100
4276
-4368
-1924
1396
1172
-2196
188
5220
-4764
956
332
-1456
1688
-5360
9556
-2184
-6560
7328
-6040
72
1924
1596
5296
-6536
-3216
1156
2176
312
68
4948
-4756
-5916
4488
4436
-4264
-1220
4764
-3804
800
1952
-2924
2712
-4320
1956
5296
-6316
1108
2100
-1604
-1696
836
4600
-2744
612
-3868
340
2792
-1108
3420
-980
-2272
-2600
1224
596
2648
1928
-1144
-5588
1736
3496
-4128
1140
3132
320
-4872
2436
1184
-3944
3980
-1040
488
884
-1804
-236
-1236
-16
1500
4056
-932
-4508
-2884
3864
3784
-4504
3792
-292
-6476
4452
976
-1216
-516
-1040
3160
380
-2404
340
1924
-5200
-60
10080
-5664
-3720
2720
-1328
2388
-1048
1864
-720
-3260
1164
1996
-708
-1240
2016
868
-4788
3136
916
-1092
120
-4628
7364
-320
-3744
3304
-3920
-2224
3084
3444
724
-2064
-3412
308
1896
-2412
3680
3836
-6800
-152
2012
-224
-256
-1764
5912
-3184
-3884
3908
436
-1372
-3120
5408
-44
-2996
2864
-3632
600
-1684
3408
5168
-6280
-528
-552
-324
1076
1040
5448
-5040
-5188
4948
592
-1960
-144
3292
-1024
-3796
3276
-172
168
-1528
-340
3768
-2652
864
-1256
-900
-1204
1756
7956
-7044
-2808
2080
-1412
3524
-1312
3332
-2260
-6952
6980
780
-4948
3284
580
204
-48
-2040
824
-176
-1176
1208
3832
-3852
-2896
4304
-1384
-1416
3408
1884
-5256
-176
1980
-660
992
-2208
4784
-2008
-3668
2460
-1216
2780
-868
-924
1088
-516
-1240
1088
3176
-7248
-316
9920
-3764
-3188
400
72
2372
-4408
4052
3212
-6748
1064
1296
288
-1692
1476
3496
-5548
1884
1576
-2520
-948
1080
3804
-1932
-608
-456
-904
-2760
1372
8480
-2420
-3956
-3064
8
4188
-2388
5648
936
-9820
1752
2904
1996
-884
-2640
4520
-4536
-360
3864
-916
-224
-4324
3416
1780
-76
-240
-3084
932
-2500
5088
3000
-5076
-404
-1480
132
2928
1428
-220
-2920
-720
1572
276
-1272
424
2840
-1888
-1316
2216
-348
-4160
1376
5264
-3032
1048
-1212
-3748
3764
-2428
5588
1556
-8424
2112
-388
3104
-1116
-716
5436
-9108
1912
5216
-2848
136
-2280
1928
1436
-64
-840
-552
-456
-4436
5656
4232
-4748
1804
-4116
-1396
3116
412
4860
-3040
-4368
432
2464
-116
-2648
6600
-3184
-3344
2836
384
-500
-6052
9348
1032
-8592
5564
-2572
-1980
2508
1276
3820
-4096
-3952
3380
-1052
-1440
5260
504
-5228
664
1504
188
20
-3720
5252
496
-5220
4076
-876
-532
-2504
2332
2672
-3392
2992
-3268
596
100
-932
5028
-4272
28
760
-1524
1796
-1124
2192
1024
-2736
-1888
712
2072
-1080
500
2116
-1188
-1992
140
-128
-328
3424
-184
-3312
1088
608
-588
-1752
3072
2268
-5980
3172
-528
-1108
2288
-2688
5196
-5244
-1628
5536
-860
-2644
-1300
4144
-2240
4484
-3876
-3416
2316
-1644
6180
64
-5236
8
1744
-1740
4092
-1884
-2428
3064
-2824
3436
-96
-5432
3852
200
-384
2316
-2172
-1144
-760
1152
3012
-1812
692
-2448
-3160
6132
-1064
1300
-172
-5244
2600
400
1508
1316
-3372
-556
920
-100
2204
400
-3352
328
768
508
824
992
-3680
1280
-668
732
1696
-1572
1592
-4220
4144
-240
-1924
1408
-892
844
-2912
2232
3860
-4612
-252
1752
-1624
264
1932
-120
-1724
404
1080
-756
-940
-60
804
2076
-2088
-456
1076
-2624
2844
1688
-2684
-416
-688
552
2792
-984
-1536
768
-2508
2032
2948
-2228
-856
188
-1712
864
3776
-1924
-2044
2064
-2420
1448
2096
-3244
1940
-584
-900
1676
-1112
668
-1804
336
4556
-4064
-1124
3444
-3404
1916
1460
-2984
1540
-604
-1696
4184
-536
-4236
4248
-1652
-1672
3160
-1788
1192
-1916
-1488
5148
-1804
-1672
1100
-1480
1808
-600
1536
-1056
-4428
4580
1632
-2276
-584
-240
1572
-1996
1580
2776
-4244
-244
492
488
2540
-836
-2184
-2500
4024
1808
-3200
1736
-1108
-1696
1416
1344
728
-1700
-1708
420
2032
1200
-2704
492
776
-2064
3016
-64
-3260
1308
848
-300
1256
-124
-3536
188
4760
-932
-2168
916
-2248
964
2956
-2048
-284
24
-1228
2224
932
-436
-1008
-2928
960
1924
1200
1528
-2496
-3740
1388
3484
-8
-892
-680
-1304
1384
-536
200
2400
-3084
-624
2800
-576
-644
-1168
796
2248
-1848
-956
368
-148
528
1972
-292
-3220
1216
-12
-416
3496
-1608
-2944
520
1216
2024
-724
-2076
1076
-904
1356
588
-3148
1956
1136
-956
336
760
-3068
-876
5424
-1140
-3140
2128
-1976
1360
2712
-3884
1228
360
-1988
2172
-788
1320
-284
-3056
3220
-436
-776
956
-2164
1336
724
400
-264
-2600
988
168
1664
2156
-3012
-2536
180
4108
576
-4144
1672
-376
-576
1812
388
-424
-3008
2792
-64
-2876
5392
-2484
-3252
4564
-3080
-64
3840
-2888
-228
424
-76
1472
-1696
-388
1348
-1232
1264
436
-3020
2440
812
-2444
2212
-1592
20
2240
-2364
772
-876
-44
1888
-620
-184
-1340
1656
-8
-3336
4480
808
-4748
2544
-296
-772
124
8
3852
-3188
-2860
3956
-492
-1652
916
648
320
-2452
552
3220
-2312
-452
-16
-136
2948
-2924
-224
2160
-3600
2916
960
-2736
2552
-2540
772
2080
-3232
1848
1176
-4152
3108
-300
360
1552
-3816
2044
-1172
1496
-1864
2704
-724
-2720
3196
-2276
2824
-2132
-900
1628
-168
-76
-796
2852
-1976
-3400
3888
212
-1264
1092
-888
-184
-296
1364
-652
-488
1632
-1904
164
-40
-180
3164
-3016
-196
2032
-2696
788
1408
260
-1712
848
1384
-3156
588
248
964
3844
-4600
-2892
3388
-1032
4668
-2180
-2496
784
-2532
2464
880
3156
-4980
-480
3144
-1880
1276
-412
-1380
1388
-280
-1304
1260
328
1548
-1084
-3168
800
1800
1596
-452
-1828
-212
-1420
1864
2712
-3148
-460
2324
-1576
-148
1424
-1344
264
-84
312
1076
-1820
-656
1076
1600
-544
-584
-1808
-60
4036
-2420
-1036
2296
-1828
564
-52
-1292
2620
-1228
-1032
3028
-2204
-2336
3268
0
-1332
1944
-2876
536
3484
-3380
-604
1400
1008
436
-1956
-300
548
156
-1056
1460
2132
-2832
364
120
-1320
1332
-64
656
-980
456
1564
-4944
1532
5052
-2780
916
-2208
-3012
4160
872
324
-2016
-1996
2724
-316
928
832
-3476
608
2164
-1372
680
-136
-2080
2780
-1340
-1156
4956
-4112
-892
3216
-3124
1676
868
-1240
-212
-1696
2820
284
-1072
1720
-3004
-296
2504
540
-1692
-1120
1804
-320
-952
1252
432
-436
-1176
236
2036
-2540
-480
2916
224
-2032
-1172
2080
-1228
-628
4040
-1696
-2240
1192
-1268
1948
580
-2368
1296
536
-1740
360
2168
-532
-2156
1464
-588
-752
2180
-1204
864
-124
-2016
788
-144
1632
1120
-2856
528
-116
-652
2292
-1412
1036
-1304
-1268
3268
-1392
36
44
-796
268
-792
2412
-576
-1676
1748
-2284
1688
1280
-2588
1744
-2040
1260
2724
-3652
492
296
-1124
2296
892
-1928
-1876
2328
972
-2260
1240
32
-832
1696
-1800
-2540
4016
2424
-4104
76
2256
-3832
1652
2664
-2788
1484
-1572
64
3096
-3760
640
2032
-2332
2944
-1756
-2872
5184
-2640
-1104
3640
-3496
-400
2228
992
-1672
-2792
3784
2280
-3392
-1340
408
-544
2028
1884
-1320
-1292
-640
308
64
904
452
-332
964
-2272
-1864
2568
1204
504
72
-3876
96
1988
2468
516
-5688
2204
1528
-2344
1848
-1056
1316
1688
-2888
-24
-728
40
3252
-316
-2408
-1672
2448
744
-508
2576
-4832
-1144
5240
-1212
-876
-896
-544
3084
-1460
-1488
2296
-388
-2104
2012
-500
-1308
2780
-1612
-424
528
-1400
2824
-292
-4364
3884
1892
-3508
1740
-2504
-44
3376
-2084
792
1280
-2712
-648
3048
-976
-188
-1232
1536
-120
-1524
1996
-1876
2464
-1416
-16
-1604
1368
3184
-4236
184
1180
780
-440
-560
-1168
-108
3204
-344
-1180
-1048
-1680
2876
1952
-2316
-664
-1012
2220
556
-2884
2620
-932
668
808
-3808
1044
1780
1508
-1528
-2112
2700
-1868
512
1368
-3188
3472
-692
-788
2504
-4508
-1104
4040
944
260
-2596
1576
-3456
-1632
8200
-3244
708
-2352
-2860
4296
1188
-400
-1960
-2388
2916
2652
-2172
-444
-3316
1676
5296
-2884
-500
-792
-2900
5232
48
-4484
2756
1008
-272
-1652
-1512
2668
480
144
-212
-2428
856
840
-572
2240
-1984
-1476
2728
-796
-1740
2008
1408
-1688
-2700
1184
4176
-3500
-256
2200
-3600
3596
524
-4652
2624
876
-392
756
-2932
924
2660
-1400
-312
-984
-64
2468
-1052
-1860
1396
1700
-1944
-1500
2080
776
-1572
1088
316
-3244
1700
3356
-2228
-2820
512
3560
860
-4064
100
2092
-724
-156
-556
1776
248
-3548
2464
148
-3316
5584
336
-6304
1768
2628
732
-1428
-2660
2372
-20
-188
764
-1308
472
748
804
-3072
-616
6060
-3964
-2540
5644
-3948
-1768
4584
-264
-2556
968
2820
-5580
-1040
8796
-4184
-2736
4256
-5712
2312
4952
-5056
40
3308
-2284
-964
1168
-468
536
1872
-3304
-1808
7240
-3040
-5032
5228
-1672
-208
5004
-4928
-4320
5572
628
-3096
5456
-3200
-5156
8896
-5284
-4032
10088
-5148
-580
3060
-7432
6068
3064
-7184
3260
876
-2636
4640
-3656
-3648
9144
-4920
-4280
6560
-4388
5468
-216
-9088
9108
-3964
-1060
5424
-7964
8700
-3404
-6624
9736
-6608
5420
280
-10384
10708
-2620
-1528
3252
-7296
6924
-2264
-1032
4704
-7552
7308
-2060
-6808
7784
-1868
1260
148
-5892
2952
2176
808
-1552
-1796
2584
-324
-996
-1320
1668
1184
-2204
828
-220
2104
-36
-5440
1608
4148
296
-1216
-2772
-752
2856
704
-2544
2048
2304
-3324
-2572
156
3392
4148
-2592
-5988
748
4996
-492
-3048
1204
1820
-244
-2768
228
2676
-888
-532
-1904
1488
4064
-2420
-3980
580
2156
2224
512
-5172
716
4896
-4028
-696
2800
-2180
2820
-2156
-3136
7084
-2416
-3756
2828
-796
2044
-1356
-2688
3404
-488
616
-1012
-2196
3680
-1492
-288
1060
-2584
3712
-992
-4968
3960
2800
-1088
-2640
-1028
1624
1324
644
-2772
1020
2020
-2916
-1176
1624
2864
628
-4472
-1160
2552
2332
-80
-4376
1120
3788
-2576
-2988
2300
3100
-604
-3628
-160
6060
-3444
-6184
4768
4552
-528
-5128
-436
-8
4468
-584
-2712
2360
-2640
3656
-3576
-2136
5724
1384
-4456
-2024
1464
1080
4696
-4136
-3376
4296
-1672
116
644
204
1052
-3516
804
1096
1436
2148
-8200
2632
7116
-4992
-2572
464
4888
-684
-5220
3264
-856
500
3496
-5972
560
6264
-4384
-4684
4924
4380
-2452
-4592
-240
2148
3532
-1340
-6148
7996
-936
-6488
3564
1644
-2544
3800
-872
-7624
10884
-1404
-10988
7884
3932
-6136
3868
-3600
-4084
13552
-5932
-9500
10144
-1328
-1668
1960
-5532
6428
620
-8828
6316
2880
-4760
2240
-2560
-156
6868
-6668
-1444
5856
-5196
4428
-668
-5880
9240
-6580
-1384
7252
-6572
7004
-6504
-4188
14292
-9940
1236
1288
-6700
13084
-6904
-4280
7028
-4520
4200
-5524
1220
8160
-9332
2604
-700
-980
6984
-7464
944
4504
-3616
-628
-1000
4156
1884
-3952
-3208
1460
4348
-2768
216
916
-1044
1572
-3736
320
5064
-1388
-2064
-868
1024
1888
-3784
260
3908
148
-1152
-2340
-428
1316
1324
-328
-464
832
-296
-2200
-1456
5536
1400
-6804
24
5016
-528
-2020
120
-1144
1900
956
-2884
1308
2980
-3836
-2688
4984
1320
-2112
-1880
-448
2672
884
-2220
-1568
3276
1296
-4900
1144
3684
-2964
-432
-8
1428
3204
-4440
-2352
2552
880
2456
-2412
-2148
3520
-3092
-2388
5380
3028
-4420
-2932
380
1436
5332
-3712
-3976
5208
-1316
-3304
664
4412
1724
-6168
-1800
4440
1908
-2700
-712
2380
-1292
-1452
-808
628
6684
-4364
-6236
6940
48
-1424
-1220
-1280
5712
-2284
-5136
4020
2680
-3508
-1724
4248
672
-4152
644
180
2184
2252
-5756
-388
3004
356
1584
-3408
-1688
5064
-708
-3628
476
3632
780
-7308
2204
7812
-5952
-2376
3704
-708
340
-1808
1100
1712
-2052
560
-1748
1440
2988
-3156
-1608
2416
1796
-3820
-1200
6084
-2104
-3280
2220
-1860
2780
2056
-5036
596
3448
-2408
-3204
4360
3460
-6124
-404
2992
-1352
3468
-3444
-4112
9424
-2480
-9636
8644
3476
-7928
3400
1068
-3896
4776
-2716
-3152
9188
-4732
-6188
8428
-4020
-1180
6580
-7536
2668
5464
-9432
1744
7088
-5480
2428
-2156
-2540
8576
-8560
8
7948
-4308
-1452
2108
-4424
6216
-2156
-5972
11948
-9132
864
5572
-10560
11720
-3912
-6568
10812
-8896
4056
1244
-7088
12064
-8032
-3616
8224
-5072
4228
-3412
-1628
6568
-7252
2484
3472
-4148
2352
-2752
964
4336
-3828
-2544
1944
2704
-440
-1800
-880
904
1096
-1672
1716
1416
-3872
1556
-1976
3660
764
-5684
3992
-108
860
-1860
-1472
2336
684
-832
-380
-124
604
-1916
760
3868
-3376
-896
972
828
424
-3064
1628
3280
-2544
-3312
940
5232
-1208
-4356
3196
-208
-2872
1716
2096
-132
-1684
-2340
2052
2880
-1312
-1732
-1216
2124
1824
-3024
360
1180
-1952
2040
496
-1340
4
-812
752
852
1188
-1892
-2392
3100
-612
-1796
3048
1448
-2172
-3556
936
3868
568
-2356
-1912
1352
1388
-2640
1800
3720
-4660
-816
2268
-1028
856
-156
-536
1736
-1768
-1436
1896
512
176
-1312
-300
1864
356
-2616
-536
3524
-1720
-2324
3904
560
-3348
-612
268
3360
992
-5032
1532
1972
-2356
136
1304
2248
-4056
-2316
6904
-1588
-3500
1804
-476
1788
-644
-2408
2964
-372
-2972
1744
2228
-1812
452
-560
-1384
4252
-3704
-1964
5272
-1788
-444
-760
-312
3268
-4332
864
4804
-3964
-864
176
1364
800
-2672
3072
-1428
-1848
3688
-3960
1672
4688
-6808
-732
6548
-2484
-5252
5648
2916
-6824
2500
1160
-4740
5884
224
-5676
5256
-816
-6612
7004
3536
-8060
2588
1480
-4756
6648
-1760
-5112
7952
-4472
-4388
8768
-4512
-1060
4868
-5892
2312
2160
-4936
5932
-396
-7628
5736
108
-2332
5724
-5148
-1836
7132
-7672
1468
8040
-10572
4668
3236
-7568
7088
-5508
808
8952
-11640
3408
2552
-4080
7520
-8140
2824
3524
-8532
8192
-2372
-1856
4240
-6776
5456
228
-3412
3380
-5064
5460
-1144
-5396
8324
-3332
-3556
4344
-544
-1300
-52
436
188
64
-68
-516
1348
-2012
-436
3672
-1264
-1740
-200
540
1900
-1152
-1424
968
1468
-1512
-1588
2760
-12
-704
-504
-304
1360
-2708
1676
2880
-3660
440
1380
-804
384
-2516
1564
4980
-4332
-4640
4096
2924
-1172
-2512
3396
-4760
-664
6984
-2736
-88
-2504
92
1132
1764
-188
-2328
1056
-16
-972
1360
3180
-5412
-956
5692
-2920
-972
1616
-1244
1456
-308
-1840
2852
-580
-3268
2272
1620
-2260
1296
268
-1916
576
-436
2004
744
-2760
120
1192
-24
-772
1172
-76
-1644
592
-2584
4888
3460
-7944
-352
4204
-1180
-976
3056
-2260
256
-2772
2104
3184
-3192
1148
-1440
1060
-56
-2300
2916
1016
-3112
2288
-1436
-1476
3012
-1276
1212
128
-3084
1144
1660
-488
-1008
-636
2700
-712
-2132
1912
-672
-84
1320
-1220
-640
-180
-248
3140
332
-5272
2748
2116
-4276
4040
-904
-3184
4140
-1068
-2420
360
2388
1624
-4336
1812
1144
-4596
5028
184
-4336
2828
1056
-2496
-440
3164
-1640
-1320
3676
-2532
-2012
3384
-1344
-680
1428
-468
-1424
1644
2460
-4888
752
2836
-4076
4156
1268
-6168
4500
-304
-5472
6716
788
-6304
4628
-432
-4328
6052
-2060
-2216
4664
-5984
2104
4816
-7700
4136
2616
-6256
4232
524
-2920
2316
-2504
400
5484
-4332
-3412
5996
-3756
-1392
5820
-3664
2580
-3664
-2844
10744
-8756
1232
5292
-9736
8688
-3504
-1876
8860
-12600
5296
5792
-8352
5632
-3952
536
2576
-4448
7848
-4552
-3828
3640
-1216
4788
-4836
-1120
4716
-4368
2972
-680
-920
2100
-4900
3936
1124
-1920
1140
-4140
4080
808
-3832
4128
-2156
-2044
2948
576
-708
-2896
1408
2504
-804
-12
-2264
-208
1568
-64
2112
-656
-2184
-720
356
2132
-224
-228
436
-1976
-684
2256
184
-252
-848
-12
1404
-2332
676
3568
-2720
-3384
2228
3436
-980
-3460
1868
-52
-1492
2748
928
-1656
-2124
932
312
1112
1496
-4620
1092
4148
-3380
-28
1452
-560
-972
-888
2804
-360
-652
64
-2484
1780
1208
-736
1468
-980
-1812
-128
924
1788
-188
-1148
196
-1632
-436
2888
-180
112
-500
-1092
304
-1428
2572
976
-3496
2212
648
-2936
2680
-556
-2248
2504
768
-1800
-248
1020
256
-492
-1396
808
1336
-828
528
-692
-204
828
-2836
3204
2144
-5192
2652
-196
-2944
3048
2184
-2256
-1060
1048
-3356
5356
-1864
-1936
3000
-2464
1276
-416
904
-1732
140
1876
-1724
1572
348
-4336
2196
3660
-3308
-512
1620
-416
-1692
2040
2356
-4964
292
3740
-2164
-1496
1572
2028
-1284
-2620
2172
336
-1328
1472
8
-760
-636
-784
1932
1640
-2828
-792
2424
-372
-1844
1800
1816
-5592
3468
3560
-9196
9292
-3220
-6488
10584
-4124
-2920
3772
-1132
-3392
5108
204
-5892
5108
-1316
-3120
8308
-6376
-2564
6308
-6480
6184
2016
-9640
5312
1144
-2660
3268
-1640
-1096
760
-2032
2368
4352
-6748
320
4300
-6056
6284
-2420
-3424
7200
-7344
4180
712
-4280
7364
-9488
4892
4524
-11296
10392
-3320
-3040
6756
-7896
5800
-2104
-3904
9204
-6556
484
2452
-4004
3784
-2648
704
2724
-2820
884
-256
-1992
1552
3452
-1540
-3500
144
288
3376
-252
-1688
1940
-3928
1284
1032
-1712
3536
-1832
-96
1264
-3360
-64
3200
1416
-2460
-316
-644
-2720
4560
2804
-3376
-2100
372
1600
92
-512
568
1096
-2488
-1132
3520
-972
-1708
2428
-1836
-656
2508
-752
-72
96
-1696
468
1660
-1128
232
284
-2296
3168
1296
-3620
76
-648
1776
2160
-664
-1660
-2820
2600
1280
-1224
1728
-1780
-804
1224
-748
1604
-212
-1712
1144
124
-460
-492
132
1600
-1620
400
1216
-1508
0
-1192
2172
1768
-2952
328
308
-2008
1524
2508
-804
-1340
-1280
464
1528
-2040
2056
2368
-3336
-1192
-468
1932
1708
-1060
1344
-3740
-520
3508
-2792
3416
-412
-2736
3156
-4292
808
3336
-2212
2660
-732
-4328
1232
2260
316
584
-120
-3184
-1680
4784
1164
-2900
168
-16
280
-360
-92
2048
-2152
-1344
4760
-3228
-2412
6036
-3496
-2900
4600
-436
-1804
232
2228
-1044
-3868
4344
528
-4476
4116
1500
-5528
424
4776
-1380
-2076
2256
-2944
-604
5352
-3356
-604
2968
-4256
1444
3476
-2444
-2916
2140
2944
-5964
3820
5036
-9160
4376
232
-6320
10088
-1516
-7964
6644
-1476
-3612
7016
-3572
-3228
5676
-3492
-420
5512
-7396
884
7276
-7156
2412
1440
-5644
5104
760
-3580
4268
-3244
-3432
9276
-7616
1652
4560
-8284
5644
-392
-524
3040
-7488
2720
5768
-7572
4404
112
-2224
3952
-8156
6760
976
-6552
9212
-7816
636
6424
-9260
7748
-1116
-6428
7520
-3592
956
1000
-4468
4344
-144
-752
336
-1428
768
-1616
2028
1972
-2984
668
132
-1568
1436
604
-28
-72
-1004
-428
664
1708
-2792
2248
-64
-2088
1500
-336
720
-2224
2620
-304
-1096
-552
344
2220
-2408
972
808
-2532
1460
460
-184
120
-616
784
-2344
1316
1316
-472
1856
-3312
-504
2040
-704
1656
-1864
36
1232
-3072
3188
1072
-3012
736
-404
692
1044
-1096
-688
1776
-644
-2072
1736
-676
708
1728
-1436
-1148
-648
1480
984
-1112
664
-1384
-16
1104
-1232
2376
-44
-2580
-436
1440
1644
-1632
940
-500
-3660
4000
1556
-3212
1224
448
-2048
200
3152
-992
-1552
-740
352
3208
-3176
128
2672
-2908
548
280
-204
2120
-1288
-1836
536
1512
-468
-140
708
-2132
1176
1300
-996
816
-2344
-876
4544
-1344
-1600
1100
-2232
1408
2160
-1340
332
-1092
-2248
3868
-468
-2304
2740
-1596
-844
3024
-1384
-2960
3548
1004
-3548
792
1024
124
-728
-1032
2484
-972
-116
908
-2388
1536
-164
-136
988
-1864
1044
492
-564
696
-1204
-696
2040
-64
-1108
1972
-1656
-3712
4516
2120
-5216
3292
716
-4948
5172
-96
-4976
4828
-76
-6692
7612
1440
-9688
7972
628
-7772
7684
-1404
-4844
6764
-3976
-2272
5864
-3188
-340
2628
-4352
1596
4320
-6132
2020
2868
-5584
6304
-1016
-7756
8512
-2388
-3436
8644
-8132
592
5588
-8152
7280
-412
-7992
9240
-4048
-832
4508
-8176
8252
-1944
-5204
8820
-9316
4052
3112
-7704
10884
-6204
-3568
6652
-6484
5612
-1648
-1864
5784
-7856
3580
-92
-2228
7148
-6364
48
3996
-5564
2464
3028
-1912
196
-3372
1040
3904
-2508
-148
1248
196
-2768
-1088
5612
-2020
-2236
2760
-2264
212
-552
1084
3936
-4984
-652
3560
-2820
228
1996
-1676
252
1800
-1452
-1428
1092
1024
-828
-500
284
460
1016
-2132
792
1592
-3880
2344
1552
-2132
2612
-2504
-1108
812
-404
4792
-2496
-3400
2344
-960
992
1140
-736
-128
-1088
-416
756
1448
-792
-604
928
-772
452
-1036
640
1364
-3292
2744
636
-2304
1368
-2132
2756
904
-3360
2036
-1948
40
3900
-2084
-1456
304
100
1180
420
-1844
236
1868
-1396
-1316
1568
-664
1976
-1148
-1872
4368
-6168
3200
2584
-3104
32
-928
3400
-1700
-368
444
-616
-172
776
424
-220
-912
-1440
2988
956
-3172
544
616
-1056
2020
-96
-540
304
-3928
2592
3744
-3028
-64
408
-2264
400
3068
992
-2504
-2468
2540
-592
-868
5128
-3280
-4428
5172
-364
-2868
4152
-1688
-1956
364
1944
536
-1728
128
-232
732
-3892
6852
-1752
-4252
6316
-5252
-1528
5468
-644
-3432
1660
1972
-4004
1056
4308
-4200
608
1608
-3672
2544
3008
-4520
-612
5204
-4600
-572
5932
-6700
1712
5100
-7992
4856
3048
-8632
4896
2852
-7024
4528
3904
-7716
2344
3128
-5832
6520
-1104
-5876
6812
-5428
1108
7124
-6888
784
1052
-4332
4944
1200
-3652
2552
-1132
-2496
2744
-548
1868
1056
-7000
4208
1148
-3460
5884
-4596
324
2224
-5320
6748
-2048
-2780
5100
-6756
3188
2144
-3248
4056
-3784
708
200
-1564
4332
-2600
1596
-1060
-4880
5040
-176
840
1020
-4504
1648
836
-980
168
952
1948
-3184
260
548
-1744
2432
-68
372
-808
-1804
2092
468
-2584
1372
2140
-2312
220
240
-1108
1752
-124
184
336
-4660
2348
4960
-3664
-492
568
-1752
1468
1048
-132
76
-1588
-740
840
1216
676
-1848
1868
176
-5908
4404
2568
-4696
4000
100
-3332
-208
-140
4604
-1980
-2732
3284
-2612
780
1540
-2632
3200
-804
-3188
2228
976
-1244
-488
2740
-2176
-1660
3472
-2164
108
1192
-1492
2248
-1916
-828
2600
-2352
1532
808
-4128
3380
1252
-3188
1080
1108
-544
-1140
1004
1072
-2360
-756
2888
644
-1732
-120
-648
8
1912
-1608
556
1932
-3444
1080
1464
-1984
412
1032
-180
-1148
1176
240
-1172
1764
-2252
-1104
4916
-2624
-1528
1580
-692
2420
-2372
-1516
2216
684
-32
-1924
876
412
-1964
2464
1280
-1904
-2272
944
2392
-2288
2968
-584
-5092
5980
-1064
-4900
5652
-1540
-1908
4492
-4240
-1008
4540
-3924
1340
3260
-3768
52
-220
424
2332
-2120
936
-212
-2460
2940
-1012
-312
1248
-956
1264
-1292
-1100
312
1420
1208
-1904
1832
-2848
-2544
5668
-1220
1556
-1172
-6072
5880
124
268
700
-5932
4612
-184
-1256
2876
-2868
1320
-2008
988
2572
-3936
3668
-672
-3548
2356
-488
1860
-380
-1968
628
664
812
-3136
2424
1496
-3864
3564
-1088
-1744
1512
-2268
2552
1240
-472
-1328
-2556
2808
-760
-156
3800
-1388
-4396
440
2384
676
1216
-536
-3724
-476
4676
-4444
5572
108
-7868
5404
-3084
2904
3636
-5124
-492
344
380
1144
-228
1540
-180
-5164
2932
1348
-1704
4640
-4180
-1896
2852
-1536
2240
-676
-672
1372
-4088
4040
1588
-5900
3180
896
-760
-304
-820
2344
-2756
1620
3160
-5728
568
1116
1576
2964
-5836
544
344
572
2452
-776
-356
-2452
-1928
5380
1016
-5656
4484
-1992
-1104
3248
-2444
-360
536
472
1580
-408
-3364
784
2684
-1492
1116
-1464
-1216
3432
-1200
-1680
1032
316
-400
740
-324
-2292
2948
2080
-5860
2328
2144
-2688
2072
-2020
1652
952
-4096
2664
608
-812
304
-644
1024
-1212
1636
-1252
-1940
4220
-3628
2260
2700
-7784
4476
1556
-4508
5460
-72
-5440
2356
2396
-4148
1856
2828
-3012
1268
-1028
-1916
3896
-1232
-1356
2940
-1264
-2924
864
2868
-2168
1648
1108
-4280
1884
-460
88
3532
-2464
-1448
568
-876
1244
1744
-260
-1864
168
-1488
-768
6460
-2224
-4316
4436
-2628
-1252
4132
-2336
184
1480
-3412
1592
2020
-1860
632
-380
-1024
1208
-416
644
1348
-3412
544
3064
-3688
1944
2244
-4036
1356
56
-732
2628
-2228
344
1808
-3064
1068
-976
1632
2316
-4224
2764
-1784
-2084
5616
-3188
-684
1568
-1944
2376
204
-1496
-1304
1056
1908
-2468
1372
624
-2544
2396
-140
-1624
1416
-764
256
1004
-2548
672
2784
-1776
-152
1044
-3220
2388
892
-2636
4260
-3868
-1040
5800
-4324
-1420
2064
644
920
-1188
-268
-1820
980
3112
-2604
264
304
-2260
3012
-20
-1932
1640
-920
-596
2436
-1820
-1952
2824
-340
228
1308
-4588
1904
3908
-6576
3808
4156
-8556
4628
808
-4836
6896
-3004
-2912
4448
-3412
1164
2036
-4260
2636
2292
-2420
-860
-700
1648
704
-424
1064
-2216
-1396
1704
1500
1024
-3016
-1052
4152
-2848
-544
3912
-4248
-160
3584
-2272
-172
2204
-1608
-2616
3392
840
-3688
3504
-996
-3012
3508
-64
-208
-908
-2452
3784
620
-2756
384
188
1444
-536
-908
588
-932
1820
-488
-3420
3996
144
-2588
3868
-3808
-1924
6304
-3348
-1160
3232
-2968
1392
812
-1780
-1000
408
4252
-2124
-1924
2092
-3052
1396
992
68
2604
-4712
64
1520
-144
2216
-3572
2272
1728
-6316
3416
2432
-2056
1740
-3544
228
5068
-3996
-1736
5460
-4940
-1292
5968
-1964
580
-2728
-904
3680
-4476
5952
-1024
-6584
7560
-3876
-808
2464
1048
-764
-3412
1972
-392
1496
2000
-4020
-1428
4800
-3352
2060
728
-3672
3468
-1688
-1320
2344
1804
-2852
-2356
3696
-872
-1076
2420
-740
-872
-1360
2136
588
-2456
1284
-1520
2624
492
-3536
3516
-1256
-3152
3452
528
-720
-1180
436
236
-2924
6668
-2248
-4564
6900
-6384
-1556
6452
-12
-900
-2148
-1804
2232
1012
-1272
2544
-1600
-2272
1088
3740
-3660
-1592
4556
-3608
1192
1056
-2276
2112
116
-884
-252
644
-1716
800
2932
-3648
-124
3248
-2288
276
424
-1592
2664
-572
-2408
2752
-1644
-904
3172
-2604
1800
-1224
-2024
5288
-4052
-312
4368
-4708
1032
1924
-2484
2624
-876
-3132
1676
2416
332
-232
-2676
-3152
5696
80
-2532
4072
-5348
-120
3816
-1144
2540
-4604
-444
4076
-3656
3296
-268
-3512
3728
-1820
-784
1684
660
-664
-4372
5048
2140
-6652
4712
-696
-3844
5896
-3692
-968
5068
-4372
1456
600
-4392
5256
-504
-2448
2736
-3352
904
3652
-3184
-1288
2904
-1560
-664
3792
-3588
-1576
5004
-3708
-672
5308
-3484
-2736
2888
1420
-2920
752
3392
-3436
-888
180
1264
3996
-4040
-2964
2160
1264
712
716
76
-6188
1384
7592
-5072
560
2072
-7504
5108
4020
-5360
2852
-1396
-3032
4504
-724
-1460
2068
-1272
-1656
1596
-296
936
1416
-4396
2116
2384
-4732
3304
852
-4192
4128
-196
-3412
1616
-244
2888
-360
-4276
2436
-532
-64
2316
-2268
1428
-412
-3248
3460
216
-1848
2864
-1552
-2156
1568
232
8
584
-412
-64
-964
-604
3804
-1932
-2316
3400
-2824
936
2720
-3784
184
1884
192
-864
-272
604
-1032
172
1392
352
-2120
-604
2688
-1456
76
1968
-2568
-92
580
800
452
-2048
1736
-32
-1180
-204
-560
3532
-1692
-2016
3488
-2496
-1460
2060
60
2040
-1204
-3876
2492
1696
-2908
3044
312
-3348
2120
-2224
1416
2900
-5448
3576
1732
-4440
2444
-728
-1096
2688
-696
-1384
524
-32
1416
-1492
-1856
4676
-2760
-2220
5608
-4344
528
2672
-4864
4120
-640
-2176
4168
-4692
2100
1980
-5388
4560
788
-3600
2648
-1676
-156
2708
-4012
2156
2952
-5720
2580
2112
-4276
3648
-1008
-2344
3656
-1840
300
1388
-2832
-116
1676
608
-1100
1908
-1716
-2016
3012
-2280
1632
2152
-3064
808
-908
-1084
1144
2520
1512
-4460
-1732
2180
1340
396
-780
-204
-400
-140
-1508
3116
748
-2892
2060
-2948
1024
1140
64
2328
-2464
-5620
6200
2236
-4908
3712
-2620
76
876
-780
908
-552
1016
-1876
1208
1308
-3652
2900
52
-1556
2084
-2636
1828
-100
-2572
2764
664
-444
-868
-968
648
288
-108
856
-240
-1468
1472
828
-2436
360
1300
-528
572
124
96
-2288
-1240
3996
2376
-3924
-3364
6868
-4952
160
5216
-5212
2040
-544
-408
44
140
2936
-3364
-804
3092
-3740
3328
820
-4208
4316
-3800
-152
5420
-4964
1892
-184
-1716
3588
-3960
992
2172
-1220
1032
-2396
348
1836
-1620
932
832
-1688
-228
1216
-904
-8
1936
-540
-1852
372
348
-60
1024
-1096
552
688
-3036
3800
-920
-3540
6208
-5020
-1224
6140
-4348
1532
-600
148
1760
-6560
5884
2080
-5180
4780
-5352
-2020
9632
-4020
-2884
3072
-2912
744
2340
-1164
-1004
1664
-568
-1684
2172
-2548
972
2900
-1432
216
-3468
1044
3744
-2608
1084
-244
-2700
2660
-1384
1084
2744
-4196
776
696
-2644
3640
1596
-4020
348
1288
-1948
1240
1660
4
-1792
-1280
1464
1020
-688
-492
1964
-1832
-2208
2664
784
-1376
2256
-2148
-2620
5376
-3176
-1456
6088
-5688
-408
4604
-3396
1372
40
-1676
2224
-2764
2244
2300
-6116
3788
1120
-5180
5520
436
-3824
504
-420
3068
-1312
-2168
3784
-1980
-1268
1656
-1144
40
-156
2136
152
-492
-1728
-3040
5764
-1276
-3012
5908
-4484
-1224
4112
-4036
2028
2028
-2236
972
-1504
-2132
2076
4580
-3676
-1368
2988
-4728
3620
888
-3752
4168
-2564
612
840
-3292
4468
-2492
-512
3580
-4944
1788
2636
-2852
1340
-1728
860
1864
-4192
3888
2200
-7048
2208
3428
-2584
1100
-172
-800
92
-804
1032
584
1208
-1004
-2920
1132
1024
500
1360
-896
-2784
-292
2748
1224
-1272
-1240
-228
-268
1832
2072
-4316
-604
4748
-3188
-212
1744
-2388
2888
-1316
-1328
1632
-964
2028
-1620
-1080
1832
-1288
1780
-1800
-44
2792
-4600
2444
2908
-4316
700
1836
-892
-1168
536
1240
-784
680
-996
-516
1408
-44
-928
-1128
2816
-956
-1496
3200
-3040
-536
2504
-648
496
-1456
-384
1112
-60
608
-904
1156
-524
-4108
4140
2700
-2704
-1564
-512
1364
2184
-1552
-1572
2208
-2168
-64
3444
-1932
-1620
1224
1704
-1536
-2728
2608
1784
-1116
-156
-1228
-524
1792
-1304
1144
1392
-2952
1804
-544
-1476
1504
-668
2132
216
-1624
-3776
3384
-436
1624
3664
-7008
2436
-1944
360
3880
-3572
2252
2868
-7420
-48
6864
-3612
572
1228
-3224
1776
-1328
1176
3908
-6092
916
3992
-5500
3004
2032
-2348
464
-1984
932
1572
144
156
-1932
40
-640
956
3064
-1528
-1376
-1096
-692
3496
200
-2880
1936
-792
-440
508
-392
2816
-3632
1020
-812
760
2176
-3424
3556
-1232
-3904
3168
292
-1340
5080
-4984
-3120
7504
-3960
-2528
6208
-3176
-1808
2952
-2816
2784
56
-3616
4808
-3448
-1260
6468
-7052
3040
2280
-7652
9584
-3308
-5384
8864
-8492
2640
7916
-10684
2972
4180
-5716
3288
-256
-1300
2300
-2504
1756
-788
-792
2852
-4196
2104
2728
-5080
3824
624
-6460
5784
1360
-5020
4324
-2884
-984
4664
-5116
2860
1076
-4536
8148
-6524
-3924
10236
-8848
5044
5448
-13432
6684
776
-1212
5876
-9592
3244
1740
-3572
10172
-8500
-3832
8520
-8168
6964
3632
-10548
5680
-4072
-408
10944
-7820
-744
2932
-8136
7636
2520
-7444
6552
-3424
-1632
4856
-6732
5212
1108
-7328
10020
-2424
-9244
6732
-588
1436
3044
-5828
2620
-2528
-3080
8868
-1576
-4484
2976
-4384
2312
6828
-9216
3656
2844
-7404
6680
-3684
28
5360
-9556
8740
1308
-10780
8128
-4396
3052
5756
-12684
7604
516
-7328
11468
-4116
-5536
4044
-3032
3956
2488
-5680
2620
-1480
-1504
7028
-6264
-1424
6024
-6856
6396
1936
-10304
7696
-1936
-2736
8816
-10148
1384
6880
-7724
7316
-876
-9048
6912
240
-828
2576
-6608
2836
2860
-2688
4280
-4588
-468
3068
-6380
8464
-152
-9132
9056
-4172
-400
7504
-12484
5680
3044
-8472
13660
-6184
-8316
11296
-7812
3080
6516
-13328
8924
1092
-9832
13036
-5852
-4308
7860
-8340
7764
-1204
-9612
13192
-7960
212
11876
-17304
6260
5056
-11612
14372
-3996
-7320
7500
-8124
8212
3732
-13132
6716
-904
-1924
9864
-9700
64
6588
-10440
9396
1588
-10860
9020
-6080
1200
10392
-13448
5244
2672
-9128
12124
-6368
-4588
9532
-7464
4800
2040
-8736
6240
-700
-5224
8080
-468
-6652
5140
-2960
-364
7004
-7348
2052
552
-5376
9652
-5116
-992
5440
-10840
10556
216
-10272
10292
-9036
4324
8968
-13520
7336
-2680
-5152
11948
-7688
684
5096
-10252
7276
2856
-9712
6704
1152
-3376
2544
-5812
4148
4268
-7188
6596
-2276
-7448
8812
-4612
3240
4004
-11720
7768
-740
-3540
9640
-9648
1088
4272
-7096
7080
440
-5412
3628
-264
-4396
7980
-5396
-2216
5844
-6504
9532
-3908
-8328
10108
-7380
4664
7752
-16728
9020
1180
-7940
13340
-8508
-760
4652
-9856
11532
-3084
-8132
14920
-9304
-3012
9300
-9776
5124
1900
-7124
9320
-4652
-3672
7824
-9188
6676
6148
-14604
6052
724
-2284
10436
-10540
-372
4032
-7280
13996
-7148
-7100
11616
-10020
4020
8972
-12304
1284
4948
-6152
8012
-2144
-6368
7128
-5940
2736
7452
-12068
5384
2524
-9528
11716
-3728
-5836
9208
-8116
3260
5948
-10300
4848
-1060
-1140
8144
-9268
1572
2008
-4416
11120
-5928
-5988
7016
-8300
4988
9152
-9880
1940
-2192
-1384
9364
-10152
3024
8184
-13176
6564
3284
-9828
9028
-2824
-2156
9672
-12556
-456
9836
-7264
7532
-1780
-10620
10920
-5244
-412
9972
-12152
4500
1924
-7756
12300
-5984
-3756
5696
-7864
8856
-452
-7044
7692
-5872
904
4792
-5472
3084
-2200
-1584
8236
-4640
-5092
3908
-596
3176
2040
-8036
2344
2096
-3812
7508
-2592
-3548
1872
-5980
10096
-24
-9884
8896
-5248
324
6500
-8728
7872
-2744
-8780
11356
-5452
1256
6760
-11640
6940
1972
-11328
9460
1644
-5472
4720
-5316
728
5320
-5880
4716
424
-6836
4600
-2540
3552
4212
-12220
6960
4420
-9988
8232
-3076
-3920
8704
-9160
5260
7024
-13860
4548
2956
-4484
6924
-5880
592
6420
-9552
5344
1628
-6356
6996
-4764
104
5344
-7532
3432
1712
-3072
6324
-5416
-2368
5096
-7376
6668
4404
-9160
5356
-3500
-2076
9416
-7976
704
3388
-4684
8332
-8084
-2676
11916
-10792
4776
4900
-12168
8252
-3484
-1376
13856
-13200
-4080
11224
-8228
5268
2448
-9976
9176
-4280
-3580
11112
-5780
-2964
488
-1180
6636
-3888
400
2140
-7744
7444
-1328
-4112
9544
-9784
1080
7568
-10632
7800
340
-8368
12416
-7268
-6644
12312
-6668
1328
5524
-9572
5452
-964
-5408
10200
-4868
-3888
7960
-5572
1504
2000
-7260
8240
-1300
-5304
6264
-5644
2148
3672
-6240
7196
-2336
-6156
6668
-4136
2384
2668
-6884
6808
-3828
-2748
10388
-8588
-1692
5804
-6068
8016
-64
-11092
7896
212
-3308
5708
-4196
-220
32
-2336
8952
-5784
-5440
10720
-7448
2120
4228
-12748
11036
-144
-6136
11092
-9488
804
3084
-9928
14700
-4808
-8212
14776
-12332
912
9456
-10280
6160
-2908
-2664
8064
-6768
2580
360
-5588
9576
-2892
-7200
8736
-4556
-2328
8472
-7580
2040
3276
-6028
8604
-7268
-5276
13996
-11408
5852
7604
-20564
15928
-2924
-8096
16984
-12524
188
3300
-8820
13232
-1504
-8232
8164
-8380
2804
6284
-9384
8128
-2796
-6664
11836
-5348
-2884
5396
-7664
5120
2512
-7092
7424
-3204
-1180
4900
-9836
7248
2420
-10632
13404
-3348
-12640
14464
-5240
-3424
12832
-14076
2576
6408
-10952
13292
-2172
-12644
10364
-1908
616
5116
-12436
7788
-1572
-2380
10480
-10676
3360
236
-5544
9948
-5164
-3156
7068
-6528
3092
5004
-8628
2680
232
-2696
7984
-4900
-992
4152
-8916
7548
2884
-10164
7772
-3520
-16
8004
-12416
7336
1596
-10184
12380
-6720
-2468
8972
-10128
6744
4380
-12760
7784
972
-6456
8268
-5016
-1724
6048
-7864
6508
4116
-11712
6884
-860
-4728
9064
-7200
4156
1284
-10380
11984
-5316
-1720
8864
-11744
7068
420
-9216
11352
-4836
80
6368
-10112
3600
-1132
-3212
12256
-3944
-5196
672
-3824
7592
-176
-5272
7496
-7244
-2756
11532
-8696
2324
5088
-10612
9448
-2980
-8700
12904
-5700
48
7136
-12652
5552
4072
-7332
8936
-6804
-2784
9684
-9764
7484
3272
-14848
10500
-1656
-4320
12672
-9932
-1524
4364
-6240
9748
-1804
-7528
5080
-4208
4232
6232
-10904
3352
2264
-6436
10744
-6024
-4888
9640
-10792
7440
6884
-14232
7788
-3708
-360
9940
-15052
9064
4900
-15100
11760
-3252
-4192
12268
-10780
152
7508
-10108
4908
4368
-6144
3396
-2672
-648
4200
-3716
2948
880
-4048
1604
-2260
3148
4012
-8468
1464
4036
-3908
5168
-1996
-2156
2196
-7056
9704
1224
-11372
8232
-3540
780
7272
-12512
7464
3220
-10760
11520
-7124
-3568
11256
-10660
8668
2156
-14820
9992
-2096
-696
8804
-10048
2844
528
-6924
10856
-2692
-4088
6692
-8760
1860
6456
-7392
6836
384
-9528
7112
-1672
-508
3420
-7824
8276
404
-8352
6892
-2344
1324
1328
-7444
6820
-2352
-1304
9036
-11036
2188
4044
-7924
12644
-4144
-10508
10228
-4404
1000
8500
-12748
2552
6292
-8012
7644
-1700
-4508
5312
-9388
9312
5800
-15980
10852
-1916
-9988
14820
-5136
-1800
4064
-9332
8824
508
-5252
3200
-7032
7132
3972
-9808
8184
-2524
-7016
11160
-5604
-1588
6068
-11176
8044
5036
-12500
9024
1028
-7132
7224
-6252
-1100
7188
-4592
3896
-1788
-4908
5252
-4288
4032
3984
-9516
6248
-1668
-4152
9192
-7856
3096
3672
-11840
11344
-2600
-5596
11764
-10860
3328
4032
-10604
11708
-3136
-7640
9344
-3404
1288
-1528
-4832
10344
-2916
-6108
3932
-2264
1812
6812
-10408
3400
2332
-8656
14204
-5644
-7128
7524
-5144
5332
944
-8496
6536
-1228
-840
4592
-7448
4384
-596
-4396
12200
-8736
-4820
9128
-8276
6496
3776
-11652
7268
356
-3696
7456
-8736
424
6704
-8128
7916
-88
-8572
5924
-2172
4384
236
-9232
8304
-2960
-3052
10092
-8088
1644
240
-4616
10740
-4996
-9184
9512
-124
-1048
5852
-12696
5168
4032
-7984
9644
-2620
-4932
3580
-3960
7728
48
-9984
6020
-1804
-92
6512
-7828
3672
2340
-10604
10396
2056
-8388
4156
-4148
4440
1840
-8176
8648
-1992
-4752
6484
-5040
3392
-1504
-6624
13120
-5876
-3652
7812
-10712
7464
2004
-10836
13120
-5108
-5324
10360
-11700
5976
5908
-12692
11956
-2296
-11320
9408
-1272
2668
1972
-8316
3964
-1216
-580
5824
-5412
868
1208
-4728
7668
-2088
-4440
5880
-5052
888
3532
-6912
7000
-172
-7724
12148
-7500
-5484
12952
-11404
3896
8256
-13528
6388
-940
-1056
9648
-13104
3960
3904
-10260
14580
-3788
-8288
6160
-6100
9096
424
-9584
6620
-4776
1836
7580
-9896
4320
3656
-10880
7720
992
-4436
5472
-8308
5712
7048
-14108
7684
1096
-8008
10704
-7860
2192
5988
-11652
9048
-980
-5840
7152
-5848
4528
2228
-10644
8576
652
-6232
6912
-5556
-328
6916
-6456
4100
1224
-9232
6052
1400
-372
3604
-11072
3440
6700
-6612
7556
-1804
-6472
3956
-4172
4448
4216
-7196
1108
400
1152
5124
-8916
240
8296
-7656
2676
724
-6460
11800
-5016
-4488
10400
-13700
1384
9884
-3768
5600
-10728
-640
9720
-10840
10328
1636
-10940
5276
-6480
7128
6976
-10800
5104
-4264
-1272
8908
-10172
4304
3072
-7268
9640
-5672
-2796
9568
-11456
4252
7436
-13032
7332
816
-5464
11284
-10984
-808
11248
-12480
7576
2096
-10336
12100
-9580
-2364
15304
-11604
1360
4292
-7648
7752
-5272
-2084
9340
-7144
2312
2088
-6008
6084
-5348
-2164
11516
-6688
-1780
3544
-4360
5176
-2696
-2604
4508
-4260
3072
1724
-3924
4252
-5920
1444
8416
-9452
1968
144
-3224
10376
-7344
-2224
7264
-6860
3916
416
-7156
8824
-2484
-3948
8664
-6436
-712
992
-6388
14148
-1360
-12704
9476
-4240
-1008
8000
-8632
6380
-2216
-10188
16656
-3872
-8380
7132
-6192
6120
1948
-8476
4916
-940
2096
-396
-6484
8852
-2500
-5072
10356
-8260
-3424
8376
-7316
8380
2380
-12340
4408
-1516
4676
4660
-13168
7728
1996
-5848
5896
-6184
3444
1504
-5500
5132
1500
-6768
5420
-112
-3060
4492
-7628
5300
2644
-6668
4744
-3092
1860
5344
-10308
5332
4540
-9824
4840
-4008
4856
8268
-16228
7980
1676
-8048
12568
-10100
756
7304
-14680
11368
5596
-10196
7056
-8324
-652
11540
-10456
948
6840
-3660
1812
-3112
-4804
7324
-1348
596
3208
-7828
1572
2036
-1588
7488
-1916
-11172
7420
-1856
640
6712
-9272
5768
-1284
-5396
9504
-7052
984
3536
-8312
10056
-1428
-6744
4748
-3084
5588
-868
-8028
7620
-1800
-920
3332
-6556
5860
-1748
-3400
8808
-7932
804
4788
-9584
10164
2620
-14964
7508
1772
416
6628
-15372
5844
6164
-11628
12424
-3000
-3784
5236
-14160
11700
8000
-13740
6096
-5348
764
10000
-10032
5404
-972
-6740
7316
-4496
3316
4088
-9860
6000
1984
-7032
5996
-3848
-544
9092
-8348
-808
3540
-4448
8364
-5436
-5820
12168
-7444
1344
3632
-10360
11692
-4740
-6280
14752
-10712
-2320
6052
-4044
10564
-8160
-8472
13536
-4744
-2040
1552
-4412
12568
-6468
-9136
12900
-5152
-2224
2608
-5768
11884
-3024
-10748
9888
-5456
3496
5724
-14248
8716
1432
-5024
9620
-11048
1400
5700
-10808
13776
684
-13116
6340
-4740
7384
6804
-16656
6352
3720
-6852
8332
-6188
-1628
8432
-7924
4652
2288
-8584
7624
-6756
668
12844
-12476
-388
1400
-824
11856
-11396
-1836
10180
-11160
5196
920
-6612
13436
-11192
-1896
13876
-12672
4152
912
-9288
16332
-4512
-10848
8096
-5024
9064
760
-14756
10592
-1100
-2728
7284
-8196
4808
988
-9772
10684
-1256
-6648
4284
-2468
8104
-1564
-11440
9244
-3464
1292
7696
-15188
7808
4732
-11536
12896
-6440
-4228
11552
-14580
8860
6576
-15008
8800
-3644
40
10084
-12052
1928
3756
-4076
5512
-5728
3132
4144
-10436
6720
560
-5396
7380
-5616
720
6448
-7368
1336
-260
-180
8912
-9064
-6444
10748
-3524
3784
916
-11884
10300
-1512
-4252
8844
-7876
4200
-1552
-10236
17308
-4464
-7504
8492
-8916
8904
-800
-12468
14372
-3780
-2496
5372
-11648
10532
1088
-12244
13096
-4272
-3456
7868
-9920
5948
2380
-7652
6264
-6744
4536
9544
-14992
4252
3988
-7256
9464
-7128
276
9208
-14476
7108
5240
-11204
10028
-4632
-2888
12292
-11492
-2076
4924
-2532
9376
-5768
-6088
6448
-3568
4584
-2272
-5948
12144
-6180
-4552
9112
-8672
4080
1724
-8416
11524
-4524
-1852
7308
-14548
8992
5196
-10996
8620
-3816
1008
-320
-7472
10180
2388
-7096
4832
-4884
-1956
8448
-10404
5212
7304
-8388
1980
-3760
2172
7624
-8180
-272
696
1420
6400
-10508
724
7184
-5960
4572
-2356
-5004
9968
-6556
-3148
13108
-9376
-3572
6360
-6224
8108
304
-8728
4824
-4020
6284
5516
-15276
8744
2216
-10500
9704
-6380
6240
2448
-12032
10356
-4144
-828
5604
-8408
4148
4736
-7616
2664
-2740
3284
8260
-11912
60
4104
-3196
6976
-2164
-6360
4936
-1976
664
1924
-4088
7240
-6056
-4636
12500
-6396
-1304
2084
-5744
10868
-6944
-3900
9592
-10540
10124
1476
-16044
15168
-3000
-6284
9272
-11440
8284
4796
-15556
11544
1804
-8560
7680
-7000
2436
7224
-10272
4064
-564
-1848
8952
-8584
232
3124
-5068
9776
-6732
-4272
11732
-10596
2472
5508
-9252
10256
-7124
-3836
15244
-12424
2164
4592
-12208
14604
-3576
-10728
13552
-7608
2988
5064
-14756
11336
1224
-6876
8460
-11224
3832
7996
-10848
9912
-4704
-3780
9744
-14472
8276
7952
-12684
7976
-7188
-612
15500
-14232
-832
7304
-7624
9008
-1632
-8424
7884
-3344
1204
1792
-7844
9424
-1624
-6920
9904
-6232
-488
4372
-8316
11944
-2400
-12428
9540
-5096
7612
6200
-16356
5544
-1036
824
10184
-13156
708
6516
-5716
6148
-2192
-4100
5116
-4460
2272
2680
-6108
6044
-2056
-6508
10328
-1436
-5880
2676
-2340
5776
-948
-6844
6532
-2016
88
304
-2212
5820
-7700
1676
9064
-11932
3912
6884
-11424
7192
2540
-8256
5108
-5148
1984
11708
-10752
-1252
2280
-4968
12576
-7320
-5756
9872
-8548
7800
-328
-10744
12724
-6964
856
7164
-14884
11024
2048
-10996
11000
-4860
324
3096
-9988
9596
-1280
-3164
6592
-10172
6460
4740
-12264
6752
1244
-3232
6212
-9004
2156
8820
-9080
4480
-1240
-6320
9308
-5824
1224
7540
-10672
4332
556
-6508
11532
-3784
-4180
2308
-6928
11404
1232
-11096
5968
-3056
2108
7016
-12796
3608
7080
-6608
5084
-4752
-1852
6748
-6196
5288
-440
-7760
10292
-6228
-1352
10108
-10732
4748
-472
-8156
13720
-5660
-1484
4440
-11348
12720
-436
-11780
10760
-5424
1772
6004
-13556
10508
976
-10368
13704
-8268
-3052
9140
-9884
7108
900
-8288
10168
-6044
-2448
9548
-8836
2156
1380
-4560
10536
-5780
-5176
5828
-4588
6428
-1280
-8208
9188
-1916
-908
3312
-9260
4920
2872
-3604
6864
-7124
-1024
5092
-6108
6356
-304
-4052
5644
-7620
-1404
13016
-9408
-936
5844
-7752
11072
-7316
-5096
9252
-7520
6872
1924
-9208
6944
-5068
-140
8604
-9304
3692
1652
-4476
5976
-6444
2844
4292
-9256
8384
-2604
-5704
11028
-9336
180
10304
-8712
512
716
-1848
6612
-5408
-3344
7008
-2548
972
2036
-7148
2876
1028
1164
3232
-8744
3636
3652
-7292
9324
-1728
-10480
12408
-8404
456
9336
-8992
4756
-4396
-120
7812
-8524
2876
668
-5376
12044
-5968
-7216
8112
-3536
4188
-704
-7912
7756
-1496
-1676
5268
-6460
1040
4060
-5792
5656
496
-8480
6300
-1768
1308
5280
-10288
4472
1428
-3828
7140
-7448
1024
4340
-6456
9948
-3040
-10072
7428
-2484
3580
5140
-10124
1816
3288
-3648
3040
792
-1940
-816
-668
2152
580
160
-308
-2852
1764
44
-156
3184
-5584
1024
5376
-4988
1848
-1528
-1644
8768
-6744
-3504
4800
-3824
8340
-2704
-8380
8904
-4860
620
6292
-9316
3752
3116
-5588
7292
-5764
-2488
9192
-8956
2660
4532
-6420
6000
-3536
-2500
6092
-5688
2344
1724
-2692
4532
-5512
-996
4380
-2764
4092
2912
-6628
-4364
1688
3864
4836
-2300
-4768
3984
-2924
-3056
4776
-1108
3184
-1160
-2816
4860
-8900
20
9224
-1064
2120
-9472
1144
7564
-11912
10356
3844
-9540
5828
-9148
5968
7324
-14568
11164
-1892
-8204
13508
-7028
-104
1024
-10988
14624
548
-9580
7788
-3084
356
-1420
-4752
9020
-2296
-3408
5716
-2372
-1180
-3884
692
8532
-4252
-1828
2908
-5320
1844
3760
-2928
1892
-2612
-1772
9616
-5080
-7216
4640
-1844
7168
1288
-9224
5768
-4960
-1140
8740
-6588
3600
-2020
-2996
12140
-12944
-2444
11600
-6456
3728
-2820
-1968
8152
-10308
1436
6792
-3664
2864
-6384
3500
3664
-8916
6844
-236
-2984
4432
-3552
2764
-2956
-6260
9888
2168
-5488
1600
-2968
560
4296
-4452
740
992
-2752
6728
52
-5532
-1708
-2504
8288
2984
-8620
4416
152
-6372
5500
-840
0
2620
-5036
6232
-1512
-10604
9708
992
-4132
5592
-4556
1892
-1780
-4928
8872
-2108
-1056
820
-5132
8288
-924
-9252
5592
660
-648
4828
-3172
-1444
-2328
-2704
8696
748
-7704
4512
1976
-4628
-816
1452
3580
-2812
-576
4016
-2868
-1944
-1904
3132
4152
-3956
1108
392
-3556
1900
-1120
500
5616
-6748
-864
10148
-7992
-3884
5828
-5184
7756
668
-8856
9180
-8112
-2552
12836
-8260
3100
-664
-7728
15196
-13044
-680
11896
-10288
8132
-4804
-1560
5236
-10424
6260
7068
-9140
1872
4404
-2224
-2624
-2460
2576
2672
-712
1600
1696
-6264
-2200
2316
2228
5672
-5776
-2988
5024
-3548
2968
-2704
-1176
7320
-9500
6120
5764
-14152
5288
188
1524
8456
-13028
4112
4660
-12616
9048
2064
-6388
9448
-7044
1056
3908
-12584
9560
1984
-4064
4396
-2456
-280
-2468
-3544
9508
136
-6392
2944
-3396
4972
-672
-5716
8860
-6832
-1444
9624
-6536
1144
-3092
-2836
12120
-7004
-2544
7808
-6768
820
-116
-2392
6508
-2968
460
3360
-5900
136
-1312
2144
6684
-6112
-1304
4040
-4356
1140
1536
-3092
6440
-3132
-5828
10224
-5332
-6104
8232
-2540
3444
-276
-6696
6608
-6008
-368
8712
-5424
2156
-3184
304
7040
-11348
3732
4288
-6444
8848
-3900
-3460
6144
-9632
4424
7112
-7868
2172
436
252
1580
-6704
3396
3252
-3716
6180
-2916
-6808
3980
-2544
7480
3736
-13976
6896
2552
-8748
7232
-1776
-824
5012
-4796
2208
-768
-3828
2076
-952
5484
-872
-5688
7272
-4544
-5832
10428
-3736
-2772
5456
-6260
5580
-48
-8476
9024
-3088
-1124
6364
-8080
3340
-2060
-3500
12872
-6688
-4184
5880
-6224
5328
-748
-5912
8124
-2784
-1084
3536
-3660
-480
-2408
3096
6812
-7744
-1868
6596
-4236
964
968
-4816
6628
-3100
-2900
11532
-10940
-3904
11060
-7616
4876
2036
-7544
7628
-7484
-1384
10564
-6748
1780
368
-2016
4768
-9056
2908
5856
-5772
5796
-2660
-2660
4708
-9280
6752
5116
-10848
7328
-524
-2496
5304
-9776
3596
4384
-5068
8500
-4772
-4680
1776
-2464
9948
-3804
-5072
6836
-6432
1008
4220
-5148
3324
0
-2532
6448
-1812
-8060
1432
4464
2464
-1260
-3660
3284
-1416
-3480
5480
-2296
-656
2240
-4628
9560
-5292
-10744
14872
-5184
-1956
8476
-11220
6900
-1952
-9200
16692
-5744
-6264
7468
-4300
4136
-5992
-2748
11700
-8152
2172
6936
-9076
260
-2104
2276
7468
-7280
1584
3092
-5424
2296
-1248
244
3084
-4136
2196
4792
-5832
-2608
2364
-288
4844
-2548
-2064
5428
-7908
-72
5560
-3200
4328
-2820
1124
3632
-13796
5388
7164
-4392
6880
-5724
-3304
2240
-3784
6956
-800
-3172
3144
-2164
2100
-824
-6308
3692
6164
-3084
-1424
1908
-4364
-916
2884
3408
1508
-8032
4808
1608
-10356
9844
-204
-3740
5772
-9212
7408
5228
-16804
10200
36
-5944
13672
-11320
5188
-1132
-11584
15364
-3940
-4228
7828
-7080
4368
-748
-9976
11760
-1240
-2608
5812
-7140
264
-2680
1848
12268
-8868
-4896
4844
-2760
3524
-1008
-3928
5776
-2444
-2292
8716
-5468
-7100
6364
-864
2924
-1316
-4768
9936
-7388
-3324
10068
-8428
1924
980
-1844
12504
-16584
-40
12780
-13456
12420
-2172
-7152
7216
-12728
8364
8648
-11824
8084
-3680
-4676
8208
-9972
6744
3804
-10208
10600
-2836
-5584
5448
-8000
6556
5644
-11200
8120
1496
-10752
4456
2036
1272
-300
-5056
8628
-1488
-11524
7076
1992
-548
4904
-5540
804
-3448
-4848
12256
-1652
-2196
1252
-7908
10420
-3076
-10976
15124
-4248
-3880
9360
-10152
3164
-756
-6172
14040
-4696
-5536
6176
-4804
2448
-1228
-2800
8300
-5144
-2048
7896
-6940
-2408
2816
-1132
9256
-6680
-5964
11572
-9912
2388
6536
-11144
11080
-6328
-3928
16232
-16160
608
8720
