
[2019-09-20 13:30:40.194] Update D:0145 O:0000  seq:23771 to RREQ History[31]
[2019-09-20 13:30:40.194] Add D:0000 O:013B  seq:1852 to RREQ History[9]
[2019-09-20 13:30:40.194] >> holley_send_heartbeat(20)
[2019-09-20 13:30:40.194] 
[2019-09-20 13:30:40.194]       68 0e 0e 68 5a 99 99 06 82 05 55 30 00 aa aa 00 
[2019-09-20 13:30:40.194]       01 00 77 16 
[2019-09-20 13:30:40.194] 
[2019-09-20 13:30:41.629] Add D:013B O:0003  seq:13092 to RREQ History[10]
[2019-09-20 13:30:41.769] Add Neighbor Table Fail(BlackList 0x0003)
[2019-09-20 13:30:41.847] C BLH[2]0003 == 0003
[2019-09-20 13:30:41.847] get_link_cost() addr 0x0003 in BLH
[2019-09-20 13:30:41.972] C BLH[2]0003 == 0003
[2019-09-20 13:30:41.972] get_link_cost() addr 0x0003 in BLH
[2019-09-20 13:30:42.019] C BLH[2]0003 == 0003
[2019-09-20 13:30:42.019] get_link_cost() addr 0x0003 in BLH
[2019-09-20 13:30:42.081] C BLH[2]0003 == 0003
[2019-09-20 13:30:42.081] get_link_cost() addr 0x0003 in BLH
[2019-09-20 13:30:42.144] C BLH[2]0003 == 0003
[2019-09-20 13:30:42.144] get_link_cost() addr 0x0003 in BLH
[2019-09-20 13:30:42.300] C BLH[2]0003 == 0003
[2019-09-20 13:30:42.300] get_link_cost() addr 0x0003 in BLH
[2019-09-20 13:30:42.471] C BLH[2]0003 == 0003
[2019-09-20 13:30:42.471] get_link_cost() addr 0x0003 in BLH
[2019-09-20 13:30:42.518] C BLH[2]0003 == 0003
[2019-09-20 13:30:42.534] get_link_cost() addr 0x0003 in BLH
[2019-09-20 13:30:42.612] C BLH[2]0003 == 0003
[2019-09-20 13:30:42.627] get_link_cost() addr 0x0003 in BLH
[2019-09-20 13:30:47.697] 
[2019-09-20 13:30:47.697] vt# 
[2019-09-20 13:30:47.885] vt# Add Neighbor Table Fail(BlackList 0x0003)
[2019-09-20 13:31:01.628] Drop RREQ(BlackList 0x0003)
[2019-09-20 13:31:03.391] Update D:0000 O:01A7  seq:1322 to RREQ History[26]
[2019-09-20 13:31:11.144] Add Neighbor Table Fail(BlackList 0x0003)
[2019-09-20 13:31:11.144] Drop RREQ(BlackList 0x0003)
[2019-09-20 13:31:12.439] Update D:013B O:0000  seq:23772 to RREQ History[8]
[2019-09-20 13:31:13.313] Add Neighbor Table Fail(BlackList 0x0003)
[2019-09-20 13:31:13.313] Drop RREQ(BlackList 0x0003)
[2019-09-20 13:31:16.620] Add Neighbor Table Fail(BlackList 0x0003)
[2019-09-20 13:31:18.944] Update D:0000 O:013B  seq:1853 to RREQ History[9]
[2019-09-20 13:31:19.989] Add Neighbor Table Fail(BlackList 0x0003)
[2019-09-20 13:31:19.989] Drop RREQ(BlackList 0x0003)
[2019-09-20 13:31:27.587] Add Neighbor Table Fail(BlackList 0x0003)
[2019-09-20 13:31:27.587] Drop RREQ(BlackList 0x0003)
[2019-09-20 13:31:29.053] Add D:013B O:00AE  seq:03 to RREQ History[11]
[2019-09-20 13:31:30.551] Add D:0000 O:00BB  seq:1697 to RREQ History[12]
[2019-09-20 13:31:39.209] Add Neighbor Table Fail(BlackList 0x0003)
[2019-09-20 13:31:39.209] Drop RREQ(BlackList 0x0003)
[2019-09-20 13:31:39.318] Add Neighbor Table Fail(BlackList 0x0003)
[2019-09-20 13:31:39.614] Add D:00AE O:013B  seq:1854 to RREQ History[13]
[2019-09-20 13:31:39.879] C BLH[2]0003 == 0003
[2019-09-20 13:31:39.879] get_link_cost() addr 0x0003 in BLH
[2019-09-20 13:31:39.942] C BLH[2]0003 == 0003
[2019-09-20 13:31:39.942] get_link_cost() addr 0x0003 in BLH
[2019-09-20 13:31:39.957] C BLH[2]0003 == 0003
[2019-09-20 13:31:39.957] get_link_cost() addr 0x0003 in BLH
[2019-09-20 13:31:39.973] C BLH[2]0003 == 0003
[2019-09-20 13:31:39.989] get_link_cost() addr 0x0003 in BLH
[2019-09-20 13:31:40.004] C BLH[2]0003 == 0003
[2019-09-20 13:31:40.004] get_link_cost() addr 0x0003 in BLH
[2019-09-20 13:31:40.082] C BLH[2]0003 == 0003
[2019-09-20 13:31:40.082] get_link_cost() addr 0x0003 in BLH
[2019-09-20 13:31:40.113] C BLH[2]0003 == 0003
[2019-09-20 13:31:40.113] get_link_cost() addr 0x0003 in BLH
[2019-09-20 13:31:40.129] C BLH[2]0003 == 0003
[2019-09-20 13:31:40.145] get_link_cost() addr 0x0003 in BLH
[2019-09-20 13:31:40.160] C BLH[2]0003 == 0003
[2019-09-20 13:31:40.176] get_link_cost() addr 0x0003 in BLH
[2019-09-20 13:31:40.191] C BLH[2]0003 == 0003
[2019-09-20 13:31:40.191] get_link_cost() addr 0x0003 in BLH
[2019-09-20 13:31:46.338] Add Neighbor Table Fail(BlackList 0x0003)
[2019-09-20 13:31:46.338] Drop RREQ(BlackList 0x0003)
[2019-09-20 13:31:46.665] Add Neighbor Table Fail(BlackList 0x0003)
[2019-09-20 13:31:46.665] Drop RREQ(BlackList 0x0003)
[2019-09-20 13:31:48.974] Add Neighbor Table Fail(BlackList 0x0003)
[2019-09-20 13:31:49.380] Add D:013B O:0057  seq:271 to RREQ History[14]
[2019-09-20 13:31:49.692] C BLH[2]0003 == 0003
[2019-09-20 13:31:49.692] get_link_cost() addr 0x0003 in BLH
[2019-09-20 13:31:49.848] C BLH[2]0003 == 0003
[2019-09-20 13:31:49.848] get_link_cost() addr 0x0003 in BLH
[2019-09-20 13:31:49.895] C BLH[2]0003 == 0003
[2019-09-20 13:31:49.895] get_link_cost() addr 0x0003 in BLH
[2019-09-20 13:31:49.910] C BLH[2]0003 == 0003
[2019-09-20 13:31:49.910] get_link_cost() addr 0x0003 in BLH
[2019-09-20 13:31:49.910] C BLH[2]0003 == 0003
[2019-09-20 13:31:49.926] get_link_cost() addr 0x0003 in BLH
[2019-09-20 13:31:50.004] C BLH[2]0003 == 0003
[2019-09-20 13:31:50.019] get_link_cost() addr 0x0003 in BLH
[2019-09-20 13:31:50.035] C BLH[2]0003 == 0003
[2019-09-20 13:31:50.035] get_link_cost() addr 0x0003 in BLH
[2019-09-20 13:31:50.144] C BLH[2]0003 == 0003
[2019-09-20 13:31:50.144] get_link_cost() addr 0x0003 in BLH
[2019-09-20 13:31:50.160] C BLH[2]0003 == 0003
[2019-09-20 13:31:50.160] get_link_cost() addr 0x0003 in BLH
[2019-09-20 13:31:50.207] C BLH[2]0003 == 0003
[2019-09-20 13:31:50.207] get_link_cost() addr 0x0003 in BLH
[2019-09-20 13:31:50.238] C BLH[2]0003 == 0003
[2019-09-20 13:31:50.253] get_link_cost() addr 0x0003 in BLH
[2019-09-20 13:31:50.269] C BLH[2]0003 == 0003
[2019-09-20 13:31:50.269] get_link_cost() addr 0x0003 in BLH
[2019-09-20 13:31:50.285] C BLH[2]0003 == 0003
[2019-09-20 13:31:50.285] get_link_cost() addr 0x0003 in BLH
[2019-09-20 13:31:50.300] C BLH[2]0003 == 0003
[2019-09-20 13:31:50.300] get_link_cost() addr 0x0003 in BLH
[2019-09-20 13:31:50.331] C BLH[2]0003 == 0003
[2019-09-20 13:31:50.331] get_link_cost() addr 0x0003 in BLH
[2019-09-20 13:31:50.472] C BLH[2]0003 == 0003
[2019-09-20 13:31:50.472] get_link_cost() addr 0x0003 in BLH
[2019-09-20 13:31:50.503] Add Neighbor Table Fail(BlackList 0x0003)
[2019-09-20 13:31:50.503] Drop RREQ(BlackList 0x0003)
[2019-09-20 13:31:50.534] C BLH[2]0003 == 0003
[2019-09-20 13:31:50.534] get_link_cost() addr 0x0003 in BLH
[2019-09-20 13:31:50.675] C BLH[2]0003 == 0003
[2019-09-20 13:31:50.675] get_link_cost() addr 0x0003 in BLH
[2019-09-20 13:31:56.540] Add D:0057 O:013B  seq:1855 to RREQ History[15]
[2019-09-20 13:31:59.333] Add Neighbor Table Fail(BlackList 0x0003)
[2019-09-20 13:31:59.333] Drop RREQ(BlackList 0x0003)
[2019-09-20 13:32:01.080] Update D:013B O:0000  seq:23773 to RREQ History[8]
[2019-09-20 13:32:04.590] Add D:0000 O:00F5  seq:390 to RREQ History[16]
[2019-09-20 13:32:10.580] Update D:013B O:0003  seq:13093 to RREQ History[10]
[2019-09-20 13:32:13.092] Add D:0000 O:013C  seq:711 to RREQ History[17]
[2019-09-20 13:32:15.588] Update D:0000 O:013B  seq:1856 to RREQ History[9]
[2019-09-20 13:32:17.101] Add D:0003 O:013B  seq:1857 to RREQ History[18]
[2019-09-20 13:32:20.642] Add D:013C O:0000  seq:23774 to RREQ History[19]
[2019-09-20 13:32:20.892] Add Neighbor Table Fail(BlackList 0x0003)
[2019-09-20 13:32:20.892] Drop RREQ(BlackList 0x0003)
[2019-09-20 13:32:21.344] Add Neighbor Table Fail(BlackList 0x0003)
[2019-09-20 13:32:26.445] Add Neighbor Table Fail(BlackList 0x0003)
[2019-09-20 13:32:26.461] Drop RREQ(BlackList 0x0003)
[2019-09-20 13:32:27.740] Add Neighbor Table Fail(BlackList 0x0003)
[2019-09-20 13:32:28.193] Add D:0000 O:019F  seq:916 to RREQ History[20]
[2019-09-20 13:32:32.795] Add Neighbor Table Fail(BlackList 0x0003)
[2019-09-20 13:32:32.795] Drop RREQ(BlackList 0x0003)
[2019-09-20 13:32:40.938] Add Neighbor Table Fail(BlackList 0x0003)
[2019-09-20 13:32:41.063] C BLH[2]0003 == 0003
[2019-09-20 13:32:41.063] get_link_cost() addr 0x0003 in BLH
[2019-09-20 13:32:41.499] C BLH[2]0003 == 0003
[2019-09-20 13:32:41.515] get_link_cost() addr 0x0003 in BLH
[2019-09-20 13:32:41.577] C BLH[2]0003 == 0003
[2019-09-20 13:32:41.593] get_link_cost() addr 0x0003 in BLH
[2019-09-20 13:32:41.609] C BLH[2]0003 == 0003
[2019-09-20 13:32:41.609] get_link_cost() addr 0x0003 in BLH
[2019-09-20 13:32:41.671] C BLH[2]0003 == 0003
[2019-09-20 13:32:41.671] get_link_cost() addr 0x0003 in BLH
[2019-09-20 13:32:41.780] C BLH[2]0003 == 0003
[2019-09-20 13:32:41.780] get_link_cost() addr 0x0003 in BLH
[2019-09-20 13:32:41.796] C BLH[2]0003 == 0003
[2019-09-20 13:32:41.796] get_link_cost() addr 0x0003 in BLH
[2019-09-20 13:32:41.843] C BLH[2]0003 == 0003
[2019-09-20 13:32:41.843] get_link_cost() addr 0x0003 in BLH
[2019-09-20 13:32:44.105] 
[2019-09-20 13:32:44.105] vt# 
[2019-09-20 13:32:44.323] vt# 
[2019-09-20 13:32:44.510] vt# Update D:0000 O:013B  seq:1858 to RREQ History[9]
[2019-09-20 13:32:49.315] Add Neighbor Table Fail(BlackList 0x0003)
[2019-09-20 13:32:49.331] Drop RREQ(BlackList 0x0003)
[2019-09-20 13:32:53.496] 
[2019-09-20 13:32:53.496] Send ToneMap Response(0000), Mod D-0 0xFFFFFF
[2019-09-20 13:32:55.992] Add D:013B O:001D  seq:342 to RREQ History[21]
[2019-09-20 13:32:56.507] Update D:013B O:0000  seq:23775 to RREQ History[8]
[2019-09-20 13:32:57.302] Add Neighbor Table Fail(BlackList 0x0003)
[2019-09-20 13:33:00.001] Update D:0000 O:01A7  seq:1323 to RREQ History[26]
[2019-09-20 13:33:05.851] C BLH[1]0000 == 0000
[2019-09-20 13:33:05.851] get_link_cost() addr 0x0000 in BLH
[2019-09-20 13:33:05.898] C BLH[1]0000 == 0000
[2019-09-20 13:33:05.898] get_link_cost() addr 0x0000 in BLH
[2019-09-20 13:33:05.945] C BLH[1]0000 == 0000
[2019-09-20 13:33:05.945] get_link_cost() addr 0x0000 in BLH
[2019-09-20 13:33:05.960] C BLH[1]0000 == 0000
[2019-09-20 13:33:05.960] get_link_cost() addr 0x0000 in BLH
[2019-09-20 13:33:05.991] C BLH[1]0000 == 0000
[2019-09-20 13:33:05.991] get_link_cost() addr 0x0000 in BLH
[2019-09-20 13:33:06.023] C BLH[1]0000 == 0000
[2019-09-20 13:33:06.023] get_link_cost() addr 0x0000 in BLH
[2019-09-20 13:33:06.069] C BLH[1]0000 == 0000
[2019-09-20 13:33:06.085] get_link_cost() addr 0x0000 in BLH
[2019-09-20 13:33:06.132] C BLH[1]0000 == 0000
[2019-09-20 13:33:06.132] get_link_cost() addr 0x0000 in BLH
[2019-09-20 13:33:06.132] C BLH[1]0000 == 0000
[2019-09-20 13:33:06.132] get_link_cost() addr 0x0000 in BLH
[2019-09-20 13:33:06.194] Add Neighbor Table Fail(BlackList 0x0003)
[2019-09-20 13:33:06.194] Drop RREQ(BlackList 0x0003)
[2019-09-20 13:33:11.795] Update D:01A7 O:0000  seq:23776 to RREQ History[25]
[2019-09-20 13:33:18.050] Add Neighbor Table Fail(BlackList 0x0003)
[2019-09-20 13:33:18.050] Drop RREQ(BlackList 0x0003)
[2019-09-20 13:33:18.362] Update D:0000 O:00A6  seq:1548 to RREQ History[2]
[2019-09-20 13:33:23.401] Add Neighbor Table Fail(BlackList 0x0003)
[2019-09-20 13:33:23.401] Drop RREQ(BlackList 0x0003)
[2019-09-20 13:33:30.093] 
[2019-09-20 13:33:30.093] Receive beacon_request
[2019-09-20 13:33:30.093]     ->form: 565114FFFE020000
[2019-09-20 13:33:33.432] Add D:0000 O:00A9  seq:742 to RREQ History[22]
[2019-09-20 13:33:36.443] Add D:01A3 O:0000  seq:23777 to RREQ History[23]
[2019-09-20 13:33:40.405] >> holley_send_heartbeat(20)
[2019-09-20 13:33:40.405] 
[2019-09-20 13:33:40.405]       68 0e 0e 68 5a 99 99 06 82 05 55 30 00 aa aa 00 
[2019-09-20 13:33:40.405]       01 00 77 16 
[2019-09-20 13:33:40.405] 
[2019-09-20 13:33:41.263] Add Neighbor Table Fail(BlackList 0x0003)
[2019-09-20 13:33:41.949] Add D:00A9 O:0000  seq:23778 to RREQ History[24]
[2019-09-20 13:33:43.151] Send Beacon (RC_COORD 0x119)
[2019-09-20 13:33:43.946] Add D:0000 O:01A3  seq:2136 to RREQ History[25]
[2019-09-20 13:33:44.258] 
[2019-09-20 13:33:44.258] vt# 
[2019-09-20 13:33:44.508] vt# 
[2019-09-20 13:33:48.923] vt# Update D:0000 O:00E1  seq:323 to RREQ History[0]
[2019-09-20 13:33:52.963] Add D:01A3 O:0089  seq:429 to RREQ History[26]
[2019-09-20 13:33:56.239] Add Neighbor Table Fail(BlackList 0x0003)
[2019-09-20 13:33:56.255] Drop RREQ(BlackList 0x0003)
[2019-09-20 13:33:58.049] Del 0003 from BlackList[2]
[2019-09-20 13:34:02.994] C BLH[2]0003 == 0003
[2019-09-20 13:34:02.994] get_link_cost() addr 0x0003 in BLH
[2019-09-20 13:34:04.601] C BLH[1]0000 == 0000
[2019-09-20 13:34:04.601] get_link_cost() addr 0x0000 in BLH
[2019-09-20 13:34:04.741] C BLH[1]0000 == 0000
[2019-09-20 13:34:04.741] get_link_cost() addr 0x0000 in BLH
[2019-09-20 13:34:04.803] C BLH[1]0000 == 0000
[2019-09-20 13:34:04.803] get_link_cost() addr 0x0000 in BLH
[2019-09-20 13:34:04.897] C BLH[1]0000 == 0000
[2019-09-20 13:34:04.913] get_link_cost() addr 0x0000 in BLH
[2019-09-20 13:34:05.115] C BLH[1]0000 == 0000
[2019-09-20 13:34:05.115] get_link_cost() addr 0x0000 in BLH
[2019-09-20 13:34:05.147] C BLH[1]0000 == 0000
[2019-09-20 13:34:05.147] get_link_cost() addr 0x0000 in BLH
[2019-09-20 13:34:05.193] C BLH[1]0000 == 0000
[2019-09-20 13:34:05.193] get_link_cost() addr 0x0000 in BLH
[2019-09-20 13:34:05.240] C BLH[1]0000 == 0000
[2019-09-20 13:34:05.240] get_link_cost() addr 0x0000 in BLH
[2019-09-20 13:34:05.256] C BLH[1]0000 == 0000
[2019-09-20 13:34:05.256] get_link_cost() addr 0x0000 in BLH
[2019-09-20 13:34:05.271] C BLH[1]0000 == 0000
[2019-09-20 13:34:05.287] get_link_cost() addr 0x0000 in BLH
[2019-09-20 13:34:05.287] C BLH[1]0000 == 0000
[2019-09-20 13:34:05.303] get_link_cost() addr 0x0000 in BLH
[2019-09-20 13:34:05.318] C BLH[1]0000 == 0000
[2019-09-20 13:34:05.318] get_link_cost() addr 0x0000 in BLH
[2019-09-20 13:34:05.334] C BLH[1]0000 == 0000
[2019-09-20 13:34:05.349] get_link_cost() addr 0x0000 in BLH
[2019-09-20 13:34:05.349] C BLH[1]0000 == 0000
[2019-09-20 13:34:05.365] get_link_cost() addr 0x0000 in BLH
[2019-09-20 13:34:05.396] C BLH[1]0000 == 0000
[2019-09-20 13:34:05.396] get_link_cost() addr 0x0000 in BLH
[2019-09-20 13:34:05.412] C BLH[1]0000 == 0000
[2019-09-20 13:34:05.412] get_link_cost() addr 0x0000 in BLH
[2019-09-20 13:34:05.427] C BLH[1]0000 == 0000
[2019-09-20 13:34:05.443] get_link_cost() addr 0x0000 in BLH
[2019-09-20 13:34:05.474] C BLH[1]0000 == 0000
[2019-09-20 13:34:05.474] get_link_cost() addr 0x0000 in BLH
[2019-09-20 13:34:05.505] C BLH[1]0000 == 0000
[2019-09-20 13:34:05.505] get_link_cost() addr 0x0000 in BLH
[2019-09-20 13:34:05.521] C BLH[1]0000 == 0000
[2019-09-20 13:34:05.521] get_link_cost() addr 0x0000 in BLH
[2019-09-20 13:34:05.583] C BLH[1]0000 == 0000
[2019-09-20 13:34:05.583] get_link_cost() addr 0x0000 in BLH
[2019-09-20 13:34:05.661] C BLH[1]0000 == 0000
[2019-09-20 13:34:05.661] get_link_cost() addr 0x0000 in BLH
[2019-09-20 13:34:08.157] C BLH[2]0003 == 0003
[2019-09-20 13:34:08.157] get_link_cost() addr 0x0003 in BLH
[2019-09-20 13:34:22.338] 
[2019-09-20 13:34:22.338] vt# 
[2019-09-20 13:34:22.556] vt# Update D:0000 O:01A3  seq:2137 to RREQ History[25]
[2019-09-20 13:34:30.419] Update D:0000 O:013B  seq:1859 to RREQ History[9]
[2019-09-20 13:34:35.426] Update D:01A3 O:0000  seq:23779 to RREQ History[23]
[2019-09-20 13:34:36.159] 
[2019-09-20 13:34:36.159] vt# 
[2019-09-20 13:34:36.425] vt# Add D:011C O:00EA  seq:529 to RREQ History[27]
[2019-09-20 13:34:55.004] Update D:0000 O:00E1  seq:324 to RREQ History[0]
[2019-09-20 13:35:02.180] 
[2019-09-20 13:35:02.180] vt# 
[2019-09-20 13:35:02.414] vt# 
[2019-09-20 13:35:02.601] vt# Add D:011C O:0000  seq:23780 to RREQ History[28]
[2019-09-20 13:35:11.556] 
[2019-09-20 13:35:11.556] Send ToneMap Response(016F), Mod D-0 0xFFFFFF
[2019-09-20 13:35:30.635] C BLH[2]0003 == 0003
[2019-09-20 13:35:30.635] get_link_cost() addr 0x0003 in BLH
[2019-09-20 13:35:37.140] Add D:016F O:0018  seq:1208 to RREQ History[29]
[2019-09-20 13:35:44.487] C BLH[2]0003 == 0003
[2019-09-20 13:35:44.487] get_link_cost() addr 0x0003 in BLH
[2019-09-20 13:35:44.487] C BLH[2]0003 == 0003
[2019-09-20 13:35:44.487] get_link_cost() addr 0x0003 in BLH
[2019-09-20 13:35:44.659] C(0003)
[2019-09-20 13:35:44.690] Send ToneMap Response(0003), Mod D-2 0x818009
[2019-09-20 13:35:44.815] 
[2019-09-20 13:35:44.815] Send ToneMap Response(018E), Mod D-2 0x019009
[2019-09-20 13:35:48.200] Add D:0000 O:018E  seq:1478 to RREQ History[30]
[2019-09-20 13:35:52.209] Update D:0000 O:013B  seq:1860 to RREQ History[9]
[2019-09-20 13:35:59.058] C BLH[2]0003 == 0003
[2019-09-20 13:35:59.058] get_link_cost() addr 0x0003 in BLH
[2019-09-20 13:36:01.242] Update D:013B O:0000  seq:23781 to RREQ History[8]
[2019-09-20 13:36:17.279] C BLH[2]0003 == 0003
[2019-09-20 13:36:17.279] get_link_cost() addr 0x0003 in BLH
[2019-09-20 13:36:18.542] 
[2019-09-20 13:36:18.542] Send ToneMap Response(018E), Mod D-1 0x01900D
[2019-09-20 13:36:19.400] C BLH[2]0003 == 0003
[2019-09-20 13:36:19.416] get_link_cost() addr 0x0003 in BLH
[2019-09-20 13:36:19.416] C BLH[2]0003 == 0003
[2019-09-20 13:36:19.416] get_link_cost() addr 0x0003 in BLH
[2019-09-20 13:36:19.821] 
[2019-09-20 13:36:19.821] Send ToneMap Response(0003), Mod D-2 0xC1800C
[2019-09-20 13:36:20.773] Tx Packet Give Up (TxCMP, nack_or_ackto = 3)
[2019-09-20 13:36:21.615] C BLH[0]0195 == 0195
[2019-09-20 13:36:21.615] get_link_cost() addr 0x0195 in BLH
[2019-09-20 13:36:22.068] Robust retry fail
[2019-09-20 13:36:22.083] Set Neighbor Table[7] : 0x0003 tmr valid time to zero
[2019-09-20 13:36:22.083] ## Link Repair (Change Dest 0000)
[2019-09-20 13:36:22.442] Send RREQ, Dest 0x0000, Seq 1, Flag 8
[2019-09-20 13:36:23.472] Update D:0000 O:01A3  seq:2138 to RREQ History[25]
[2019-09-20 13:36:23.675] C BLH[2]0003 == 0003
[2019-09-20 13:36:23.690] get_link_cost() addr 0x0003 in BLH
[2019-09-20 13:36:27.075] Add D:0000 O:0143  seq:767 to RREQ History[31]
[2019-09-20 13:36:31.677] C BLH[2]0003 == 0003
[2019-09-20 13:36:31.693] get_link_cost() addr 0x0003 in BLH
[2019-09-20 13:36:31.693] C BLH[2]0003 == 0003
[2019-09-20 13:36:31.693] get_link_cost() addr 0x0003 in BLH
[2019-09-20 13:36:31.693] Route Discovery Success (Dest 0x0000, Next 0x0003, Hop 2)
[2019-09-20 13:36:31.709] vtmsg_nwk_event
[2019-09-20 13:36:31.709] check_link_repair() send packet to 0x0000 (next 0x0003)
[2019-09-20 13:36:31.709] 
[2019-09-20 13:36:31.709] Send ToneMap Response(0003), Mod D-1 0xE1900D
[2019-09-20 13:36:32.052] C(0003)Tx Packet Give Up (TxCMP, nack_or_ackto = 3)
[2019-09-20 13:36:32.426] vtmac_pkt_do_fragmentation() tmr force = 1
[2019-09-20 13:36:32.598] Robust retry success(1), Update Neighor table 0x0003(Robust)
[2019-09-20 13:36:38.292] Send RREP, Dest Addr 0x0000, Next 0x012a, Seq 0, Flag 0, size 14
[2019-09-20 13:36:38.853] Tx Packet Give Up (TxCMP, nack_or_ackto = 3)
[2019-09-20 13:36:38.869] vtmac_pkt_do_fragmentation() tmr force = 1
[2019-09-20 13:36:39.524] Robust retry fail
[2019-09-20 13:36:39.524] set_tmr_valid_time_to_zero search Neighbor 0x012A fail
[2019-09-20 13:36:39.524] RREP or PREP send fail, A BL, G RERR
[2019-09-20 13:36:39.540] Add 012A to BlackList[0]
[2019-09-20 13:36:39.540] RERR dest is myself, Stop RERR
[2019-09-20 13:36:40.897] >> holley_send_heartbeat(20)
[2019-09-20 13:36:40.913] 
[2019-09-20 13:36:40.913]       68 0e 0e 68 5a 99 99 06 82 05 55 30 00 aa aa 00 
[2019-09-20 13:36:40.913]       01 00 77 16 
[2019-09-20 13:36:40.913] 
[2019-09-20 13:36:50.741] Update D:016F O:0018  seq:1209 to RREQ History[29]
[2019-09-20 13:36:55.733] Update D:01A3 O:0000  seq:23782 to RREQ History[23]
[2019-09-20 13:37:07.994] C BLH[1]0000 == 0000
[2019-09-20 13:37:08.010] get_link_cost() addr 0x0000 in BLH
[2019-09-20 13:37:08.259] C BLH[1]0000 == 0000
[2019-09-20 13:37:08.259] get_link_cost() addr 0x0000 in BLH
[2019-09-20 13:37:08.306] C BLH[1]0000 == 0000
[2019-09-20 13:37:08.306] get_link_cost() addr 0x0000 in BLH
[2019-09-20 13:37:08.337] C BLH[1]0000 == 0000
[2019-09-20 13:37:08.353] get_link_cost() addr 0x0000 in BLH
[2019-09-20 13:37:08.899] C BLH[1]0000 == 0000
[2019-09-20 13:37:08.899] get_link_cost() addr 0x0000 in BLH
[2019-09-20 13:37:08.946] C BLH[1]0000 == 0000
[2019-09-20 13:37:08.961] get_link_cost() addr 0x0000 in BLH
[2019-09-20 13:37:08.977] C BLH[1]0000 == 0000
[2019-09-20 13:37:08.977] get_link_cost() addr 0x0000 in BLH
[2019-09-20 13:37:09.024] C BLH[1]0000 == 0000
[2019-09-20 13:37:09.024] get_link_cost() addr 0x0000 in BLH
[2019-09-20 13:37:09.102] C BLH[1]0000 == 0000
[2019-09-20 13:37:09.102] get_link_cost() addr 0x0000 in BLH
[2019-09-20 13:37:09.117] C BLH[1]0000 == 0000
[2019-09-20 13:37:09.133] get_link_cost() addr 0x0000 in BLH
[2019-09-20 13:37:09.195] C BLH[1]0000 == 0000
[2019-09-20 13:37:09.211] get_link_cost() addr 0x0000 in BLH
[2019-09-20 13:37:09.211] C BLH[1]0000 == 0000
[2019-09-20 13:37:09.227] get_link_cost() addr 0x0000 in BLH
[2019-09-20 13:37:09.258] C BLH[1]0000 == 0000
[2019-09-20 13:37:09.273] get_link_cost() addr 0x0000 in BLH
[2019-09-20 13:37:09.398] C BLH[1]0000 == 0000
[2019-09-20 13:37:09.414] get_link_cost() addr 0x0000 in BLH
[2019-09-20 13:37:09.461] C BLH[1]0000 == 0000
[2019-09-20 13:37:09.461] get_link_cost() addr 0x0000 in BLH
[2019-09-20 13:37:09.476] C BLH[1]0000 == 0000
[2019-09-20 13:37:09.476] get_link_cost() addr 0x0000 in BLH
[2019-09-20 13:37:16.824] 
[2019-09-20 13:37:16.824] vt# 
[2019-09-20 13:37:17.058] vt# Add D:0000 O:0148  seq:880 to RREQ History[0]
[2019-09-20 13:37:32.798] Update D:0000 O:013B  seq:1861 to RREQ History[9]
[2019-09-20 13:37:34.311] Add D:016F O:0000  seq:23784 to RREQ History[1]
[2019-09-20 13:37:39.303] Add D:0148 O:0000  seq:23785 to RREQ History[2]
[2019-09-20 13:37:42.813] Add D:0000 O:016F  seq:902 to RREQ History[3]
[2019-09-20 13:37:43.313] Update D:013B O:0000  seq:23786 to RREQ History[8]
[2019-09-20 13:37:55.403] C BLH[0]0195 == 0195
[2019-09-20 13:37:55.403] get_link_cost() addr 0x0195 in BLH
[2019-09-20 13:37:59.396] C BLH[2]0003 == 0003
[2019-09-20 13:37:59.396] get_link_cost() addr 0x0003 in BLH
[2019-09-20 13:38:24.029] Update D:016F O:0000  seq:23787 to RREQ History[1]
[2019-09-20 13:38:26.025] Add D:0000 O:00E8  seq:1207 to RREQ History[4]
[2019-09-20 13:38:30.534] Add D:016F O:0003  seq:13094 to RREQ History[5]
[2019-09-20 13:38:48.115] Update D:0000 O:013B  seq:1862 to RREQ History[9]
[2019-09-20 13:39:04.464] Add Neighbor Table Fail(BlackList 0x012A)
[2019-09-20 13:39:04.479] Drop RREQ(BlackList 0x012A)
[2019-09-20 13:39:05.852] C BLH[2]0003 == 0003
[2019-09-20 13:39:05.868] get_link_cost() addr 0x0003 in BLH
[2019-09-20 13:39:06.164] C BLH[2]0003 == 0003
[2019-09-20 13:39:06.164] get_link_cost() addr 0x0003 in BLH
[2019-09-20 13:39:06.195] C BLH[2]0003 == 0003
[2019-09-20 13:39:06.211] get_link_cost() addr 0x0003 in BLH
[2019-09-20 13:39:06.227] C BLH[2]0003 == 0003
[2019-09-20 13:39:06.227] get_link_cost() addr 0x0003 in BLH
[2019-09-20 13:39:06.242] C BLH[2]0003 == 0003
[2019-09-20 13:39:06.242] get_link_cost() addr 0x0003 in BLH
[2019-09-20 13:39:06.258] C BLH[2]0003 == 0003
[2019-09-20 13:39:06.258] get_link_cost() addr 0x0003 in BLH
[2019-09-20 13:39:06.305] C BLH[2]0003 == 0003
[2019-09-20 13:39:06.305] get_link_cost() addr 0x0003 in BLH
[2019-09-20 13:39:06.320] C BLH[2]0003 == 0003
[2019-09-20 13:39:06.320] get_link_cost() addr 0x0003 in BLH
[2019-09-20 13:39:06.351] C BLH[2]0003 == 0003
[2019-09-20 13:39:06.351] get_link_cost() addr 0x0003 in BLH
[2019-09-20 13:39:06.367] C BLH[2]0003 == 0003
[2019-09-20 13:39:06.383] get_link_cost() addr 0x0003 in BLH
[2019-09-20 13:39:06.383] C BLH[2]0003 == 0003
[2019-09-20 13:39:06.398] get_link_cost() addr 0x0003 in BLH
[2019-09-20 13:39:06.445] C BLH[2]0003 == 0003
[2019-09-20 13:39:06.445] get_link_cost() addr 0x0003 in BLH
[2019-09-20 13:39:06.461] C BLH[2]0003 == 0003
[2019-09-20 13:39:06.476] get_link_cost() addr 0x0003 in BLH
[2019-09-20 13:39:06.507] C BLH[2]0003 == 0003
[2019-09-20 13:39:06.507] get_link_cost() addr 0x0003 in BLH
[2019-09-20 13:39:06.539] C BLH[2]0003 == 0003
[2019-09-20 13:39:06.539] get_link_cost() addr 0x0003 in BLH
[2019-09-20 13:39:06.554] C BLH[2]0003 == 0003
[2019-09-20 13:39:06.554] get_link_cost() addr 0x0003 in BLH
[2019-09-20 13:39:06.570] C BLH[2]0003 == 0003
[2019-09-20 13:39:06.570] get_link_cost() addr 0x0003 in BLH
[2019-09-20 13:39:06.679] C BLH[2]0003 == 0003
[2019-09-20 13:39:06.695] get_link_cost() addr 0x0003 in BLH
[2019-09-20 13:39:06.741] C BLH[2]0003 == 0003
[2019-09-20 13:39:06.741] get_link_cost() addr 0x0003 in BLH
[2019-09-20 13:39:06.757] C BLH[2]0003 == 0003
[2019-09-20 13:39:06.757] get_link_cost() addr 0x0003 in BLH
[2019-09-20 13:39:06.788] C BLH[2]0003 == 0003
[2019-09-20 13:39:06.804] get_link_cost() addr 0x0003 in BLH
[2019-09-20 13:39:06.835] C BLH[2]0003 == 0003
[2019-09-20 13:39:06.835] get_link_cost() addr 0x0003 in BLH
[2019-09-20 13:39:06.929] C BLH[2]0003 == 0003
[2019-09-20 13:39:06.944] get_link_cost() addr 0x0003 in BLH
[2019-09-20 13:39:06.960] C BLH[2]0003 == 0003
[2019-09-20 13:39:06.975] get_link_cost() addr 0x0003 in BLH
[2019-09-20 13:39:07.038] C BLH[2]0003 == 0003
[2019-09-20 13:39:07.038] get_link_cost() addr 0x0003 in BLH
[2019-09-20 13:39:07.053] C BLH[2]0003 == 0003
[2019-09-20 13:39:07.053] get_link_cost() addr 0x0003 in BLH
[2019-09-20 13:39:07.069] C BLH[2]0003 == 0003
[2019-09-20 13:39:07.085] get_link_cost() addr 0x0003 in BLH
[2019-09-20 13:39:07.100] C BLH[2]0003 == 0003
[2019-09-20 13:39:07.100] get_link_cost() addr 0x0003 in BLH
[2019-09-20 13:39:07.116] C BLH[2]0003 == 0003
[2019-09-20 13:39:07.116] get_link_cost() addr 0x0003 in BLH
[2019-09-20 13:39:07.163] C BLH[2]0003 == 0003
[2019-09-20 13:39:07.163] get_link_cost() addr 0x0003 in BLH
[2019-09-20 13:39:07.178] C BLH[2]0003 == 0003
[2019-09-20 13:39:07.178] get_link_cost() addr 0x0003 in BLH
[2019-09-20 13:39:07.303] C BLH[2]0003 == 0003
[2019-09-20 13:39:07.303] get_link_cost() addr 0x0003 in BLH
[2019-09-20 13:39:07.365] C BLH[2]0003 == 0003
[2019-09-20 13:39:07.381] get_link_cost() addr 0x0003 in BLH
[2019-09-20 13:39:07.412] C BLH[2]0003 == 0003
[2019-09-20 13:39:07.428] get_link_cost() addr 0x0003 in BLH
[2019-09-20 13:39:07.443] C BLH[2]0003 == 0003
[2019-09-20 13:39:07.443] get_link_cost() addr 0x0003 in BLH
[2019-09-20 13:39:07.521] C BLH[2]0003 == 0003
[2019-09-20 13:39:07.521] get_link_cost() addr 0x0003 in BLH
[2019-09-20 13:39:07.553] C BLH[2]0003 == 0003
[2019-09-20 13:39:07.553] get_link_cost() addr 0x0003 in BLH
[2019-09-20 13:39:07.568] C BLH[2]0003 == 0003
[2019-09-20 13:39:07.568] get_link_cost() addr 0x0003 in BLH
[2019-09-20 13:39:10.002] Update D:016F O:0000  seq:23788 to RREQ History[1]
[2019-09-20 13:39:16.757] Add Neighbor Table Fail(BlackList 0x012A)
[2019-09-20 13:39:16.772] Drop RREQ(BlackList 0x012A)
[2019-09-20 13:39:30.204] Add D:0000 O:012C  seq:444 to RREQ History[6]
[2019-09-20 13:39:33.714] Add D:0000 O:01AD  seq:674 to RREQ History[7]
[2019-09-20 13:39:37.723] Add D:012C O:0000  seq:23789 to RREQ History[8]
[2019-09-20 13:39:40.718] Add D:01AD O:0000  seq:23790 to RREQ History[9]
[2019-09-20 13:39:41.405] >> holley_send_heartbeat(20)
[2019-09-20 13:39:41.405] 
[2019-09-20 13:39:41.405]       68 0e 0e 68 5a 99 99 06 82 05 55 30 00 aa aa 00 
[2019-09-20 13:39:41.420]       01 00 77 16 
[2019-09-20 13:39:41.420] 
[2019-09-20 13:39:43.729] Add D:0114 O:0000  seq:23791 to RREQ History[10]
[2019-09-20 13:39:51.233] Add D:0000 O:0114  seq:1162 to RREQ History[11]
[2019-09-20 13:40:25.397] Add Neighbor Table Fail(BlackList 0x012A)
[2019-09-20 13:40:40.529] Add D:00DB O:00D1  seq:510 to RREQ History[12]
[2019-09-20 13:40:43.040] Add D:00DB O:0003  seq:13095 to RREQ History[13]
[2019-09-20 13:40:44.538] Update D:0000 O:012C  seq:445 to RREQ History[6]
[2019-09-20 13:40:50.544] Add D:0003 O:00DB  seq:923 to RREQ History[14]
[2019-09-20 13:40:51.043] Add D:0000 O:01AC  seq:662 to RREQ History[15]
[2019-09-20 13:40:59.467] Add Neighbor Table Fail(BlackList 0x012A)
[2019-09-20 13:40:59.467] Drop RREQ(BlackList 0x012A)
[2019-09-20 13:41:01.526] C BLH[2]0003 == 0003
[2019-09-20 13:41:01.526] get_link_cost() addr 0x0003 in BLH
[2019-09-20 13:41:05.535] C BLH[2]0003 == 0003
[2019-09-20 13:41:05.535] get_link_cost() addr 0x0003 in BLH
[2019-09-20 13:41:14.537] C BLH[2]0003 == 0003
[2019-09-20 13:41:14.552] get_link_cost() addr 0x0003 in BLH
[2019-09-20 13:41:21.869] Update D:0000 O:0114  seq:1163 to RREQ History[11]
[2019-09-20 13:41:22.165] C BLH[2]0003 == 0003
[2019-09-20 13:41:22.165] get_link_cost() addr 0x0003 in BLH
[2019-09-20 13:41:28.935] Update D:0114 O:0000  seq:23792 to RREQ History[10]
[2019-09-20 13:41:28.935] Add D:0000 O:0197  seq:1859 to RREQ History[16]
[2019-09-20 13:41:32.399] C BLH[2]0003 == 0003
[2019-09-20 13:41:32.399] get_link_cost() addr 0x0003 in BLH
[2019-09-20 13:41:34.052] C BLH[2]0003 == 0003
[2019-09-20 13:41:34.068] get_link_cost() addr 0x0003 in BLH
[2019-09-20 13:41:37.016] Add D:0197 O:0000  seq:23793 to RREQ History[17]
[2019-09-20 13:41:44.083] Add D:017C O:0017  seq:600 to RREQ History[18]
[2019-09-20 13:41:51.119] Add D:0017 O:017C  seq:634 to RREQ History[19]
[2019-09-20 13:41:53.646] Add D:0000 O:00C7  seq:716 to RREQ History[20]
[2019-09-20 13:42:01.149] Add D:017C O:0098  seq:2445 to RREQ History[21]
[2019-09-20 13:42:03.661] Add D:017C O:0090  seq:367 to RREQ History[22]
[2019-09-20 13:42:10.197] C BLH[2]0003 == 0003
[2019-09-20 13:42:10.197] get_link_cost() addr 0x0003 in BLH
[2019-09-20 13:42:12.210] Update D:0000 O:0114  seq:1164 to RREQ History[11]
[2019-09-20 13:42:20.259] Update D:0114 O:0000  seq:23794 to RREQ History[10]
[2019-09-20 13:42:41.273] Add D:017C O:0000  seq:23795 to RREQ History[23]
[2019-09-20 13:42:41.912] >> holley_send_heartbeat(20)
[2019-09-20 13:42:41.912] 
[2019-09-20 13:42:41.912]       68 0e 0e 68 5a 99 99 06 82 05 55 30 00 aa aa 00 
[2019-09-20 13:42:41.912]       01 00 77 16 
[2019-09-20 13:42:41.912] 
[2019-09-20 13:42:46.280] Add D:0000 O:017C  seq:635 to RREQ History[24]
[2019-09-20 13:42:51.288] TDP_FIR3_SCALE
[2019-09-20 13:42:51.288]     fir3_scale               : 0x00000086(134)
[2019-09-20 13:42:51.303]     fir3_scale_max           : 0x00000086(134)
[2019-09-20 13:42:51.303]     fir3_scale_min           : 0x0000000A(10)
[2019-09-20 13:42:51.303]     fir3_tx_success_cnt      : 0x00000000(0)
[2019-09-20 13:42:51.303]     fir3_add_3db_thr         : 0x0000000F(15)
[2019-09-20 13:42:51.303]     urgent_in_cnt            : 0x00000000(0)
[2019-09-20 13:42:51.319]     ot_event_cnt             : 0x00000000(0)
[2019-09-20 13:42:51.319]     start_specific_tx_scale  : 0x00000086(134)
[2019-09-20 13:42:51.319]     last_abnormal_tx_scale   : 0x00000086(134)
[2019-09-20 13:42:51.335] PHY_RX_MIB_CNT
[2019-09-20 13:42:51.335]     preamb_det                  : 11017
[2019-09-20 13:42:51.350]     syncm_det_success           : 9657 (Fail 1360)
[2019-09-20 13:42:51.350]     fch_crc_correct             : 8439 (fch cnt error)
[2019-09-20 13:42:51.350]     ack_nack_fch_correct        : 708
[2019-09-20 13:42:51.350]     ACK/NACK/Unmatch_correct    : 5 / 0 / 0
[2019-09-20 13:42:51.366]     data_fch_correct            : 7724
[2019-09-20 13:42:51.366]     data_correct                : 6870 (Fail 854)
[2019-09-20 13:42:51.366]     apdt_basic_time_block(btb)  : 1277
[2019-09-20 13:42:51.366]     apdt_preamb_det_scale       : 20 (Max 28, Min 20)
[2019-09-20 13:42:51.381]     apdt_preamb_noise_thr       : 30 (Max 30, Min30)
[2019-09-20 13:42:51.381]     apdt_latched_fa_cnt_per_btb : 0 (AVG 1.6)
[2019-09-20 13:42:51.381]     apdt_scale_event            : 2(Up), 0(Dn)
[2019-09-20 13:42:51.381]     apdt_huge_fa_in_rx_event    : 18
[2019-09-20 13:42:51.397]     syncm_location              :    0     1     2     3     4     5
[2019-09-20 13:42:51.397]                                    481  8731   196    58    31   160 (counter)
[2019-09-20 13:42:51.413]     FCH Error                   : 2, (format 69 BF D4 76  B3 02 BA 47)
[2019-09-20 13:42:51.413] PHY_TX_MIB_CNT               Data     ACK    NACK
[2019-09-20 13:42:51.428]     mac_send_cnt         :    139      13      30
[2019-09-20 13:42:51.428]     mac_abort_cnt        :      0       0       0
[2019-09-20 13:42:51.444]     mac_drop_cnt         :      0       0
[2019-09-20 13:42:51.444]     retransmit_cnt       : 9
[2019-09-20 13:42:51.444]     data_param_err_cnt   : 0
[2019-09-20 13:43:10.273] Add Neighbor Table Fail(BlackList 0x012A)
[2019-09-20 13:43:10.273] Drop RREQ(BlackList 0x012A)
[2019-09-20 13:43:10.757] C BLH[2]0003 == 0003
[2019-09-20 13:43:10.757] get_link_cost() addr 0x0003 in BLH
[2019-09-20 13:43:12.613] C BLH[0]0195 == 0195
[2019-09-20 13:43:12.613] get_link_cost() addr 0x0195 in BLH
[2019-09-20 13:43:41.067] Update D:017C O:0000  seq:23796 to RREQ History[23]
[2019-09-20 13:44:02.034] C BLH[2]0003 == 0003
[2019-09-20 13:44:02.034] get_link_cost() addr 0x0003 in BLH
[2019-09-20 13:44:03.344] Add Neighbor Table Fail(BlackList 0x012A)
[2019-09-20 13:44:03.360] Drop RREQ(BlackList 0x012A)
[2019-09-20 13:44:03.422] Add Neighbor Table Fail(BlackList 0x012A)
[2019-09-20 13:44:12.829] Update D:017C O:0000  seq:23797 to RREQ History[23]
[2019-09-20 13:44:22.829] Add D:0174 O:0000  seq:23798 to RREQ History[25]
[2019-09-20 13:44:24.841] Update D:0000 O:01AD  seq:675 to RREQ History[7]
[2019-09-20 13:44:32.844] Update D:01AD O:0000  seq:23799 to RREQ History[9]
[2019-09-20 13:44:46.291] Add Neighbor Table Fail(BlackList 0x012A)
[2019-09-20 13:44:46.291] Drop RREQ(BlackList 0x012A)
[2019-09-20 13:44:47.087] C BLH[2]0003 == 0003
[2019-09-20 13:44:47.102] get_link_cost() addr 0x0003 in BLH
[2019-09-20 13:44:50.378] C BLH[2]0003 == 0003
[2019-09-20 13:44:50.378] get_link_cost() addr 0x0003 in BLH
[2019-09-20 13:44:52.500] C BLH[2]0003 == 0003
[2019-09-20 13:44:52.500] get_link_cost() addr 0x0003 in BLH
[2019-09-20 13:44:57.414] C BLH[1]0000 == 0000
[2019-09-20 13:44:57.414] get_link_cost() addr 0x0000 in BLH
[2019-09-20 13:44:57.507] C BLH[1]0000 == 0000
[2019-09-20 13:44:57.523] get_link_cost() addr 0x0000 in BLH
[2019-09-20 13:44:57.539] C BLH[1]0000 == 0000
[2019-09-20 13:44:57.539] get_link_cost() addr 0x0000 in BLH
[2019-09-20 13:44:57.585] C BLH[1]0000 == 0000
[2019-09-20 13:44:57.585] get_link_cost() addr 0x0000 in BLH
[2019-09-20 13:44:57.585] C BLH[1]0000 == 0000
[2019-09-20 13:44:57.585] get_link_cost() addr 0x0000 in BLH
[2019-09-20 13:44:57.757] C BLH[1]0000 == 0000
[2019-09-20 13:44:57.757] get_link_cost() addr 0x0000 in BLH
[2019-09-20 13:44:57.804] C BLH[1]0000 == 0000
[2019-09-20 13:44:57.804] get_link_cost() addr 0x0000 in BLH
[2019-09-20 13:44:57.835] C BLH[1]0000 == 0000
[2019-09-20 13:44:57.835] get_link_cost() addr 0x0000 in BLH
[2019-09-20 13:44:57.866] C BLH[1]0000 == 0000
[2019-09-20 13:44:57.866] get_link_cost() addr 0x0000 in BLH
[2019-09-20 13:44:57.882] C BLH[1]0000 == 0000
[2019-09-20 13:44:57.897] get_link_cost() addr 0x0000 in BLH
[2019-09-20 13:44:57.897] C BLH[1]0000 == 0000
[2019-09-20 13:44:57.913] get_link_cost() addr 0x0000 in BLH
[2019-09-20 13:44:57.929] C BLH[1]0000 == 0000
[2019-09-20 13:44:57.929] get_link_cost() addr 0x0000 in BLH
[2019-09-20 13:44:57.944] C BLH[1]0000 == 0000
[2019-09-20 13:44:57.944] get_link_cost() addr 0x0000 in BLH
[2019-09-20 13:44:57.991] C BLH[1]0000 == 0000
[2019-09-20 13:44:58.007] get_link_cost() addr 0x0000 in BLH
[2019-09-20 13:44:58.022] C BLH[1]0000 == 0000
[2019-09-20 13:44:58.022] get_link_cost() addr 0x0000 in BLH
[2019-09-20 13:44:58.085] C BLH[1]0000 == 0000
[2019-09-20 13:44:58.085] get_link_cost() addr 0x0000 in BLH
[2019-09-20 13:44:58.209] C BLH[1]0000 == 0000
[2019-09-20 13:44:58.209] get_link_cost() addr 0x0000 in BLH
[2019-09-20 13:44:58.225] C BLH[1]0000 == 0000
[2019-09-20 13:44:58.225] get_link_cost() addr 0x0000 in BLH
[2019-09-20 13:44:58.334] C BLH[1]0000 == 0000
[2019-09-20 13:44:58.334] get_link_cost() addr 0x0000 in BLH
[2019-09-20 13:44:58.365] C BLH[1]0000 == 0000
[2019-09-20 13:44:58.365] get_link_cost() addr 0x0000 in BLH
[2019-09-20 13:44:58.381] C BLH[1]0000 == 0000
[2019-09-20 13:44:58.397] get_link_cost() addr 0x0000 in BLH
[2019-09-20 13:44:58.397] C BLH[1]0000 == 0000
[2019-09-20 13:44:58.412] get_link_cost() addr 0x0000 in BLH
[2019-09-20 13:44:58.459] C BLH[1]0000 == 0000
[2019-09-20 13:44:58.475] get_link_cost() addr 0x0000 in BLH
[2019-09-20 13:44:58.537] C BLH[1]0000 == 0000
[2019-09-20 13:44:58.537] get_link_cost() addr 0x0000 in BLH
[2019-09-20 13:44:58.553] C BLH[1]0000 == 0000
[2019-09-20 13:44:58.553] get_link_cost() addr 0x0000 in BLH
[2019-09-20 13:44:58.615] C BLH[1]0000 == 0000
[2019-09-20 13:44:58.631] get_link_cost() addr 0x0000 in BLH
[2019-09-20 13:44:58.646] C BLH[1]0000 == 0000
[2019-09-20 13:44:58.662] get_link_cost() addr 0x0000 in BLH
[2019-09-20 13:44:58.693] C BLH[1]0000 == 0000
[2019-09-20 13:44:58.709] get_link_cost() addr 0x0000 in BLH
[2019-09-20 13:44:58.740] C BLH[1]0000 == 0000
[2019-09-20 13:44:58.755] get_link_cost() addr 0x0000 in BLH
[2019-09-20 13:44:58.755] C BLH[0]0195 == 0195
[2019-09-20 13:44:58.755] get_link_cost() addr 0x0195 in BLH
[2019-09-20 13:44:58.755] C BLH[1]0000 == 0000
[2019-09-20 13:44:58.771] get_link_cost() addr 0x0000 in BLH
[2019-09-20 13:44:58.865] C BLH[1]0000 == 0000
[2019-09-20 13:44:58.865] get_link_cost() addr 0x0000 in BLH
[2019-09-20 13:44:58.896] C BLH[1]0000 == 0000
[2019-09-20 13:44:58.896] get_link_cost() addr 0x0000 in BLH
[2019-09-20 13:44:58.943] C BLH[1]0000 == 0000
[2019-09-20 13:44:58.943] get_link_cost() addr 0x0000 in BLH
[2019-09-20 13:44:58.974] C BLH[1]0000 == 0000
[2019-09-20 13:44:58.974] get_link_cost() addr 0x0000 in BLH
[2019-09-20 13:45:11.033] Add Neighbor Table Fail(BlackList 0x012A)
[2019-09-20 13:45:11.033] Drop RREQ(BlackList 0x012A)
[2019-09-20 13:45:16.368] Update D:0000 O:01AD  seq:676 to RREQ History[7]
[2019-09-20 13:45:23.372] Update D:01AD O:0000  seq:23800 to RREQ History[9]
[2019-09-20 13:45:29.378] Add D:0158 O:0000  seq:23801 to RREQ History[26]
[2019-09-20 13:45:42.404] >> holley_send_heartbeat(20)
[2019-09-20 13:45:42.420] 
[2019-09-20 13:45:42.420]       68 0e 0e 68 5a 99 99 06 82 05 55 30 00 aa aa 00 
[2019-09-20 13:45:42.420]       01 00 77 16 
[2019-09-20 13:45:42.420] 
[2019-09-20 13:45:42.872] Add D:0108 O:0000  seq:23802 to RREQ History[27]
[2019-09-20 13:46:02.591] 
[2019-09-20 13:46:02.591] vt# 
[2019-09-20 13:46:02.793] vt# 
[2019-09-20 13:46:02.965] vt# 
[2019-09-20 13:46:03.121] vt# 
[2019-09-20 13:46:03.277] vt# 
[2019-09-20 13:46:03.449] vt# 
[2019-09-20 13:46:03.605] vt# 
[2019-09-20 13:46:08.831] vt# 
[2019-09-20 13:46:09.361] vt# 
[2019-09-20 13:46:09.392] vt# 
[2019-09-20 13:46:09.439] vt# 
[2019-09-20 13:46:09.470] vt# 
[2019-09-20 13:46:09.501] vt# 
[2019-09-20 13:46:09.548] vt# 
[2019-09-20 13:46:09.579] vt# 
[2019-09-20 13:46:09.626] vt# 
[2019-09-20 13:46:09.657] vt# 
[2019-09-20 13:46:09.689] vt# 
[2019-09-20 13:46:09.735] vt# 
[2019-09-20 13:46:09.767] vt# 
[2019-09-20 13:46:09.813] vt# 
[2019-09-20 13:46:09.845] vt# 
[2019-09-20 13:46:09.876] vt# 
[2019-09-20 13:46:09.923] vt# 
[2019-09-20 13:46:09.954] vt# 
[2019-09-20 13:46:10.001] vt# 
[2019-09-20 13:46:10.032] vt# 
[2019-09-20 13:46:10.063] vt# 
[2019-09-20 13:46:10.110] vt# 
[2019-09-20 13:46:10.141] vt# 
[2019-09-20 13:46:10.250] vt# 
[2019-09-20 13:46:28.128] vt# 
[2019-09-20 13:46:28.362] vt# 
[2019-09-20 13:46:28.549] vt# Add D:0121 O:009A  seq:36 to RREQ History[28]
[2019-09-20 13:46:42.480] C BLH[2]0003 == 0003
[2019-09-20 13:46:42.480] get_link_cost() addr 0x0003 in BLH
[2019-09-20 13:46:42.636] Del 012A from BlackList[0]
