
[2019-09-20 15:16:37.274] Del 0000 from BlackList[0]
[2019-09-20 15:16:44.434] >> holley_send_heartbeat(20)
[2019-09-20 15:16:44.434] 
[2019-09-20 15:16:44.434]       68 0e 0e 68 5a 99 99 06 82 05 55 30 00 aa aa 00 
[2019-09-20 15:16:44.450]       01 00 77 16 
[2019-09-20 15:16:44.450] 
[2019-09-20 15:16:46.275] Del 0003 from BlackList[1]
[2019-09-20 15:16:54.449] 
[2019-09-20 15:16:54.449] vt# 
[2019-09-20 15:16:54.683] vt# 
[2019-09-20 15:16:54.902] vt# 
[2019-09-20 15:16:55.104] vt# 
[2019-09-20 15:16:55.307] vt# 
[2019-09-20 15:16:55.822] vt# 