
[2019-09-20 15:00:00.253] reboot
[2019-09-20 15:00:01.173] 
[2019-09-20 15:00:01.173] vtmm_flush_nvram(1170) nvram_rom= 0x0007f000 0x0007e000, ptr = 0x20001214, size = 1892 chk = 0x60d69efa
[2019-09-20 15:00:01.251] [0x54000020] <- 0x02000080__info_block = 0x000ff000
[2019-09-20 15:00:01.266] __info_h0    = 0x000ff030
[2019-09-20 15:00:01.266] __info_h1    = 0x000ff2b0
[2019-09-20 15:00:01.266] __info_hb0   = 0x000ff0b0
[2019-09-20 15:00:01.266] __info_hb1   = 0x000ff330
[2019-09-20 15:00:01.282] 
[2019-09-20 15:00:01.282] bbp_reloc    = 0x00000001
[2019-09-20 15:00:01.282] 
[2019-09-20 15:00:01.282] 
[2019-09-20 15:00:01.282]   PHY_CR1		a00000c0	<- 00000000
[2019-09-20 15:00:01.282]   vma)a0200000 lma)0005f800 vma_size)000000d4 lma_size)000000e0
[2019-09-20 15:00:01.282]   vma)a0200400 lma)0005f8e0 vma_size)0000016c lma_size)00000170
[2019-09-20 15:00:01.297]   vma)a020057c lma)0005fa50 vma_size)00000008 lma_size)00000010
[2019-09-20 15:00:01.297]   vma)a020059c lma)0005fa60 vma_size)00000008 lma_size)00000010
[2019-09-20 15:00:01.297]   vma)a02005bc lma)0005fa70 vma_size)00000008 lma_size)00000010
[2019-09-20 15:00:01.313]   vma)a02005dc lma)0005fa80 vma_size)0000000c lma_size)00000010
[2019-09-20 15:00:01.313]   vma)a02005fc lma)0005fa90 vma_size)00000004 lma_size)00000010
[2019-09-20 15:00:01.313]   vma)a020061c lma)0005faa0 vma_size)00000008 lma_size)00000010
[2019-09-20 15:00:01.328]   vma)a0200638 lma)0005fab0 vma_size)00000004 lma_size)00000010
[2019-09-20 15:00:01.328]   vma)a020063c lma)0005fac0 vma_size)00000018 lma_size)00000020
[2019-09-20 15:00:01.344]   vma)a020065c lma)0005fae0 vma_size)00000008 lma_size)00000010
[2019-09-20 15:00:01.344]   vma)a0220000 lma)0005faf0 vma_size)00000010 lma_size)00000010
[2019-09-20 15:00:01.344]   vma)a0240000 lma)73826577 vma_size)00000348 lma_size)00000000
[2019-09-20 15:00:01.360] (decompress) get config ... target vma:a0240000 target size:348
[2019-09-20 15:00:01.360]   vma)76907765 lma)0005fb00 vma_size)0000017c lma_size)00000180
[2019-09-20 15:00:01.375] (decompress) bbp image done ... outsize:348
[2019-09-20 15:00:01.375]   vma)a0220020 lma)73826577 vma_size)000003e0 lma_size)00000000
[2019-09-20 15:00:01.375] (decompress) get config ... target vma:a0220020 target size:3e0
[2019-09-20 15:00:01.391]   vma)76907765 lma)0005fc80 vma_size)00000180 lma_size)00000180
[2019-09-20 15:00:01.391] (decompress) bbp image done ... outsize:3e0
[2019-09-20 15:00:01.406]   vma)a0200678 lma)73826577 vma_size)00016310 lma_size)00000000
[2019-09-20 15:00:01.406] (decompress) get config ... target vma:a0200678 target size:16310
[2019-09-20 15:00:01.406]   vma)76907765 lma)0005fe00 vma_size)0000f0a4 lma_size)0000f0b0
[2019-09-20 15:00:01.781] (decompress) bbp image done ... outsize:1630d
[2019-09-20 15:00:01.796] 
[2019-09-20 15:00:01.796] heap size internal 1200 remain)023c 
[2019-09-20 15:00:01.796] heap size total    b100 remain)b100
[2019-09-20 15:00:01.796] pool size total    efe8 remain)efe8 min)efe8
[2019-09-20 15:00:01.812] 
[2019-09-20 15:00:01.812] Flash status:0000001c, Protect, ret=0
[2019-09-20 15:00:01.812] vtmm_restore_nvram R:0 addr= 0x0007f000, ptr = 0x20001214, size = 1892
[2019-09-20 15:00:01.812] vtmm_restore_nvram cs= 0x60d69efa, nvcs = 0x60d69efa  
[2019-09-20 15:00:01.827] 
[2019-09-20 15:00:01.827] Magpie PLC Platform - Copyright (c) 2015 Vango Technologies, Inc.
[2019-09-20 15:00:01.827] 
[2019-09-20 15:00:01.827] Version: v6.1.3.102_6.0.0.0 2019/05/21 09:44:37
[2019-09-20 15:00:01.827] reset		: hw_reset)0 watchdog)0 dormant)0 power_off)0
[2019-09-20 15:00:01.843] remap		: 2
[2019-09-20 15:00:01.843] hw-strap	: 0x13 pll_bypass)pll xtal)24M bootstrap)efc ate_spi)gpio jtag)gpio/mcu
[2019-09-20 15:00:01.843] clkin_mux	: AHB[1:0] 0x0 APB[3:2] 0x1
[2019-09-20 15:00:01.843] pwmtmr_clk	: apb_clk
[2019-09-20 15:00:01.858] 
[2019-09-20 15:00:01.858] xtal_clk	: 24000000
[2019-09-20 15:00:01.858] clk_in		: 128000000
[2019-09-20 15:00:01.858] fclk		: 128000000
[2019-09-20 15:00:01.858] hclk		: 128000000
[2019-09-20 15:00:01.858] pclk		: 32000000
[2019-09-20 15:00:01.858] uart_uclk	: 32000000
[2019-09-20 15:00:01.858] ssp_sclk	: 32000000
[2019-09-20 15:00:01.858] pwmtmr_extclk	: 500000
[2019-09-20 15:00:01.858] wdt_extclk	: 32000000
[2019-09-20 15:00:01.858] scu_clk		: 100000
[2019-09-20 15:00:01.874] rtc_clk		: 32000
[2019-09-20 15:00:01.874] 
[2019-09-20 15:00:01.874] 
[2019-09-20 15:00:01.874] vt# 
[2019-09-20 15:00:01.874] Release Ver: E01
[2019-09-20 15:00:01.874] 
[2019-09-20 15:00:01.874] >> task_init: as meter
[2019-09-20 15:00:01.874] 
[2019-09-20 15:00:01.874] as FCC
[2019-09-20 15:00:01.874] 
[2019-09-20 15:00:01.874] query dlt-645 2007 id loop @ 9600 bps parity:none
[2019-09-20 15:00:01.874] send(16)
[2019-09-20 15:00:01.874] 
[2019-09-20 15:00:01.874]       fe fe fe fe 68 aa aa aa aa aa aa 68 13 00 df 16 
[2019-09-20 15:00:01.890] 
[2019-09-20 15:00:02.903] recv(0)
[2019-09-20 15:00:02.903] 
[2019-09-20 15:00:02.903] 
[2019-09-20 15:00:02.903] query dlt-645 2007 id loop @ 4800 bps parity:none
[2019-09-20 15:00:02.903] send(16)
[2019-09-20 15:00:02.918] 
[2019-09-20 15:00:02.918]       fe fe fe fe 68 aa aa aa aa aa aa 68 13 00 df 16 
[2019-09-20 15:00:02.918] 
[2019-09-20 15:00:03.931] recv(0)
[2019-09-20 15:00:03.947] 
[2019-09-20 15:00:03.947] 
[2019-09-20 15:00:03.947] query dlt-645 2007 id loop @ 2400 bps parity:none
[2019-09-20 15:00:03.947] send(16)
[2019-09-20 15:00:03.947] 
[2019-09-20 15:00:03.947]       fe fe fe fe 68 aa aa aa aa aa aa 68 13 00 df 16 
[2019-09-20 15:00:03.947] 
[2019-09-20 15:00:05.007] recv(0)
[2019-09-20 15:00:05.007] 
[2019-09-20 15:00:05.007] 
[2019-09-20 15:00:05.506] query dlms id @ 9600 bps parity:none
[2019-09-20 15:00:05.521] >> query_meter_dlms_hdlc_id [init]
[2019-09-20 15:00:05.521] send(9)
[2019-09-20 15:00:05.521] 
[2019-09-20 15:00:05.521]       7e a0 07 03 21 53 03 c7 7e 
[2019-09-20 15:00:05.521] 
[2019-09-20 15:00:06.534] recv(9)
[2019-09-20 15:00:06.534] 
[2019-09-20 15:00:06.534]       7e a0 07 21 03 1f 6b e9 7e 
[2019-09-20 15:00:06.534] 
[2019-09-20 15:00:06.534] >> query_meter_dlms_hdlc_id [connect]
[2019-09-20 15:00:06.534] send(9)
[2019-09-20 15:00:06.534] 
[2019-09-20 15:00:06.534]       7e a0 07 03 21 93 0f 01 7e 
[2019-09-20 15:00:06.550] 
[2019-09-20 15:00:07.547] recv(32)
[2019-09-20 15:00:07.547] 
[2019-09-20 15:00:07.547]       7e a0 1e 21 03 73 c3 7a 81 80 12 05 01 80 06 01 
[2019-09-20 15:00:07.547]       80 07 04 00 00 00 01 08 04 00 00 00 01 53 3b 7e 
[2019-09-20 15:00:07.563] 
[2019-09-20 15:00:07.563] >> query_meter_dlms_hdlc_id [login]
[2019-09-20 15:00:07.563] send(48)
[2019-09-20 15:00:07.563] 
[2019-09-20 15:00:07.563]       7e a0 2e 03 21 10 ac c1 e6 e6 00 60 20 80 02 07 
[2019-09-20 15:00:07.563]       80 a1 09 06 07 60 85 74 05 08 01 01 be 0f 04 0d 
[2019-09-20 15:00:07.579]       01 00 00 00 06 5f 04 00 ff ff ff 28 00 9f 38 7e 
[2019-09-20 15:00:07.579] 
[2019-09-20 15:00:08.623] recv(57)
[2019-09-20 15:00:08.623] 
[2019-09-20 15:00:08.623]       7e a0 37 21 03 30 6c 7c e6 e7 00 61 29 a1 09 06 
[2019-09-20 15:00:08.639]       07 60 85 74 05 08 01 01 a2 03 02 01 00 a3 05 a1 
[2019-09-20 15:00:08.639]       03 02 01 00 be 10 04 0e 08 00 06 5f 1f 04 00 00 
[2019-09-20 15:00:08.639]       12 14 01 90 00 07 5e 21 7e 
[2019-09-20 15:00:08.639] 
[2019-09-20 15:00:08.639] >> query_meter_dlms_hdlc_id [read meter id]
[2019-09-20 15:00:08.654] send(27)
[2019-09-20 15:00:08.654] 
[2019-09-20 15:00:08.654]       7e a0 19 03 21 32 6f d8 e6 e6 00 c0 01 81 00 01 
[2019-09-20 15:00:08.654]       00 00 60 01 00 ff 02 00 8c 6d 7e 
[2019-09-20 15:00:08.654] 
[2019-09-20 15:00:09.683] recv(32)
[2019-09-20 15:00:09.683] 
[2019-09-20 15:00:09.683]       7e a0 1e 21 03 52 48 4a e6 e7 00 c4 01 81 00 0a 
[2019-09-20 15:00:09.698]       0c 30 30 30 30 30 32 33 39 31 31 38 33 f6 fb 7e 
[2019-09-20 15:00:09.698] 
[2019-09-20 15:00:09.698] DLMS meter id = 83 11 39 02 00 00 
[2019-09-20 15:00:09.698] >> query_meter_dlms_hdlc_id [disconnect]
[2019-09-20 15:00:09.698] send(9)
[2019-09-20 15:00:09.698] 
[2019-09-20 15:00:09.698]       7e a0 07 03 21 53 03 c7 7e 
[2019-09-20 15:00:09.698] 
[2019-09-20 15:00:10.712] recv(32)
[2019-09-20 15:00:10.712] 
[2019-09-20 15:00:10.712]       7e a0 1e 21 03 73 c3 7a 81 80 12 05 01 80 06 01 
[2019-09-20 15:00:10.712]       80 07 04 00 00 00 01 08 04 00 00 00 01 53 3b 7e 
[2019-09-20 15:00:10.727] 
[2019-09-20 15:00:11.226] task_init: wd_cnt = 86400
[2019-09-20 15:00:11.226] task_init: assigned pan id = 0000
[2019-09-20 15:00:11.226] task_init: restore_pan = 0
[2019-09-20 15:00:11.226] task_init: nv meter id >>
[2019-09-20 15:00:11.241] 
[2019-09-20 15:00:11.241]       83 11 39 02 00 00 
[2019-09-20 15:00:11.241] 
[2019-09-20 15:00:11.241] ChipVer	: V6306 
[2019-09-20 15:00:11.241] System Init, LBD
[2019-09-20 15:00:11.241]   macMaxFrameRetries = 3
[2019-09-20 15:00:11.241]   macMaxRobustFrameRetries = 3
[2019-09-20 15:00:11.241]   macMaxSegmentFrameRetries = 3
[2019-09-20 15:00:11.241] 
[2019-09-20 15:00:11.241]   PHY_CR1		a00000c0	<- 00001003
[2019-09-20 15:00:11.257] [A00000C8] -> 00000000 bbp busy ...
[2019-09-20 15:00:11.351] bbp ready ~
[2019-09-20 15:00:11.351] set_vango_band_freq_range:(init/total/perGrp) 64/36/3
[2019-09-20 15:00:11.366] set bandplan 3, modulation 0
[2019-09-20 15:00:11.366]   macMaxFrameRetries = 3
[2019-09-20 15:00:11.366]   macMaxRobustFrameRetries = 3
[2019-09-20 15:00:11.366]   macMaxSegmentFrameRetries = 3
[2019-09-20 15:00:11.366] set bandplan: 3
[2019-09-20 15:00:11.382] set modulation: 0
[2019-09-20 15:00:11.397] Clear tone mask
[2019-09-20 15:00:11.397] Bandplan as FCC
[2019-09-20 15:00:11.413] set pmb syncp sym: 8
[2019-09-20 15:00:11.413] set pmb match sym: 3
[2019-09-20 15:00:11.428] set TDP FIR3 scale_max=134 scale_min=10 thr=15, start_scale
[2019-09-20 15:00:11.444] set LD gain select: 12V
[2019-09-20 15:00:11.460] set PGA mode: 0
[2019-09-20 15:00:11.475] set urgetnIn_en 1 
[2019-09-20 15:00:11.491] set apdt param: 1 20 1 32 20 500 2 1 10 3 9 6 9 6
[2019-09-20 15:00:11.506] set ant param: 1 24 5 30
[2019-09-20 15:00:11.506] set pmb det idle gain misc: 00000054 00000024 0000002a 0000002a 00000002
[2019-09-20 15:00:11.522] set max fa cnt in rx :10
[2019-09-20 15:00:11.538] set syncm inv det ratio :55
[2019-09-20 15:00:11.553] set ack tx additional gain :0 dB
[2019-09-20 15:00:11.569] set modulation: 0
[2019-09-20 15:00:11.584] 
[2019-09-20 15:00:11.584]   PHY_CR1		a00000c0	<- 00011003
[2019-09-20 15:00:11.584] ChipVer	: V6306 
[2019-09-20 15:00:11.584] Eable SWTD 86583273
[2019-09-20 15:00:11.584] Role = (1)....as LBD
[2019-09-20 15:00:11.600] task_init: nv_table_t.wd_cnt(86400)
[2019-09-20 15:00:11.600] >> holley_send_3088(58)
[2019-09-20 15:00:11.600] 
[2019-09-20 15:00:11.600]       68 34 34 68 5a 99 99 01 00 05 88 30 00 aa aa aa 
[2019-09-20 15:00:11.600]       aa aa aa aa aa aa aa aa aa aa aa aa aa aa aa aa 
[2019-09-20 15:00:11.600]       aa aa aa aa aa aa aa aa aa aa aa aa aa aa aa aa 
[2019-09-20 15:00:11.616]       aa aa aa aa 25 9b 6a 4d a7 16 
[2019-09-20 15:00:11.616] 
[2019-09-20 15:00:12.177] >> holley_request_4011(25)
[2019-09-20 15:00:12.177] 
[2019-09-20 15:00:12.177]       68 13 13 68 08 99 99 01 00 05 11 40 00 00 03 00 
[2019-09-20 15:00:12.177]       00 1c 80 01 ff 02 00 32 16 
[2019-09-20 15:00:12.192] 
[2019-09-20 15:00:12.208] vtmm_flush_nvram(1170) nvram_rom= 0x0007f000 0x0007e000, ptr = 0x20001214, size = 1892 chk = 0xcb68c905
[2019-09-20 15:00:12.426] 
[2019-09-20 15:00:12.426] Send Beacon Request
[2019-09-20 15:00:12.426] vtmac_pkt_submit() Tx pause(wiat bbp 959 ms)
[2019-09-20 15:00:13.392] bbp adaptive scale ready
[2019-09-20 15:00:13.720] Receive Beacon
[2019-09-20 15:00:13.720] Beacon state 0
[2019-09-20 15:00:13.720] Beacon LQI 49, LinkCost 32
[2019-09-20 15:00:13.735] Beacone table[0]: PAN 94E3, Addr 01BD, R_C 0144, LC 20, Priority 0
[2019-09-20 15:00:13.891] Receive Beacon
[2019-09-20 15:00:13.891] Beacon state 0
[2019-09-20 15:00:13.891] Beacon LQI 95, LinkCost 25
[2019-09-20 15:00:13.907] Beacone table[0]: PAN 94E3, Addr 00C7, R_C 0129, LC 19, Priority 0
[2019-09-20 15:00:15.122] Receive Beacon
[2019-09-20 15:00:15.122] Beacon state 0
[2019-09-20 15:00:15.122] Beacon LQI 34, LinkCost 34
[2019-09-20 15:00:15.138] Beacone table[0]: PAN 94E3, Addr 011C, R_C 007A, LC 22, Priority 0
[2019-09-20 15:00:15.169] Receive Beacon
[2019-09-20 15:00:15.169] Beacon state 0
[2019-09-20 15:00:15.169] Beacon LQI 95, LinkCost 25
[2019-09-20 15:00:15.169] Beacone table[0]: PAN 94E3, Addr 00D0, R_C 0065, LC 19, Priority 0
[2019-09-20 15:00:15.621] Receive Beacon
[2019-09-20 15:00:15.621] Beacon state 0
[2019-09-20 15:00:15.621] Beacon LQI 76, LinkCost 255
[2019-09-20 15:00:15.621] route_cost table[0] 007E < receive 0134, Ignore Beacon
[2019-09-20 15:00:15.808] Receive Beacon
[2019-09-20 15:00:15.808] Beacon state 0
[2019-09-20 15:00:15.808] Beacon LQI 78, LinkCost 27
[2019-09-20 15:00:15.824] route_cost table[0] 007E < receive 0166, Ignore Beacon
[2019-09-20 15:00:16.541] Receive Beacon
[2019-09-20 15:00:16.541] Beacon state 0
[2019-09-20 15:00:16.541] Beacon LQI 99, LinkCost 255
[2019-09-20 15:00:16.541] route_cost table[0] 007E < receive 013A, Ignore Beacon
[2019-09-20 15:00:16.915] Receive Beacon
[2019-09-20 15:00:16.915] Beacon state 0
[2019-09-20 15:00:16.915] Beacon LQI 100, LinkCost 255
[2019-09-20 15:00:16.930] route_cost table[0] 007E < receive 016B, Ignore Beacon
[2019-09-20 15:00:17.258] Receive Beacon
[2019-09-20 15:00:17.258] Beacon state 0
[2019-09-20 15:00:17.258] Beacon LQI 98, LinkCost 24
[2019-09-20 15:00:17.258] route_cost table[0] 007E < receive 0093, Ignore Beacon
[2019-09-20 15:00:17.382] Receive Beacon
[2019-09-20 15:00:17.382] Beacon state 0
[2019-09-20 15:00:17.382] Beacon LQI 72, LinkCost 28
[2019-09-20 15:00:17.382] route_cost table[0] 007E < receive 0087, Ignore Beacon
[2019-09-20 15:00:18.349] Receive Beacon
[2019-09-20 15:00:18.349] Beacon state 0
[2019-09-20 15:00:18.349] Beacon LQI 78, LinkCost 255
[2019-09-20 15:00:18.349] route_cost table[0] 007E < receive 015F, Ignore Beacon
[2019-09-20 15:00:18.380] Receive Beacon
[2019-09-20 15:00:18.380] Beacon state 0
[2019-09-20 15:00:18.380] Beacon LQI 84, LinkCost 255
[2019-09-20 15:00:18.380] route_cost table[0] 007E < receive 0191, Ignore Beacon
[2019-09-20 15:00:18.474] Receive Beacon
[2019-09-20 15:00:18.474] Beacon state 0
[2019-09-20 15:00:18.489] Beacon LQI 98, LinkCost 255
[2019-09-20 15:00:18.489] route_cost table[0] 007E < receive 0154, Ignore Beacon
[2019-09-20 15:00:19.565] Receive Beacon
[2019-09-20 15:00:19.565] Beacon state 0
[2019-09-20 15:00:19.565] Beacon LQI 103, LinkCost 255
[2019-09-20 15:00:19.565] route_cost table[0] 007E < receive 01FE, Ignore Beacon
[2019-09-20 15:00:20.515] Receive Beacon
[2019-09-20 15:00:20.515] Beacon state 0
[2019-09-20 15:00:20.515] Beacon LQI 70, LinkCost 29
[2019-09-20 15:00:20.531] route_cost table[0] 007E < receive 015E, Ignore Beacon
[2019-09-20 15:00:20.656] Receive Beacon
[2019-09-20 15:00:20.656] Beacon state 0
[2019-09-20 15:00:20.656] Beacon LQI 28, LinkCost 255
[2019-09-20 15:00:20.671] route_cost table[0] 007E < receive 0133, Ignore Beacon
[2019-09-20 15:00:21.108] Receive Beacon
[2019-09-20 15:00:21.123] Beacon state 0
[2019-09-20 15:00:21.123] Beacon LQI 45, LinkCost 255
[2019-09-20 15:00:21.123] route_cost table[0] 007E < receive 01FE, Ignore Beacon
[2019-09-20 15:00:21.560] Receive Beacon
[2019-09-20 15:00:21.560] Beacon state 0
[2019-09-20 15:00:21.575] Beacon LQI 100, LinkCost 255
[2019-09-20 15:00:21.575] route_cost table[0] 007E < receive 0164, Ignore Beacon
[2019-09-20 15:00:22.495] Receive Beacon
[2019-09-20 15:00:22.495] Beacon state 0
[2019-09-20 15:00:22.495] Beacon LQI 86, LinkCost 255
[2019-09-20 15:00:22.495] route_cost table[0] 007E < receive 0142, Ignore Beacon
[2019-09-20 15:00:22.510] Receive Beacon
[2019-09-20 15:00:22.510] Beacon state 0
[2019-09-20 15:00:22.526] Beacon LQI 43, LinkCost 255
[2019-09-20 15:00:22.526] route_cost table[0] 007E < receive 0163, Ignore Beacon
[2019-09-20 15:00:22.542] Receive Beacon
[2019-09-20 15:00:22.542] Beacon state 0
[2019-09-20 15:00:22.542] Beacon LQI 90, LinkCost 255
[2019-09-20 15:00:22.557] route_cost table[0] 007E < receive 0162, Ignore Beacon
[2019-09-20 15:00:22.869] Receive Beacon
[2019-09-20 15:00:22.869] Beacon state 0
[2019-09-20 15:00:22.869] Beacon LQI 32, LinkCost 255
[2019-09-20 15:00:22.869] route_cost table[0] 007E < receive 01A0, Ignore Beacon
[2019-09-20 15:00:23.009] Receive Beacon
[2019-09-20 15:00:23.009] Beacon state 0
[2019-09-20 15:00:23.009] Beacon LQI 45, LinkCost 255
[2019-09-20 15:00:23.009] route_cost table[0] 007E < receive 0152, Ignore Beacon
[2019-09-20 15:00:23.446] Receive Beacon
[2019-09-20 15:00:23.446] Beacon state 0
[2019-09-20 15:00:23.446] Beacon LQI 28, LinkCost 35
[2019-09-20 15:00:23.461] Beacone table[0]: PAN 94E3, Addr 014F, R_C 0042, LC 23, Priority 0
[2019-09-20 15:00:25.113] Receive Beacon
[2019-09-20 15:00:25.129] Beacon state 0
[2019-09-20 15:00:25.129] Beacon LQI 96, LinkCost 255
[2019-09-20 15:00:25.129] route_cost table[0] 0065 < receive 016B, Ignore Beacon
[2019-09-20 15:00:25.784] Receive Beacon
[2019-09-20 15:00:25.799] Beacon state 0
[2019-09-20 15:00:25.799] Beacon LQI 106, LinkCost 255
[2019-09-20 15:00:25.799] route_cost table[0] 0065 < receive 017F, Ignore Beacon
[2019-09-20 15:00:26.080] Receive Beacon
[2019-09-20 15:00:26.080] Beacon state 0
[2019-09-20 15:00:26.080] Beacon LQI 83, LinkCost 255
[2019-09-20 15:00:26.080] route_cost table[0] 0065 < receive 013A, Ignore Beacon
[2019-09-20 15:00:27.872] Receive Beacon
[2019-09-20 15:00:27.872] Beacon state 0
[2019-09-20 15:00:27.872] Beacon LQI 28, LinkCost 255
[2019-09-20 15:00:27.888] route_cost table[0] 0065 < receive 0155, Ignore Beacon
[2019-09-20 15:00:28.589] Receive Beacon
[2019-09-20 15:00:28.605] Beacon state 0
[2019-09-20 15:00:28.605] Beacon LQI 85, LinkCost 255
[2019-09-20 15:00:28.605] route_cost table[0] 0065 < receive 0139, Ignore Beacon
[2019-09-20 15:00:28.932] Receive Beacon
[2019-09-20 15:00:28.932] Beacon state 0
[2019-09-20 15:00:28.932] Beacon LQI 66, LinkCost 255
[2019-09-20 15:00:28.932] route_cost table[0] 0065 < receive 0157, Ignore Beacon
[2019-09-20 15:00:29.649] Receive Beacon
[2019-09-20 15:00:29.649] Beacon state 0
[2019-09-20 15:00:29.649] Beacon LQI 78, LinkCost 255
[2019-09-20 15:00:29.649] route_cost table[0] 0065 < receive 0219, Ignore Beacon
[2019-09-20 15:00:29.976] Receive Beacon
[2019-09-20 15:00:29.976] Beacon state 0
[2019-09-20 15:00:29.976] Beacon LQI 39, LinkCost 255
[2019-09-20 15:00:29.992] route_cost table[0] 0065 < receive 0147, Ignore Beacon
[2019-09-20 15:00:30.226] Receive Beacon
[2019-09-20 15:00:30.226] Beacon state 0
[2019-09-20 15:00:30.241] Beacon LQI 76, LinkCost 255
[2019-09-20 15:00:30.241] route_cost table[0] 0065 < receive 0134, Ignore Beacon
[2019-09-20 15:00:30.288] Receive Beacon
[2019-09-20 15:00:30.288] Beacon state 0
[2019-09-20 15:00:30.288] Beacon LQI 43, LinkCost 33
[2019-09-20 15:00:30.288] route_cost table[0] 0065 < receive 018F, Ignore Beacon
[2019-09-20 15:00:30.600] Receive Beacon
[2019-09-20 15:00:30.615] Beacon state 0
[2019-09-20 15:00:30.615] Beacon LQI 65, LinkCost 255
[2019-09-20 15:00:30.615] route_cost table[0] 0065 < receive 015A, Ignore Beacon
[2019-09-20 15:00:31.301] Receive Beacon
[2019-09-20 15:00:31.301] Beacon state 0
[2019-09-20 15:00:31.301] Beacon LQI 106, LinkCost 23
[2019-09-20 15:00:31.317] Beacone table[0]: PAN 94E3, Addr 0098, R_C 003D, LC 17, Priority 0
[2019-09-20 15:00:31.457] Receive Beacon
[2019-09-20 15:00:31.473] Beacon state 0
[2019-09-20 15:00:31.473] Beacon LQI 87, LinkCost 26
[2019-09-20 15:00:31.473] route_cost table[0] 0054 < receive 007F, Ignore Beacon
[2019-09-20 15:00:31.613] Receive Beacon
[2019-09-20 15:00:31.613] Beacon state 0
[2019-09-20 15:00:31.628] Beacon LQI 111, LinkCost 22
[2019-09-20 15:00:31.628] route_cost table[0] 0054 < receive 006C, Ignore Beacon
[2019-09-20 15:00:32.221] Receive Beacon
[2019-09-20 15:00:32.221] Beacon state 0
[2019-09-20 15:00:32.221] Beacon LQI 70, LinkCost 255
[2019-09-20 15:00:32.236] route_cost table[0] 0054 < receive 014F, Ignore Beacon
[2019-09-20 15:00:32.813] Receive Beacon
[2019-09-20 15:00:32.829] Beacon state 0
[2019-09-20 15:00:32.829] Beacon LQI 98, LinkCost 255
[2019-09-20 15:00:32.829] route_cost table[0] 0054 < receive 0327, Ignore Beacon
[2019-09-20 15:00:33.000] Receive Beacon
[2019-09-20 15:00:33.000] Beacon state 0
[2019-09-20 15:00:33.000] Beacon LQI 32, LinkCost 34
[2019-09-20 15:00:33.000] route_cost table[0] 0054 < receive 0175, Ignore Beacon
[2019-09-20 15:00:33.249] Receive Beacon
[2019-09-20 15:00:33.265] Beacon state 0
[2019-09-20 15:00:33.265] Beacon LQI 28, LinkCost 35
[2019-09-20 15:00:33.265] route_cost table[0] 0054 < receive 009D, Ignore Beacon
[2019-09-20 15:00:33.265] Receive Beacon
[2019-09-20 15:00:33.265] Beacon state 0
[2019-09-20 15:00:33.281] Beacon LQI 66, LinkCost 255
[2019-09-20 15:00:33.281] route_cost table[0] 0054 < receive 017A, Ignore Beacon
[2019-09-20 15:00:33.390] Receive Beacon
[2019-09-20 15:00:33.390] Beacon state 0
[2019-09-20 15:00:33.390] Beacon LQI 66, LinkCost 255
[2019-09-20 15:00:33.390] route_cost table[0] 0054 < receive 0217, Ignore Beacon
[2019-09-20 15:00:33.514] Receive Beacon
[2019-09-20 15:00:33.514] Beacon state 0
[2019-09-20 15:00:33.514] Beacon LQI 90, LinkCost 255
[2019-09-20 15:00:33.514] route_cost table[0] 0054 < receive 0191, Ignore Beacon
[2019-09-20 15:00:33.546] Receive Beacon
[2019-09-20 15:00:33.546] Beacon state 0
[2019-09-20 15:00:33.546] Beacon LQI 93, LinkCost 25
[2019-09-20 15:00:33.546] route_cost table[0] 0054 < receive 0094, Ignore Beacon
[2019-09-20 15:00:34.169] Receive Beacon
[2019-09-20 15:00:34.169] Beacon state 0
[2019-09-20 15:00:34.169] Beacon LQI 106, LinkCost 23
[2019-09-20 15:00:34.169] route_cost table[0] 0054 < receive 0090, Ignore Beacon
[2019-09-20 15:00:34.356] Receive Beacon
[2019-09-20 15:00:34.356] Beacon state 0
[2019-09-20 15:00:34.356] Beacon LQI 38, LinkCost 34
[2019-09-20 15:00:34.356] route_cost table[0] 0054 < receive 007B, Ignore Beacon
[2019-09-20 15:00:34.559] Receive Beacon
[2019-09-20 15:00:34.559] Beacon state 0
[2019-09-20 15:00:34.559] Beacon LQI 102, LinkCost 255
[2019-09-20 15:00:34.574] route_cost table[0] 0054 < receive 0218, Ignore Beacon
[2019-09-20 15:00:36.491] Receive Beacon
[2019-09-20 15:00:36.507] Beacon state 0
[2019-09-20 15:00:36.507] Beacon LQI 73, LinkCost 255
[2019-09-20 15:00:36.507] route_cost table[0] 0054 < receive 0247, Ignore Beacon
[2019-09-20 15:00:36.554] Receive Beacon
[2019-09-20 15:00:36.569] Beacon state 0
[2019-09-20 15:00:36.569] Beacon LQI 104, LinkCost 23
[2019-09-20 15:00:36.569] route_cost table[0] 0054 < receive 0133, Ignore Beacon
[2019-09-20 15:00:37.411] PAN:94e3 LBA:0x0098 R_C:0x003d L_C: 0x17, Priority 0
[2019-09-20 15:00:37.411] adpm_discovery_comfirm_cb: Select PAN 94e3
[2019-09-20 15:00:37.411] adpm_discovery_comfirm_cb: History PAN 94e3, join cnt = 1
[2019-09-20 15:00:37.427] Choose Beacon Table[0].join_cost 0054 (0x94E3), Join Wait 2 sec
[2019-09-20 15:00:39.422] Join PAN 94E3 by 0098, Please Wait...
[2019-09-20 15:01:05.404] ReplaceJoinFail[0] = FFFF
[2019-09-20 15:01:05.404] JoinFail[0] = 94E3
[2019-09-20 15:01:05.435] 
[2019-09-20 15:01:05.435] Send Beacon Request
[2019-09-20 15:01:06.433] Receive Beacon
[2019-09-20 15:01:06.448] Beacon state 1
[2019-09-20 15:01:06.448] Beacon LQI 78, LinkCost 255
[2019-09-20 15:01:06.448] Beacone table[0]: PAN 94E3, Addr 0197, R_C 0060, LC FF, Priority 1
[2019-09-20 15:01:06.480] Receive Beacon
[2019-09-20 15:01:06.480] Beacon state 1
[2019-09-20 15:01:06.480] Beacon LQI 95, LinkCost 25
[2019-09-20 15:01:06.495] Beacone table[0]: PAN 94E3, Addr 00BB, R_C 00FF, LC 19, Priority 1
[2019-09-20 15:01:06.495] Receive Beacon
[2019-09-20 15:01:06.511] Beacon state 1
[2019-09-20 15:01:06.511] Beacon LQI 93, LinkCost 255
[2019-09-20 15:01:06.511] route_cost table[0] 0118 < receive 013A, Ignore Beacon
[2019-09-20 15:01:06.558] Receive Beacon
[2019-09-20 15:01:06.573] Beacon state 1
[2019-09-20 15:01:06.573] Beacon LQI 28, LinkCost 255
[2019-09-20 15:01:06.573] route_cost table[0] 0118 < receive 0231, Ignore Beacon
[2019-09-20 15:01:06.604] Receive Beacon
[2019-09-20 15:01:06.620] Beacon state 1
[2019-09-20 15:01:06.620] Beacon LQI 41, LinkCost 255
[2019-09-20 15:01:06.620] route_cost table[0] 0118 < receive 014B, Ignore Beacon
[2019-09-20 15:01:09.098] Receive Beacon
[2019-09-20 15:01:09.114] Beacon state 1
[2019-09-20 15:01:09.114] Beacon LQI 28, LinkCost 255
[2019-09-20 15:01:09.114] route_cost table[0] 0118 < receive 015B, Ignore Beacon
[2019-09-20 15:01:09.472] Receive Beacon
[2019-09-20 15:01:09.472] Beacon state 1
[2019-09-20 15:01:09.472] Beacon LQI 92, LinkCost 25
[2019-09-20 15:01:09.472] Beacone table[0]: PAN 94E3, Addr 00D0, R_C 0065, LC 19, Priority 1
[2019-09-20 15:01:11.218] Receive Beacon
[2019-09-20 15:01:11.218] Beacon state 1
[2019-09-20 15:01:11.218] Beacon LQI 28, LinkCost 255
[2019-09-20 15:01:11.218] route_cost table[0] 007E < receive 0147, Ignore Beacon
[2019-09-20 15:01:11.405] Receive Beacon
[2019-09-20 15:01:11.405] Beacon state 1
[2019-09-20 15:01:11.405] Beacon LQI 66, LinkCost 255
[2019-09-20 15:01:11.405] route_cost table[0] 007E < receive 015B, Ignore Beacon
[2019-09-20 15:01:12.169] Receive Beacon
[2019-09-20 15:01:12.169] Beacon state 1
[2019-09-20 15:01:12.169] Beacon LQI 82, LinkCost 255
[2019-09-20 15:01:12.169] route_cost table[0] 007E < receive 0139, Ignore Beacon
[2019-09-20 15:01:12.574] Receive Beacon
[2019-09-20 15:01:12.574] Beacon state 1
[2019-09-20 15:01:12.574] Beacon LQI 112, LinkCost 22
[2019-09-20 15:01:12.574] route_cost table[0] 007E < receive 0115, Ignore Beacon
[2019-09-20 15:01:14.164] Receive Beacon
[2019-09-20 15:01:14.179] Beacon state 1
[2019-09-20 15:01:14.179] Beacon LQI 94, LinkCost 255
[2019-09-20 15:01:14.179] route_cost table[0] 007E < receive 0162, Ignore Beacon
[2019-09-20 15:01:16.206] Receive Beacon
[2019-09-20 15:01:16.206] Beacon state 1
[2019-09-20 15:01:16.206] Beacon LQI 66, LinkCost 29
[2019-09-20 15:01:16.221] route_cost table[0] 007E < receive 0135, Ignore Beacon
[2019-09-20 15:01:16.252] Receive Beacon
[2019-09-20 15:01:16.252] Beacon state 1
[2019-09-20 15:01:16.252] Beacon LQI 56, LinkCost 255
[2019-09-20 15:01:16.252] route_cost table[0] 007E < receive 0132, Ignore Beacon
[2019-09-20 15:01:18.014] Receive Beacon
[2019-09-20 15:01:18.014] Beacon state 1
[2019-09-20 15:01:18.014] Beacon LQI 93, LinkCost 255
[2019-09-20 15:01:18.014] route_cost table[0] 007E < receive 0217, Ignore Beacon
[2019-09-20 15:01:20.211] Receive Beacon
[2019-09-20 15:01:20.211] Beacon state 1
[2019-09-20 15:01:20.211] Beacon LQI 102, LinkCost 255
[2019-09-20 15:01:20.227] route_cost table[0] 007E < receive 0327, Ignore Beacon
[2019-09-20 15:01:20.601] Receive Beacon
[2019-09-20 15:01:20.617] Beacon state 1
[2019-09-20 15:01:20.617] Beacon LQI 107, LinkCost 23
[2019-09-20 15:01:20.617] Beacone table[0]: PAN 94E3, Addr 00A7, R_C 0057, LC 17, Priority 1
[2019-09-20 15:01:27.069] Receive Beacon
[2019-09-20 15:01:27.069] Beacon state 1
[2019-09-20 15:01:27.085] Beacon LQI 76, LinkCost 255
[2019-09-20 15:01:27.085] route_cost table[0] 006E < receive 014B, Ignore Beacon
[2019-09-20 15:01:27.895] Receive Beacon
[2019-09-20 15:01:27.911] Beacon state 1
[2019-09-20 15:01:27.911] Beacon LQI 98, LinkCost 255
[2019-09-20 15:01:27.911] route_cost table[0] 006E < receive 01FE, Ignore Beacon
[2019-09-20 15:01:27.958] Receive Beacon
[2019-09-20 15:01:27.973] Beacon state 1
[2019-09-20 15:01:27.973] Beacon LQI 109, LinkCost 22
[2019-09-20 15:01:27.973] route_cost table[0] 006E < receive 0115, Ignore Beacon
[2019-09-20 15:01:28.644] Receive Beacon
[2019-09-20 15:01:28.644] Beacon state 1
[2019-09-20 15:01:28.644] Beacon LQI 100, LinkCost 255
[2019-09-20 15:01:28.659] route_cost table[0] 006E < receive 01FE, Ignore Beacon
[2019-09-20 15:01:29.189] Receive Beacon
[2019-09-20 15:01:29.189] Beacon state 1
[2019-09-20 15:01:29.189] Beacon LQI 51, LinkCost 255
[2019-09-20 15:01:29.189] route_cost table[0] 006E < receive 0154, Ignore Beacon
[2019-09-20 15:01:29.283] Receive Beacon
[2019-09-20 15:01:29.283] Beacon state 1
[2019-09-20 15:01:29.283] Beacon LQI 99, LinkCost 24
[2019-09-20 15:01:29.283] route_cost table[0] 006E < receive 0091, Ignore Beacon
[2019-09-20 15:01:29.438] PAN:94e3 LBA:0x00a7 R_C:0x0057 L_C: 0x17, Priority 1
[2019-09-20 15:01:29.438] adpm_discovery_comfirm_cb: All Priority Low, Ignore Priority
[2019-09-20 15:01:29.438] adpm_discovery_comfirm_cb: Mini join  PAN 94e3, join cnt = 1
[2019-09-20 15:01:29.454] adpm_discovery_comfirm_cb: Select PAN 94e3
[2019-09-20 15:01:29.454] adpm_discovery_comfirm_cb: History PAN 94e3, join cnt = 2
[2019-09-20 15:01:29.454] Choose Beacon Table[0].join_cost 006E (0x94E3), Join Wait 3 sec
[2019-09-20 15:01:32.462] Join PAN 94E3 by 00A7, Please Wait...
[2019-09-20 15:01:35.081] [S->D] Bootstrap: Receive_Msg1
[2019-09-20 15:01:35.096] [D->S] Bootstrap: Send_eap_psk_msg2
[2019-09-20 15:01:36.967] [S->D] Bootstrap: Receive_Msg3
[2019-09-20 15:01:36.982] [D->S] Bootstrap: Send_eap_psk_msg4
[2019-09-20 15:01:37.886] [S->D] Bootstrap: Get_Accept: 0000
[2019-09-20 15:01:38.479] ChipVer	: V6vtmm_flush_nvram(1170) nvram_rom= 0x0007f000 0x0007e000, ptr = 0x20001214, size = 1892 chk = 0x60daa1b2
[2019-09-20 15:01:38.556] 		  -> Join_PAN_Success! (Addr: 0x01C8, PAN: 0x94E3)
[2019-09-20 15:01:38.556] Join CB: 
[2019-09-20 15:01:38.572] 
[2019-09-20 15:01:38.572]       83 11 39 02 00 00 
[2019-09-20 15:01:38.572] 
[2019-09-20 15:01:43.778] 
[2019-09-20 15:01:43.778] vt# Add D:00FC O:0000  seq:23915 to RREQ History[0]
[2019-09-20 15:02:35.634] Add D:0000 O:00FC  seq:1189 to RREQ History[1]
[2019-09-20 15:02:59.045] 
[2019-09-20 15:02:59.045] vt# 
[2019-09-20 15:02:59.294] vt# 
[2019-09-20 15:02:59.512] vt# >> holley_send_heartbeat(20)
[2019-09-20 15:03:12.075] 
[2019-09-20 15:03:12.075]       68 0e 0e 68 5a 99 99 06 82 05 55 30 00 aa aa 00 
[2019-09-20 15:03:12.075]       01 00 77 16 
[2019-09-20 15:03:12.075] 
[2019-09-20 15:03:15.691] Add D:0134 O:01C6  seq:2128 to RREQ History[2]
[2019-09-20 15:03:30.688] Add D:017F O:0004  seq:800 to RREQ History[3]
[2019-09-20 15:04:02.237] Add D:017F O:0000  seq:23916 to RREQ History[4]
[2019-09-20 15:06:12.503] >> holley_send_heartbeat(20)
[2019-09-20 15:06:12.503] 
[2019-09-20 15:06:12.503]       68 0e 0e 68 5a 99 99 06 82 05 55 30 00 aa aa 00 
[2019-09-20 15:06:12.519]       01 00 77 16 
[2019-09-20 15:06:12.519] 
[2019-09-20 15:06:13.065] 
[2019-09-20 15:06:13.065] Receive beacon_request
[2019-09-20 15:06:13.065]     ->form: 565114FFFE020000
[2019-09-20 15:06:16.231] 
[2019-09-20 15:06:16.231] vt# 
[2019-09-20 15:06:16.761] vt# 
[2019-09-20 15:06:16.808] vt# 
[2019-09-20 15:06:16.839] vt# 
[2019-09-20 15:06:16.886] vt# 
[2019-09-20 15:06:16.917] vt# 
[2019-09-20 15:06:16.948] vt# 
[2019-09-20 15:06:16.995] vt# 
[2019-09-20 15:06:17.026] vt# 
[2019-09-20 15:06:17.073] vt# 
[2019-09-20 15:06:17.104] vt# 
[2019-09-20 15:06:17.135] vt# 
[2019-09-20 15:06:17.182] vt# 
[2019-09-20 15:06:17.213] vt# 
[2019-09-20 15:06:17.260] vt# 
[2019-09-20 15:06:17.291] vt# Send RREP, Dest Addr 0x0000, Next 0x0000, Seq 0, Flag 0, size 14
[2019-09-20 15:06:35.085] Tx Packet Give Up (TxCMP, nack_or_ackto = 3)
[2019-09-20 15:06:35.085] vtmac_pkt_do_fragmentation() tmr force = 1
[2019-09-20 15:06:35.990] Robust retry fail
[2019-09-20 15:06:35.990] Set Neighbor Table[40] : 0x0000 tmr valid time to zero
[2019-09-20 15:06:35.990] RREP or PREP send fail, A BL, G RERR
[2019-09-20 15:06:36.005] Add 0000 to BlackList[0]
[2019-09-20 15:06:36.005] RERR dest is myself, Stop RERR
[2019-09-20 15:06:36.005] Send RREQ, Dest 0x0000, Seq 0, Flag 0
[2019-09-20 15:06:41.542] Route Discovery Success (Dest 0x0000, Next 0x0003, Hop 3)
[2019-09-20 15:06:41.557] vtmsg_nwk_event
[2019-09-20 15:06:41.682] >> proc_rx_from_plc: Rx from SHORT-PLC(26)
[2019-09-20 15:06:41.682] 
[2019-09-20 15:06:41.682]       56 83 11 39 02 00 00 01 00 00 0c 00 01 06 09 7e 
[2019-09-20 15:06:41.698]       a0 07 03 23 93 bf 32 7e 39 54 
[2019-09-20 15:06:41.698] 
[2019-09-20 15:06:41.698] g_plc_msg_hdr.dest_addr = 00 00 
[2019-09-20 15:06:41.698] 
[2019-09-20 15:06:41.698]       56 83 11 39 02 00 00 01 00 00 0c 00 01 06 09 7e 
[2019-09-20 15:06:41.698]       a0 07 03 23 93 bf 32 7e 39 54 
[2019-09-20 15:06:41.713] 
[2019-09-20 15:06:41.713] >> proc_rx_from_plc: vt-seq:(0)
[2019-09-20 15:06:41.713] >> query [VT-QUERY] remove VT header
[2019-09-20 15:06:41.760] >> proc_rx_from_uart: (32) idx:0
[2019-09-20 15:06:41.760] g_plc_msg_hdr.dest_addr = 00 00 
[2019-09-20 15:06:41.760] >> vt_ptcl_rebuild_buf: Tx to DCU [VT-QUERY](59)
[2019-09-20 15:06:41.760] >> proc_rx_from_uart: vt-seq:(0)
[2019-09-20 15:06:41.776] >> proc_rx_from_uart: Tx to DCU (59)
[2019-09-20 15:06:41.776] 
[2019-09-20 15:06:41.776]       56 83 11 39 02 00 00 81 00 00 2d 00 01 06 20 7e 
[2019-09-20 15:06:41.776]       a0 1e 23 03 73 7b cf 81 80 12 05 01 80 06 01 80 
[2019-09-20 15:06:41.776]       07 04 00 00 00 01 08 04 00 00 00 01 53 3b 7e 01 
[2019-09-20 15:06:41.791]       02 03 00 03 35 01 01 01 00 49 54 
[2019-09-20 15:06:41.791] 
[2019-09-20 15:06:42.524] 
[2019-09-20 15:06:42.524] Send ToneMap Response(0003), Mod D-1 0xC78000
[2019-09-20 15:06:43.148] >> proc_rx_from_plc: Rx from SHORT-PLC(65)
[2019-09-20 15:06:43.163] 
[2019-09-20 15:06:43.163]       56 83 11 39 02 00 00 01 00 00 33 00 01 06 30 7e 
[2019-09-20 15:06:43.163]       a0 2e 03 23 10 1c f2 e6 e6 00 60 20 80 02 07 80 
[2019-09-20 15:06:43.163]       a1 09 06 07 60 85 74 05 08 01 01 be 0f 04 0d 01 
[2019-09-20 15:06:43.179]       00 00 00 06 5f 04 00 ff ff ff 28 00 9f 38 7e 00 
[2019-09-20 15:06:43.179]       54 
[2019-09-20 15:06:43.179] 
[2019-09-20 15:06:43.179] g_plc_msg_hdr.dest_addr = 00 00 
[2019-09-20 15:06:43.179] 
[2019-09-20 15:06:43.179]       56 83 11 39 02 00 00 01 00 00 33 00 01 06 30 7e 
[2019-09-20 15:06:43.195]       a0 2e 03 23 10 1c f2 e6 e6 00 60 20 80 02 07 80 
[2019-09-20 15:06:43.195]       a1 09 06 07 60 85 74 05 08 01 01 be 0f 04 0d 01 
[2019-09-20 15:06:43.195]       00 00 00 06 5f 04 00 ff ff ff 28 00 9f 38 7e 00 
[2019-09-20 15:06:43.195]       54 
[2019-09-20 15:06:43.210] 
[2019-09-20 15:06:43.210] >> proc_rx_from_plc: vt-seq:(0)
[2019-09-20 15:06:43.210] >> query [VT-QUERY] remove VT header
[2019-09-20 15:06:43.319] >> proc_rx_from_uart: (57) idx:0
[2019-09-20 15:06:43.319] g_plc_msg_hdr.dest_addr = 00 00 
[2019-09-20 15:06:43.335] >> vt_ptcl_rebuild_buf: Tx to DCU [VT-QUERY](84)
[2019-09-20 15:06:43.335] >> proc_rx_from_uart: vt-seq:(0)
[2019-09-20 15:06:43.335] >> proc_rx_from_uart: Tx to DCU (84)
[2019-09-20 15:06:43.335] 
[2019-09-20 15:06:43.335]       56 83 11 39 02 00 00 81 00 00 46 00 01 06 39 7e 
[2019-09-20 15:06:43.351]       a0 37 23 03 30 d4 c9 e6 e7 00 61 29 a1 09 06 07 
[2019-09-20 15:06:43.351]       60 85 74 05 08 01 01 a2 03 02 01 00 a3 05 a1 03 
[2019-09-20 15:06:43.351]       02 01 00 be 10 04 0e 08 00 06 5f 1f 04 00 00 1a 
[2019-09-20 15:06:43.351]       1d 01 90 00 07 62 51 7e 01 02 03 00 03 30 01 01 
[2019-09-20 15:06:43.366]       01 00 37 54 
[2019-09-20 15:06:43.366] 
[2019-09-20 15:06:43.522] C(0003)C(0003)C(0003)DPABLAdd 0003 to BlackList[1]
[2019-09-20 15:06:44.520] C(0003)DPABLC(0003)Add Neighbor Table Fail(BlackList 0x0003)
[2019-09-20 15:06:47.499] C BLH[1]0003 == 0003
[2019-09-20 15:06:47.499] get_link_cost() addr 0x0003 in BLH
[2019-09-20 15:06:47.515] C BLH[1]0003 == 0003
[2019-09-20 15:06:47.530] get_link_cost() addr 0x0003 in BLH
[2019-09-20 15:06:47.561] C BLH[1]0003 == 0003
[2019-09-20 15:06:47.561] get_link_cost() addr 0x0003 in BLH
[2019-09-20 15:06:47.593] C BLH[1]0003 == 0003
[2019-09-20 15:06:47.593] get_link_cost() addr 0x0003 in BLH
[2019-09-20 15:06:47.639] C BLH[1]0003 == 0003
[2019-09-20 15:06:47.639] get_link_cost() addr 0x0003 in BLH
[2019-09-20 15:06:47.655] C BLH[1]0003 == 0003
[2019-09-20 15:06:47.671] get_link_cost() addr 0x0003 in BLH
[2019-09-20 15:06:47.686] C BLH[1]0003 == 0003
[2019-09-20 15:06:47.686] get_link_cost() addr 0x0003 in BLH
[2019-09-20 15:06:47.702] C BLH[1]0003 == 0003
[2019-09-20 15:06:47.702] get_link_cost() addr 0x0003 in BLH
[2019-09-20 15:06:47.717] C BLH[1]0003 == 0003
[2019-09-20 15:06:47.733] get_link_cost() addr 0x0003 in BLH
[2019-09-20 15:06:47.858] C BLH[1]0003 == 0003
[2019-09-20 15:06:47.858] get_link_cost() addr 0x0003 in BLH
[2019-09-20 15:06:47.873] C BLH[1]0003 == 0003
[2019-09-20 15:06:47.873] get_link_cost() addr 0x0003 in BLH
[2019-09-20 15:06:47.951] C BLH[1]0003 == 0003
[2019-09-20 15:06:47.951] get_link_cost() addr 0x0003 in BLH
[2019-09-20 15:06:47.998] C BLH[1]0003 == 0003
[2019-09-20 15:06:48.014] get_link_cost() addr 0x0003 in BLH
[2019-09-20 15:06:48.045] C BLH[1]0003 == 0003
[2019-09-20 15:06:48.045] get_link_cost() addr 0x0003 in BLH
[2019-09-20 15:06:48.076] C BLH[1]0003 == 0003
[2019-09-20 15:06:48.076] get_link_cost() addr 0x0003 in BLH
[2019-09-20 15:06:48.216] C BLH[1]0003 == 0003
[2019-09-20 15:06:48.216] get_link_cost() addr 0x0003 in BLH
[2019-09-20 15:06:48.232] C BLH[1]0003 == 0003
[2019-09-20 15:06:48.232] get_link_cost() addr 0x0003 in BLH
[2019-09-20 15:06:48.248] C BLH[1]0003 == 0003
[2019-09-20 15:06:48.248] get_link_cost() addr 0x0003 in BLH
[2019-09-20 15:06:50.665] Send RREP, Dest Addr 0x0003, Next 0x00b2, Seq 1, Flag 8, size 14
[2019-09-20 15:06:51.912] >> proc_rx_from_plc: Rx from SHORT-PLC(44)
[2019-09-20 15:06:51.928] 
[2019-09-20 15:06:51.928]       56 83 11 39 02 00 00 01 00 00 1e 00 01 06 1b 7e 
[2019-09-20 15:06:51.928]       a0 19 03 23 32 df eb e6 e6 00 c0 01 41 00 03 01 
[2019-09-20 15:06:51.928]       00 01 08 00 ff 02 00 29 fa 7e e6 54 
[2019-09-20 15:06:51.928] 
[2019-09-20 15:06:51.928] g_plc_msg_hdr.dest_addr = 00 00 
[2019-09-20 15:06:51.944] 
[2019-09-20 15:06:51.944]       56 83 11 39 02 00 00 01 00 00 1e 00 01 06 1b 7e 
[2019-09-20 15:06:51.944]       a0 19 03 23 32 df eb e6 e6 00 c0 01 41 00 03 01 
[2019-09-20 15:06:51.944]       00 01 08 00 ff 02 00 29 fa 7e e6 54 
[2019-09-20 15:06:51.959] 
[2019-09-20 15:06:51.959] >> proc_rx_from_plc: vt-seq:(0)
[2019-09-20 15:06:51.959] >> query [VT-QUERY] remove VT header
[2019-09-20 15:06:52.022] >> proc_rx_from_uart: (23) idx:0
[2019-09-20 15:06:52.022] g_plc_msg_hdr.dest_addr = 00 00 
[2019-09-20 15:06:52.037] >> vt_ptcl_rebuild_buf: Tx to DCU [VT-QUERY](50)
[2019-09-20 15:06:52.037] >> proc_rx_from_uart: vt-seq:(0)
[2019-09-20 15:06:52.037] >> proc_rx_from_uart: Tx to DCU (50)
[2019-09-20 15:06:52.037] 
[2019-09-20 15:06:52.037]       56 83 11 39 02 00 00 81 00 00 24 00 01 06 17 7e 
[2019-09-20 15:06:52.053]       a0 15 23 03 52 e5 3f e6 e7 00 c4 01 41 00 06 00 
[2019-09-20 15:06:52.053]       00 00 6c 0a 37 7e 01 02 03 00 b2 51 01 01 01 01 
[2019-09-20 15:06:52.053]       72 54 
[2019-09-20 15:06:52.053] 
[2019-09-20 15:06:52.692] 
[2019-09-20 15:06:52.692] Send ToneMap Response(00B2), Mod D-3 0xC7F087
[2019-09-20 15:06:53.831] Add D:0010 O:0000  seq:23917 to RREQ History[5]
[2019-09-20 15:06:55.390] 
[2019-09-20 15:06:55.390] Receive beacon_request
[2019-09-20 15:06:55.406]     ->form: 565114FFFE020000
[2019-09-20 15:07:02.782] Add Neighbor Table Fail(BlackList 0x0003)
[2019-09-20 15:07:03.312] Add Neighbor Table Fail(BlackList 0x0003)
[2019-09-20 15:07:03.437] Send Beacon (RC_COORD 0x180)
[2019-09-20 15:07:10.018] 
[2019-09-20 15:07:10.018] vt# 
[2019-09-20 15:07:10.533] vt# 
[2019-09-20 15:07:10.580] vt# 
[2019-09-20 15:07:10.611] vt# 
[2019-09-20 15:07:10.658] vt# 
[2019-09-20 15:07:10.689] vt# 
[2019-09-20 15:07:10.720] vt# 
[2019-09-20 15:07:10.767] vt# 
[2019-09-20 15:07:10.798] vt# 
[2019-09-20 15:07:10.845] vt# 
[2019-09-20 15:07:10.876] vt# 
[2019-09-20 15:07:10.907] vt# 
[2019-09-20 15:07:10.954] vt# 
[2019-09-20 15:07:10.985] vt# Add Neighbor Table Fail(BlackList 0x0003)
[2019-09-20 15:08:15.737] Drop RREQ(BlackList 0x0003)
[2019-09-20 15:08:15.768] Add Neighbor Table Fail(BlackList 0x0003)
[2019-09-20 15:08:42.844] Add D:010A O:01C6  seq:2129 to RREQ History[6]
[2019-09-20 15:08:59.815] Add Neighbor Table Fail(BlackList 0x0003)
[2019-09-20 15:08:59.831] Drop RREQ(BlackList 0x0003)
[2019-09-20 15:09:14.057] Add Neighbor Table Fail(BlackList 0x0003)
[2019-09-20 15:09:17.816] Add Neighbor Table Fail(BlackList 0x0003)
[2019-09-20 15:09:17.831] Drop RREQ(BlackList 0x0003)
[2019-09-20 15:09:17.909] Add Neighbor Table Fail(BlackList 0x0003)
[2019-09-20 15:09:30.606] Add D:00A6 O:0000  seq:23919 to RREQ History[7]
[2019-09-20 15:09:41.634] Add Neighbor Table Fail(BlackList 0x0003)
[2019-09-20 15:09:41.634] Drop RREQ(BlackList 0x0003)
[2019-09-20 15:09:48.170] Add D:0197 O:0000  seq:23920 to RREQ History[8]
[2019-09-20 15:09:51.960] >> holley_send_heartbeat(20)
[2019-09-20 15:09:51.960] 
[2019-09-20 15:09:51.960]       68 0e 0e 68 5a 99 99 06 82 05 55 30 00 aa aa 00 
[2019-09-20 15:09:51.960]       01 00 77 16 
[2019-09-20 15:09:51.976] 
[2019-09-20 15:09:52.959] Add Neighbor Table Fail(BlackList 0x0000)
[2019-09-20 15:09:53.520] C BLH[0]0000 == 0000
[2019-09-20 15:09:53.520] get_link_cost() addr 0x0000 in BLH
[2019-09-20 15:09:53.567] C BLH[0]0000 == 0000
[2019-09-20 15:09:53.583] get_link_cost() addr 0x0000 in BLH
[2019-09-20 15:09:53.598] C BLH[0]0000 == 0000
[2019-09-20 15:09:53.598] get_link_cost() addr 0x0000 in BLH
[2019-09-20 15:09:53.629] C BLH[0]0000 == 0000
[2019-09-20 15:09:53.645] get_link_cost() addr 0x0000 in BLH
[2019-09-20 15:09:53.692] C BLH[0]0000 == 0000
[2019-09-20 15:09:53.692] get_link_cost() addr 0x0000 in BLH
[2019-09-20 15:09:53.707] C BLH[0]0000 == 0000
[2019-09-20 15:09:53.707] get_link_cost() addr 0x0000 in BLH
[2019-09-20 15:09:53.723] C BLH[0]0000 == 0000
[2019-09-20 15:09:53.739] get_link_cost() addr 0x0000 in BLH
[2019-09-20 15:09:53.754] C BLH[0]0000 == 0000
[2019-09-20 15:09:53.754] get_link_cost() addr 0x0000 in BLH
[2019-09-20 15:09:53.785] C BLH[0]0000 == 0000
[2019-09-20 15:09:53.785] get_link_cost() addr 0x0000 in BLH
[2019-09-20 15:09:53.801] C BLH[0]0000 == 0000
[2019-09-20 15:09:53.801] get_link_cost() addr 0x0000 in BLH
[2019-09-20 15:09:53.817] C BLH[0]0000 == 0000
[2019-09-20 15:09:53.832] get_link_cost() addr 0x0000 in BLH
[2019-09-20 15:09:53.879] C BLH[0]0000 == 0000
[2019-09-20 15:09:53.879] get_link_cost() addr 0x0000 in BLH
[2019-09-20 15:09:53.957] C BLH[0]0000 == 0000
[2019-09-20 15:09:53.973] get_link_cost() addr 0x0000 in BLH
[2019-09-20 15:09:54.004] C BLH[0]0000 == 0000
[2019-09-20 15:09:54.004] get_link_cost() addr 0x0000 in BLH
[2019-09-20 15:09:54.019] C BLH[0]0000 == 0000
[2019-09-20 15:09:54.019] get_link_cost() addr 0x0000 in BLH
[2019-09-20 15:09:54.035] C BLH[0]0000 == 0000
[2019-09-20 15:09:54.051] get_link_cost() addr 0x0000 in BLH
[2019-09-20 15:09:54.051] C BLH[0]0000 == 0000
[2019-09-20 15:09:54.066] get_link_cost() addr 0x0000 in BLH
[2019-09-20 15:09:54.082] C BLH[0]0000 == 0000
[2019-09-20 15:09:54.082] get_link_cost() addr 0x0000 in BLH
[2019-09-20 15:09:54.097] C BLH[0]0000 == 0000
[2019-09-20 15:09:54.113] get_link_cost() addr 0x0000 in BLH
[2019-09-20 15:09:54.175] C BLH[0]0000 == 0000
[2019-09-20 15:09:54.175] get_link_cost() addr 0x0000 in BLH
[2019-09-20 15:09:54.191] C BLH[0]0000 == 0000
[2019-09-20 15:09:54.191] get_link_cost() addr 0x0000 in BLH
[2019-09-20 15:09:54.253] C BLH[0]0000 == 0000
[2019-09-20 15:09:54.253] get_link_cost() addr 0x0000 in BLH
[2019-09-20 15:09:54.363] C BLH[0]0000 == 0000
[2019-09-20 15:09:54.363] get_link_cost() addr 0x0000 in BLH
[2019-09-20 15:09:54.487] C BLH[0]0000 == 0000
[2019-09-20 15:09:54.487] get_link_cost() addr 0x0000 in BLH
[2019-09-20 15:09:54.503] C BLH[0]0000 == 0000
[2019-09-20 15:09:54.519] get_link_cost() addr 0x0000 in BLH
[2019-09-20 15:09:54.534] C BLH[0]0000 == 0000
[2019-09-20 15:09:54.534] get_link_cost() addr 0x0000 in BLH
[2019-09-20 15:09:54.550] C BLH[0]0000 == 0000
[2019-09-20 15:09:54.550] get_link_cost() addr 0x0000 in BLH
[2019-09-20 15:09:54.612] C BLH[0]0000 == 0000
[2019-09-20 15:09:54.612] get_link_cost() addr 0x0000 in BLH
[2019-09-20 15:09:54.690] C BLH[0]0000 == 0000
[2019-09-20 15:09:54.690] get_link_cost() addr 0x0000 in BLH
[2019-09-20 15:09:54.706] C BLH[0]0000 == 0000
[2019-09-20 15:09:54.706] get_link_cost() addr 0x0000 in BLH
[2019-09-20 15:09:54.753] C BLH[0]0000 == 0000
[2019-09-20 15:09:54.768] get_link_cost() addr 0x0000 in BLH
[2019-09-20 15:09:54.799] C BLH[0]0000 == 0000
[2019-09-20 15:09:54.799] get_link_cost() addr 0x0000 in BLH
[2019-09-20 15:09:54.815] C BLH[0]0000 == 0000
[2019-09-20 15:09:54.831] get_link_cost() addr 0x0000 in BLH
[2019-09-20 15:09:54.831] C BLH[0]0000 == 0000
[2019-09-20 15:09:54.846] get_link_cost() addr 0x0000 in BLH
[2019-09-20 15:09:54.893] C BLH[0]0000 == 0000
[2019-09-20 15:09:54.893] get_link_cost() addr 0x0000 in BLH
[2019-09-20 15:09:54.940] C BLH[0]0000 == 0000
[2019-09-20 15:09:54.940] get_link_cost() addr 0x0000 in BLH
[2019-09-20 15:09:55.002] C BLH[0]0000 == 0000
[2019-09-20 15:09:55.002] get_link_cost() addr 0x0000 in BLH
[2019-09-20 15:09:55.018] C BLH[0]0000 == 0000
[2019-09-20 15:09:55.033] get_link_cost() addr 0x0000 in BLH
[2019-09-20 15:09:55.111] C BLH[0]0000 == 0000
[2019-09-20 15:09:55.111] get_link_cost() addr 0x0000 in BLH
[2019-09-20 15:09:55.189] C BLH[0]0000 == 0000
[2019-09-20 15:09:55.189] get_link_cost() addr 0x0000 in BLH
[2019-09-20 15:09:55.236] C BLH[0]0000 == 0000
[2019-09-20 15:09:55.236] get_link_cost() addr 0x0000 in BLH
[2019-09-20 15:09:55.283] C BLH[0]0000 == 0000
[2019-09-20 15:09:55.283] get_link_cost() addr 0x0000 in BLH
[2019-09-20 15:09:55.298] C BLH[0]0000 == 0000
[2019-09-20 15:09:55.314] get_link_cost() addr 0x0000 in BLH
[2019-09-20 15:09:55.361] C BLH[0]0000 == 0000
[2019-09-20 15:09:55.361] get_link_cost() addr 0x0000 in BLH
[2019-09-20 15:09:55.517] C BLH[0]0000 == 0000
[2019-09-20 15:09:55.532] get_link_cost() addr 0x0000 in BLH
[2019-09-20 15:09:55.532] C BLH[0]0000 == 0000
[2019-09-20 15:09:55.548] get_link_cost() addr 0x0000 in BLH
[2019-09-20 15:09:55.626] C BLH[0]0000 == 0000
[2019-09-20 15:09:55.626] get_link_cost() addr 0x0000 in BLH
[2019-09-20 15:09:55.751] C BLH[0]0000 == 0000
[2019-09-20 15:09:55.751] get_link_cost() addr 0x0000 in BLH
[2019-09-20 15:09:55.782] C BLH[0]0000 == 0000
[2019-09-20 15:09:55.782] get_link_cost() addr 0x0000 in BLH
[2019-09-20 15:09:55.985] C BLH[0]0000 == 0000
[2019-09-20 15:09:55.985] get_link_cost() addr 0x0000 in BLH
[2019-09-20 15:09:56.219] C BLH[0]0000 == 0000
[2019-09-20 15:09:56.219] get_link_cost() addr 0x0000 in BLH
[2019-09-20 15:09:56.266] C BLH[0]0000 == 0000
[2019-09-20 15:09:56.266] get_link_cost() addr 0x0000 in BLH
[2019-09-20 15:10:00.508] Add D:00E5 O:0000  seq:23921 to RREQ History[9]
[2019-09-20 15:10:05.110] Add Neighbor Table Fail(BlackList 0x0003)
[2019-09-20 15:10:05.765] C BLH[1]0003 == 0003
[2019-09-20 15:10:05.765] get_link_cost() addr 0x0003 in BLH
[2019-09-20 15:10:05.827] C BLH[1]0003 == 0003
[2019-09-20 15:10:05.827] get_link_cost() addr 0x0003 in BLH
[2019-09-20 15:10:05.859] C BLH[1]0003 == 0003
[2019-09-20 15:10:05.859] get_link_cost() addr 0x0003 in BLH
[2019-09-20 15:10:05.890] C BLH[1]0003 == 0003
[2019-09-20 15:10:05.890] get_link_cost() addr 0x0003 in BLH
[2019-09-20 15:10:05.937] C BLH[1]0003 == 0003
[2019-09-20 15:10:05.937] get_link_cost() addr 0x0003 in BLH
[2019-09-20 15:10:05.952] C BLH[1]0003 == 0003
[2019-09-20 15:10:05.952] get_link_cost() addr 0x0003 in BLH
[2019-09-20 15:10:06.030] C BLH[1]0003 == 0003
[2019-09-20 15:10:06.030] get_link_cost() addr 0x0003 in BLH
[2019-09-20 15:10:09.852] 
[2019-09-20 15:10:09.852] vt# 
[2019-09-20 15:10:10.382] vt# 
[2019-09-20 15:10:10.413] vt# 
[2019-09-20 15:10:10.444] vt# 
[2019-09-20 15:10:10.491] vt# 
[2019-09-20 15:10:10.522] vt# 
[2019-09-20 15:10:10.554] vt# 
[2019-09-20 15:10:10.600] vt# Add D:0000 O:00E5  seq:865 to RREQ History[10]
[2019-09-20 15:10:10.632] 
[2019-09-20 15:10:10.632] vt# >> proc_rx_from_plc: Rx from SHORT-PLC(26)
[2019-09-20 15:10:10.663] 
[2019-09-20 15:10:10.663]       56 83 11 39 02 00 00 01 00 00 0c 00 01 06 09 7e 
[2019-09-20 15:10:10.678]       a0 07 0
[2019-09-20 15:10:10.678] vt# 3 23 53 b3 f4 7e af 54 
[2019-09-20 15:10:10.678] 
[2019-09-20 15:10:10.678] g_plc_msg_hdr.dest_addr = 00 00 
[2019-09-20 15:10:10.678] 
[2019-09-20 15:10:10.678]       56 83 11 39 02 00 00 01 00 00 0c 00 01 06 09 7e 
[2019-09-20 15:10:10.678]       a0 07 03 23 53 b3 f4 7e af 54 
[2019-09-20 15:10:10.694] 
[2019-09-20 15:10:10.694] >> proc_rx_from_plc: vt-seq:(0)
[2019-09-20 15:10:10.694] >> query [VT-QUERY] remove VT header
[2019-09-20 15:10:10.710] 
[2019-09-20 15:10:10.710] vt# >> proc_rx_from_uart: (32) idx:0
[2019-09-20 15:10:10.741] g_plc_msg_hdr.dest_addr = 00 00 
[2019-09-20 15:10:10.741] >> vt_ptcl_rebuild_buf: Tx to DCU [VT-QUERY](59)
[2019-09-20 15:10:10.756] >> proc_rx_from_ua
[2019-09-20 15:10:10.756] vt# rt: vt-seq:(0)
[2019-09-20 15:10:10.756] >> proc_rx_from_uart: Tx to DCU (59)
[2019-09-20 15:10:10.756] 
[2019-09-20 15:10:10.756]       56 83 11 39 02 00 00 81 00 00 2d 00 01 06 20 7e 
[2019-09-20 15:10:10.756]       a0 1e 23 03 73 7b cf 81 80 12 05 01 80 06 01 80 
[2019-09-20 15:10:10.772]       07 04 00 00 00 01 08 04 00 00 00 01 53 3b 7e 01 
[2019-09-20 15:10:10.772]       02 03 00 b2 4e 01 01 01 01 12 54 
[2019-09-20 15:10:10.772] 
[2019-09-20 15:10:10.788] 
[2019-09-20 15:10:10.788] vt# 
[2019-09-20 15:10:10.819] vt# 
[2019-09-20 15:10:10.866] vt# 
[2019-09-20 15:10:10.897] vt# 
[2019-09-20 15:10:11.614] Send ToneMap Response(00B2), Mod D-2 0xE7FCC7
[2019-09-20 15:10:12.457] >> proc_rx_from_plc: Rx from SHORT-PLC(26)
[2019-09-20 15:10:12.472] 
[2019-09-20 15:10:12.472]       56 83 11 39 02 00 00 01 00 00 0c 00 01 06 09 7e 
[2019-09-20 15:10:12.472]       a0 07 03 23 93 bf 32 7e 39 54 
[2019-09-20 15:10:12.472] 
[2019-09-20 15:10:12.472] g_plc_msg_hdr.dest_addr = 00 00 
[2019-09-20 15:10:12.488] 
[2019-09-20 15:10:12.488]       56 83 11 39 02 00 00 01 00 00 0c 00 01 06 09 7e 
[2019-09-20 15:10:12.488]       a0 07 03 23 93 bf 32 7e 39 54 
[2019-09-20 15:10:12.488] 
[2019-09-20 15:10:12.488] >> proc_rx_from_plc: vt-seq:(0)
[2019-09-20 15:10:12.488] >> query [VT-QUERY] remove VT header
[2019-09-20 15:10:12.535] >> proc_rx_from_uart: (32) idx:0
[2019-09-20 15:10:12.535] g_plc_msg_hdr.dest_addr = 00 00 
[2019-09-20 15:10:12.550] >> vt_ptcl_rebuild_buf: Tx to DCU [VT-QUERY](59)
[2019-09-20 15:10:12.550] >> proc_rx_from_uart: vt-seq:(0)
[2019-09-20 15:10:12.550] >> proc_rx_from_uart: Tx to DCU (59)
[2019-09-20 15:10:12.550] 
[2019-09-20 15:10:12.550]       56 83 11 39 02 00 00 81 00 00 2d 00 01 06 20 7e 
[2019-09-20 15:10:12.566]       a0 1e 23 03 73 7b cf 81 80 12 05 01 80 06 01 80 
[2019-09-20 15:10:12.566]       07 04 00 00 00 01 08 04 00 00 00 01 53 3b 7e 01 
[2019-09-20 15:10:12.566]       02 03 00 b2 4f 01 01 01 01 13 54 
[2019-09-20 15:10:12.566] 
[2019-09-20 15:10:13.517] >> proc_rx_from_plc: Rx from SHORT-PLC(65)
[2019-09-20 15:10:13.533] 
[2019-09-20 15:10:13.533]       56 83 11 39 02 00 00 01 00 00 33 00 01 06 30 7e 
[2019-09-20 15:10:13.533]       a0 2e 03 23 10 1c f2 e6 e6 00 60 20 80 02 07 80 
[2019-09-20 15:10:13.533]       a1 09 06 07 60 85 74 05 08 01 01 be 0f 04 0d 01 
[2019-09-20 15:10:13.548]       00 00 00 06 5f 04 00 ff ff ff 28 00 9f 38 7e 00 
[2019-09-20 15:10:13.548]       54 
[2019-09-20 15:10:13.548] 
[2019-09-20 15:10:13.548] g_plc_msg_hdr.dest_addr = 00 00 
[2019-09-20 15:10:13.548] 
[2019-09-20 15:10:13.548]       56 83 11 39 02 00 00 01 00 00 33 00 01 06 30 7e 
[2019-09-20 15:10:13.564]       a0 2e 03 23 10 1c f2 e6 e6 00 60 20 80 02 07 80 
[2019-09-20 15:10:13.564]       a1 09 06 07 60 85 74 05 08 01 01 be 0f 04 0d 01 
[2019-09-20 15:10:13.564]       00 00 00 06 5f 04 00 ff ff ff 28 00 9f 38 7e 00 
[2019-09-20 15:10:13.564]       54 
[2019-09-20 15:10:13.580] 
[2019-09-20 15:10:13.580] >> proc_rx_from_plc: vt-seq:(0)
[2019-09-20 15:10:13.580] >> query [VT-QUERY] remove VT header
[2019-09-20 15:10:13.689] >> proc_rx_from_uart: (57) idx:0
[2019-09-20 15:10:13.689] g_plc_msg_hdr.dest_addr = 00 00 
[2019-09-20 15:10:13.704] >> vt_ptcl_rebuild_buf: Tx to DCU [VT-QUERY](84)
[2019-09-20 15:10:13.704] >> proc_rx_from_uart: vt-seq:(0)
[2019-09-20 15:10:13.704] >> proc_rx_from_uart: Tx to DCU (84)
[2019-09-20 15:10:13.704] 
[2019-09-20 15:10:13.704]       56 83 11 39 02 00 00 81 00 00 46 00 01 06 39 7e 
[2019-09-20 15:10:13.720]       a0 37 23 03 30 d4 c9 e6 e7 00 61 29 a1 09 06 07 
[2019-09-20 15:10:13.720]       60 85 74 05 08 01 01 a2 03 02 01 00 a3 05 a1 03 
[2019-09-20 15:10:13.720]       02 01 00 be 10 04 0e 08 00 06 5f 1f 04 00 00 1a 
[2019-09-20 15:10:13.720]       1d 01 90 00 07 62 51 7e 01 02 03 00 b2 4b 01 01 
[2019-09-20 15:10:13.736]       01 01 02 54 
[2019-09-20 15:10:13.736] 
[2019-09-20 15:10:14.906] >> proc_rx_from_plc: Rx from SHORT-PLC(46)
[2019-09-20 15:10:14.906] 
[2019-09-20 15:10:14.906]       56 83 11 39 02 00 00 01 00 00 20 00 01 06 1d 7e 
[2019-09-20 15:10:14.921]       a0 1b 03 23 32 a9 d2 e6 e6 00 c3 01 81 00 46 00 
[2019-09-20 15:10:14.921]       00 60 03 0a ff 01 01 0f 00 39 c5 7e 70 54 
[2019-09-20 15:10:14.921] 
[2019-09-20 15:10:14.921] g_plc_msg_hdr.dest_addr = 00 00 
[2019-09-20 15:10:14.937] 
[2019-09-20 15:10:14.937]       56 83 11 39 02 00 00 01 00 00 20 00 01 06 1d 7e 
[2019-09-20 15:10:14.937]       a0 1b 03 23 32 a9 d2 e6 e6 00 c3 01 81 00 46 00 
[2019-09-20 15:10:14.937]       00 60 03 0a ff 01 01 0f 00 39 c5 7e 70 54 
[2019-09-20 15:10:14.937] 
[2019-09-20 15:10:14.937] >> proc_rx_from_plc: vt-seq:(0)
[2019-09-20 15:10:14.952] >> query [VT-QUERY] remove VT header
[2019-09-20 15:10:15.062] >> proc_rx_from_uart: (19) idx:0
[2019-09-20 15:10:15.062] g_plc_msg_hdr.dest_addr = 00 00 
[2019-09-20 15:10:15.062] >> vt_ptcl_rebuild_buf: Tx to DCU [VT-QUERY](46)
[2019-09-20 15:10:15.077] >> proc_rx_from_uart: vt-seq:(0)
[2019-09-20 15:10:15.077] >> proc_rx_from_uart: Tx to DCU (46)
[2019-09-20 15:10:15.077] 
[2019-09-20 15:10:15.077]       56 83 11 39 02 00 00 81 00 00 20 00 01 06 13 7e 
[2019-09-20 15:10:15.077]       a0 11 23 03 52 09 4d e6 e7 00 c7 01 81 00 00 8a 
[2019-09-20 15:10:15.093]       b2 7e 01 02 03 00 b2 4d 01 01 01 01 60 54 
[2019-09-20 15:10:15.093] 
[2019-09-20 15:10:15.607] Add Neighbor Table Fail(BlackList 0x0003)
[2019-09-20 15:10:16.263] C BLH[1]0003 == 0003
[2019-09-20 15:10:16.278] get_link_cost() addr 0x0003 in BLH
[2019-09-20 15:10:16.309] C BLH[1]0003 == 0003
[2019-09-20 15:10:16.309] get_link_cost() addr 0x0003 in BLH
[2019-09-20 15:10:16.528] Add Neighbor Table Fail(BlackList 0x0003)
[2019-09-20 15:10:16.543] Drop RREQ(BlackList 0x0003)
[2019-09-20 15:10:18.415] Add Neighbor Table Fail(BlackList 0x0003)
[2019-09-20 15:10:18.415] Drop RREQ(BlackList 0x0003)
[2019-09-20 15:10:19.289] Send RREP, Dest Addr 0x0003, Next 0x01a2, Seq 2, Flag 8, size 14
[2019-09-20 15:10:22.673] Receive RERR 0x0300 is unreachable
[2019-09-20 15:10:22.939] Send RREQ, Dest 0x0003, Seq 1, Flag 0
[2019-09-20 15:10:23.001] 
[2019-09-20 15:10:23.001] Send ToneMap Response(01A2), Mod D-2 0x47FDDF
[2019-09-20 15:10:23.141] C(01A2)Add D:002A O:0000  seq:23922 to RREQ History[11]
[2019-09-20 15:10:29.287] Route Discovery Success (Dest 0x0003, Next 0x00ab, Hop 2)
[2019-09-20 15:10:29.287] vtmsg_nwk_event
[2019-09-20 15:10:29.443] seq = 3796 duplicate pkt drop
[2019-09-20 15:10:30.083] 
[2019-09-20 15:10:30.083] Send ToneMap Response(00AB), Mod D-2 0xE7FDEF
[2019-09-20 15:10:36.135] Add D:0000 O:005F  seq:539 to RREQ History[12]
[2019-09-20 15:10:43.560] >> proc_rx_from_plc: Rx from SHORT-PLC(46)
[2019-09-20 15:10:43.575] 
[2019-09-20 15:10:43.575]       56 83 11 39 02 00 00 01 00 00 20 00 01 06 1d 7e 
[2019-09-20 15:10:43.575]       a0 1b 03 23 54 99 d4 e6 e6 00 c3 01 81 00 46 00 
[2019-09-20 15:10:43.575]       00 60 03 0a ff 02 01 0f 00 f4 e0 7e 5b 54 
[2019-09-20 15:10:43.591] 
[2019-09-20 15:10:43.591] g_plc_msg_hdr.dest_addr = 00 00 
[2019-09-20 15:10:43.591] 
[2019-09-20 15:10:43.591]       56 83 11 39 02 00 00 01 00 00 20 00 01 06 1d 7e 
[2019-09-20 15:10:43.591]       a0 1b 03 23 54 99 d4 e6 e6 00 c3 01 81 00 46 00 
[2019-09-20 15:10:43.591]       00 60 03 0a ff 02 01 0f 00 f4 e0 7e 5b 54 
[2019-09-20 15:10:43.606] 
[2019-09-20 15:10:43.606] >> proc_rx_from_plc: vt-seq:(0)
[2019-09-20 15:10:43.606] >> query [VT-QUERY] remove VT header
[2019-09-20 15:10:43.747] >> proc_rx_from_uart: (19) idx:0
[2019-09-20 15:10:43.747] g_plc_msg_hdr.dest_addr = 0C(00AB)0 00 
[2019-09-20 15:10:43.747] >> vt_ptcl_rebuild_buf: Tx to DCU [VT-QUERY](46)
[2019-09-20 15:10:43.762] >> proc_rx_from_uart: vt-seq:(0)
[2019-09-20 15:10:43.762] >> proc_rx_from_uart: Tx to DCU (46)
[2019-09-20 15:10:43.762] 
[2019-09-20 15:10:43.762]       56 83 11 39 02 00 00 81 00 00 20 00 01 06 13 7e 
[2019-09-20 15:10:43.762]       a0 11 23 03 74 3d 09 e6 e7 00 c7 01 81 00 00 8a 
[2019-09-20 15:10:43.778]       b2 7e 01 02 03 00 ab 55 01 01 01 00 72 54 
[2019-09-20 15:10:43.778] 
[2019-09-20 15:10:43.981] C(00AB)Add D:0000 O:00B2  seq:3670 to RREQ History[13]
[2019-09-20 15:10:46.742] Add Neighbor Table Fail(BlackList 0x0003)
[2019-09-20 15:10:46.757] Drop RREQ(BlackList 0x0003)
