#2161

第一次找错地点。第二次找到后，进行了现场勘查。该区为别墅区，经了解大部分的电表都挂在电线杆上。为了不影响路由，只能外挂了一只电表，并将该电表加入档案，
使其组网，利用hostcli的功能进入集中器模块，输入s2e和route。连入后，发现一跳组网的电表非常少，并且也存在9跳和10跳的电表。初步判断是某一处的点比较脏，
导致其后端的通讯不佳。看到现场路由后，使用了prober工具，并且向华立姚工介绍了使用方法。测试了DCU到1级电表的通讯状况，十分良好。

本想继续测量DCU和2跳电表的通讯情况，但是因为电线杆挂的太高无法满足。也有尝试DCU和一只抄不到的电表进行PROBER通讯，但是也由于无法具体找到该电表而搁浅。
最终也到了华立司机的下班时间，最后选择返回公司。
vt# s2e

Route discovery to 0x011f success!!
LBS Short Address to EUI64 Next hop address Table        valid
================================
[00]0x00a0    0x28 0x43 0x36 0xff 0xfe 0x02 0x00 0x00     1
[01]0x00a2    0x00 0x96 0x28 0xff 0xfe 0x02 0x00 0x00     1
[02]0x00dc    0x32 0x24 0x36 0xff 0xfe 0x02 0x00 0x00     1
[03]0x00dd    0x36 0x24 0x36 0xff 0xfe 0x02 0x00 0x00     1
[04]0x0112    0x32 0x52 0x36 0xff 0xfe 0x02 0x00 0x00     1
[05]0x00ce    0x61 0x56 0x36 0xff 0xfe 0x02 0x00 0x00     1
[06]0x00bd    0x13 0x03 0x47 0xff 0xfe 0x02 0x00 0x00     1
[07]0x004f    0x06 0x28 0x52 0xff 0xfe 0x02 0x00 0x00     1
[08]0x00f5    0x31 0x28 0x52 0xff 0xfe 0x02 0x00 0x00     1
[09]0x00c3    0x20 0x59 0x52 0xff 0xfe 0x02 0x00 0x00     1
[10]0x00eb    0x22 0x59 0x52 0xff 0xfe 0x02 0x00 0x00     1
[11]0x00f8    0x23 0x59 0x52 0xff 0xfe 0x02 0x00 0x00     1
[12]0x00b9    0x31 0x59 0x52 0xff 0xfe 0x02 0x00 0x00     1
[13]0x0066    0x44 0x22 0x36 0xff 0xfe 0x02 0x00 0x00     1
[14]0x0059    0x47 0x22 0x36 0xff 0xfe 0x02 0x00 0x00     1
[15]0x011a    0x23 0x24 0x36 0xff 0xfe 0x02 0x00 0x00     1
[16]0x0114    0x24 0x24 0x36 0xff 0xfe 0x02 0x00 0x00     1
[17]0x0113    0x25 0x24 0x36 0xff 0xfe 0x02 0x00 0x00     1
[18]0x010b    0x26 0x24 0x36 0xff 0xfe 0x02 0x00 0x00     1
[19]0x0119    0x28 0x24 0x36 0xff 0xfe 0x02 0x00 0x00     1
[20]0x0103    0x34 0x24 0x36 0xff 0xfe 0x02 0x00 0x00     1
[21]0x007b    0x43 0x24 0x36 0xff 0xfe 0x02 0x00 0x00     1
[22]0x000b    0x45 0x24 0x36 0xff 0xfe 0x02 0x00 0x00     1
[23]0x0070    0x65 0x40 0x36 0xff 0xfe 0x02 0x00 0x00     1
[24]0x000d    0x66 0x40 0x36 0xff 0xfe 0x02 0x00 0x00     1
[25]0x004a    0x67 0x40 0x36 0xff 0xfe 0x02 0x00 0x00     1
[26]0x000f    0x68 0x40 0x36 0xff 0xfe 0x02 0x00 0x00     1
[27]0x0051    0x69 0x40 0x36 0xff 0xfe 0x02 0x00 0x00     1
[28]0x004e    0x70 0x40 0x36 0xff 0xfe 0x02 0x00 0x00     1
[29]0x000e    0x71 0x40 0x36 0xff 0xfe 0x02 0x00 0x00     1
[30]0x0054    0x72 0x40 0x36 0xff 0xfe 0x02 0x00 0x00     1
[31]0x0055    0x73 0x40 0x36 0xff 0xfe 0x02 0x00 0x00     1
[32]0x0071    0x74 0x40 0x36 0xff 0xfe 0x02 0x00 0x00     1
[33]0x004b    0x75 0x40 0x36 0xff 0xfe 0x02 0x00 0x00     1
[34]0x004b    0x75 0x40 0x36 0xff 0xfe 0x02 0x00 0x00     1
[35]0x004c    0x76 0x40 0x36 0xff 0xfe 0x02 0x00 0x00     1
[36]0x004d    0x20 0x43 0x36 0xff 0xfe 0x02 0x00 0x00     1
[37]0x00a4    0x24 0x43 0x36 0xff 0xfe 0x02 0x00 0x00     1
[38]0x0017    0x25 0x43 0x36 0xff 0xfe 0x02 0x00 0x00     1
[39]0x005b    0x26 0x43 0x36 0xff 0xfe 0x02 0x00 0x00     1
[40]0x0092    0x27 0x43 0x36 0xff 0xfe 0x02 0x00 0x00     1
[41]0x0052    0x42 0x54 0x36 0xff 0xfe 0x02 0x00 0x00     1
[42]0x0043    0x43 0x54 0x36 0xff 0xfe 0x02 0x00 0x00     1
[43]0x0067    0x44 0x54 0x36 0xff 0xfe 0x02 0x00 0x00     1
[44]0x0010    0x45 0x54 0x36 0xff 0xfe 0x02 0x00 0x00     1
[45]0x0016    0x46 0x54 0x36 0xff 0xfe 0x02 0x00 0x00     1
[46]0x0018    0x47 0x54 0x36 0xff 0xfe 0x02 0x00 0x00     1
[47]0x0057    0x48 0x54 0x36 0xff 0xfe 0x02 0x00 0x00     1
[48]0x005a    0x49 0x54 0x36 0xff 0xfe 0x02 0x00 0x00     1
[49]0x00a3    0x50 0x54 0x36 0xff 0xfe 0x02 0x00 0x00     1
[50]0x000c    0x51 0x54 0x36 0xff 0xfe 0x02 0x00 0x00     1
[51]0x0073    0x52 0x54 0x36 0xff 0xfe 0x02 0x00 0x00     1
[52]0x0019    0x17 0x56 0x36 0xff 0xfe 0x02 0x00 0x00     1
[53]0x0068    0x22 0x56 0x36 0xff 0xfe 0x02 0x00 0x00     1
[54]0x007d    0x82 0x65 0x37 0xff 0xfe 0x02 0x00 0x00     1
[55]0x0076    0x86 0x65 0x37 0xff 0xfe 0x02 0x00 0x00     1
[56]0x001c    0x89 0x65 0x37 0xff 0xfe 0x02 0x00 0x00     1
[57]0x008f    0x90 0x65 0x37 0xff 0xfe 0x02 0x00 0x00     1
[58]0x0027    0x91 0x65 0x37 0xff 0xfe 0x02 0x00 0x00     1
[59]0x001b    0x40 0x69 0x37 0xff 0xfe 0x02 0x00 0x00     1
[60]0x0115    0x48 0x50 0x40 0xff 0xfe 0x02 0x00 0x00     1
[61]0x007e    0x49 0x50 0x40 0xff 0xfe 0x02 0x00 0x00     1
[62]0x0060    0x51 0x50 0x40 0xff 0xfe 0x02 0x00 0x00     1
[63]0x0107    0x54 0x50 0x40 0xff 0xfe 0x02 0x00 0x00     1
[64]0x0093    0x71 0x50 0x40 0xff 0xfe 0x02 0x00 0x00     1
[65]0x0093    0x71 0x50 0x40 0xff 0xfe 0x02 0x00 0x00     1
[66]0x000a    0x72 0x50 0x40 0xff 0xfe 0x02 0x00 0x00     1
[67]0x005e    0x75 0x50 0x40 0xff 0xfe 0x02 0x00 0x00     1
[68]0x006f    0x76 0x50 0x40 0xff 0xfe 0x02 0x00 0x00     1
[69]0x0029    0x72 0x81 0x40 0xff 0xfe 0x02 0x00 0x00     1
[70]0x00ae    0x52 0x84 0x40 0xff 0xfe 0x02 0x00 0x00     1
[71]0x00a6    0x53 0x84 0x40 0xff 0xfe 0x02 0x00 0x00     1
[72]0x0072    0x55 0x84 0x40 0xff 0xfe 0x02 0x00 0x00     1
[73]0x007f    0x60 0x84 0x40 0xff 0xfe 0x02 0x00 0x00     1
[74]0x0044    0x20 0x85 0x40 0xff 0xfe 0x02 0x00 0x00     1
[75]0x0025    0x22 0x85 0x40 0xff 0xfe 0x02 0x00 0x00     1
[76]0x0020    0x23 0x85 0x40 0xff 0xfe 0x02 0x00 0x00     1
[77]0x00ad    0x70 0x00 0x47 0xff 0xfe 0x02 0x00 0x00     1
[78]0x00af    0x77 0x00 0x47 0xff 0xfe 0x02 0x00 0x00     1
[79]0x0047    0x78 0x00 0x47 0xff 0xfe 0x02 0x00 0x00     1
[80]0x0048    0x14 0x03 0x47 0xff 0xfe 0x02 0x00 0x00     1
[81]0x0049    0x16 0x03 0x47 0xff 0xfe 0x02 0x00 0x00     1
[82]0x0084    0x48 0x06 0x47 0xff 0xfe 0x02 0x00 0x00     1
[83]0x0081    0x49 0x06 0x47 0xff 0xfe 0x02 0x00 0x00     1
[84]0x0086    0x54 0x06 0x47 0xff 0xfe 0x02 0x00 0x00     1
[85]0x006e    0x46 0x23 0x47 0xff 0xfe 0x02 0x00 0x00     1
[86]0x0062    0x53 0x23 0x47 0xff 0xfe 0x02 0x00 0x00     1
[87]0x006d    0x05 0x28 0x52 0xff 0xfe 0x02 0x00 0x00     1
[88]0x0032    0x07 0x28 0x52 0xff 0xfe 0x02 0x00 0x00     1
[89]0x00ab    0x11 0x28 0x52 0xff 0xfe 0x02 0x00 0x00     1
[90]0x0089    0x12 0x28 0x52 0xff 0xfe 0x02 0x00 0x00     1
[91]0x00ac    0x13 0x28 0x52 0xff 0xfe 0x02 0x00 0x00     1
[92]0x0087    0x14 0x28 0x52 0xff 0xfe 0x02 0x00 0x00     1
[93]0x0069    0x15 0x28 0x52 0xff 0xfe 0x02 0x00 0x00     1
[94]0x0023    0x16 0x28 0x52 0xff 0xfe 0x02 0x00 0x00     1
[95]0x0080    0x33 0x71 0x52 0xff 0xfe 0x02 0x00 0x00     1
[96]0x005f    0x50 0x71 0x52 0xff 0xfe 0x02 0x00 0x00     1
[97]0x00a5    0x00 0x73 0x52 0xff 0xfe 0x02 0x00 0x00     1
[98]0x0088    0x01 0x73 0x52 0xff 0xfe 0x02 0x00 0x00     1
[99]0x0061    0x02 0x73 0x52 0xff 0xfe 0x02 0x00 0x00     1
[100]0x011f    0x53 0x87 0x38 0xff 0xfe 0x02 0x00 0x00     1
[101]0x0118    0x37 0x24 0x36 0xff 0xfe 0x02 0x00 0x00     1
[102]0x011c    0x82 0x81 0x31 0xff 0xfe 0x02 0x00 0x00     1
[103]0x011b    0x81 0x81 0x31 0xff 0xfe 0x02 0x00 0x00     1



vt# route
Route discovery requset usage:
route a [short addr 0x??]
Routing Table : [000]-[099]
                    Dest   Next_Hop  Cost  Hop_Count  Weak  EUI64
[001](62009m25s):  0x004a   0x0061  0x0098   4   3
[002](64468m47s):  0x007e   0x00a3  0x01b0   5   4
[003](65489m48s):  0x001b   0x007b  0x008f   5   0
[004](65430m35s):  0x0047   0x0061  0x0676   9   7
[005](65169m41s):  0x000f   0x007b  0x0037   2   0
[006](65529m47s):  0x00f8   0x006e  0x02a6   6   6
[007](65446m59s):  0x0059   0x007b  0x005d   3   1
[008](65491m56s):  0x00ae   0x006e  0x0365   6   3
[009](64463m06s):  0x0016   0x006e  0x007c   3   1
[010](65020m28s):  0x0072   0x000b  0x0228   3   3
[011](65530m31s):  0x00c3   0x006e  0x02a6   6   6
[012](65482m45s):  0x000d   0x007b  0x0033   2   0
[013](62524m07s):  0x004b   0x0061  0x0195   5   2
[014](62921m35s):  0x0043   0x0061  0x0162   3   2
[015](65493m24s):  0x0020   0x006e  0x0073   3   2
[016](65530m16s):  0x0061   0x0061  0x001a   1   0
[017](64572m20s):  0x00e6   0x0061  0x035b   6   4
[018](65479m21s):  0x0103   0x006e  0x0053   3   0
[019](65487m36s):  0x0076   0x006e  0x0153   3   3
[020](65467m02s):  0x007f   0x006e  0x0180   6   1
[021](65491m54s):  0x00a6   0x0061  0x016d   4   3
[022](65316m35s):  0x0032   0x00a3  0x0178   5   1
[023](62009m12s):  0x004c   0x0061  0x0215   7   5
[024](65494m05s):  0x0025   0x0061  0x0237   4   2
[025](62525m01s):  0x004d   0x006e  0x0062   3   1
[026](64796m15s):  0x0051   0x0019  0x011a   2   1
[027](65464m08s):  0x00ac   0x007b  0x0082   5   0
[028](65479m29s):  0x0057   0x006e  0x0054   2   2
[029](64971m02s):  0x0055   0x006e  0x0048   2   1
[030](65235m08s):  0x0052   0x000b  0x0046   2   1
[031](65494m45s):  0x00af   0x0073  0x027c   6   3
[032](64578m25s):  0x00ef   0x0061  0x0494   7   7
[033](65521m06s):  0x00a2   0x006e  0x0197   5   4
[034](65494m45s):  0x0073   0x0073  0x00ff   1   1
[035](65302m36s):  0x00a0   0x000b  0x0061   3   1
[036](65317m16s):  0x0088   0x0061  0x0244   4   3
[037](65529m40s):  0x0044   0x006e  0x017d   4   4
[038](65484m49s):  0x0019   0x0019  0x00ff   1   1
[039](65530m43s):  0x0029   0x006e  0x0146   3   2
[040](65492m10s):  0x004e   0x006e  0x0033   2   0
[041](65534m03s):  0x011f   0x011f  0x001d   1   0
[042](65170m23s):  0x0071   0x006e  0x0048   3   0
[043](65495m12s):  0x0084   0x007b  0x016d   4   3
[044](64620m20s):  0x0066   0x00a3  0x007e   3   3
[045](65320m10s):  0x0070   0x007b  0x0054   2   2
[046](65512m48s):  0x0086   0x000b  0x018b   5   3
[047](65321m57s):  0x00ab   0x000b  0x00a3   5   2
[048](65503m13s):  0x0087   0x0061  0x02a6   6   6
[049](65173m50s):  0x0107   0x007b  0x006f   3   2
[050](65492m13s):  0x00ad   0x00a3  0x0191   6   2
[051](64898m43s):  0x0080   0x006e  0x00cd   6   3
[052](65464m58s):  0x005f   0x000b  0x0078   4   1
[053](65525m43s):  0x00a3   0x00a3  0x001a   1   0
[054](65481m27s):  0x0017   0x006e  0x005f   3   1
[056](65313m28s):  0x0089   0x005e  0x0349   6   3
[057](65170m09s):  0x0054   0x0019  0x01fe   2   2
[058](65040m34s):  0x008f   0x0061  0x0153   3   3
[059](65501m11s):  0x0023   0x000b  0x006d   3   2
[061](65522m09s):  0x0010   0x0010  0x00ff   1   1
[062](65499m47s):  0x006d   0x0061  0x0144   3   2
[063](65389m31s):  0x0018   0x0018  0x00ff   1   1
[064](65532m12s):  0x000b   0x000b  0x002a   1   1
[065](65473m54s):  0x0114   0x0061  0x0141   3   2
[066](65055m07s):  0x0060   0x0061  0x0230   3   2
[067](65324m17s):  0x00dd   0x00a3  0x01f8   8   5
[068](65080m23s):  0x000e   0x007b  0x0068   3   1
[069](64569m23s):  0x00df   0x0061  0x02f7   8   6
[070](64569m37s):  0x00e1   0x0061  0x0143   3   2
[071](65532m10s):  0x006e   0x006e  0x002a   1   1
[072](64574m06s):  0x00e8   0x006e  0x0252   4   2
[073](65428m48s):  0x005e   0x005e  0x00ff   1   1
[074](65392m17s):  0x000a   0x000a  0x00ff   1   1
[075](64576m55s):  0x00ee   0x0061  0x05ab  10   8
[076](65401m56s):  0x006f   0x0061  0x0143   3   2
[077](65531m08s):  0x007b   0x007b  0x001c   1   0
[078](65492m32s):  0x0027   0x007b  0x0153   3   3
[079](65488m08s):  0x001c   0x006e  0x0161   4   2
[080](65526m48s):  0x00dc   0x006e  0x017d   4   4
[082](65492m52s):  0x011a   0x006e  0x006c   3   2
[083](65512m55s):  0x00a5   0x007b  0x0062   3   1
[084](65475m35s):  0x0113   0x000b  0x0064   3   1
[085](64976m27s):  0x0093   0x000b  0x0196   4   4
[086](65172m13s):  0x0068   0x0061  0x0046   2   1
[087](65486m10s):  0x007d   0x006e  0x017d   4   4
[088](65501m18s):  0x00a4   0x006e  0x006f   3   2
[089](65481m35s):  0x005b   0x0010  0x0218   3   2
[090](65481m48s):  0x0092   0x006e  0x006e   3   2
[091](65512m37s):  0x0067   0x0067  0x00ff   1   1
[092](65483m17s):  0x005a   0x0061  0x0133   3   1
[093](65500m27s):  0x0115   0x0061  0x0153   3   3
[094](65504m38s):  0x0081   0x007b  0x0170   4   3

![screen](现场环境图1.jpg)
![screen](现场环境图2.jpg)
![screen](现场环境图3.jpg)
![screen](现场环境图4.jpg)
![screen](现场环境图5.jpg)
