bandplan FCC
analog_gain 42
digital_gain 18
10780
-3056
-10300
-6752
1092
8476
464
11448
4952
-18180
-18848
-14912
32764
27276
-32768
-16448
-204
32764
32764
-32768
-14500
32764
-26192
-16316
32480
17868
-15420
-13436
3348
8712
-10804
-15644
7948
22796
12816
-11112
-18348
-7336
856
2184
14596
10108
-6896
-6248
-2776
-2928
-5808
860
13116
10452
-9032
-8340
-80
-2428
-1768
2124
13644
5292
-9656
-7512
-3036
-4524
3972
10924
2252
-416
488
-2192
-13084
2192
6392
-4056
2264
8544
1708
-11200
2736
-588
-4080
7440
5972
-6532
-19020
4012
20188
18376
-7732
-32768
5920
32764
-2596
-32768
-26604
15040
32764
12208
-828
2212
-9316
-30652
-2168
24432
-10564
3648
23548
-5316
-9424
7924
-22188
-21076
28152
8692
3336
11200
-15228
-6264
-7696
-16276
25460
13788
-10044
12456
-11196
-19252
6108
2072
6072
11352
-10448
1360
2976
-16580
13148
1352
-8120
14928
-15380
176
12916
-14212
12320
-8964
-5532
24600
-16680
4708
-3196
-18052
23228
-9436
4932
10240
-18512
11880
-9572
720
9176
-4980
12972
-18060
-14256
-4972
32764
32764
-32768
-31856
14756
32764
26324
-32768
2192
32764
-31440
-4496
25276
12632
-17900
-15336
7696
6248
-760
-10620
-88
14512
6700
-5348
-12836
-812
11636
-3640
-3628
-5556
-980
17416
6828
-5108
-17496
-12648
8780
12336
16068
1008
-11160
-18184
-15556
13496
21872
13688
-8196
-20940
-8908
4736
17824
4748
-7088
-10948
-5404
12704
4004
736
-5996
-3948
3872
2536
1360
-4492
-5484
-996
5396
9856
2968
-4468
-15348
-5716
20544
10992
-13952
-32768
19320
32764
272
-32768
-32768
32764
32764
-23908
2732
29612
-26328
-32768
8632
17756
-1612
-220
9308
2528
-5512
-3436
-6664
-15068
3808
26388
6656
-9272
-976
-6696
-16120
-2052
17164
9708
-1976
4464
-3808
-12420
-5936
-416
5888
8328
7632
2048
-9556
-10104
-3044
3260
8132
-1844
3284
7752
-2264
-7752
-13176
-400
10500
8016
2776
-4132
-1432
-3416
-2692
-900
-680
4584
3272
-196
-3808
3804
-3972
1892
8680
-11072
-10156
-15388
32764
32764
-32768
-32768
23032
32764
30316
-32768
-25192
32764
-13252
-3560
28272
18892
-15956
-27028
-356
13556
404
-16248
9952
21292
-1496
-3432
-13816
-17048
8092
14808
-1220
5780
7064
-17932
-6528
12668
-5424
-2980
12800
-5860
-9104
11096
2780
-7984
7516
-9240
-7440
18060
-5964
-8248
13132
-5248
-2976
11816
-12232
-5200
13984
-9280
-3408
16472
-13348
2512
5436
-15484
17260
3356
-13708
5744
-6816
-3156
11492
1104
-6628
2372
2816
11888
-2868
-32768
21796
32764
3556
-32768
-32768
30560
32764
-32768
16364
20892
-32768
-17648
-11016
29396
8548
-10180
24036
-14112
-3888
6644
-21740
-7100
-10976
30700
28912
-14764
-696
-17176
-14184
6384
-4
9404
7024
4200
4336
-12832
-5952
-7080
-732
11424
4268
8244
-2228
-7308
-6576
-7572
3524
4552
11840
5668
-5736
-8896
-11624
-3424
12224
15460
6872
-10608
-14408
-9536
2648
13068
10724
6880
-11264
-14368
-8268
7708
16268
8312
-6928
-15480
-13304
3444
32764
19608
-28800
-32768
-14780
32764
32764
2376
-32768
-32768
1260
32764
20936
-344
-8200
-22956
-10576
14820
14824
-4940
-14948
1148
16392
7120
-6532
-17512
-1432
7920
1964
2600
1404
568
-1172
-1280
-2884
-3524
1476
5040
324
-828
340
1764
-1944
-3980
-1884
2464
5816
-752
-3132
664
1908
-1440
-5704
-556
6140
7924
-2148
-9584
-2560
924
4472
1212
1984
1276
-4852
-1208
1308
2024
2064
-3616
-9828
1116
17764
12220
-13468
-32768
1452
32764
25104
-32768
-32768
12768
32764
-7984
-1328
23416
-21696
-30784
448
8988
3748
3924
13320
7820
-5776
-3500
-13076
-25868
-1960
29116
24668
5692
-9196
-19016
-15476
-8664
7696
20280
7472
4768
-12
-15564
-8616
-2996
-832
4644
13844
9800
-8300
-5028
-4460
-11252
1492
14388
6380
-3752
-2200
-3584
-11004
4716
9728
-368
3836
1092
-11948
-5572
11624
-3328
-1988
10688
-6736
-6524
9996
-2880
-6672
14504
-2232
-14740
92
-5056
10784
32764
-10096
-32768
-10584
6568
26896
32764
-8844
-32768
-24364
-29876
27776
32764
-68
-15000
-18540
-30352
12444
13848
-168
14972
-6824
-6604
10720
-4780
-7284
-7092
-11712
15904
21496
-2872
4900
-21648
-23384
23032
-592
11624
11480
-25580
8740
-6708
-5948
21104
-16724
10720
4772
-16888
13164
-15412
4416
13220
-9732
14120
-11848
-5824
5136
-9412
13488
-3464
232
8824
-10744
1524
-4248
-2512
12392
-2060
624
-4600
-12192
3136
17500
17324
-19832
-32768
4728
32764
12920
-32768
-28304
15300
32764
72
-12004
18564
-5628
-17164
2148
-4896
-5912
572
13672
19440
9840
-2488
-32768
-32768
3972
32764
32764
7296
-26340
-27836
-18784
864
18952
22852
9624
-8048
-12300
-11612
3948
-1636
-3672
3640
7748
15580
2148
-12000
-16480
-11824
9264
14076
8512
2772
-9200
-1756
-5024
-5640
896
224
10288
8572
-948
-8452
-8888
-256
3060
4660
2172
-1312
24
-332
-2960
1732
5664
-3648
-12372
-4268
15716
25612
-2636
-32768
-24052
11812
32764
30380
-252
-32480
-32768
-14172
21728
32764
26200
-8372
-31700
-24556
-4648
14376
13364
6900
2804
-2564
684
-3900
-10928
-14216
5484
17292
11420
2740
-7960
-14944
-10460
5456
12044
7864
1324
-4900
-5728
-4952
-2280
3612
2600
6568
3532
-2704
-6456
-6104
1000
4044
5852
-1628
-2952
1740
-2252
-952
3368
1388
-1848
-4580
1884
3612
-3996
1928
4016
-3832
528
3628
-13928
-5476
31020
12688
-29552
-32768
7288
32764
8352
-32768
-28580
-2360
32764
15736
-7016
12892
-10880
-28288
516
10460
-5132
9712
16844
-2976
1496
2656
-27636
-29376
13864
29852
20116
11904
-19728
-28508
-448
-7420
424
27460
7912
-1076
5908
-22492
-18916
12060
-2492
9456
23668
-9484
-8480
296
-22976
7300
16016
-7128
15608
104
-14760
3148
-9132
-6572
15032
2104
6432
6180
-19536
-2040
4096
-8200
17332
-688
-11520
16008
-15124
-2472
12984
-11392
19568
-12984
-23492
16584
7712
32764
-7324
-32768
-7136
1280
32764
32764
-15128
-29880
-32768
-16968
32764
32764
28620
-17404
-32260
-14308
-13836
20196
19276
1864
6844
-13564
2376
-476
-19084
-13472
9796
32764
12044
-5040
-20764
-26148
-4736
11844
27316
13728
-8536
-12832
-18120
-2968
9896
12460
10792
-7932
-11308
-7528
1908
11600
7840
1964
-12212
-10884
-1812
7808
15120
4596
-10384
-14496
-5032
10648
14252
4928
-9804
-15608
-996
7956
14196
2872
-22816
-13268
28116
20688
-13408
-32768
-10256
32764
9624
-32768
-13520
-5476
17440
29364
4032
2796
-20812
-29092
6300
14592
5348
4584
-2780
5008
11740
-3528
-28892
-28424
13708
32764
22868
-8360
-20344
-14860
-8328
1196
6300
13136
14616
1064
-10160
-13600
-6328
-5580
7724
15672
8956
1396
-14576
-13700
1516
6880
5164
700
-1268
2852
-1532
-384
-4080
-4584
2656
1056
7460
4404
-5440
-6544
-4204
3048
4228
2012
2324
-3884
-3328
640
164
7784
3040
-5868
-17856
-7116
22856
25272
-648
-32304
-23884
4004
26136
32764
4572
-32768
-32768
-7648
31040
32764
11096
-19620
-21040
-16192
-740
15892
9256
10504
-5772
-12792
12784
3168
-19428
-18968
11416
21760
10348
6124
-13120
-25768
-7096
17364
12904
628
532
-4348
-12840
3940
5996
-4244
3956
6536
-7996
-4204
11172
-6964
-7036
9544
-3564
100
10656
-6392
-11112
9844
228
-8456
14368
-7116
-9896
15396
-5264
-6620
15688
-5844
-10204
10684
-19976
-5924
32764
2384
-20044
-32768
-15160
32764
23748
-32768
-31856
32764
23000
-452
3944
15084
-20352
-32768
9268
18912
-10360
5264
17208
-7336
12584
-7536
-32768
-8192
1272
32764
29152
-28680
-5604
-22752
-8512
27412
-10820
12384
3640
-12132
16916
-11496
-3160
-1504
-16348
19952
1452
5600
7044
-17556
-1272
-8588
6368
14864
-6020
2796
-5732
-6352
7240
-36
3636
-6272
-4688
3956
3932
9180
-2436
-8068
-8012
-5852
8124
7692
9404
4564
-12024
-5376
-8556
-5968
-724
16200
29208
6704
-20264
-32768
-20452
25484
32764
32764
-14408
-32768
-32768
-8948
32764
32764
7228
-29328
-27664
-3860
10488
14140
-1904
-8744
-10528
11260
32764
-3684
-32768
-26996
5888
32764
27200
2452
-27148
-32768
-2676
23968
22504
5876
-11052
-8328
-6220
-220
400
-3536
5904
7300
4720
-1488
-6404
-3248
-3660
212
1868
4260
5400
-1320
-4668
-7284
1264
9144
3412
-448
-7968
-5140
4192
912
2568
2476
1964
-4252
-17984
5176
31824
11152
-30504
-32768
10812
32764
3416
-32768
-15136
556
20112
32764
2728
2332
-23136
-28812
9428
10568
-912
5544
10480
8988
224
-11448
-25104
-21644
18180
32764
14020
-3424
-20712
-17784
-1448
8172
7672
1520
2840
-2224
860
3504
-4884
-12020
-624
8268
7696
7912
-6532
-11596
-4420
3340
8256
1396
1164
-4128
-5616
4172
4012
-3004
-992
2084
-3016
-3020
7860
4664
-10224
-3396
5344
-1952
1812
6696
-2376
-6288
3996
7264
-9876
-12044
-5760
5884
31736
27660
-19076
-32768
-24724
4708
32764
32764
-1600
-32768
-32768
-20604
9488
32764
20360
-15652
-4076
-22804
-16040
22352
4136
-5788
5768
1872
14352
4684
-32768
-21368
19124
10200
18568
21828
-28932
-19720
-3504
-2940
21276
7116
-7152
6164
-10272
-6688
13808
-7084
-3740
7960
-8088
7284
7492
-14220
8008
-6244
-10924
22720
-9240
2704
8700
-22920
16344
-5676
-6908
17156
-19424
11648
5864
-12568
18412
-14824
-1496
6496
-32292
25360
29188
6648
-32768
-32768
32764
32764
-5516
-32768
-11312
-15172
2580
32764
12904
-23364
-11644
-20920
620
3928
-852
16540
10932
3148
-1184
-16128
-26648
-12716
32764
31396
2168
-13992
-30344
-11228
11872
22868
9816
-10956
-12284
-11812
9372
19656
6020
-11424
-20748
-7192
11768
17892
12016
-6480
-16224
-14704
-2076
14668
17448
6764
-13664
-18456
-4332
8780
18088
3480
-9836
-12560
-5932
15496
10532
-1024
-13472
-13052
8352
11060
7428
-6624
-12016
11804
7960
-12692
-21856
-2564
32608
30876
-3860
-32768
-32768
17216
32764
32764
-636
-32768
-30820
-5836
14948
27968
24064
1400
-22972
-21576
-8556
15208
10848
-10320
-4812
23984
16944
-16808
-25296
-12512
4060
16652
19120
7644
-5648
-21616
-13568
2728
10948
10432
1196
1660
-7004
-3732
1340
-5500
632
4336
3432
2872
-3060
-316
-3504
-4656
5876
2492
-244
-952
-1892
-1424
-856
5184
2120
-1688
-3948
-804
4796
-2008
-2064
-1928
-140
8256
-15180
104
31388
20500
-32768
-32768
17708
32764
32764
-32768
-32768
-2076
32764
32764
4328
-27796
-30280
-10208
15684
11732
-1480
2656
-3628
-984
12580
948
-11516
-18512
-14184
19200
32764
3196
-32768
-14636
908
1584
11216
14496
-5592
-10008
4240
-3876
1828
7260
-12552
-6336
13076
4232
-3096
8508
-10676
-15528
17176
-420
-7124
15400
-8696
-6380
13660
-7632
-8664
8640
-4740
812
14744
-8944
-4584
7996
-17512
5008
13588
-11428
12904
-2032
-15008
14484
-1424
-14336
-3232
16
29848
23244
-29932
-32768
-14908
27436
32764
13716
-32768
-32768
-28088
32764
32764
-20148
7476
-4756
-9680
8676
-25248
11244
9420
-4612
23344
-13432
-7384
-5520
-11552
19456
-528
4252
6816
-13896
3548
-8764
-2620
9224
-3300
10944
7044
-13384
-9316
1996
-2796
12108
5628
-4548
280
-7592
-3272
-888
5664
6760
3600
-2556
-8516
-4792
844
1168
7408
5348
892
-3936
-13812
-920
3912
12508
6924
-8560
-6764
-8732
-4552
7744
28808
16284
-32728
-32768
-820
32764
32764
-24080
-32768
-29736
18196
32764
20344
6356
-22628
-30148
-7216
15232
17548
1272
-1100
-4480
-2336
7444
-8116
-14068
2576
13416
14812
-8588
-9244
1772
-2828
-2036
-6296
7720
13940
4948
-9152
-17300
-1408
6960
9032
3876
-3400
-2840
-2580
-1284
-1648
1148
5752
708
432
-3664
-2352
-36
-736
2480
792
4776
-424
-6908
-2120
-1256
3556
7720
-1388
1464
-5520
-6208
-1924
68
13516
10316
-1260
-25000
-22656
12660
32764
27372
-32768
-32768
-24400
32764
32764
3640
-32768
-32768
-26928
18700
32764
20968
3000
-15892
-14564
-9060
3512
2396
3424
4580
5576
7980
-3244
-17920
-12356
7264
12504
4712
3460
3732
-7740
-12804
-8020
7956
6052
7960
8748
-8368
-13200
576
4712
-4936
2008
11176
400
-5828
168
-5344
-7500
9780
9568
-6296
-2392
3164
-5952
-2916
10352
-2140
-6476
7392
604
-8668
6924
2108
-10556
5484
5092
-7316
-3856
5096
15276
13984
-22672
-32768
3920
32764
25304
-29284
-32768
-28308
14004
27108
10428
18660
-2496
-32768
-12008
15236
5320
16516
-816
-17688
14260
1980
-14144
1572
-11624
6076
22696
-8600
-976
4604
-13180
-2888
1092
-3228
17336
1328
-9924
5352
-12596
2972
11868
-12280
7880
2404
-9936
12248
-14392
2240
10600
-11364
14972
-10896
-5100
13404
-10976
9080
-3996
-7848
10100
-9208
9156
1232
-5148
3460
-7512
4684
2288
-4176
4044
-3140
-1664
13108
-1248
-19724
-21100
14664
32764
28084
-32768
-32768
-23816
32764
32764
11808
-32768
-32768
-19584
5512
26516
21872
10612
-14912
-18220
-4780
2748
1452
-2144
10820
10292
6128
-9880
-24672
-8380
10740
21452
10440
-8900
-10080
-4080
408
2476
248
-3128
3072
3352
2680
-1032
-2764
-4168
-1164
1668
3300
5968
-2620
-3792
-6716
-352
8128
1956
3308
-3060
-6468
1216
-5664
4628
7088
1564
336
-8432
-4996
2636
7596
2552
-5136
-4272
2644
-4696
2840
22012
7356
-32768
-32768
16004
32764
32208
-32768
-32768
-9620
32764
32716
9264
-8944
-20132
-12120
-1236
6612
12536
-560
-3620
2604
2532
3044
-11416
-11300
1380
13620
12688
-1944
-9736
-9240
-3492
6112
6904
4440
1224
-6608
-4616
-5428
4176
5252
3852
1912
-5528
-2084
28
-1444
-1268
2584
3372
264
-1900
1624
-540
-1964
-4328
-628
7512
1544
-3844
1284
184
-2712
1628
-1260
-1800
3776
-1080
-1228
1684
-1432
1508
11560
-1392
-18976
-20908
592
32764
32764
-32768
-32768
-29664
32764
32764
8188
-19312
-32768
-23712
-836
29196
32764
-5144
-13252
-14944
-16360
17868
5608
-5080
5008
32
2748
-756
-5368
-8848
4268
16068
-5116
-3948
-5564
-8732
12824
7500
-1600
-3036
-5816
3648
-3268
-4200
9844
-4840
3580
7676
-11380
1276
-1932
-7436
9424
6576
2420
-456
-13576
-3384
5656
-1256
7540
5908
-6948
2220
-8340
-7380
15020
1740
-3392
1180
-4868
-628
1152
-7944
-5932
30324
26020
-32072
-32768
-996
32764
32764
-32768
-32768
7720
32764
9972
2432
2216
-20156
-24384
-10072
31592
30920
-15444
-22284
-7588
16328
18044
-10884
-14088
-7916
7736
16440
-2980
-5952
-1228
-4464
2764
6672
-2392
-2704
3380
-5280
-1384
8216
-7900
3020
6704
-8372
5920
-3880
-7788
10320
-1108
1256
168
-9316
7736
3224
-6200
3052
48
-4464
1820
3068
-2640
3476
1676
-4952
-3960
1324
8276
-3212
-3228
2676
-2656
-888
8416
6368
-19100
-25920
18164
32764
16688
-32768
-32768
16952
32764
19268
-14176
-5492
-12648
-24228
-3592
23460
25992
-5940
-26168
-2300
9256
508
6544
3864
-2772
-5808
-1776
-7352
-1456
9312
-1504
13504
1752
-12196
1856
-9748
2456
4320
-6380
11448
-1180
-1800
2984
-4424
-2112
-948
208
5192
-1664
2960
1144
-8408
708
-5492
9436
3992
-2436
3196
-4412
-5084
376
2248
-4620
4836
4148
4136
-568
-11352
-3420
8136
3052
-2784
3248
-11224
-10456
29136
25200
-26228
-32768
-3784
32764
32764
-32768
-32768
6804
32764
11332
3788
8996
-9364
-32768
-18056
32764
32764
-5436
-18720
-24200
-100
8548
11980
12644
-6928
-8008
724
-5584
-1708
4900
-4016
7788
3372
-4820
1892
1560
-5700
-5988
3044
2844
3852
3708
-3536
-808
-7828
-216
9292
-64
1700
-9196
1920
2956
-4768
12508
-6620
-3860
6896
-8592
-1536
4620
-1392
3676
9428
-5804
-9904
2804
-4172
-1260
13616
-2132
-5352
9908
1956
-15372
-25944
12948
32764
11700
-32768
-32768
28568
32764
3180
-32768
-7708
-828
-10772
1252
24024
29992
-15532
-32768
-56
13612
4784
7800
-484
-3512
-1728
-7232
2452
-588
-2384
9532
4640
-1732
-6996
-6680
5500
-564
-784
10360
-1324
-7860
-5240
1692
8844
2636
-2232
-3124
-5932
5012
-2752
-3632
10492
-76
1936
-948
-8312
-3084
600
6548
4172
-3512
1832
-3992
-3316
7348
-3552
-1340
4012
-2560
2420
-3124
-4408
6952
-5396
-4636
18480
23572
-25736
-32768
6368
32764
32764
-32768
-32768
15020
32764
7244
-3420
6712
-4112
-32768
-16528
32764
32764
2552
-21708
-18992
-4360
972
8572
14472
-3884
-5672
2808
240
-6888
844
2576
-2812
4744
1752
-6336
4964
-988
-9352
8876
4088
1728
-1240
-13440
4036
3156
-3272
9252
-5220
1984
5332
-11268
3676
-1012
-540
6020
-5888
2788
-2660
-3024
7860
708
-604
2024
-11016
-3156
11960
-3136
196
6284
-7032
-3988
11424
-100
-15436
-13664
7624
32764
19204
-32768
-32768
28912
32764
23696
-25912
-25040
-14404
-13796
3192
29160
27248
-2588
-31428
-23412
10320
20512
3812
1416
1260
-13808
-5948
528
2000
10960
2432
-4272
68
-40
-2608
-2640
740
-8216
5280
12240
-5496
6792
-4992
-10912
7412
-4484
1860
5820
-6276
4040
-2568
2312
4112
-1848
-1744
-9356
4684
-1464
5548
7656
-8148
2552
-2880
-7604
3168
5800
2616
-328
972
-7700
-4344
4900
2196
-2120
-5212
20916
19852
-31124
-32768
10388
32764
29388
-32768
-32768
-32
32764
6316
8736
14968
-8932
-32768
-17876
32024
26448
3520
-13052
-15792
936
1872
-3368
9080
2608
-2152
3296
-624
-8884
-3204
5244
188
6176
3148
-4532
-1080
-8212
-4112
11968
4068
-2708
2080
-2116
-6172
-4764
6052
1720
4204
8336
-10968
-9984
5292
244
80
12080
-4060
-3516
-4
-8244
3492
4376
-3224
8300
-776
-7788
1816
-6592
5288
7440
-5560
2944
10992
-7864
-21164
-19028
17364
32764
18352
-32768
-32768
10748
32764
28112
-20556
-21320
-4132
-15532
-10948
30052
29356
-3260
-22316
-24540
7152
10324
28
9440
6204
-3236
-7532
-4104
-2096
-5196
3064
7848
6100
4720
-6228
-2576
-9208
-7432
6748
7904
11132
-4052
-5208
-3612
-8492
4044
972
7244
10884
-7920
-8764
-7256
3168
9900
-1592
5936
32
-14892
4644
52
-3524
15872
-332
-12940
4720
-1880
-12136
12088
7640
-1560
3180
-7852
-6980
-8848
5092
28680
19620
-32768
-32768
15400
32764
28372
-32768
-32768
-460
28752
10820
13756
8912
-12360
-30728
-18740
25388
27436
5048
-10644
-17096
-5292
652
4408
10088
1428
-4
1228
-5860
-10748
5216
8216
-9600
10980
-240
-11012
10192
-5712
-1320
8008
-3904
3500
-8436
-6316
11780
-780
3432
-172
-5424
568
-3092
6044
-740
-6748
7628
-1372
-1664
3104
-2716
-1452
-1604
3820
2988
-404
-2212
-2404
-2912
436
2584
1852
6068
-1852
1700
2976
-27476
-17724
25624
32764
14644
-32768
-32768
14656
32764
29396
-27148
-21072
-11900
-17644
-4232
24452
32764
-1864
-30372
-19588
884
15192
7584
-1344
3176
-1228
-11880
3348
-2760
-928
11760
-1656
-1448
2376
-5020
2900
-6976
-8660
13956
-320
4480
4564
-9268
-5116
676
4136
-1764
1260
5968
-6284
-1600
3652
-4988
3880
4760
-4144
-1592
1280
-4648
1608
3956
-2680
4332
-756
-5080
5064
-1776
-2596
3848
-5716
3524
6644
-9296
-7220
2528
16584
25132
-24596
-32768
12956
32764
19120
-32768
-32768
10144
28628
5260
-128
7056
-18212
-17100
-1568
14568
28100
-7344
-19724
-3668
-4716
10768
10984
-5208
-4052
-4276
4724
1872
-6028
1788
-48
3168
2040
-2044
88
-1672
-768
-924
-3820
7976
540
-7556
10680
116
-8760
624
-1012
-2792
10076
-532
-2296
1964
-8880
-452
3108
8496
2748
-4284
-4136
-9408
3508
6088
-2936
10492
-2724
-9408
10860
-7572
-4292
4460
-6736
14000
13180
-26056
-26788
23340
32764
11760
-32768
-32768
22772
32764
9912
-23108
-17440
-9988
-7772
-4260
22296
31372
-2648
-32768
-13764
14620
4916
7068
3528
-10468
7492
-4364
-6856
6280
-4316
3608
1376
88
2240
-2084
3720
-10220
-8564
13808
6716
5080
-7408
-10760
-468
1408
7180
-2420
-816
6636
-2892
560
2100
-5836
-3556
-7432
8584
9148
-3840
5128
-7420
-3312
4980
-776
3268
-6876
-5892
4128
4068
9752
536
-10560
-644
964
-10256
-4000
25932
23100
-28120
-32768
4108
32764
30188
-32768
-32768
160
31132
23160
5308
1100
-19888
-31376
-6908
32664
32764
-15540
-22304
-5328
-2280
5048
3840
8148
-7016
-2208
14972
-11128
-4932
10236
-16624
4288
7404
-7100
15824
-76
-13068
-1420
-1072
3276
9404
-5836
-2888
776
-1980
6452
-8128
740
11020
-7720
1656
4696
-12280
4976
460
-5608
6908
3112
-140
-2084
1152
-2752
-4416
5896
-3392
-1356
7352
-6476
1528
3960
-1172
5424
1364
-16236
-26484
19240
32764
12756
-32768
-32768
22192
32764
19228
-31744
-32768
-11876
9932
4332
15716
18824
-11480
-22164
-4172
13156
9892
-10160
-8220
8300
3992
5204
2964
-17988
-4624
2464
404
15740
6000
-1576
-7620
-12708
-4224
3716
7772
9044
-152
-8040
1648
1992
-7292
1148
1844
-3640
5120
2028
2448
-1320
-8412
4384
-2376
-876
10192
-4280
-4888
908
-2444
5636
3592
-5496
-704
2768
-1456
-2924
2684
300
-1252
7976
-19168
-10252
32764
16332
-32212
-32768
-3820
32764
32764
-32768
-32768
21256
32764
13048
-14236
-2156
-22836
-23776
14948
18460
21968
-5860
-26768
10668
-624
-10552
10060
-8528
-3492
24640
7008
-12368
-10844
-11956
-2452
16436
14696
-1088
-6096
-13864
-5700
12688
7000
1160
-5144
-9376
-2104
5736
7640
6852
-2032
-10524
-8696
-796
8440
8368
2548
-7676
-2628
2676
-4108
2476
1008
-2404
7396
-4372
-2576
3872
-9936
7140
6840
-7540
1740
812
-3312
4428
7376
-15720
-19372
19472
28956
14780
-30616
-32768
21500
32764
6528
-7764
-12448
-5728
-14036
844
13408
5256
9888
-10384
-1740
780
-13904
16824
-3080
-10556
10932
-4980
10532
-1596
-16440
10620
-884
-3208
7752
2632
-2504
-11948
-3864
5744
16400
2400
-10260
128
-13220
-4396
8216
9408
13776
-5128
-8440
-7480
-14708
9564
15600
-2556
6192
-236
-15020
-1828
4876
-752
6200
2836
-7368
816
-3468
2688
6476
-1452
1572
-6872
-10620
13412
-7528
-6568
32764
4076
-32768
-32768
9088
32764
13692
-32768
-32768
29700
32764
5368
-18752
6240
-11560
-30012
6764
30008
10132
-16240
-4356
7272
-5220
1676
-6560
-13912
12384
15896
8668
-5116
-20144
-5468
1896
8136
14836
-9064
-3756
1420
-9876
7160
9688
-1220
-7292
-4388
-436
-1768
8600
9404
-7148
-3880
-2100
-6300
9804
3968
-5532
908
-3272
224
4676
-1464
-1904
1512
3200
-480
-7956
244
3736
956
5940
-4148
-5040
2808
-1776
-480
9740
316
-24628
2284
30396
14536
-19376
-32768
3012
32764
14112
-20656
-14628
-5780
-136
7296
3716
4992
-1892
-7032
528
3768
836
-7332
8316
-1356
-6696
11900
-7964
-4932
644
280
14464
-2920
-3012
-156
-10868
32
-3024
5164
18432
-1708
-5044
-8372
-12896
7792
12048
496
-3688
-1576
-6628
4128
5528
-3624
3760
-2616
-2588
3564
-3564
-3684
3192
2408
4264
2548
-5692
-4892
-2152
-464
4732
6904
1168
260
-9228
-888
-8964
-4500
31328
4444
-2164
-32768
-22476
32764
22816
-32768
-32768
7108
32764
-10720
2168
22544
-23844
-32768
-10044
29676
22380
-3068
6136
-13184
-21652
4252
2788
4604
9316
8632
-1368
-16788
-4532
2712
404
6492
3756
-4396
3704
5224
-9140
-10468
4500
4756
1492
5956
416
-5772
-6784
2488
2548
1800
1932
-4020
824
-1876
2168
5764
-5068
-2680
-2400
568
8116
-1112
-1452
-1920
-3248
2304
-3244
5092
4568
-4408
1436
-5104
-3276
8216
6512
-2436
-22880
-7048
32060
28896
-12576
-32768
-12636
32764
25280
-2692
-20484
-15180
-5468
-2672
25788
13704
-12312
-3432
-8928
-9716
5956
8916
5460
3712
-3836
-8004
-3748
72
-2464
7396
13424
-4096
-9684
-1048
-2476
-4048
4112
9996
5336
-4996
-8868
-1928
-1672
2124
10876
-3540
-1684
4416
-8156
-1232
964
-212
3516
6188
1980
-14464
384
3568
-5376
20028
-5156
-17868
13252
-6896
-1616
15068
-8900
-4108
3548
720
-644
3088
-9120
-7364
25820
5772
-10400
-32768
-10464
32764
22196
-32768
-32768
4276
32764
-7180
-6300
26340
-21564
-32768
1276
29216
13784
876
-808
-6896
-7160
-7512
-3136
232
8132
14932
7860
-12156
-15192
3496
-1256
-2020
13800
-4676
-2432
14540
-13792
-8496
8284
-1984
4032
3524
-1336
-4824
-4052
3732
2660
1468
-1976
1984
-2348
-9172
11732
8
-4228
9260
-10240
-780
4628
-5196
4268
-1320
-3872
9508
3888
-9088
-152
-116
-8348
5252
7116
-2196
9892
-3504
-28508
4464
30504
17692
-12148
-32768
-17988
32764
32764
4972
-32124
-31412
-10560
10944
29352
15760
-9556
-14388
-11376
-1264
5608
8348
3504
-580
7188
-9888
-11532
5020
-8788
6968
18480
-620
-2868
-10228
-8124
3000
3296
1316
5048
7340
-6724
-8056
896
-4304
7688
6304
-2412
164
-9212
3076
1608
-4304
7744
-4496
1568
8248
-6996
-1224
-2776
-4328
8560
-1148
-2484
2944
-1040
3416
3144
-3608
-6560
-2164
2556
5912
-11408
5452
23800
-10796
-9544
-20416
-17820
32764
17948
-32768
-19008
-7004
25668
24588
2448
1880
-11972
-26460
-15536
23540
19268
3888
296
-15764
-60
-1432
-10476
6792
3156
11856
11012
-14856
-9020
-4704
-3788
8348
8056
3876
5436
-7776
-11924
-784
-1712
6708
9980
-3996
720
1624
-7280
-2604
-3188
4120
5708
756
4484
-8860
-6636
4760
3412
6916
820
-8128
-9804
-1776
8116
13540
2712
-11076
-4080
-5240
-2540
10152
8348
-3536
-2600
-720
-4420
-3244
-7216
4508
29280
14068
-32768
-32768
10572
32764
6144
-27464
1608
5012
-2828
-148
-12824
11884
16480
-12004
-6696
-3628
-208
12932
-1796
896
-880
-10568
4040
1388
-540
-2288
7144
10572
-10384
-9640
-2040
2356
7404
1412
3952
6760
-18800
-9304
16316
-6232
3744
14852
-15076
-2552
6052
-4808
2024
-236
-788
-4292
6352
10544
-10196
-2092
-2544
-4168
8300
2100
3908
-3672
-5772
-604
-3376
8824
-696
4116
384
-9728
-2772
-6016
20884
14956
-1264
-32768
-19924
32764
32764
-13380
-32768
-32768
32764
32764
-32768
-2460
1828
-28688
1936
21304
17968
-1892
-23648
4500
8612
-7068
5116
-6500
-13096
13068
17700
-7548
-6216
272
-7832
2784
916
3608
7168
-7124
852
-3440
-6732
8732
856
3972
2052
-2108
-6360
-14540
8980
10956
-1292
8476
-5008
-12060
4176
1984
-4328
-1420
6280
448
3180
4084
-8784
-4520
-3320
4076
9620
1496
-996
-4864
-9184
-5568
11368
11696
1004
848
-27044
-7520
32764
2624
-18740
-23540
-3564
32764
6048
-21448
-6836
1820
4404
-8104
-564
15076
3428
-3876
-12008
-6512
9068
5048
5480
-1412
-7432
-2424
-3316
-1352
13660
6364
-11804
1268
-5640
-8056
15464
2644
-2244
4696
-10336
-5836
-868
5604
10724
-572
-4728
-6200
4680
1512
-4524
5360
-6524
-5520
8624
6112
532
-5544
904
-4140
-7940
13192
3392
-4636
2172
-9868
-1344
7080
3708
6476
-6800
-6580
-748
348
-5828
7212
22108
-2688
-2272
-32768
-14276
32764
25440
-18332
-32768
-32768
32764
32764
-31008
-23084
-5388
-15660
864
23088
22620
-12816
-23808
5036
2380
9688
4812
-19340
-1916
5648
13872
8956
-20084
-3232
1712
-7160
8828
5544
2352
1660
-3740
-7184
-2760
6656
-5720
-156
12200
-5268
2548
2220
-12256
-920
4600
5948
112
-2612
-2108
-5076
7252
1444
-5952
6216
-2816
340
5280
-10992
-1620
5636
1848
4092
-552
-3940
-1656
-1452
-1384
5628
7596
-7928
-18516
2092
31920
19568
-32768
-32768
11020
32764
14320
-21896
-17420
16016
-1976
-9736
9988
-192
5556
-2232
-14536
5828
7640
212
-728
-3028
4164
-5008
-10388
5172
8908
8848
-2896
-9792
-4612
-2104
6440
5112
-1944
1084
-1388
-5116
4552
-1676
-4004
9348
-2592
-1352
2836
-7336
1816
-2988
4708
10208
-9632
2960
-5912
-11444
19096
824
-5712
5512
-8220
-1864
3788
344
836
2364
-912
-4516
2864
1832
-5264
6268
-8056
-2400
17488
3492
1864
-32768
1072
32764
13536
-20224
-32768
-26544
32764
32764
-32768
-19256
1420
-20240
9584
32764
5212
-18572
-18012
2600
13228
12328
-2864
-18824
-9780
13840
15824
-8
-6824
-18644
-928
19268
-348
556
2336
-12568
-1668
5920
-2852
6800
6464
-9968
-1008
-2964
-1592
7620
-2628
7276
-792
-7868
5620
-14088
1408
16512
-2524
5420
-10320
-8544
5492
-4148
11088
6148
-4648
-2744
-10804
1008
2760
4684
12472
-6272
-7488
-2460
2204
-3448
-11040
16580
21512
1916
-21716
-32768
1220
32764
23580
-12740
-22456
-12412
-6240
6560
16740
9736
5672
-12320
-14928
-3572
7308
10788
-7092
-2672
3180
2536
10008
-9264
-10624
6432
-2944
220
6264
3008
2124
-7804
-5604
4440
3304
156
-1720
-1436
-1272
-796
7800
4204
-9588
-3116
3652
-3252
1220
7748
-224
-6436
-612
1820
-3364
3192
6660
-4848
-5028
1428
-884
3008
5668
-2100
-3232
-72
-2828
-3844
5220
5960
-10268
5908
13380
-2352
-15692
-29336
9328
32764
17876
-32768
-32768
-5180
32764
32764
-24152
-14672
-7524
-6016
-1704
4820
16460
2364
-6544
724
-4780
-1492
-904
-9256
1980
14072
11792
-2996
-13236
-13136
996
12680
5808
-688
-3956
-1824
-1356
-1144
4652
-3596
-828
6740
-3476
552
-528
-7124
2628
6224
4880
628
-9628
-10304
1148
14036
10748
-6440
-10652
-8236
2272
15016
2804
-5228
-5160
-4592
5564
3768
-812
-6744
-3264
10368
6320
-352
-8336
-16484
1532
16484
12932
10212
-18352
-31568
-4056
20596
25456
9792
-9872
-20104
-19232
-5288
26368
22056
-13300
-2300
-5416
-5704
12056
-12328
-7404
12556
4964
6260
-3688
-8660
-4372
-272
7516
-420
10308
-2572
-22764
7276
5340
3780
12444
-12000
-6400
-388
-2420
12608
828
-7920
-3076
-3244
8932
9044
-1472
-11784
-7976
6204
5108
5560
-1120
-5104
-3584
-472
9264
824
-5548
-2720
-7088
4912
13480
-884
-5136
-6076
-6800
5944
5816
3540
5616
4604
-18548
-32172
-324
32764
32764
-32768
-32768
-24568
32764
32764
-13788
-16736
-16796
-2684
8132
14876
784
-18600
-1136
11036
13348
1436
-18412
-10364
-2180
7184
20672
-472
-9528
-4820
-2008
3148
-1416
4052
-408
-5268
9556
-2852
-6360
3920
-5836
1792
7172
5444
852
-11728
-9328
432
10148
7956
1260
-1684
-9492
-4580
1756
4472
6300
-2400
-1776
-904
-3620
7324
-4524
-6524
8884
-4356
10044
4236
-20288
-1060
4016
10712
12468
-15572
-19952
8876
15472
6556
1148
-18608
-14448
5592
8504
14884
15052
-8432
-26780
-13112
9668
18156
9784
-7640
-9444
2856
-4672
1932
4648
-7744
8676
5364
-5644
-3852
-4852
1168
3172
3464
4408
-528
-4164
-10700
1016
13120
-1256
1596
-3760
-10708
8032
7136
-5148
-3668
752
284
3864
2440
-3120
-1476
-5580
-4
7808
4640
2860
-11672
-10704
6168
5880
8292
2524
-7140
-4564
-5072
-2904
2208
12280
8976
-3716
-6360
-23796
3820
21700
15844
-4968
-32768
-6176
32764
32032
-32768
-32768
-14592
32764
32764
-23032
-11704
2328
-11400
-280
5116
4284
13564
-9492
-11096
7088
-2968
7848
-3400
-7616
7632
-7072
5812
5560
-5612
5468
-9632
-4260
9952
-592
1496
724
-444
-6872
-10324
9784
15396
2748
-4932
-17716
-10096
14392
9732
1528
48
-2528
-3192
-8340
-3924
9548
4472
6180
1404
-15568
-4456
3588
9676
6308
-8340
-6908
-1796
10232
3824
-6540
-4904
-5768
13496
5644
-3216
-5784
-12144
11624
6720
-3260
-1152
-9148
-612
4120
7820
18648
-9560
-28788
-4192
9704
21208
1808
-12244
884
-5380
6572
-808
-10004
1232
4028
14860
-3836
-9892
1816
-8724
5152
8100
-3416
1684
-2916
-3604
1996
4396
368
-4616
432
2116
-932
-4140
396
6548
2680
1128
-7540
-6700
5124
-1844
728
8380
-1676
5764
-84
-17744
264
1332
-892
17732
2608
-8880
-104
-11016
-1544
7592
1456
8468
-2836
-4836
-8704
-2060
17716
10324
-6156
-32768
-7360
32764
31576
-32768
-32768
-9556
32764
32764
-32768
-18832
-9204
-14212
10748
31268
11376
-21624
-22456
-1420
18304
18496
-284
-21352
-24916
8620
30092
13168
-636
-28672
-24164
13352
19412
15444
-6532
-15524
-2276
-1232
7080
1972
1060
-144
-7544
4144
-4308
200
10136
168
3080
-10792
-9052
4160
4316
11708
-5112
-4008
-520
-7436
8240
2104
2660
-20
-15720
3184
8424
7448
1196
-19092
24
9292
5976
6560
-12664
-10256
-7280
13508
25232
-4024
-8860
-22500
-10500
15012
7224
20532
10780
-19436
-26344
-7068
18272
15168
-5236
-6448
3748
8740
-4252
-14744
2472
3232
4460
-108
-3612
10676
-2660
-16636
1404
15608
5412
-8624
-8436
-224
-156
5608
7924
-4160
-3204
-1000
-2884
7316
-2264
-11068
3100
9428
7016
116
-6604
-12164
-4328
8796
6184
5188
1312
-9824
-3960
4692
992
636
-740
-2284
2356
1936
-2480
-2028
1724
-884
-240
10436
-12676
-2492
11792
4688
4496
-32768
-3876
32764
24312
-32768
-32768
-25000
32764
32764
-20600
-15112
-12832
-16072
-2092
25856
11928
-14964
1172
-1232
-3000
8328
-8412
-6492
4740
6600
7560
-7848
-5492
-384
1624
1288
-1632
6952
208
-1888
-3248
-6400
3988
-2680
4836
11340
-7688
1092
-4164
-12512
8728
4124
968
6056
-3484
-3620
-2360
-1884
2972
-1312
-2228
7420
2848
-640
40
-13140
-2368
11204
-236
7112
-216
-14096
1980
-2280
7508
13476
-8652
-10212
-12852
8532
21960
4372
-2656
-22288
-15428
1092
16412
32764
-500
-18492
-22688
-15280
23820
17964
-8076
2404
-2716
-7684
3692
-2464
-1116
1556
1536
1216
3304
4236
-10280
-4996
5100
3492
6648
-10436
-8284
9416
4916
5380
-1968
-12660
-7208
6108
10636
4980
-1992
-6928
-3828
-1200
-2180
4832
10708
-1300
-8096
-3080
-3684
7244
10068
-5620
-3376
-7068
-3428
10384
1452
5748
-3356
-8536
9420
-9760
-1280
3432
-5064
17992
-11948
6464
7068
-4372
-10256
-32768
27576
32764
10372
-32768
-32768
-19332
32764
32764
-3004
-24872
-29752
-5468
10280
18584
12060
-3608
-14344
-9604
9284
-1280
-2080
7336
-1848
480
4804
-2976
-6484
-4372
4400
1716
5808
6076
-7944
-9972
-1080
9640
5308
-1684
-6408
-5392
3932
4636
6724
-2804
-11312
3116
660
620
4308
-1916
1280
-4868
1716
7028
-8212
624
-1124
-3788
13372
-612
-4824
-2028
-8896
4564
8396
3288
-728
-7960
-6124
4308
7240
-1072
-12480
5276
20660
4496
-10460
-29144
-15940
14832
26808
24196
7692
-22112
-32768
-13912
19832
30412
15872
-6260
-15392
-13148
-5872
6188
10924
5544
2560
-9320
-6740
5848
-6620
-2036
17912
3532
-7632
-8100
-14396
7196
19060
2668
-3580
-9068
-6740
1988
24
7900
5512
-3764
1916
-8900
-4728
5944
80
2112
1092
1856
1808
-400
-2372
-12376
-2956
11864
8724
3452
-5188
-9044
-3540
1588
568
4576
10416
-3204
-6404
-1104
-22168
14052
22400
9832
3276
-32768
-21428
32764
32764
-32768
-32768
-30264
16464
32764
7844
-5108
-15192
-24088
-8720
17956
18280
10752
-10072
-14448
2688
-6232
-1232
4320
6116
8404
2068
-5332
-16688
1000
9680
-4796
4396
3836
508
-592
-6308
2992
-5124
2960
7956
-9796
6052
-5152
-8920
19740
-3376
-5212
11572
-13996
-7744
4100
3348
9136
-152
-3768
328
-5344
-5124
11064
632
-7000
5036
-4840
300
9180
-2408
-5992
-2504
-480
8080
6832
-5880
-12168
-14564
11128
32764
15364
-15248
-32768
-31464
15680
32764
32764
2620
-32768
-32768
-848
11356
23556
32568
-15988
-7620
-7716
-17712
14256
-204
3656
11548
-15680
3928
4296
-4852
-1360
-3008
4688
-1896
8112
6376
-14564
-5868
2336
1736
6992
4412
256
-5224
-8224
-2964
5312
3856
6168
2560
-14200
3164
3880
-7080
9564
-2568
-7060
3888
556
6864
-2228
-6600
228
-2140
5032
7468
-3948
-8052
-348
1920
200
7184
1908
-14232
7764
-2524
23248
1948
-32768
-3724
32764
32764
-32768
-32768
-32768
-8364
32764
32764
640
-23768
-28272
-11716
11104
20256
9600
-2988
-7224
-2036
-2212
-4108
-4716
-1740
16060
12652
-5688
-14544
-6504
2204
260
6996
7184
5144
-2944
-17620
-4536
7792
4952
7348
-424
-5684
-4044
-2088
5144
-44
-924
4796
-960
-5176
-2452
4164
4016
-5468
2988
1348
-5344
2788
-1644
3040
652
-3848
5316
-3440
-3904
4788
-3484
2276
1332
448
5840
-1436
-6936
-25812
6008
32764
20140
-19692
-32768
-25992
29664
32764
32764
-25548
-32768
-30324
-8424
27244
24740
10136
928
-13544
-15756
-4836
-396
14660
11392
-12132
-8292
7984
3752
664
-7140
-8708
11764
1996
-596
9620
-15012
-12696
16496
4764
-6368
4352
252
-7008
-1524
5376
-736
472
8016
-8176
-8740
7096
624
708
2232
2188
1784
-9032
-100
828
-6200
8048
5128
1436
364
-8108
-5480
2672
3436
1428
7748
-5576
-6392
-6276
2640
7968
17028
22548
-32768
-32768
32764
32764
-14176
-32768
-32768
20692
32764
14556
5244
-12700
-32768
-12724
22560
23756
9556
-12812
-6108
-2492
-11612
6012
656
-2676
19184
10360
-12344
-14508
-11096
5288
10396
-2228
15652
6688
-19492
-9828
840
5920
2676
7456
-372
-9856
7172
-6268
-5876
13660
-8264
5280
6680
-15704
6820
-2136
-1172
7092
-4820
2612
1268
612
-8292
-424
7100
-4560
3560
2828
-1884
96
180
-6208
-7472
9548
11028
3572
-3620
-32768
-2244
32764
18792
-4948
-32768
-32768
23532
32764
32764
-13056
-32768
-23432
-16084
15204
32764
8080
3672
-4764
-30392
-8796
3252
13328
23220
-10164
-18028
7804
2888
-3100
2088
-3228
184
-1804
3896
12596
-11644
-9536
7328
-1692
3064
4584
-2900
-2620
-3668
2568
3092
1292
836
-6500
4340
-468
-8668
8112
1172
472
4100
-11124
3332
5668
-6628
3536
-500
-3420
1564
3852
-636
-4228
6332
-1392
-6000
4680
-340
-13524
4664
13112
15672
12860
-32768
-32768
32764
32764
-23148
-32768
-31400
28248
32764
16668
9636
-27692
-32768
-6176
18700
30076
3716
-15648
-1072
-12100
-11184
21324
4332
-9812
12204
3468
-18800
-5732
5612
7680
5844
-3912
5104
-4672
-13536
2188
2392
10664
844
-4700
6024
-9028
-3324
-592
1292
7892
-3452
8112
-3804
-14496
10892
1440
-3756
1716
-4156
3604
688
1508
1820
-2936
1844
-6136
-1004
2836
-476
5096
-2056
1792
-504
-4604
6752
-820
-7872
-12392
700
24940
25196
-64
-32768
-31944
24136
23420
31328
13528
-31128
-29520
-11452
8448
18336
11524
7312
-4276
-9924
-11460
-5060
13068
7120
-8824
-2324
10112
-836
-2244
-1580
-6804
3640
-4136
6872
15052
-16112
-3004
2452
-5992
12884
-3956
-4628
5004
-5680
6408
1132
-7088
2596
-1880
2992
3504
-4376
-1748
444
1792
204
-816
1328
1444
-2084
1084
-1464
-6260
2744
6976
-260
280
-2212
-6100
4808
988
-424
-5960
288
2928
21972
18896
-32768
-32768
32764
32764
-1900
-32768
-32768
15128
32764
24876
10920
-16848
-32768
-18552
12216
29012
10632
-15664
-1580
8556
-4440
-3320
-4676
-4988
1916
7948
2916
3212
8248
-16048
-13112
200
11188
18540
-5460
-7780
-6860
-7472
3900
9656
5712
-2032
-1108
-6536
-188
568
-8448
12208
6396
-9352
2380
-2024
-404
2248
-3020
1276
-3764
4272
5928
-5380
-800
1272
-888
-3820
2576
-576
-1100
9448
-7028
-2032
8776
-584
-7404
-15904
636
23240
20468
3280
-32768
-32768
11096
21332
18160
22800
4548
-32768
-32768
9304
12856
19880
23904
-3072
-19732
-23336
1400
11292
4896
9096
-6516
-836
-1144
-9492
16420
1692
-17308
104
4044
9256
3012
-1320
-11884
-7596
13712
-2968
3024
11044
-10216
-4388
-1016
-6476
5588
7508
6752
-416
-14452
-1280
1060
-2564
12428
5904
-9756
-1264
-244
-6876
6900
3160
-4872
2516
60
676
2880
80
-4684
-2572
120
-8864
4392
14024
25356
-6236
-32768
-20980
32764
32764
-24348
-27612
-32768
-2888
32764
13380
-30060
-8152
-8044
6492
10132
-1936
3672
-6124
-4760
7880
-196
-3088
-2532
-1164
6268
1704
-4648
4884
-4168
-5376
8852
-1768
-1848
-508
-5920
8132
3216
-4492
6556
-5760
-7628
1260
-48
8296
8576
-1740
-11008
-8792
116
5392
8468
4704
1244
-5632
-9500
-1976
240
2980
9824
1208
-1624
-3632
-9460
2564
3896
2872
4804
-268
-7972
-4832
6216
3476
-2476
-10840
-7200
27684
27452
-8120
-32768
-32768
22708
32764
15604
2276
-22812
-32768
-11980
12196
27224
18668
3804
-6572
-26844
-8276
12820
5836
5036
-6844
-1488
9860
-3728
-2556
-7352
-812
12336
-5208
2964
1368
-7036
3100
-6236
4456
8468
-3696
-416
-8132
-960
5992
-1872
5776
896
80
-2436
-10192
2784
5072
5784
-152
-9916
-1368
4868
3676
752
332
-6824
-1732
6656
580
360
-6380
-4968
8160
6412
2124
-6052
-15296
800
20416
25084
-25608
-32768
-956
32764
32764
-15948
-32768
-25092
4304
32764
32764
3268
-19696
-26404
-9000
1492
14880
15040
1000
-424
-7916
-4472
-2092
-9688
2332
11724
11012
-524
-5172
-3944
-14284
460
4208
6288
18896
-6772
-9640
-6656
-8180
8596
8784
1664
-4232
2248
-5232
-5368
16452
-9784
-6868
11444
-13476
10668
8756
-13836
7612
-7032
-1972
8980
-5256
2192
-1180
-108
4620
-3128
-4924
-4168
3204
11348
4316
-7184
-4544
1060
-2200
-12604
-6060
12780
32764
29852
-29652
-32768
-32212
32764
32764
30420
-15160
-32768
-32240
-4312
12752
23180
13752
13392
2560
-26500
-20344
-1696
3072
11028
14628
8340
1256
-16264
-16836
-260
3468
13620
6172
-2600
6712
-9240
-13112
-2732
604
14656
8804
-1128
-10552
-8876
5940
1660
1544
3384
-4832
-3104
4840
3624
-1796
-3356
-3900
-304
7928
3984
-6644
-3156
-2256
428
10408
3988
-7672
-9004
-1092
5424
8096
836
-1860
-6776
-11664
1336
22716
25852
-20732
-32768
-9668
32212
32764
17348
-31800
-32768
-16716
12780
32764
31600
-9904
-30236
-11544
-5404
2688
22492
4756
-4292
2344
-6048
-7468
-9088
1812
9468
11704
4152
-6440
-3836
-11052
-8200
6616
8440
12176
6936
-15868
-10504
76
-4172
15012
10216
-11000
-3800
-1804
-2320
9480
1480
-5200
960
-5404
2552
964
-340
6100
-2384
-1328
1652
-7920
-3584
11364
1836
-304
-508
-11016
3356
6088
-1988
2932
-2432
-4468
12532
-332
-17168
-16440
1476
32764
32764
-32768
-32768
-32768
32764
32764
14644
-32768
-32768
-30640
16012
32764
27364
-4988
-14460
-1560
-14140
-7144
3976
2688
15244
6156
-4052
-4800
-14156
2560
5640
-484
6264
-6892
5012
7612
-8724
-1324
-12772
4824
14084
204
7312
-15708
-12124
7796
5240
11316
-348
-8296
-6952
-3912
6436
4184
3876
4532
-9700
-6260
-188
5312
4792
2728
-1280
-12532
3720
1480
2104
6720
-4820
-768
-2040
3764
-4072
-12024
88
19868
32564
-12676
-32768
-30312
32764
32764
23044
-32768
-32768
-19880
27380
32764
22732
-24096
-29212
-12812
-5696
8348
20700
5780
2136
1548
-14464
-7364
-3220
-9736
13216
20676
3400
-2612
-15696
-13508
3484
2068
10296
9568
-1920
-5096
-8824
-316
5172
-3284
3536
-264
-1840
9840
-4000
-2264
-4688
-11984
14928
6764
-2148
8316
-20992
-8596
17076
2784
9240
-1228
-19068
-5812
5888
10224
7176
2960
-12988
-11196
1968
6096
14776
-252
-2448
-5824
-25532
-3288
13416
32764
32764
-32768
-32768
-18036
32764
32764
16912
-31348
-32768
-22996
1440
18584
27520
2248
-6112
3656
-12304
-12080
-6036
2020
15800
8968
3984
-2508
-16488
-7228
1652
4700
10116
3368
-2952
1452
-2688
-14668
-3896
8420
9276
14580
-2844
-16508
-9676
-3576
10908
10752
1248
-700
-5444
-8972
2636
5760
-4664
6676
3184
-10588
3336
544
-4380
10240
-1532
-5892
4372
-2652
-7808
2192
4940
6888
8440
-10828
-10364
-7628
-2736
20488
32764
-12372
-32768
-16660
32764
32764
-7432
-32768
-32768
14148
32764
30052
-22560
-26764
-22896
-316
12180
3116
13636
6832
-10024
3752
-7964
-13124
796
516
16480
11232
-7100
-6108
-13436
612
6916
-944
12272
-2356
-5140
-1260
-10208
5528
11448
2196
-9500
-4840
-740
16
15900
-1824
-8984
1668
-11056
7676
5652
-3256
8200
-9292
-600
1548
-3936
10428
-6720
-2716
4836
-4740
7228
-1620
-5932
1688
-1680
7604
-676
-2096
7856
-10000
-11536
-5596
3396
31792
26300
-13832
-32768
-32768
30096
32764
32764
16824
-32768
-32768
5708
32764
25888
3060
1284
-488
-28728
-15244
17760
8756
4416
-5848
-11112
22836
15304
-24212
-23384
-988
10340
17528
17260
-808
-24944
-21668
3912
22560
14508
-8264
-11096
-2176
696
1688
6000
-5232
-2320
3120
4952
2620
-12500
3436
-384
-1308
6000
512
3052
-7308
292
-4012
-4740
18060
-5012
-1304
5596
-18904
9396
4244
-5628
13328
-9804
-14844
8116
8248
32764
-8656
-32768
-2236
32764
32764
-30708
-32768
-23688
32764
32764
15084
-10472
-29860
-1592
10324
-2740
4888
-436
-3780
9336
5108
-2768
-13832
-15196
5236
21736
19112
-12544
-16496
-4440
-3908
9660
3040
1776
3580
-10324
7516
9876
-14460
-5968
1760
-3664
7948
10548
872
-1348
-11424
-10412
3404
13072
4824
-7780
3836
-3460
-8292
9680
-2024
-5000
8608
-1744
-52
1696
-6756
-2988
2964
2612
4884
5684
-9952
-7576
5620
1472
8620
-4600
-26100
3848
32316
27928
-5688
-32768
-32768
27748
32764
32764
7576
-32768
-32768
-11476
30444
32764
21100
-13072
-21316
-16000
-6392
248
12132
5824
-4088
13236
16620
-10964
-31820
-12868
11828
14804
21364
4800
-17428
-13072
-14612
7696
21120
-2160
1232
536
-12452
-1072
2620
3184
4164
-4344
616
-2840
-536
9252
36
-4496
-5892
-7920
7692
12668
-476
-5296
-5220
-3796
3728
5780
1176
-244
-2556
-8760
448
8036
1844
6584
-15728
-5200
14520
24612
-9300
-32768
1320
32764
8924
-32768
7940
-20664
-23580
32764
14140
-6340
7168
-10132
-17160
-7832
4616
14252
14924
-2524
-1476
-4936
-24060
-7172
15204
19436
17708
-14388
-24784
3440
1888
2276
6928
-2104
4544
-3632
-3416
9324
-9716
-5296
6444
-3904
6436
6396
-3708
-1464
-7600
-3660
6772
4420
2036
-1288
-2696
-3468
-1372
1460
1032
6528
1760
-4536
-6296
-4008
6684
4000
4720
-5624
-8104
6420
-3128
5372
1688
-3756
10684
-15364
-18124
9532
25036
26848
-14220
-32768
-25792
14512
32764
32764
-4568
-32768
-32768
-4896
25968
32764
9488
-21932
1352
-25800
-3660
16692
-2392
4204
-2428
8964
18296
-9496
-32768
-8252
21704
17388
18228
-7112
-21248
-12036
-6496
17864
15216
-7356
-2056
-2128
-2128
3284
-3820
-3796
260
7340
7588
-6996
-3536
-1304
-4056
8364
-648
-3008
7740
-6644
-2628
5752
-4540
-892
3728
-1376
2600
3860
-6524
-4248
3008
1476
1268
4500
-13436
-1068
14544
22880
-5752
-32768
-1368
32764
29664
-23500
-32768
-26260
32764
21312
-11144
15992
11160
-26864
-17472
-1032
5604
12012
11048
7980
-2532
-15860
-13264
-2352
-1420
11388
27632
-152
-17948
-6768
-10908
1504
3436
11520
14516
-14700
2276
-16
-17804
6076
1292
6480
8092
-6344
5272
-10272
-4908
4992
-4412
13164
-3076
-4620
8716
-11396
-2252
2804
2244
8276
-2800
-4112
-5556
1800
7356
-5376
2688
1796
-7124
1576
3700
-3612
3000
12960
-5716
-18744
-13404
10520
32584
24156
-20704
-32768
-25628
22624
32764
32764
-11004
-32768
-32768
-9044
32764
32764
-5556
-26912
-14608
-10688
2428
12856
-5444
-2944
6796
10468
20148
-7992
-32768
-16672
15840
23024
22532
2940
-21900
-20548
-3112
5636
13288
5824
-284
5360
-10900
-11724
-1544
3768
15380
2688
-1868
-6380
-14668
7920
4836
848
5276
-5096
3848
-7840
-5184
8984
-5336
11396
2520
-14496
3504
-5072
3756
11156
-3096
-1960
-7796
-1880
-6688
8968
18080
22860
-18272
-32768
10112
32764
13200
-13600
-10004
-32768
-7852
32764
6772
7288
18400
-25752
-24792
2976
-4200
16256
19556
-1284
5288
-16532
-15756
-2028
-13084
19460
31532
1008
-10168
-17248
-14132
4260
2216
5176
19132
-2996
-5188
6216
-19540
-8648
10880
-108
12696
7240
-11136
-2668
-8208
-3180
10004
3948
3396
5672
-11800
-14164
2912
7252
15260
7140
-20716
-11520
5572
4444
13484
-1844
-10272
-892
-5540
7632
10228
-7060
-3600
824
1140
-2440
-11780
1088
25456
21516
-15144
-32768
-24284
13704
32764
32764
2476
-32768
-32768
-12272
31996
32764
11228
-16136
-12544
-22296
-9368
14972
11596
7100
-5252
-1936
17564
-8276
-23152
-13152
7876
22592
6276
14744
-8536
-32408
-428
-3288
4348
31888
1656
-5260
-8100
-23848
256
6092
13896
10360
2200
-4112
-22792
3476
5104
-4736
16424
-940
-8308
2812
-6660
-168
5852
1236
1592
1340
-4968
-6832
2432
808
4088
7428
-4596
788
-14000
-2240
14924
19020
8104
-32768
-14508
32764
31140
-3532
-32768
-32768
32764
31624
-19228
21652
15456
-32768
-28656
13788
6920
15116
14256
-8440
3672
-13940
-14564
3660
-8432
13012
25800
-56
-7680
-10376
-14376
-976
-208
4812
22052
6508
-7916
-2384
-18144
-13544
9968
12496
14108
632
-9148
-6148
-11064
340
11268
5104
3232
-2264
-6036
-2724
-4396
1308
7152
2176
1860
2540
-7244
-8168
4688
-4696
6340
14360
-10460
-3432
740
-9908
11476
11360
-11360
-7020
-12524
3184
32140
18268
-10284
-32768
-32768
17440
32764
32764
6868
-32768
-32768
-14140
32764
32764
13216
-17012
-14112
-14964
-6992
3336
5636
6044
6276
8016
8124
-7804
-25732
-19188
7436
29260
17952
2996
-16708
-23048
-2012
4804
7692
8040
2360
2120
-3212
-8852
-6176
1484
7380
1848
4908
-2072
-10144
6500
-4952
-776
14540
-7852
-4148
2368
-3228
276
180
4064
2536
-400
120
-7496
-148
4556
-2520
1168
1404
-364
-7260
10236
3612
18804
-15428
-32768
26332
32764
11048
-17344
-25964
-27060
-2328
32736
12532
-5108
16080
-17280
-26056
6264
1760
14704
9892
-9920
6880
-8100
-12088
2768
-10960
10016
26392
5996
-10036
-19864
-16120
-1020
13416
19224
10232
-2736
-13452
-13428
-4756
3156
10108
3288
4056
2452
-6464
-2328
-2140
-2916
1656
-936
1244
6724
4724
-196
-10576
-7380
4036
4096
5816
4776
-8444
-6596
1556
1512
4916
5512
-3520
-5968
-124
-7556
3984
16708
1348
-15644
-14356
2256
22860
32352
-11024
-32768
-29096
15924
32764
32764
-1700
-32768
-32768
-15244
32764
32764
17132
-24880
-20376
-22032
-2528
10976
1644
15224
5600
784
3056
-10188
-12112
-20360
4736
27960
10780
3844
-11808
-14748
1388
-9180
2828
17172
-956
6284
872
-16344
-1992
-5592
-2164
20240
5860
-408
-1300
-22068
-1160
8408
-112
16032
-2432
-9608
-1340
-7364
9432
4856
-2608
-92
-4844
-2052
1048
4988
2256
-24
596
-8544
-7536
11916
484
26960
-12156
-32768
16148
32764
12464
-32768
-11312
-23696
-4328
32764
5232
-4812
5984
-15076
-14884
-7848
12540
12224
-1352
11588
-1516
-8232
-1564
-20584
-5716
12896
17548
17536
-2296
-16132
-20376
-8148
4048
19024
19764
-9684
-5692
-5356
-11920
11800
-268
-7812
11168
-468
3352
3680
-13720
-1536
1864
-140
8732
4444
-7708
-7748
2156
2036
3328
9436
-7636
-9228
3224
-1324
9544
1556
-9836
-4028
2064
11040
1400
-4696
-5312
1496
14864
-12140
-32768
3016
30088
32764
18636
-32768
-32768
-3664
32764
32764
32764
-26820
-32768
-31960
13588
32764
19004
-9024
1456
-21820
-9416
11664
-2508
7076
-5736
3784
22724
-18156
-16288
2872
3016
11304
-2240
1652
-1260
-7072
5764
-5004
-2808
9000
-4116
2260
5200
-9608
36
2620
872
3048
-3740
-3188
324
3668
2708
-268
-3448
-616
-1248
2136
1628
-904
1672
-7988
4432
3440
-3424
4852
-2892
1372
-2048
-4676
6212
-460
-10152
3160
7752
26920
-3524
-32768
-10216
32764
13032
3400
16896
-32768
8172
32764
-32768
25728
32764
-32768
-21624
19452
-6252
-13012
2352
5812
8120
5780
108
-2888
-11572
-11348
7836
17192
-1960
-8404
3728
-3632
-1280
4476
-4804
3072
-2420
-184
9896
-5412
-5984
5836
-1868
-3620
4548
-1600
-1208
216
2220
6540
-5508
-2872
-4080
-2548
12016
-76
308
2312
-15404
-1760
8492
4136
9500
-5608
-7396
-6756
-4720
16768
2836
-3900
1584
-11472
5052
4548
-15516
10148
20992
3176
-14048
-30864
-21300
21620
32764
27924
-5628
-32768
-32768
-3192
32764
32764
5716
-25764
-20012
-10412
928
924
3476
10980
9332
16296
-9340
-25628
-9128
-8152
9872
29028
7532
-5656
-8900
-17344
-8948
8132
13328
9884
7044
-14652
-16732
1740
304
16576
9004
-14260
2112
-7908
-4488
11700
-1528
5380
-3688
-9684
6780
1568
3312
760
-9636
-3852
4440
6636
6104
1452
-10728
-8876
-1708
7304
12308
-888
-10812
968
2236
14816
5204
-32768
316
32764
7456
20972
-32768
-32768
32764
32764
-32768
19104
15828
-30016
-17632
-8868
15716
12100
4108
11948
1044
-15576
-16612
2308
-3116
80
26612
5996
-6968
-4756
-17164
-4704
4804
10440
8804
-4712
3812
-5848
-10176
5280
-1332
2144
3792
0
5528
-4620
-8272
-1140
3308
6700
-284
1160
-2376
-11296
3532
9212
1332
2308
-3988
-12112
2856
4936
3272
4168
-6888
-1200
-1100
1592
10840
-7588
-7820
2940
3948
-1684
-9480
6404
12084
19620
-2000
-32768
-32644
20692
32764
32764
-3444
-32768
-32768
-3736
32764
32764
13888
-20228
-29236
-12304
1332
17284
-984
-11864
11268
17856
12268
-16476
-29908
-9728
8072
18392
20996
3836
-15432
-17272
-6160
2960
11820
7416
-2544
1444
-5512
704
-3604
-12164
12028
3612
5644
7080
-15528
-1440
-1388
-4084
7864
256
6132
-1788
-6776
6252
-6276
1928
5856
-7024
372
-3832
-3972
13612
9296
-6152
-7964
-7496
-7684
14752
8336
17160
-7904
-32768
3712
32764
25316
-5136
-25388
-32768
-660
32764
7884
-1488
16404
-7864
-32768
-6716
14100
6952
11144
5416
-440
-6584
-13932
-5960
-784
8460
12280
3508
-1176
-2916
-6808
-7632
-1044
3800
4492
7748
4092
-5328
-12228
-1460
4768
5068
5584
-7448
2716
-1516
-10316
7368
840
4660
6980
-8944
-5372
-4552
3060
10728
-1924
476
-4884
-5096
5136
-2060
8108
1744
-7016
-248
-4732
-4460
7924
9652
-5688
3460
-692
-16944
908
8128
7744
23920
-3768
-32768
-32768
21232
32764
32764
-2836
-32768
-32768
-2528
32764
32764
12060
-5748
-32768
-19868
9196
2264
6688
-7096
5360
24720
4852
-9256
-26228
-15176
12696
1032
20372
19660
-14128
-9576
-13984
-9100
7708
8816
8124
8532
856
-14096
-6896
-5032
-2100
15724
4820
-1456
500
-9968
-2600
3872
2220
1860
1568
1672
-8376
-2000
4068
-4892
9716
5236
-9272
3340
-2312
-5724
-1004
3424
6680
-712
-3628
1020
-3332
19184
-10476
-32768
3696
32764
32764
-32768
-20092
-4744
-9732
32764
9900
-10672
11532
-16032
-20232
5644
4224
9116
8340
-544
-508
-11152
-5944
6152
924
-368
2748
-808
4700
4380
-12056
-2892
872
-848
12288
2496
-7444
-3444
-5696
7236
4476
-7800
3256
-1360
6608
3180
-10916
3280
-3788
-4748
7596
2784
1640
1864
-4744
-5336
-724
6640
448
1544
-248
-10320
1600
948
7400
8620
-7356
-2356
-4024
-11180
6820
10668
284
56
-6520
-3984
9184
17392
1272
-32768
-32768
28088
32764
25784
-15140
-32768
-14980
7044
-340
28632
24588
588
-28636
-13416
6148
-116
9108
-9032
-4096
18596
4484
5464
-8304
-27792
-2536
11460
13040
12884
-2652
-12356
-6584
-2332
1132
4956
1044
-256
8392
1748
-8184
-2756
-9788
1316
11884
2800
2616
-4052
-4948
496
372
-2304
-512
3408
1616
1028
-256
-1376
-3452
-2012
6460
1208
-912
-2664
-3156
3980
-176
-1880
-3932
6908
4108
11676
-14408
-30224
7412
30992
23268
-31676
-2804
-10384
-30424
32764
24036
-26068
2708
-2792
-15536
-4848
6992
12216
3796
2996
5836
-12956
-9656
-6612
-3680
20428
2952
5556
196
-18632
5084
-6840
1316
15928
-5116
12
-6184
-5104
8236
824
5260
-4064
-9236
4948
-1864
6460
3924
-5156
-3056
-5584
4892
2864
2204
-1280
-1680
5032
-7360
-2276
3876
-3256
5516
4008
-2372
-1400
-7916
-596
6072
5404
2460
-4820
-8228
4052
4988
-14704
1804
12916
20224
17556
-32768
-32768
32764
32764
32764
-17000
-32768
8348
21552
-25208
3668
25272
6388
7372
-8216
-14388
-18268
-4456
19840
10916
6448
5996
-14512
-18360
-2468
10212
13972
-2700
-3772
-248
460
1528
-5408
-4780
-1260
7252
6208
1008
-156
-5416
-5216
-2288
2504
8632
-3060
-4172
4784
-1432
4324
-1180
-10224
1372
2512
2252
6596
-296
-6516
-3552
-1964
3952
10852
-4760
-5324
-5240
-560
10912
1332
1176
-9072
-1316
1000
10664
1428
-25948
-13056
32764
30820
-32768
-12348
-13968
464
32764
-2544
-1388
13724
-15028
-24304
1864
8996
7908
11068
2452
-3576
-8908
-12336
-4884
10588
9176
84
3200
772
-8076
-2728
1000
-4508
2848
8632
-6544
920
14316
-13564
-9172
5992
-4784
7356
13476
-7520
-7360
1152
-5172
4360
4080
-6296
2540
212
3628
6584
-8436
-2656
-584
-3756
2936
1212
5588
5480
-3852
-4940
-11184
4936
4272
4824
11720
-16144
4972
-7336
-26636
28172
17472
6388
20592
-32768
-32768
32764
29576
32764
-16772
-32768
13748
4648
-29372
18080
31372
1208
6144
-6300
-26596
-10144
1996
10108
10332
10080
10088
-14884
-18064
-380
5316
8348
-5644
-784
10056
120
-1836
-6076
-4620
864
7076
-1896
2452
4592
-16840
7804
2160
-1640
13252
-11656
144
-3316
-8756
12416
-152
5108
2052
-12484
7612
-3500
-5972
5424
-2124
8248
-2396
-724
-304
-6756
9300
-4860
-548
4860
-11580
-1384
13492
1144
20736
-20392
-32768
17228
32696
13800
-26756
6380
-10864
-32080
32764
17532
-14268
13816
-7240
-25232
-1812
7888
7484
15288
1432
-2516
-11200
-20196
5888
6508
10352
14200
-10696
-11224
212
2084
-156
2508
2328
-8840
2408
11160
-3500
-3572
-2600
-3072
4752
5000
-5044
632
1184
-10760
10032
7632
-7068
-228
-7980
4008
11672
-7796
-2224
-1068
-4780
10044
456
-3272
1512
-4044
4224
3056
-7072
-2572
2724
-1464
8996
-500
1676
-2892
-27056
4916
23732
32336
8312
-32768
-30356
32764
32764
32764
-32768
-32156
29004
-11268
-20972
18468
10124
4968
8488
-4156
-10724
-18220
-2244
12312
2040
15032
22332
-22948
-28304
1996
2584
13636
8432
-2680
3152
-3688
-7880
-4508
-2412
7288
6372
1076
272
-9164
-1968
6212
-308
1664
1588
-3412
-2004
-2408
-744
6392
2620
2940
-4180
-9500
2272
2188
5100
4180
-6528
-7284
-1828
7468
10148
1604
-4956
-12120
-5156
7312
3716
-3720
15176
-3756
3176
-1256
-32768
13772
32764
4236
-28724
-23040
-20848
22968
25204
-10176
8444
9844
-14560
-18768
-7200
8012
7016
12748
8496
-3544
-11388
-15220
-2628
14800
8948
-612
-1384
-11668
2460
6868
-10804
1768
11260
2436
-252
-6692
-8600
-2672
3572
9020
3276
-60
-232
-4976
-3968
1032
-264
-3888
6256
7136
-5084
2856
-4104
-8132
8696
-656
-3704
5628
1836
-4676
-960
424
-176
4716
-7512
1240
3436
336
9600
-12344
12492
-14648
-32768
31516
22348
23028
-1176
-32768
-9148
32764
19176
32764
-31844
-32768
17504
-13612
-14108
15616
21648
6412
4988
-4984
-21740
-18136
772
9404
12740
25632
3028
-23212
-22372
-620
15040
1480
2940
5788
-5076
-5252
11116
-3596
-19676
6308
13568
300
5120
-10456
-11520
9944
-2704
9672
7272
-18584
-488
3636
1996
14612
-6860
-17584
2060
1616
8572
7628
-1232
272
-14556
-9116
10852
8240
2788
3920
-11824
-6948
5960
2692
-1320
-4452
13328
-5432
15608
-8404
-32768
20724
32764
7364
-9040
-10624
-32768
-5752
32764
-1008
5204
25924
-19900
-27136
-11432
3888
23284
14164
7596
-1512
-24380
-26808
4316
22524
17324
1992
-7808
-6700
-6172
664
-4492
-6344
10876
9292
7372
2496
-12176
-14088
-10344
12040
16440
6796
-132
-21012
-9204
12920
5588
5528
-2364
-12120
904
964
8076
5760
-7088
-3500
-8380
3848
11732
-1980
-1980
-1728
-5744
3376
5528
-3280
-840
5260
-11736
5920
25300
-32768
-16528
14236
23248
32764
-10104
-32768
-32768
25168
32764
32764
-16044
-32768
-1812
6024
-29684
32296
32588
-9416
5716
-15480
-8204
-11028
-10432
14608
8604
24572
10512
-31004
-23200
1164
10432
5936
14904
7552
-16164
-8168
-1632
132
-2056
5624
15872
-2312
-12260
-5448
3952
3200
-1672
3808
-4420
468
7328
-9564
7000
1068
-15532
14016
2448
-9332
7852
-7640
-2404
14952
-5828
-5284
-216
-2228
7532
3056
-4180
-2176
-4620
996
6740
-4640
8596
-7664
15580
-9332
-32768
26780
32764
-4340
-28644
14396
-13164
-31808
32764
11452
-6912
23572
-7744
-20640
-19016
-6816
28384
13404
6368
6084
-32236
-20804
15712
15740
9300
-7764
-5652
4460
-3376
-2328
-8416
832
14304
1880
3036
-2900
-10244
-3220
-5912
3428
12988
7148
2564
-8068
-10968
-6004
928
9316
5840
1320
-1040
-3668
-1672
288
-8336
3224
8004
-20
6464
-6372
-11384
476
6672
3072
5616
2624
-16740
-2060
4320
3228
30744
-26808
-32768
27708
23428
27380
10768
-32768
-29584
24852
28548
32764
-25964
-32768
9648
-15256
-13504
21556
32764
196
-19540
836
-14752
-9876
10592
-488
9632
21332
-7544
-21264
2960
-3064
-15644
15368
18044
3244
-1356
-17204
-6852
3928
-1528
8496
5360
3684
-6904
-8184
3376
-12
1696
208
2404
-1248
-2948
4796
992
-6964
-2276
1492
7392
3240
-2996
-3880
-4592
2328
-2948
5128
5652
-2936
864
-1156
-4012
148
-4964
2804
6196
-7992
15184
-3728
15184
-11392
-32768
27668
32764
-9856
-32704
7108
-31632
-7924
32764
5732
-2472
4936
-14524
-17444
-6072
8668
6980
15160
18244
-11256
-24952
-15016
7744
14016
7136
4436
-9440
460
6616
-9976
-8368
-2584
6724
17852
700
-9928
1032
-10252
-7500
5508
9232
11028
1952
-9660
-11896
-3428
6184
7884
1956
-1024
-5532
544
-644
-168
6216
-2916
1448
-708
-6712
176
-984
5212
7488
-3912
-3904
-808
-104
3848
2824
-10808
14884
-10496
-32768
27468
32764
24164
-19940
-32768
-9300
32764
31820
22180
-24640
-32768
5716
-588
-7440
27752
6708
-11420
6052
1076
-8220
-17008
-7208
14304
21312
13216
-15192
-19576
2720
-7820
-2564
24856
3036
-1476
-3480
-13912
1264
-1892
3200
10916
-1652
-892
-20
-8700
4
2724
3196
5348
-2580
-8712
-2060
9596
3872
-5332
-5412
1320
4568
1820
156
-7788
-3140
9240
620
-140
5080
-9312
-6932
7108
-1716
9628
6148
-16872
1652
-9732
2548
18728
21848
-4368
-32768
-2824
32764
18080
6644
-29500
-32768
22872
29636
-11032
22552
26620
-21388
-32768
-4128
4032
12344
27744
12836
-8584
-32768
-11240
18476
7680
11640
532
-10524
-3544
-1844
7412
-8364
-6632
14988
6936
2172
-15124
-5456
8964
-7816
9320
4824
-12520
4436
1488
6936
968
-17156
4092
1184
3732
4596
-3732
4096
-8912
-688
8200
-1316
-3004
-1000
-2976
2796
11676
-6680
-8008
292
-1060
7072
4652
1564
-8468
14496
-17284
-32768
32764
31980
27068
-2548
-32768
-24144
32764
32764
32764
-28044
-32768
15060
-9284
-16128
32764
20748
-14764
4564
3852
-20884
-13644
-13800
12256
32764
5628
-14272
-13048
-15164
52
1864
15564
16024
-15668
-504
1384
-15220
1624
6008
7492
5724
-4880
-6596
4008
-2932
-14308
12284
9824
-5224
5060
-5600
-6136
2760
3192
-2268
-3832
7880
220
-4248
5204
-6064
-3152
8152
-5444
1536
4540
-4868
1524
560
420
-1680
-916
-108
-10672
14148
3616
17716
1688
-32768
5828
32764
10452
-20332
-21824
-32768
8300
32764
5796
3456
5796
-19020
-22464
-600
10844
3272
19412
8816
-16184
-10200
-8352
2224
2888
6468
13816
-7404
-9356
8392
288
-11092
-12940
8856
22720
-1732
-1600
-1060
-15220
-12488
1792
19280
15356
-3908
-6932
-8380
-11852
6140
6532
4140
5524
-9576
1988
2368
-11832
4608
3840
3104
9840
-10032
-8964
-2336
-284
9580
4916
748
-3748
-780
-6524
-1132
7336
15492
-10576
-32768
4012
32764
32764
-19436
-32768
-15500
32764
32764
19496
-32768
-32768
16384
-92
-4800
15192
10096
-9356
1796
11600
-7484
-22036
-21300
20536
32764
7268
-16480
-18172
-11360
-7636
12004
17476
9196
-1444
-13624
2064
-9472
-14540
21168
9460
-6112
508
-3304
5272
-5428
-11088
3468
4588
11180
220
-7820
2424
-7916
-2324
3912
-720
8980
1488
-2816
-2692
-4628
-1772
1076
5116
640
4156
-3288
-7752
5292
-1652
1168
6116
492
-13864
-8028
8620
32764
10156
-32768
-21732
32764
32764
-19856
-32768
-32768
32764
32764
-32768
6428
27676
-12584
-14156
-12004
-12444
7516
32756
16556
-23156
-14672
-5092
-2336
8596
11352
8296
-3924
-15192
1184
2832
-9560
-4504
14232
21712
-10016
-9800
1152
-12784
-1692
5428
6816
13092
-8748
-8028
5124
-2972
-1236
3260
3168
-4580
-4808
900
2536
5968
2144
-532
-3900
-9848
7152
-1812
-1716
14620
-10344
-2788
3268
-9640
16328
-452
-7880
3548
12088
-12428
-32768
10580
32764
32764
-22968
-32768
-1252
32764
16344
30168
-19564
-32768
10636
-3196
-16808
13048
18956
14136
6244
-9852
-11860
-26156
-21356
29844
32764
2336
-3024
-22464
-11148
5836
-3860
12876
4380
-6656
5592
4916
-9188
-17604
7476
18464
-3528
-1340
2272
-9984
-4956
388
4996
12552
360
-12076
-3740
4780
140
7360
-904
-12968
1012
1432
8036
7788
-2536
-10552
-10324
6844
5600
6848
2904
-6992
-4988
-6136
2548
5804
4408
-6944
5244
-120
19204
6224
-32768
-9152
32764
32764
352
-32768
-32768
32764
32764
-30056
2784
24568
-13116
-13184
-5860
-13820
-1028
24608
21088
-2308
-18124
-13384
-496
-1672
1216
21036
8204
-10060
-4276
-6020
-16812
-724
26064
10944
-3148
-16920
-7588
13848
-8944
-1528
11856
-1884
1672
-2964
-5336
3384
-5664
4492
9160
-5720
-672
-3104
-3336
2524
5244
-1580
1500
-92
-8212
8104
308
-6568
2768
2480
-860
-2364
2996
-4412
6680
-2460
14248
1008
-32768
2360
32764
32764
-10448
-32768
-22784
32764
29716
14104
-26264
-32768
22088
-13444
-13456
21820
3964
396
14060
-1600
-11000
-4864
-20084
-3204
25600
23388
2500
-24684
-20016
3132
4852
6564
14168
1576
-4216
-3744
-5424
-9480
-8592
17444
9812
-5240
5560
324
-5472
-12876
-7068
10716
14296
7304
-10336
-11276
-5668
-1700
18128
10352
-5920
-8208
-13104
5196
5612
2740
5968
-11252
-452
5188
1600
5788
-9008
-3348
3960
-10536
13608
-2348
-10048
13548
15684
13700
-32768
-32768
32764
32764
5124
-32768
-32768
27556
32764
-8576
15040
15704
-18496
-7340
-12032
-25052
10660
23996
19444
9308
-15780
-19172
-18292
-1372
22436
10032
7788
-340
-15680
-3828
-344
-4696
-2992
4684
22300
5932
-15124
-9964
-9132
5068
7832
2508
5472
-5732
968
2712
-14636
3412
6132
-3180
10752
-28
-6580
-1924
-7916
1656
6368
4480
2088
-3168
-1336
-2792
-1516
-664
1508
4900
-7508
6144
4832
-6680
28360
-32768
-32768
29540
32764
32764
-12724
-32768
-28980
23044
32764
32764
-5748
-32768
-2740
-1484
-27956
6132
28552
22148
9864
-18716
-9856
-16976
-17844
15424
13484
18084
12028
-15452
-14724
-14216
-1324
10464
7112
14004
792
-9080
-5704
-11232
-20
7208
6608
6452
160
-6168
-5380
-3232
-1848
6180
3852
2164
3856
-10484
-4592
5452
-332
7916
-2056
-7196
-2532
-664
8404
1044
3300
-1908
-10736
2744
384
2660
5756
-5008
-2200
-1328
-236
-8464
16240
14568
13496
-20792
-32768
16004
32764
28440
32764
-32768
-32768
-16324
32764
32764
9576
7772
-11420
-29228
-14108
-680
9804
17936
17252
7288
-6300
-27540
-27744
1348
19096
30128
19384
-19552
-17032
-12200
-8576
12632
6468
6496
7612
-5564
-3704
-6432
-920
-1556
-1512
12592
-1980
716
3472
-12420
-132
1692
1716
2008
2308
4040
-6260
1208
-3472
-5772
6964
-212
776
4864
-3392
1480
-1620
-4760
-1260
3776
2064
-788
3292
-2916
11948
-13396
-24564
-4080
29612
32764
-16504
-32768
-19572
-16192
25124
32764
14360
-32768
-28456
-19180
-12456
7500
32764
29088
-20272
-7508
-8608
-19072
-7536
2408
17484
18356
13368
-3472
-26232
-17956
-7384
5156
28652
13640
1476
-7800
-21972
-10360
2236
10516
9872
7416
1000
-10880
-10136
272
2008
7616
6444
-7240
-1532
-1032
160
2704
-4496
2860
-1412
2264
9400
-12080
44
2052
-8348
11408
-5116
-244
11592
-8204
2820
-600
-15892
9936
1840
-18312
29752
12724
9048
-29168
-32768
29568
32764
22492
-15936
-32132
-32768
-13884
32764
29564
6576
10052
-17836
-22628
-16036
-3892
11236
14764
18732
11088
-7344
-23244
-21104
-4744
10624
23600
19208
-7924
-11656
-12224
-10952
1872
6916
15540
4784
-1368
-796
-13540
-8544
552
1384
8700
11636
4644
-6696
-9520
-7820
-2616
8688
4548
3240
-1812
-3956
4964
-5520
220
2352
-4028
3844
-4672
1980
6696
-5292
4428
-4520
-5984
4404
456
7052
-2912
14068
-12296
-31884
-1660
11952
32764
10684
-32768
-23644
-388
21972
32764
-5084
-32768
-3648
-23236
-14672
27816
26024
14584
-7100
-17856
-808
-8328
-16676
2360
14640
18308
11204
-548
-18160
-22452
56
3156
8352
16892
3516
-1928
-9120
-12296
-2236
3532
12348
5288
-7172
-3008
-7684
1060
8904
3284
472
-4192
-2740
-3644
3748
3188
-4296
-72
-1984
5012
7188
-3412
-1420
-7748
-2412
4888
-2256
10204
-3940
-756
3844
-7036
4084
-7760
-484
-7604
12728
26664
9932
-24452
-32768
2884
32764
32764
-12576
-32768
-32768
21608
32764
-7428
25464
20804
-32768
-13900
-14436
-10116
23900
7784
12688
15716
-18268
-18564
-13056
-9740
17100
25032
15524
-8880
-17592
-10424
-10952
8564
4224
6536
15428
-5744
504
-6100
-13460
2004
-5916
7040
14072
1292
5708
-10664
-16184
1868
5256
6992
7372
-2200
-8768
348
-1904
-3388
5656
1112
3296
2660
-5828
2276
-5196
-1044
5632
-11272
6376
8304
-2064
128
10520
-11140
-19764
-7960
92
32764
18796
-32768
-28524
2236
31576
32764
-13680
-32768
-3500
-21580
-21160
10272
32764
23136
-2924
-272
-25276
-25260
1272
740
25728
16236
-4220
3292
-20000
-20544
9508
7168
8084
11940
-4900
-7516
-5528
-6728
-148
8632
7516
-652
1096
-4596
-6700
4480
-4576
-336
9684
-3956
1548
2628
-10476
4132
4920
-4392
4960
-1760
-6088
-636
-1332
7432
7744
-2740
-7268
-7216
300
10436
6932
-5544
-5660
-5992
-528
-4136
13928
20456
11656
-19512
-32768
20
32764
32764
-18504
-32768
-32768
32764
32764
-1304
18976
7684
-28508
-17788
-4164
-5652
7588
12692
21892
13632
-15964
-20648
-19460
-7988
16376
24572
13552
-3484
-22252
-7236
2744
-5256
12448
4116
-5368
10760
-5608
-12776
5564
-2424
-2048
12704
4632
-5544
-1072
-5712
-10972
4764
8428
-276
8620
3260
-12072
-924
-2060
-7260
8724
4960
-3284
6584
-4136
-6808
5132
-864
-1644
152
3768
-3236
1388
748
10260
-840
-26844
-15900
6996
32764
23208
-32768
-32768
5292
32764
32764
-22364
-32768
8296
-32716
-12556
22064
23568
10744
-10800
6256
-12028
-26644
2116
4508
18472
18652
2952
-5944
-29488
-13784
3232
9464
28364
928
-2896
-6272
-19176
3368
-2028
5064
9672
-5180
6028
-480
-4300
2520
-10084
308
5176
2468
3584
-216
-6144
-8828
8384
6280
1860
3128
-16524
-1876
6436
-52
9076
-1436
-428
-2988
-11340
3316
4664
4296
9516
-6872
-6944
-13056
3428
13240
20328
19400
-32768
-32768
32764
32764
15600
-32768
-32768
8028
32764
4584
25616
10388
-31400
-21276
-13200
8288
17464
-1912
17024
8164
-16544
-7844
-17980
1392
15868
10308
13732
-8304
-19040
-5676
680
4160
7380
3080
3676
2680
-1540
-10156
-12764
-3780
13688
14900
2544
-1688
-13064
-8420
1796
4776
7840
3436
-7968
-4216
5380
-604
448
-1208
-2500
6304
-6112
972
7836
-7824
3460
-1664
-7804
7536
-3072
1424
15676
-12848
19568
-13840
-32768
18204
32408
32764
4424
-32768
-31684
32764
30068
32764
-11308
-32768
3728
-18768
-21548
27924
26656
3836
3568
-7840
-7572
-12620
-24224
9372
19288
8836
24228
2436
-30532
-27628
-2980
16436
16908
9620
-3964
2600
-4608
-21036
-10300
8312
23240
6684
-9352
2452
-13856
-7484
10916
-1096
8272
-3916
-2028
6248
-10772
3292
792
2032
7436
-9504
-4200
1320
52
4476
2624
3152
-4988
-2652
776
-5280
3392
4016
1556
-920
-1620
-9656
-3060
9520
32764
13800
-32768
-32768
32764
32764
25648
-32768
-32768
14512
32764
1144
5980
5888
-15528
-16560
-9308
4416
4440
7904
24940
9708
-32768
-15368
9852
-14000
300
24444
18000
6112
-17748
-19276
-5368
-15396
11980
32764
-1004
-5644
-1100
-21108
-2744
3876
608
22900
-1720
-13476
2736
-5380
-6008
2596
10664
3384
-5272
4516
-3452
-7420
1284
-10132
9728
13704
-3108
3324
-12876
-8884
8284
-112
6652
4104
-6588
-2160
-636
-3148
24260
-11472
-32768
15504
32764
32764
-11064
-32768
-14212
32764
21012
32764
-10592
-32768
9032
-14168
-24892
32764
22396
1732
-284
-8192
3832
-21552
-28308
21092
26168
10164
-5344
-2488
-5424
-26148
-4344
17428
11620
6200
-2468
4796
-2116
-27104
-2340
9636
4152
14372
4188
-484
-14060
-19024
9884
10452
5892
3032
-13660
-944
5608
-1472
1932
2136
-6252
-2148
3200
3964
4592
-1176
-5928
-10888
1368
7072
8096
7756
-3404
-11244
-8968
5812
5716
-9308
4756
-2184
31152
20108
-32768
-32768
32764
32764
6972
-32768
-32768
7388
32764
15148
13632
10856
-27400
-22364
-10072
-4292
12076
18492
20524
-6136
-11464
4448
-21772
-18376
11616
9332
25268
8280
-12264
-5776
-28860
-9740
25300
19912
3740
-12456
-4160
-4524
-11344
5028
10856
8420
-4284
-2376
-96
-6740
-2172
-5504
9012
13280
-6040
2992
-6884
-17752
11960
7896
-804
2904
-608
-4064
-6416
740
2744
5244
804
-2900
-5580
5584
3216
-4680
22056
-25328
-32768
23992
32764
32764
1852
-32768
-32768
28368
32676
32764
6732
-32768
-8532
-21884
-27752
25108
31568
8876
2820
4408
-8492
-32768
-22880
20336
32764
23448
-17932
-5720
-6244
-26420
-5632
13372
26336
3744
-2104
3108
-30364
-10576
17636
4692
11964
2288
-15468
5096
-4404
-5604
9900
-7716
-2256
11652
1668
6584
-2964
-21584
1852
1204
3172
22312
-5020
-10148
-7072
-6724
13704
5716
-1576
-5460
-6980
2808
3348
7980
640
-4096
-2896
-20808
9204
12116
30780
11336
-32768
-28960
32764
32764
16172
-32768
-32768
-20548
32764
32764
15456
508
-22188
-24748
-17116
140
21508
21772
9576
-1068
-15012
-15392
-12876
-8056
19220
27024
8632
-10660
-14760
-8912
-8452
-908
17780
8652
-2156
3764
-216
-6908
-20092
-6708
24340
13104
-3364
-3936
-10400
-3460
-432
5080
12308
-7520
-4940
5060
-5092
1860
4376
-7336
340
8072
-5116
1924
4824
-12192
3104
5976
-10844
7136
8936
-4276
460
-11800
7028
2676
-22896
6892
20516
32764
2016
-32768
-32768
22040
32764
32764
-32768
-32768
11976
-8960
-30892
15340
32764
8440
3440
-1876
-10316
-24132
-28396
13720
32764
18976
-6992
-12796
-13440
-10640
-1236
7816
11644
7968
1460
176
-11528
-21540
5752
15688
4692
5460
-4776
-4320
-1468
-11120
1316
1152
9128
21456
-11424
-12068
-10296
-8000
15608
10744
5964
-2108
-12068
-4912
-4308
2892
14880
-5172
-380
1024
-6460
8844
-4368
-4776
2700
-1860
2780
-7364
1848
15336
25372
-13024
-32768
-12912
32764
32764
-12456
-32768
-32768
10932
32764
-7180
8160
32468
-19188
-32768
-9608
9288
8320
3240
21716
10184
-11336
-22668
-25180
2824
22192
21944
8012
-5036
-5324
-23584
-21804
2544
25960
32348
-5744
-13328
-9228
-19472
-180
10700
13196
8440
-136
-5592
-13984
-8464
6204
7600
6932
1540
-3624
2296
-12624
-3632
9652
1696
5016
-5620
-10896
12160
6268
-4880
116
-14736
1796
12968
1036
2312
-5356
-11628
17704
804
-20168
-5716
-2004
32764
16604
-32768
-31568
21192
32764
32764
-20508
-32768
-1384
-28392
-2064
32764
10228
1404
-40
-10300
-8192
-14792
-12776
17020
22392
13580
-4856
-12444
-13860
-15388
3924
9412
18696
13044
-2824
-16264
-17988
-3380
4884
11692
14084
544
-10672
-4448
-2604
2856
-732
-5748
6368
8444
-1372
-2524
-1408
-9060
-1132
11712
2884
-4500
1316
-6044
-3812
10092
-3164
-368
6732
-7980
-5468
9488
3844
-6876
2524
-5856
-1220
476
-3656
17008
24960
-8336
-32768
-19648
32764
32764
576
-32768
-32768
24528
32764
-18476
18152
25988
-21104
-19632
-21940
-10228
20988
23884
15728
336
-12740
-17688
-28280
3148
26876
14332
10156
-2216
-9888
-17724
-16824
5952
17772
10804
1080
80
-2896
-10928
-9560
2720
6084
3044
7328
3908
-6628
-4376
-5360
244
1664
-2232
15732
-3224
-4892
2540
-17896
11016
5208
-3880
12684
-7560
-8980
-2792
1680
10240
1028
796
-3240
-8536
5288
-700
14204
-11224
-28332
5800
19120
32764
-2900
-32768
-26448
-3548
32764
32764
-4496
-32768
-13408
-9444
-12800
25088
32764
4324
-15200
-3336
-1912
-17292
-21228
9232
19812
27316
10900
-23876
-17652
-13952
-5528
18132
10788
7208
11248
-11164
-10200
-7532
-16156
6324
21120
12236
1468
-13452
-9408
-6400
-4424
17364
6592
-1988
-1460
-8892
2440
2684
-4020
1652
660
-2208
5300
3624
-288
-6336
-8940
400
7596
9016
1488
-804
-11612
-7880
6500
4756
4952
-10612
5708
8204
18672
-17492
-32768
23040
32764
14856
-21040
-22428
-32152
-16452
32764
32764
1980
-428
32
-27236
-32768
12672
26276
17320
2072
-8256
-1240
-9332
-21052
-3440
23508
8848
3488
64
-1044
-8412
-20168
5400
11552
-1892
9672
6684
-10220
-1288
-6608
-6444
12420
-3380
2620
13328
-13820
-6236
944
1328
9136
472
-636
-5244
-4788
-552
-2012
13436
3708
-8396
1320
-10828
-364
13348
3988
-2592
-8308
-8620
3868
11328
5068
-10936
6532
2540
-19384
-1752
-4956
32764
23384
-32768
-32768
28280
32764
32032
-32768
-21684
16596
-23340
-6264
32764
9944
-17924
10504
3504
-5660
-23244
-17084
23312
12608
22536
1480
-32768
-7884
3400
2276
19304
6212
-5544
-9048
-7684
5512
2280
-4724
-1104
8704
7904
-4816
-2632
-7412
-6388
3704
3160
10800
4568
-7912
-4256
-3680
-2192
1888
1660
7308
3540
-5188
-1796
-4404
-2640
5324
-5692
6844
8672
-6652
2324
-6500
-3156
4064
-4248
4296
-2656
-1968
12148
14800
8160
-32768
-32768
32764
32764
4152
-32768
-32768
32764
32764
-17864
18448
15324
-19556
-32768
-5928
5416
13144
24300
3500
-1660
1152
-18792
-24628
-6088
15916
29640
13856
-10416
-7796
-18160
-20936
15432
18840
3032
-1424
1248
-2720
-6832
-2192
-5556
792
7148
4684
11788
-4088
-17176
-552
-4536
8692
10848
-6988
1428
-1072
-276
-4264
-3900
9784
-716
668
-1724
-7404
5864
-204
-580
5044
-2712
984
-1620
-7576
7720
11740
-14836
-13752
-116
9436
32764
10360
-32768
-32768
692
30100
32764
-8772
-32768
4876
-5776
-24060
27988
29472
2628
-9192
-8304
980
-15696
-12668
9376
10120
19328
11780
-6944
-25748
-20456
8124
6708
13412
16264
-1652
-7424
-9916
-12868
-8436
15316
14480
3608
5356
-18536
-14144
9060
4084
8116
-1916
-3664
4580
-4436
1864
-6468
-5308
10032
-2936
8324
6920
-15036
840
-3664
-2164
9020
-524
4196
-1668
-6820
2252
1300
-4368
7744
-1556
-19820
21368
4756
14844
-6384
-32768
9912
32764
29496
-25276
-26624
-30612
-15448
32764
22404
-6104
7120
-7180
-13656
-22184
-13512
21848
25284
7500
-1336
888
-13400
-32768
-9460
23032
30480
17628
-18556
-21248
-6608
-2076
11852
6784
-5512
-880
8984
532
-1252
-8328
-8936
7236
-2752
7176
14060
-10160
-8144
-1408
240
7744
2060
-4040
-6152
2584
2236
2212
6904
-9936
-4044
3340
-2384
6708
860
-1432
2652
-9720
2172
424
-1244
14552
-17624
20948
11128
-32768
-11652
2448
32764
32764
-32768
-32768
11104
-6828
32764
26392
-32768
-2580
-6760
-20536
-1496
4736
14080
22328
5236
-6816
-17388
-26364
7764
11344
5096
16488
-3224
-2484
-2528
-18948
-584
3856
5064
12844
6604
-5036
-15732
-8044
3896
7520
9580
4800
-11664
-4964
144
536
1280
-4
8644
-2780
-2388
1596
-6124
-3276
1864
2980
7292
4700
-8772
-4092
-7572
1668
13752
2532
-1244
-7220
-10728
6992
11676
-2004
-2280
-8184
-11304
8444
20348
13980
-2504
-32768
-32768
32764
32764
432
-8180
-32768
-7324
32764
-32768
-32768
32764
17672
-32768
11768
14844
-31824
-11556
17796
22412
9920
-24620
-4688
8380
-9680
7116
2632
-10224
2752
8084
6632
1068
-12452
-8936
6244
824
2552
6988
-4960
-3584
6200
1540
-4160
-4328
-7516
4708
7348
5624
7360
-10124
-9276
-9884
3244
16864
2352
1020
-4736
-7244
408
-200
-2280
3452
5224
580
-1368
2744
-5580
-5956
1908
-5680
20628
5212
-18852
-10472
-3408
32764
22312
-32768
-32768
26956
28804
12760
140
-21320
-18728
-4708
4692
17940
9024
-6264
2728
6804
-15668
-12376
-8816
4444
25744
15624
-1368
-13044
-23340
-12104
13228
12196
6332
7124
3768
-6636
-18848
-7900
3512
7780
12980
4736
-1584
-7512
-11136
-1532
1924
9052
9216
-6588
-8316
-1168
3880
3320
2264
-404
-6852
-1124
3036
1888
2168
-3888
-312
1280
2320
-480
-5144
1732
2660
724
-1556
-1012
-332
-2808
-344
7304
13408
8828
-32768
-32768
32764
32764
32764
-29656
-32768
-32768
32764
32764
32764
-32768
-30516
-15660
-21680
5064
13736
20616
15788
-1088
-1628
-12316
-17080
-19512
1692
31620
16256
1536
-9932
-18668
-2824
4716
3384
-1760
-664
9028
7732
-1248
-15416
-7968
5820
6420
8620
-3184
-9304
-3044
5772
11488
-3256
-10472
-2432
-3728
7148
8996
3420
-3332
-11676
-2604
-1036
10560
9136
-8092
-2724
-4860
-1276
5492
2448
1608
-1864
-3612
7764
4140
-19136
-14740
3940
32764
32764
-32768
-32768
16676
32764
32764
-29868
-32768
2304
-18916
-4020
32764
21512
-6060
-16768
-7664
1252
-9728
-12348
9052
16808
17964
9484
-13716
-26552
-14312
2420
13324
19472
7852
-7080
-7724
-7604
-4312
124
1688
11236
124
-2908
4496
-4260
-8648
892
3532
2744
3624
-4216
-16
2916
-5248
-676
4168
-1828
1184
2124
-5556
-1036
4652
232
1896
2076
-5024
-7204
4924
1460
-3196
8200
1572
-1248
-2980
-11524
2576
18260
-560
-17616
-14544
5492
28680
25464
-4556
-32768
-32768
-18472
32764
32764
15452
-6540
-32768
-32768
-12500
21352
32764
22780
-1400
-10028
-21580
-22444
-9224
7532
20976
23224
8060
-7404
-15512
-25468
-7912
12352
13096
19824
6052
-17004
-9032
-9152
-1332
14600
-2460
3660
3972
-6168
896
-1972
-3060
1356
-1168
1676
9008
-1236
-4900
-4704
-6792
3044
11216
4052
388
-10132
-2968
4420
-3080
6400
-6880
-3944
10680
1308
548
4856
-5108
-18764
-10052
10372
32764
29988
-32768
-32768
14304
32764
32764
-24572
-32768
-1768
-3280
-6320
32764
21604
-8360
-11408
-3396
2532
-8144
-13892
2820
9852
12428
18392
-3384
-29084
-16940
5584
14460
16036
5248
-12848
-4116
-5460
-8264
6124
4808
9504
6212
-10708
-6560
2436
-2388
-360
1036
3556
2672
356
-660
-5892
-836
5272
-100
1168
-2540
-3724
3424
-52
-1264
-1116
6444
4028
-6696
-5140
-4004
4200
10560
660
-3464
-8564
-8380
7748
11640
12672
-7388
-28492
-9024
17484
21732
18032
-6436
-32768
-31168
1852
32764
32764
4380
-17228
-27800
-31772
60
22956
24488
13488
956
-7588
-18808
-16240
-6696
4568
18224
14084
7200
6164
-19336
-28572
-2680
13212
9036
16248
8436
-13884
-9704
-10920
-5308
14080
9000
3148
-792
-11772
1036
1396
2624
-868
-5176
6268
-4548
2356
8000
-3256
-1516
-5324
-9384
5224
13696
1336
-608
-6860
-13028
8004
6396
-256
3556
-4672
-4240
7760
6816
-18724
-16556
2740
32764
32764
-32768
-32768
15900
32764
32764
-32768
-32768
8060
-18876
-5672
32764
15580
-13208
-1676
-1516
744
-13456
-16924
5068
9080
28916
19092
-16344
-30188
-28016
7780
30096
9608
9340
-1944
-20104
-6584
-7436
3652
10944
5508

vt# Send Beacon (RC_COORD 0x0)
cmd delete route
dcu delete route success
cmd delete route
dcu delete route success
LR F,G RERR
RERR dest is myself, Stop RERR
Wait RREP(0x0002) Timeout
cmd delete route
dcu delete route success

