bandplan FCC
analog_gain 48
digital_gain 12
19564
20940
13128
-188
-11580
-25148
-21068
8544
27168
18276
-3812
-20016
-6900
15460
11040
-10132
-28564
-7688
22424
17580
13784
2736
-18932
-24472
-15832
9952
32764
14632
-11488
-22380
-7500
23640
10832
-17712
-23992
-1700
21856
16016
4964
2024
-9140
-22052
-19728
7336
27184
14452
-6988
-14768
2208
18940
1472
-31508
-27440
10404
32764
23064
1120
-11424
-21468
-22384
-4248
21928
25676
3528
-20300
-14656
8544
22976
4784
-28708
-25012
4972
27644
19408
1268
-3252
-18704
-20100
-2120
12292
18064
1136
-9960
-532
13804
10356
-15988
-32768
-8956
28260
24040
4752
-1192
-3844
-16080
-19368
-3928
19620
17360
-4716
-11448
-904
18268
15080
-19268
-32768
-12132
25404
32764
14376
-2628
-18096
-28252
-11948
11984
25872
10396
-12064
-17324
2304
28608
7296
-28060
-32768
-340
32664
27096
3588
-12232
-14712
-21792
-10100
18976
27268
7396
-20796
-18480
6812
27876
8092
-31272
-31000
5620
32764
24368
-1200
-15072
-15500
-16968
-1972
20360
19744
-1456
-22440
-10864
23192
25756
-9612
-32768
-28720
21212
32764
26396
-2220
-20944
-28420
-28572
5792
32708
26560
996
-23032
-15772
13196
20268
-2460
-32768
-23360
21084
31676
17400
-5708
-15972
-17608
-14432
5176
18892
15668
-10480
-17728
5192
27528
12588
-27976
-32768
-8608
31188
32764
14140
-11172
-23788
-27300
-10364
18352
29952
12776
-15728
-26000
944
29120
14440
-21460
-32768
-6468
32764
32708
9488
-16272
-21772
-19080
-6104
14168
25372
8264
-11692
-12068
2692
15108
-3964
-32768
-12804
25944
32764
6568
-13664
-10344
-20292
-14712
8312
23052
18412
-3448
-19660
-11440
16404
19724
-9184
-32768
-19276
23224
32764
14812
-8832
-19040
-20020
-11224
6716
24632
15480
-14320
-16224
2872
25356
10344
-28712
-32768
-2804
32764
29748
3164
-9600
-16540
-26820
-12156
24300
27504
5408
-15524
-23916
10068
28540
1364
-26404
-32768
6952
32764
24140
1940
-18604
-22136
-18452
-4016
28848
29776
-9492
-28612
-12180
26468
31372
-12008
-32768
-29288
14708
32764
23728
1820
-15616
-28132
-22696
1584
28488
24128
-6584
-19904
-6580
20612
18528
-17712
-32768
-13176
25396
32764
11492
-10436
-13564
-19808
-13232
10868
23840
6696
-16344
-13548
7776
29548
8648
-29844
-32768
-3544
32764
32076
4896
-17888
-19360
-18596
-3536
19860
20940
24
-16788
-8804
14256
22348
-7312
-32768
-25720
18408
32764
20176
-8000
-17348
-13612
-16880
-6884
18208
25040
4660
-16048
-9532
11980
14840
-8864
-32768
-17744
26676
32764
14016
-10952
-18652
-20840
-11800
13232
24352
8500
-14844
-16276
7228
29036
4788
-31672
-32768
1236
32764
31436
6592
-16984
-20832
-23544
-6704
20744
24484
4300
-16824
-9364
14140
20120
-7140
-32768
-25548
14892
32764
22732
-368
-16220
-21732
-14968
2256
18172
13704
-5528
-15280
2872
23884
12252
-23640
-32768
-6828
27328
32764
13544
-14448
-29444
-25744
1052
29124
26440
-2308
-19388
-17576
6200
25836
2732
-30784
-24976
13632
32764
14160
-9624
-10780
-14612
-12444
92
14776
13316
-3036
-10756
2800
20832
9076
-28224
-32768
-1700
29608
32764
6760
-11992
-16528
-21012
-8512
13108
19816
4296
-8584
-2712
10440
10116
-8608
-32768
-19748
25096
32764
18932
-10004
-19752
-23476
-16620
6768
27576
17916
-8584
-17884
1292
22360
6456
-26952
-32768
3600
32764
23540
-10808
-11644
-6672
-11580
-2332
8392
9816
1868
-6968
-4608
15156
14284
-13428
-32768
-16216
24080
32764
16568
-8920
-19324
-27228
-18144
12648
31240
16676
-7828
-13760
-44
12920
-5608
-29628
-19080
24156
32764
8328
-3960
-13720
-15536
-15648
-1188
22076
12332
-1880
-6572
-5692
17188
5220
-23180
-22836
-5448
28672
25392
1972
-6324
-15524
-15896
-8096
9228
16928
3152
-2368
892
6856
4548
-18364
-25400
-8180
20060
32764
12236
-8616
-15188
-23292
-14924
10972
21328
10148
-1396
-9556
-2332
9768
440
-18408
-18312
8072
28488
14452
-10532
-8928
-5956
-9216
-2632
5992
5764
596
3640
9184
12160
-4848
-32768
-30888
10744
32764
31308
-1488
-22252
-21668
-18512
1624
20888
14712
1328
-1788
-6220
2676
7432
-13072
-24112
-9156
25480
32764
1988
-15108
-13880
-10232
-8032
6128
16076
6684
-1356
-7268
3140
16112
-4392
-32768
-22816
22816
32764
18308
-7648
-13872
-20296
-17648
928
15912
16056
5864
1356
-7720
-5304
3992
-11716
-18280
3600
23256
24220
-4280
-18808
-9772
-9444
-168
12544
9124
1144
-2940
-2140
6736
6536
-15544
-26396
-3860
28196
25176
-3072
-9732
-5492
-7992
-10192
-4640
6636
15364
13492
-2108
-11652
1616
-1208
-20508
-14496
15124
32764
11148
-19628
-12324
-3828
-9380
-5208
9500
16800
5976
-5512
-1868
3480
-2232
-23312
-16880
19244
30532
9036
-18452
-11492
4340
-200
-3916
-7716
612
9804
7248
1668
3208
9628
-13660
-32768
-9580
25000
32764
7460
-14732
-12768
-11600
-7704
1460
13244
10504
4724
-1456
-8452
628
288
-18076
-14320
16260
32764
7924
-22056
-12388
-4492
-7116
5116
12648
5880
1496
-5364
-11840
4192
23372
-6808
-32768
-10132
24132
23688
-1884
-3428
-840
-9248
-16712
-11736
9352
25948
21736
-9556
-25660
1644
788
-21132
-244
30440
27184
-13056
-24244
-7080
716
1844
-492
8416
9828
5052
-9760
-17604
13960
16980
-19692
-23904
5372
31524
8168
-17400
248
1672
-5736
-7196
-3584
9752
10432
-1480
-8488
4584
19324
-14396
-32768
-2720
31488
27364
-5400
-10040
-4480
-16988
-11392
4120
17552
19860
4516
-18052
-23856
12988
16744
-16968
-12456
13640
23608
-7980
-18688
5856
5740
-3156
-6580
-192
7536
-436
-7208
308
22436
11804
-31012
-32768
8736
32764
16972
-11240
-10632
-2840
-14528
-13720
7532
21300
23252
-3936
-31840
-7900
28864
5904
-32768
-15660
31284
27368
-8944
-10660
412
-11964
-13444
3472
19548
15436
-2728
-21232
-9444
26896
8016
-32768
-17268
23088
27824
-8104
-11380
12604
-2076
-17528
-12332
4132
16952
13376
-9036
-17928
17244
23844
-18852
-32768
-6040
32764
24756
-6292
-9676
-6624
-12188
-5228
3144
8524
19600
4844
-25424
-11660
22692
8532
-24672
-11268
18592
15676
-6308
-6896
6432
-4556
-9152
-3712
5192
15684
1444
-16876
-11812
25832
22708
-29348
-32768
6060
32764
13336
-12492
1024
-2320
-22784
-17212
8280
29740
22412
-10140
-24628
-1284
17180
-13160
-27716
6576
32764
19160
-17128
-14400
-2304
-8476
-6096
8912
18056
10208
-10324
-24612
-5296
32180
19444
-27520
-31736
2348
28088
9092
-768
10744
-5976
-28228
-21204
11048
29820
15972
-7628
-15340
4324
10064
-23432
-28384
13328
32764
15820
-16120
-9000
-6296
-16220
-4984
12832
20876
13736
-9720
-32768
-6428
32764
13004
-32768
-20348
26448
25076
-10032
-9336
1764
-9128
-6188
2848
6072
8544
116
-8300
2540
18056
-1624
-32544
-20296
17320
32764
7624
-6524
268
-21660
-27724
-1700
22144
32764
17872
-20624
-32768
-7080
21808
2988
-19896
584
28836
16256
-17420
-10128
-6212
-12428
1064
10700
18004
2592
-9268
-7492
-580
15828
-6216
-27824
-7096
17160
25608
6892
-4424
-220
-22144
-21888
3484
11820
20920
15916
-8804
-22760
-4196
22376
-5844
-31192
-668
30800
23316
-13736
-14308
780
-10648
-7764
9180
14804
7880
-12008
-12044
12976
19536
-14980
-32768
-4536
32764
24460
-7564
-8656
-10820
-14796
-2524
12652
14840
2300
-4572
-12512
-10392
20476
23060
-19092
-32768
-2384
32764
21604
-10732
-9748
-12832
-20616
2328
26824
19148
-3328
-19720
-11956
12700
13288
-16720
-20496
7876
25364
12628
-8648
-7680
-11656
-14080
5492
14688
11908
4168
-9320
-17624
-9040
25852
24268
-26828
-32768
4636
32764
22856
-9796
-13500
-14164
-18880
-2360
17604
20404
9000
-11716
-8748
12448
92
-31208
-21624
22356
32764
8788
-12780
-12060
-14436
-11684
4892
18936
14396
1068
-14092
-25316
-148
32764
18664
-28544
-32768
856
29616
13572
-1476
-592
-8284
-16720
-5088
11596
7728
3420
-1844
3116
11304
-9788
-31652
-14868
24308
32764
11060
-14756
-19988
-24324
-8940
20076
23848
10580
-2320
-15100
-25320
-2216
32764
14436
-32768
-25508
20976
32764
-2532
-16128
-944
-12732
-10708
7888
13384
10288
-116
-11128
-1896
17556
-2308
-32768
-16936
29628
32764
6820
-11572
-13392
-25204
-14708
13996
18588
15424
11620
-15896
-31256
4708
32764
-1472
-32768
-18220
29716
32764
-2688
-15192
-2864
-9704
-10512
8388
10624
-864
-9784
-2112
24148
21476
-22860
-32768
-15128
26840
32764
6968
-9108
-10120
-17860
-14920
8320
14888
15156
10980
-21048
-31368
16432
32764
-8856
-32768
-11768
32764
27480
-20200
-15768
3104
-5892
1372
10552
4208
2984
-10008
-15968
17032
25776
-18488
-32768
-2388
32764
21576
-13632
-6076
-5716
-12328
-1532
-520
14440
20568
-2624
-23444
-16352
25600
21800
-31964
-30532
16664
32764
14776
-29612
-13516
-3288
-11108
3848
12612
18744
4480
-15484
-12540
11064
15540
-22220
-31156
11076
32764
11504
-7556
-5292
-14080
-14196
2652
12228
9336
7092
-5612
-24644
-3872
32764
18784
-31076
-32768
9464
32764
7604
-14448
-124
2380
-17196
-11724
8044
16012
10356
-10992
-6932
17728
5996
-32768
-25048
26288
32764
-1576
-27500
-10192
80
928
5696
9860
9052
4096
-15220
-32768
5340
32764
13588
-32768
-32768
19860
32764
-3044
-7740
1720
-8136
-18196
-2800
13864
17048
6376
-11968
-1860
13224
-12176
-32768
-2800
32764
32764
-5684
-24596
-9616
-11928
-6848
16168
21120
12104
-5676
-28140
-24108
20676
32764
-3904
-32768
-21504
24008
27520
-4448
20
3868
-13752
-15780
-6564
8668
19968
7256
-11256
-4
17780
-15724
-32768
-1480
32764
28356
-10412
-15576
-4388
-12040
-9196
6612
21348
21588
-8576
-32768
-16448
32764
32764
-15888
-32768
-7460
32300
10640
-15068
3236
12212
-5324
-17700
-5232
8992
11732
-3268
-14520
16668
24936
-18980
-32768
-6232
32764
21352
-13464
-3192
-3912
-18528
-7260
10804
18616
12844
-5060
-26192
-18876
30736
30992
-25980
-32768
7428
31988
4736
-13232
2804
900
-14568
-9512
6416
15828
13516
-12616
-17548
20744
15840
-29484
-30872
10900
32764
8424
-8532
-1320
-5272
-9556
-12964
-1724
19336
21208
-6092
-30816
-5336
32764
14628
-32768
-32768
13848
32764
-1792
-9092
9680
-8728
-24736
-7068
17028
27152
7300
-27688
-16084
28412
11792
-32564
-21980
17664
32676
-3968
-11568
10008
-5052
-19024
-7520
10284
19852
9696
-18800
-26528
9844
32764
4896
-32768
-23772
18744
26068
3656
-3536
4076
-12088
-26112
-2712
19468
27832
6816
-32768
-14112
28532
7548
-25808
-18508
21720
23868
-12228
-1920
7656
-5504
-18532
-12636
19120
27400
2876
-29844
-26428
23264
32764
-4116
-32768
-21008
20124
19336
676
9716
8776
-22116
-31920
-280
23400
27296
-2396
-25724
5044
22540
-11856
-32768
-6000
32764
24436
-5324
-8480
-5316
-14672
-13424
8864
23624
13748
-11008
-31328
-11296
32764
32764
-15272
-32768
-19640
19236
22264
9052
11008
-4388
-29140
-23208
11804
28620
14120
-16736
-26256
15164
32764
-10600
-32768
-13924
24640
20248
-728
2460
1268
-15856
-21508
3356
21748
20952
-7348
-32768
-10188
32764
32268
-19224
-32768
-9916
21312
13904
-1268
10428
2104
-21784
-17416
8760
23912
9444
-22368
-22084
22864
31792
-14556
-32768
-7056
25596
12360
-3024
9832
1360
-26528
-21572
10592
28944
20404
-11952
-32768
-10700
32764
26728
-23524
-32152
-1200
23480
8492
-3288
13092
-3480
-27704
-16276
14788
28944
7012
-23024
-18904
22992
28832
-20080
-32768
-5220
31148
15068
-3656
9440
476
-24920
-24992
5376
28452
20528
-8328
-31132
-4372
32764
12932
-32768
-31124
7268
27276
3884
4536
12780
-8660
-29784
-16200
20016
28520
-1432
-28460
-8000
32764
21148
-27688
-32768
2728
28848
4644
-2764
13908
-1096
-26752
-15920
12696
27828
8960
-24040
-29404
10660
32764
10488
-30836
-30756
1716
18640
8848
10536
10340
-10708
-31584
-13720
23836
30048
392
-30532
-16332
31324
21744
-24388
-26940
3924
20288
228
2036
18856
-2240
-29928
-21848
13592
30264
9972
-19104
-25964
13348
32764
-1824
-32768
-25260
10228
23916
9656
11904
10196
-21200
-32768
-9624
28112
30712
-3576
-28764
-5576
29068
12872
-24584
-26880
5780
18056
2004
7580
16656
-7316
-32768
-13304
20964
23456
6620
-22264
-27196
17432
32764
2032
-32768
-27488
6044
17604
7100
17896
17384
-23568
-32768
-4068
27392
22656
-7492
-25156
-236
32764
12596
-32420
-29384
9084
20876
2544
6724
17496
-10920
-32768
-10664
20872
23392
-1240
-22604
-15560
21064
32764
-6152
-32768
-22012
13564
18984
8116
18172
5436
-30340
-31952
5216
30748
15704
-14324
-22840
9888
31644
2528
-32216
-25208
8468
20072
9312
7820
12812
-16804
-32768
-836
27468
18516
-5456
-25216
-11148
27500
31684
-12728
-32768
-19844
15800
21968
12128
14548
-2216
-32768
-24796
14160
26948
11140
-18700
-23108
17948
32764
-3292
-32768
-29236
6148
26896
17472
15212
1012
-30632
-32096
8312
31572
10476
-13336
-18980
-4332
32140
26752
-21444
-32768
-20960
21328
26348
13064
14320
-8208
-32768
-18764
19132
20240
-540
-15552
-11580
20568
32764
-5788
-32768
-32608
6804
29996
18336
17744
-3356
-32768
-30928
13232
31152
9232
-11396
-18640
-3056
24632
24564
-16952
-32768
-17072
19604
26536
15684
9668
-15424
-32768
-13408
25968
21976
-3676
-17464
-8448
20356
28044
-8832
-32768
-28792
9288
32764
18772
14544
-6532
-32768
-25792
11764
26824
5200
-9192
-10484
1092
28624
14636
-26940
-32768
-14620
30784
29604
11728
5692
-18328
-30876
-10916
18216
17224
-5232
-13232
1508
26696
21444
-19332
-32768
-24264
15044
31020
18824
12772
-8200
-31564
-19008
9720
15564
4092
-6488
-6360
5704
26288
10848
-29648
-32768
-6904
32764
26248
9956
-132
-22232
-27388
-1292
20108
5792
-720
-3980
-5416
19912
19836
-19228
-32768
-14492
19764
25684
15064
6276
-14788
-25184
-7972
10252
6312
2144
-608
-2100
10240
18180
-1064
-31128
-32036
7676
32764
14496
-396
-340
-15080
-18364
2668
10956
-1144
-1624
-684
4552
20072
11164
-22636
-32768
-10964
29680
27524
5176
-1004
-13992
-19740
-1528
11284
1676
-2128
-736
-1344
11392
22900
-1572
-32768
-32768
5592
32764
22208
2848
-7832
-25148
-15876
7280
10212
2268
-2104
-292
8256
18724
6416
-26004
-32768
-8720
32764
28884
6500
-2744
-17840
-18336
-1192
6768
2772
3448
-380
-4520
11188
23784
-2368
-32768
-32768
11024
32764
20204
-892
-13184
-20216
-10256
10260
9980
-5036
-4168
188
5412
25612
9696
-31392
-32768
-6656
32764
29596
5316
-3424
-21216
-20644
2396
6496
2676
7232
8348
-4364
1348
17100
-7764
-32768
-21424
23860
32764
11672
-8084
-13764
-16412
-8348
8112
6244
-2788
6084
992
856
21052
5060
-31908
-32768
3244
32764
24096
1488
-8352
-16684
-14220
1524
288
-128
12376
9376
-7428
5824
19068
-14308
-32768
-17596
29812
32764
5264
-9472
-12000
-15480
-3320
6608
1904
884
3408
-1844
7664
22992
-2056
-32768
-32768
11792
32764
19992
-5052
-11584
-12724
-12068
1908
3568
796
12880
1284
-12680
14268
20880
-15888
-32768
-14584
32764
32764
4484
-16224
-13088
-7488
-980
3388
-2572
6724
7648
-7348
3028
23812
-1400
-32768
-26996
20124
32764
13628
-11832
-11916
-10744
-6512
5872
-1240
-692
16520
-4304
-14340
22364
20912
-25224
-32768
-5612
32764
30232
884
-11384
-13620
-13460
-3108
1156
1060
15064
9792
-11552
5140
20832
-10848
-32768
-20028
26744
32764
11360
-12932
-12688
-13532
-7548
6496
4024
2368
9596
-4100
-9788
23936
14760
-31420
-32768
1944
32764
23308
-7804
-9676
-7708
-10296
1420
1120
-7096
11644
9356
-9776
11792
20696
-17596
-32768
-14556
30408
32764
3376
-11400
-13032
-10656
-592
5504
-3460
4688
13452
-8268
-6884
22360
9544
-32344
-32768
10128
32764
14356
-15644
-7768
-1808
-2108
-180
-6532
-9464
10672
12076
-3288
16952
12368
-28308
-32768
-5492
32764
28772
-5864
-9856
-10004
-9152
2336
2296
-4812
6652
10784
-9400
-580
25600
40
-32768
-26588
18720
32764
5468
-11508
-5180
-6392
4232
5700
-16328
-16056
11392
14856
8324
19892
1664
-32768
-32768
-552
32764
24052
-2408
-7440
-7584
-3464
-216
-9804
-12580
10440
16784
-3692
8548
21448
-10940
-32768
-24168
24236
32764
84
-13996
-1420
9016
2820
-13276
-21672
-6460
21036
13364
7600
19208
-7296
-32768
-32288
14748
32764
11728
-7812
-8208
616
6324
-11272
-20768
-8384
15960
23928
3468
6212
6996
-22864
-32768
-8228
32764
28740
-9716
-11296
2500
6764
1116
-15512
-21104
-276
21956
8520
8032
20936
-8436
-32768
-30676
9772
32764
15460
-7816
-2428
2232
2024
-11996
-32640
-9388
30376
28432
3004
2052
1828
-27188
-32768
-420
32764
25984
-7704
-12668
1104
9052
-3236
-23648
-19620
12088
25856
5828
6000
15316
-12608
-32768
-24784
24152
32764
-5412
-9656
10460
13576
720
-25580
-32768
-3204
27956
23964
3116
12832
2672
-32768
-32768
608
32764
23868
-12708
-4968
8212
1368
-9572
-24248
-18516
17496
32332
6516
2812
7964
-21636
-32768
-12484
31392
29440
-8300
-4932
4776
6440
-552
-26576
-27400
8036
32764
15124
-1888
10524
-2212
-32768
-32768
11952
32764
14288
-9504
-6992
6552
7664
-15884
-32768
-9608
29380
26656
1996
7000
2328
-27124
-32768
-2716
32764
26368
-6908
-11340
3120
9640
-5472
-26704
-22504
8532
32764
13408
828
14368
-12344
-32768
-27848
21284
32764
3524
-4912
904
8336
12
-20504
-28320
-8596
28436
26176
6772
11860
-7304
-32768
-32768
2736
32764
17688
-6376
-3328
1500
2752
-6536
-22380
-19928
13612
32764
10532
-8088
5100
-9048
-32768
-15552
28984
28428
-4260
-8256
-3228
4316
6920
-6556
-23628
-19312
17392
28712
14240
14424
-13352
-32768
-31360
8284
32764
16444
-4172
-2372
-3640
-10188
-1804
-1732
-18676
608
21436
13392
16276
1788
-25296
-32768
-11304
30008
27344
-752
-3056
-4328
-11028
-5368
9836
2096
-15128
-13056
9360
32376
24476
-13532
-32768
-27432
9776
29136
12132
3284
2888
-11588
-17736
-772
12900
5888
-15336
-13568
9740
32764
18704
-29552
-32768
-13516
25528
25336
-1388
860
1500
-8584
-11372
-3076
6516
8188
-4552
-21076
9520
32764
7016
-32768
-32768
8820
32464
2364
-1696
9412
-5752
-16384
-7664
516
10504
11188
-1536
-12540
4664
24932
-11540
-32768
-8676
32764
22116
-9880
-772
-4124
-17732
-9432
4260
16844
11304
-2132
-8292
-3012
10604
-2124
-22568
-13816
16504
25464
1752
-592
-1580
-11780
-14036
-6124
8944
9364
4444
-1608
3524
16836
1648
-31460
-29404
2952
32764
20580
-2412
228
-6084
-20852
-8232
4660
6112
9132
884
-5624
5192
20516
-588
-32768
-24172
15976
27052
468
-4012
6664
-2300
-9852
-8000
3148
6980
200
-13452
-4876
28044
26344
-16080
-32768
-18504
27276
18084
2652
10712
-3724
-15288
-19920
2584
15232
5716
-1952
-1244
8092
4068
-13500
-17716
-1412
16108
12568
7024
-48
-14652
-17808
-588
12356
11180
3640
-7436
-11400
-4344
18532
21684
-15092
-32768
-6640
25204
17096
-8064
264
368
-5060
-7060
56
2480
-2732
3872
4296
8408
5804
-12704
-20296
-6300
16084
17900
4272
-2048
-14208
-9868
2132
3524
6452
3932
-1384
-6948
1100
7792
-1700
-5632
-8796
4232
10292
-680
1284
-2164
-4736
-2612
592
7864
1292
-9488
-4432
3064
13788
9620
-12388
-16452
-536
8352
5364
-864
576
3132
-5240
-464
3412
-860
-4564
-4276
1896
4824
10360
1028
-14988
-5840
3020
9072
5368
-4452
-5784
-2536
2676
5244
3376
-4448
-5076
-3132
656
7500
7804
-1968
-10656
-7992
7196
6312
2848
1236
-5176
-5768
-2584
3788
3900
1780
248
-2744
1624
6408
-5760
-12532
-5560
12912
15452
2628
-12228
-11652
1076
2264
5124
6944
-1616
-5480
-5528
3136
9328
-224
-9420
-9064
7532
12580
2488
-11028
-6724
3420
4036
5300
1504
-8504
-9908
1892
11032
5964
6416
-5112
-15088
-6068
-360
13308
8176
-4412
-2192
-2908
-1116
2936
628
-2264
-3372
-484
2228
5980
3948
-4432
-9100
-2704
9776
7856
-8444
-9124
6748
3936
2436
636
-8228
-4836
3672
3876
3948
772
1468
-3604
-13100
3440
8008
4984
-3096
-4552
1912
-568
2104
1480
-4972
-4032
2612
7240
1764
-3604
-6480
-4328
7796
7984
3396
-7408
-11496
-300
4732
5736
3144
-1032
-3244
-2672
2988
-2028
808
2824
-1348
-4196
-3796
4568
7096
-936
-5304
2996
1756
-1968
-5356
-3396
4364
7596
-456
-4992
-1188
5896
816
-9380
-1996
6436
2552
-3964
1412
3120
224
-132
-1632
-5932
-2308
1552
6648
4068
744
-512
-10072
-1360
3028
2572
1252
-3584
4776
3256
-4160
-1372
-2680
-1184
1556
1964
252
1676
7396
-5932
-11588
1708
4788
6184
908
-3000
-736
-5292
36
2156
1268
3488
2440
-4172
-8588
2000
10336
2820
-5964
-6324
-4524
3852
4564
8732
5264
-9948
-12272
-3208
7036
11328
-1128
-6736
2312
2992
-2204
-7036
-1392
4968
7148
-96
-3760
-1208
-3304
-5412
8112
6392
-2148
-2904
-6240
-232
4728
9688
-1624
-12688
-3272
4692
5492
4432
-636
-5928
-5172
1496
4132
4392
428
-5288
-4296
-268
7524
4696
-4756
-10196
-468
10780
4764
-2084
-3268
-4988
-588
-3016
3080
9064
-1356
-584
-4568
-4464
5996
5480
-7744
-6524
5716
8772
-516
-4360
-4352
-1364
2940
576
5900
-3004
-7584
-284
4888
10952
3668
-13924
-14180
408
12980
8740
-1052
-804
-4552
-5836
-1328
5412
3672
-1536
-4124
-3704
3528
7860
3816
-5588
-10380
-2568
9380
9672
-7716
-7724
488
1812
11604
412
-8208
-7028
-1212
6624
4776
5104
-3164
-13552
-1340
8792
6820
-860
-4136
-1592
-6056
2960
3256
2660
2296
-2848
-2376
-472
2604
-1932
-7276
-1492
7260
11716
7284
-13420
-11280
-3660
2852
9300
2976
2364
-2708
-6472
-1856
2428
7032
2336
-7396
-7048
-1160
10516
2276
-2124
-1360
-2000
4720
-648
-5940
-6432
4148
9592
3636
-3544
-4140
-636
-4024
-3804
7800
5452
-1040
-2808
-5856
5256
-740
-1264
4568
-1040
-2528
-4556
-772
8176
7272
-6848
-9772
1884
7580
-2428
-3624
2764
6296
1252
-7256
-4660
1476
4
1796
4404
-1376
3240
756
-7184
-3180
1804
6584
-1136
-8416
2268
5812
4144
-1796
-3148
-2388
-2552
4488
-1148
-5356
5264
2768
248
1864
-1932
-220
-9096
-1600
10248
4968
-208
-6700
-4420
-920
4140
2444
-792
3660
3240
-2300
-11540
-5192
9748
6928
-3024
288
5792
-4272
-10824
-1052
4292
7340
4448
-5244
-6492
2152
4328
-2308
-1128
-1264
2692
-4056
2396
8664
-2764
-5972
-2956
68
2912
3068
-2956
680
1132
5796
648
-8852
-10104
452
13088
6636
1652
-6248
-7688
-2232
352
3508
5656
372
-4000
-1176
4264
4528
-5360
-11968
-3736
14024
6008
-268
-312
-3656
-4532
-2096
924
1548
3884
-4928
376
3016
8280
2792
-11568
-8816
-2076
7976
7060
-852
-692
620
-3148
-2600
2548
2552
-2792
-1860
-3144
2052
9560
-696
-7328
-948
2512
3140
1112
-7296
-4424
1740
6796
7540
-896
-4236
-6580
-4344
248
5608
9432
1616
-10528
-8920
3632
12844
1960
-4292
-3440
-7056
-1612
4484
5508
2020
-972
-3764
2148
7668
-3020
-16668
-4100
6076
13652
8824
-7972
-2132
-5104
-4684
1376
3368
224
-1532
3324
2324
772
3744
-3144
-10692
-3348
1896
9872
3668
-3148
492
-2144
-384
1308
-3256
-8592
4520
3720
4856
8468
-604
-8640
-11716
-4408
6304
10820
1992
44
-1532
-3344
-1736
716
-1192
-2384
1132
2564
2192
2304
-1864
-6100
-216
5588
8464
-6184
-16240
3240
9452
7384
-816
-6548
-2768
-2228
1960
3672
2100
2152
-5048
-8884
1168
9820
9028
-4372
-8884
-4808
-1396
5008
6148
1472
-192
-1864
-1912
-536
-7040
884
6096
2664
-548
464
2044
-5704
-664
2420
-1276
-3964
-1920
3348
7372
6736
-5096
-9652
792
2244
-2304
-1592
1140
8076
-1628
-3332
4708
-100
-6468
-4280
-664
5516
9324
-764
-4936
-7324
1316
5460
-1696
-944
-1232
4456
-464
-1888
2136
1272
-1228
-6424
-1464
3532
4540
24
-1544
924
4408
-2956
-3672
-8216
-2948
13120
2392
5528
-988
-8044
-5004
-3016
4024
5944
1636
-2456
-3312
-416
5924
1172
-3340
-7240
1828
5932
-4716
2572
6360
972
-7724
-3876
1544
-2692
3256
612
2404
14236
-2992
-13408
-8780
-5856
11744
7848
4716
2708
-8308
-6128
-2780
3640
5336
-3308
-3040
2220
4520
4624
-2308
-7732
-7548
1400
12136
6160
-5604
-5456
-5840
1916
9004
1928
1056
-7332
-9776
400
7272
16232
-508
-13832
-9220
724
11372
352
3540
-3012
-7784
1532
1940
2900
736
-1456
-5208
4192
7024
-3340
-6680
-4604
1428
11008
5044
-11372
-3388
5516
1788
-1868
1128
-3060
-3192
2408
2072
3584
4872
-2888
-11452
-2452
820
10036
2660
-2384
4240
-4312
-2948
-3196
-3680
-2136
7680
8872
2412
-4104
-2200
-5264
-7632
1468
3416
12920
228
-12052
2284
5404
-1080
-3496
-4640
-264
3596
3536
3480
-2788
276
-3496
-6408
6532
5716
-1748
-10148
324
13164
1796
-7636
-7256
260
3992
5860
1104
-604
-2840
-2200
-3776
-3052
6572
4268
4120
-6184
-3336
3200
56
-3272
-2240
3468
1148
6580
-2452
-9564
40
3576
3084
4872
-828
-7196
-2220
-992
3720
3536
-2816
40
1228
824
3576
-860
-8780
-2096
5196
3508
-1836
-2160
2436
432
728
-892
3416
-1376
-10128
-2208
7184
9292
2416
-6360
-8416
-60
6288
-1888
-4460
4040
8368
1616
-7460
-4300
328
-1600
2192
2448
736
948
-1824
2820
-5316
1800
7324
-3176
-4964
-7832
1300
6092
5348
7076
-5740
-6140
-2064
-1080
4900
2764
-2428
-5056
-2012
8864
4964
-5616
-4320
-1196
3996
-12
-260
3012
-3752
-1804
-120
4416
2240
-4724
-7328
2780
8608
6144
1800
-12652
-9696
-104
9492
7064
-2324
584
-4324
-2480
3772
2500
-564
-4940
-4328
3748
3668
5860
-3036
-9628
-852
8624
5692
-3240
-4908
-4904
912
4844
3564
-3176
-156
-2848
-1628
3888
5036
4672
-8208
-11192
-1980
13292
6936
-3012
-4644
-5336
1316
-956
7544
-352
-1516
1116
-5580
2124
3768
-4908
-8060
4952
10408
8052
-7572
-11452
2368
-484
1016
2540
1352
-220
-1628
1300
1284
-3176
5664
-800
-10576
2344
2384
5980
-388
-4776
4488
-2520
-1116
-3508
-2420
5412
7716
2684
-7996
-6168
172
3528
-4132
2240
7668
1964
-3132
-3736
-1236
220
-2668
344
5516
-16
-2240
-344
-356
2068
4404
-3256
-6616
548
2572
476
-424
5872
-508
-1528
-8748
-2800
11704
400
1528
-2736
-2988
1300
-3560
-2820
592
8852
7260
-5808
-8872
-2268
4180
2216
4608
-2292
-1748
-3516
-1168
580
-2256
10608
6968
-3692
-11012
-4632
1420
-1696
4560
9608
3400
-4924
-7128
-2244
2592
1440
-1780
2112
304
4276
-3812
-5196
572
3084
6012
-2440
2560
-176
-11760
-7060
6120
12268
5624
-3460
-7012
-7544
5752
7772
-3560
-7184
-2356
6244
7532
-4340
-728
-1248
-4292
1704
2880
1932
-164
-3736
-2904
2052
6924
5996
-9056
-13844
-2492
15088
9684
1164
-2440
-10796
-8844
360
5652
8892
3292
-2316
-5396
-3260
6804
2380
-7152
-6100
-2176
9100
6460
-2020
1576
-1172
-3496
-3608
-716
-332
-2240
4116
7280
228
4396
-6780
-11716
-1208
9204
6924
-4732
-980
-2268
-308
2436
2264
52
-2612
-1324
-1704
-236
5104
3284
-2092
-8296
-3504
9524
7872
-6632
-6496
4972
4704
-4020
-5432
-1372
756
6144
1004
1440
3044
-448
-11548
-6920
6200
8192
7024
-4920
-6812
-520
1160
-248
2704
912
-320
-100
2332
120
-10084
-2272
2240
4420
13720
3384
-9532
-12652
-4724
3916
6960
5024
672
-1284
-3104
-768
-1132
36
3940
1596
-8016
180
3008
-180
-1072
480
7464
3388
-3036
-13868
-4276
5456
9836
5808
-4144
-5716
-5472
2776
796
3812
7124
-2136
-11588
-3792
7152
5952
-1028
-2880
696
-2700
1304
1088
-1852
1580
4356
-3668
-4828
1336
-956
860
4680
7200
1320
-10772
-10840
32
7068
6976
4632
1180
-11632
-1752
5416
1056
-1436
-3876
4484
-4304
-5744
9296
9644
-900
-8768
-4604
704
3392
220
-7612
-488
12660
9980
-4920
-14676
-6564
5408
6600
5544
2000
-5240
-7300
-5316
2744
8764
4780
1656
-3316
-4780
-1944
-1780
-4048
-548
6476
9432
3276
-4884
-4904
-7092
-3928
5828
10684
-1216
-7464
-3408
-1052
9508
8800
-4188
-9564
-7348
2544
8396
-900
-480
1504
-628
-1324
2068
524
-2616
-2516
-1544
3180
2424
9936
-11148
-15852
3600
16548
17416
-8308
-16256
-10216
400
5376
7432
7024
1872
-5512
-4096
92
272
1224
-6544
-4344
4644
9592
1960
-2604
224
500
-3392
-6740
-856
-3500
2456
10412
7968
1344
-4224
-9476
-9448
-688
4384
13548
1928
-9568
-2968
4568
6360
-2820
-2836
-3444
-3184
-468
2068
5364
5824
-1236
-8988
-1400
4968
8636
-10732
-8620
6480
5512
4632
-4448
-6064
-1376
5320
3992
1940
-604
-5944
-8192
-3432
8360
13156
5080
-12264
-9600
1864
6756
1632
-3956
508
-2808
1024
6064
780
-3656
496
-896
-4640
2976
4952
-4820
-7680
4928
8104
7504
-3464
-9632
-4668
-2400
4108
3964
292
3412
6080
-4088
-11196
540
5484
968
-1908
700
1512
-508
-8088
3408
9012
2060
780
-11972
-2252
3240
4488
-5036
-3420
8012
3956
1048
-4744
3504
-2036
-7284
-2420
-3180
4464
5652
8296
1088
-1996
-2320
-5444
-7852
-9720
6632
13004
10092
-1332
-2292
-4504
-9456
-1252
860
680
3472
5076
-1824
1152
8008
-5012
-10328
-4884
6844
4988
-3844
-976
3564
3584
-2136
-504
-1048
-504
-908
-5476
-1276
7084
11300
-4480
-11672
-1828
5520
6320
-2808
120
992
-6752
-5768
2396
7476
7152
796
-3972
-5596
916
-260
-10020
-1708
8760
10392
6928
-3988
-9708
-5824
-3196
2380
7192
124
-560
1844
-1176
-148
3124
3424
-8912
-9840
1276
10204
6852
-2444
-3500
-388
-1604
-2224
6496
-2276
-2924
-2632
-2128
7580
7516
-704
-15336
-3888
14948
10372
-7708
-13820
-3008
3560
5412
7644
2684
-2908
-7132
-4308
2336
1764
5280
-1512
-9984
3560
7536
5488
-7284
-6760
4504
1260
2056
-1824
-6584
-1272
8240
2224
3448
-2656
-5404
-3008
-4268
6908
6364
4004
-11580
-4956
9476
-1364
676
-116
-3108
2928
-704
364
1652
-2024
2004
-7300
-2932
8636
4540
948
-11188
3548
10528
-5552
-5120
-5052
-3480
6212
7856
2136
1784
-760
-6076
-8440
-2624
6692
7796
-1500
-5716
4152
4320
-4772
652
-1780
-3456
-1420
3948
2848
-6440
9188
8392
-8756
-10092
-5492
5504
7084
1820
5704
1328
-10856
-10660
3388
8120
6084
240
-7416
-2836
6864
4812
-15552
-2980
11472
5636
80
-3092
-1728
-8240
-1624
1508
13116
6480
-8060
-7544
-8380
7520
7460
2560
-8224
-5612
6880
6612
-856
-3244
2068
-9380
-5404
4152
7592
7508
-1680
-5232
-4296
3616
1992
-2796
-9868
-3248
13400
12404
528
-11252
-6468
-5104
4252
7596
600
-1044
-3184
-1964
1356
5612
6604
-5332
-12676
-3444
6084
7224
1396
1712
760
-4160
-6588
-288
6452
-6120
-2612
6436
9192
9384
-9696
-19228
-9068
11584
14288
3048
-1876
-1552
-6312
-5280
2220
3272
4008
-5268
1036
2392
-2580
7452
-1828
-8740
-6040
9172
14756
-10424
-12056
-208
7268
9252
3356
-5948
-8328
-4888
2092
2684
5684
8916
-9988
-6200
2444
7120
6776
-15792
-6400
7096
3076
3468
872
2312
-2680
-3560
-2456
-480
1008
4920
-4360
-5192
7236
6008
5616
-12972
-7832
8792
1040
-2300
672
-1836
516
3948
4136
-2708
-3076
-788
-5736
-624
7324
7984
-4860
-4552
-3568
3068
4448
-3796
-168
-4436
7416
5432
-1476
-8688
-5124
8644
-4264
-1312
5008
8136
100
-9356
-1232
-480
-2212
-2868
6576
7712
1108
-4328
-5596
-2736
5048
1436
-8412
3888
8716
60
-8880
-1416
8912
1800
-9428
-4552
4932
3172
4344
-400
-3452
-892
-3756
2124
-876
-1624
9512
2456
-6464
-6204
-480
5556
-356
1640
2872
-5260
-540
1808
-6780
4844
8496
-2044
-6060
-2160
3476
-3932
-316
5928
2312
1052
-7808
-1312
4108
1716
148
-6532
1124
2400
7712
-888
-11740
-1224
8956
2472
-5864
4356
-2420
-7680
2900
7456
7588
-5772
-11560
-3388
7112
8128
2808
-7356
-13444
7876
12852
1048
-3940
-5080
-7080
-6308
8308
10228
-200
1736
-2024
-6300
-2372
3340
4884
-9092
-10200
7188
20420
4748
-12468
-5692
-5412
-3284
8
9924
4420
708
-712
-8612
2936
7600
-3468
-11548
-888
5028
7696
-760
-680
5884
-4728
-5668
-2756
2212
-3032
-2948
12556
5528
1904
-4484
-13756
-8552
8160
14056
3172
-7336
-7732
2680
900
4068
2532
-3976
-2636
-3636
760
4452
6284
1764
-8980
-6896
3064
10404
-3136
-6204
-800
6664
8160
-4444
-8756
-8460
2116
6208
7400
6656
-260
-2900
-15180
-12264
12096
15156
-1068
-9364
1052
8580
760
-7000
-3056
-5292
-2636
7392
7256
5568
-1032
-8616
-11004
5392
10784
-532
-6796
-5616
6236
6216
1104
-6828
-2388
484
148
5296
592
-3968
856
2884
-5352
-5128
6236
5704
-1272
-3204
-976
4784
-4740
-7660
4600
5676
6892
-5356
-5000
-1896
96
5804
-3092
-112
5176
-2568
-10900
6544
10892
-1396
-8552
-5088
1520
3748
7248
-2140
-2376
-2200
652
-444
-3476
2076
1804
1956
-1432
3172
7372
-9412
-13928
3384
6288
7092
2012
-1292
-4916
684
5092
-10640
-4032
1592
9796
2388
-8040
8520
4132
-5840
-7384
-3776
1612
2668
2364
716
992
8456
3736
-12080
-12460
1820
9636
820
-3908
6388
2624
-6744
-960
4460
1320
-6392
-1124
520
1464
6792
-4564
-6460
2352
6008
4520
-3520
-1696
-3656
-6376
1104
6396
9176
-4528
-6644
864
288
2128
3548
2336
-12092
-4868
6828
8632
688
-4640
-360
-596
-1372
-1712
3588
-3052
2324
-1364
-116
8148
1832
-8436
-16044
7376
18400
2268
-11640
-6436
3720
-12
1336
708
1672
1664
-120
-2808
-2356
2024
1828
-3824
-5428
5164
6212
2228
-4964
1552
2792
-7780
-2608
-444
-1732
968
9792
11668
-1360
-10872
-11500
-5816
288
11600
14868
-1048
-6396
-5264
-5648
-132
4536
5160
-3128
-4916
1560
2276
6636
2104
-2368
-12492
-8764
11796
12964
-4456
-12264
8308
6164
-2028
-4852
-8680
1048
2896
6892
5524
-1088
-2720
-7076
-7068
2988
10676
1908
-6516
-2120
8300
-448
-6564
-440
-3920
3104
4716
1456
1424
-5112
-3152
3768
-208
-188
3464
-1112
-6772
-3880
10032
7668
-6012
-2788
-2624
-3664
4224
1548
-1320
5268
4980
-7656
-7860
1544
6192
-1360
-5164
8652
9536
-5656
-15428
-4932
8700
8908
4792
-5036
-8728
3796
2596
-2852
-1996
296
6468
-2192
-2612
1152
4904
-3608
-8344
3564
3160
2304
1416
664
-4220
672
-2016
-4892
3936
1240
4568
-3140
572
7284
-1496
-8256
-10340
4360
5172
5468
3028
-2360
-1508
-1216
2708
-6148
-6376
5060
4928
-440
304
2604
312
-5276
-2096
4116
6388
-5624
-12044
-2104
11836
16312
-872
-15616
-11156
7864
2692
-3892
6748
10236
-4432
-9860
-1496
-244
6540
-3592
-4564
5444
7124
5248
-8472
-12152
-2816
9724
7848
-2476
88
-1108
-4848
-1136
3684
4900
-7632
-1044
360
528
7976
3528
-1452
-13380
-3080
6172
3756
4264
624
-6256
-5976
856
6948
5944
-1160
-4716
-4200
-2788
4552
5472
-6428
-9848
6196
21116
2960
-14544
-11076
-4196
2868
2576
7196
7588
300
-5456
-8180
676
7216
-1160
-5492
-584
2544
3904
-5468
2140
6112
-2580
-2544
-2184
5548
-2216
-7804
-48
2180
10224
6188
-7588
-9760
-3072
6248
7936
-5192
-5804
3216
3680
2120
-244
-1480
-3712
-1788
3616
-3656
-556
5232
-1396
772
3248
6736
-4088
-19160
-3096
13428
11284
-64
-6336
-6244
-4332
5212
5540
2136
2496
-2208
-11616
-7168
5376
11680
6016
-6348
-1576
1776
-2764
-3024
-2684
2372
3024
-52
-2592
1180
4560
-656
-1076
-860
132
1080
-3772
-8312
8224
7468
-2692
-2608
-3236
780
-392
8360
400
-6740
-1756
-200
-244
-2460
1580
8192
1344
-5820
1252
3680
-1376
-8920
-7208
3116
10704
8072
-1888
-6956
4084
-4108
-6784
-2568
4616
7864
-2500
104
2756
1328
-6984
-3156
-444
3640
1656
1312
1712
-2424
5580
-3988
-10632
936
5040
2964
-140
4576
4236
-5756
-7444
-3840
144
4892
2916
3572
-496
3096
1636
-9484
-4352
-5632
5404
6244
828
5240
976
-1384
-5848
-3916
-5096
2584
7208
1500
-2692
1636
8056
-3792
-7508
-8012
3408
5364
-1612
5796
6740
-1540
-10624
-3688
-156
5012
1260
-1592
740
6696
3900
-12820
-2228
1740
2060
-756
1220
9068
-2360
-8408
-7704
4180
13716
1624
-5688
-9784
-3788
9184
7000
-2012
-4168
-864
-2652
1652
1776
4672
-56
-7296
-1140
2404
932
-1024
2872
36
892
28
-656
-492
-4824
-852
2088
444
4992
5648
-7572
-4412
-792
848
3900
3340
744
-7952
-208
6872
-280
-7664
-1020
7496
5020
-7700
-3152
2656
3664
2000
-6540
-1044
-2396
4736
1772
1820
8824
-3204
-13560
-12844
8964
13736
1524
-1608
-72
-2724
-6880
-488
4888
5936
-3088
-6100
-1712
1704
8420
6872
-8960
-9508
2092
6392
3300
-8928
-536
1444
4224
6612
-1904
-2808
-6432
-76
-3376
1956
10788
2148
-6464
-6052
2556
3732
-1416
-3396
2996
2000
-656
-1380
476
1796
-3168
1104
-5304
1848
9064
52
-10584
-2988
12404
5224
-7772
-7808
3852
-1892
-1296
2832
5524
6236
-2300
-6236
-8772
1500
7628
-1120
-3584
1648
4400
2812
-2656
-2996
600
-4584
2328
2356
-2448
1032
-2112
7208
-524
-724
1256
-8212
-4216
636
12688
2100
-6700
744
-2548
96
-888
-1736
3884
2816
1096
-2996
-3872
3688
-772
-3208
-2900
8892
9660
-14156
-10180
8172
11116
-748
-5020
-6024
-916
4868
-1548
816
2340
2776
3020
-5492
-5932
-772
4884
284
-3420
2884
628
1176
1976
3036
-4508
-4832
-1384
-1548
520
7704
9188
-5604
-6680
-5596
1424
432
240
8980
3956
-1472
-5892
-5492
-2640
1184
4028
1976
1848
5776
-724
-9688
-6884
5328
9000
-2568
-7312
4780
4184
-8272
244
6012
5484
1048
-8620
-9888
1380
8380
-604
-1292
6020
6608
-6828
-7304
-336
2460
2268
-6360
-604
5400
6688
2580
-3628
-5900
-3744
1992
-1536
-244
3148
4100
-612
-572
5916
124
-7580
-11608
-3352
9160
13468
6316
-7704
-10820
2240
4740
-7872
-2528
2828
9296
2028
-1352
-852
-6424
912
-3624
336
3456
2980
5560
-6060
-7260
1336
8080
4680
-4264
-5356
-5684
-2312
6224
9796
3740
-7124
-9100
196
7148
4696
-5188
-6844
2780
6508
1740
-9128
-4436
8752
6864
-1848
-2044
-548
-9828
-5732
7492
12004
4012
-6304
-7132
-4708
4792
9136
2156
-10736
-6800
1180
3528
6792
5520
3452
-8004
-8836
-1044
352
2444
3504
852
1564
4764
3388
-8172
-18872
640
16988
9176
1516
-6728
-7104
-9292
308
9612
7400
4796
-7340
-5760
-3080
4168
6564
-5304
-8576
-400
10256
6676
-3548
-436
-1868
-6640
140
3552
3084
-5396
-3400
2632
8260
11552
-8848
-13840
-9592
7796
14504
2168
-1368
-8408
-1144
-472
872
3524
-1716
-292
160
952
2756
4764
-4396
-12188
-7236
11516
13400
192
-6108
-4464
3980
-828
-4196
-5540
276
6288
4940
-192
3232
2280
-9780
-8500
1148
8672
4192
-3732
-3236
1324
2592
1652
-524
-1004
-4668
-3516
4208
2800
4992
-1960
-5088
-5240
-280
14156
1476
-5176
-5912
-2792
-200
-96
8012
2064
2104
-1888
-7528
-4840
5204
5292
-5756
-3156
5504
10600
-316
-4888
-8588
-6752
-1260
7392
11768
-2024
-1476
-6904
3660
2932
1936
1060
-17464
-6876
7340
18768
6128
-5812
-7056
-6816
-1236
1580
7100
268
-244
-4872
-2888
2512
9248
116
-10144
-1796
8632
7748
-14772
-4748
3572
6028
1356
-1576
2284
-2548
976
-2412
316
1080
4356
-6124
-12264
3820
13184
10312
-6100
-4176
-3444
-4648
-3416
1372
4528
1108
6252
-1092
-2532
1888
1548
-5048
-8572
1212
6280
3940
-3080
544
1400
540
-120
-2904
-1048
1180
2056
-1704
-1700
976
2452
-6116
-4404
8700
14160
640
-18280
-3120
5224
-6008
-756
8992
5676
772
-3224
-5648
-508
8104
-4564
-10744
-2512
9120
13916
-4140
-3700
-216
-4832
-5124
1912
7288
-428
-2920
-280
-704
4460
9556
-5536
-16088
-8128
12612
17652
-1540
-9368
-6276
3408
-1272
1332
4568
-4492
-2288
-1444
5064
10348
1728
-12740
-16164
2800
19068
4924
-8244
-724
2544
-1476
-7004
-2424
4696
2532
1312
-1160
-1148
9456
1596
-13548
-9484
4176
15492
592
-9332
-1628
2788
1780
1308
4168
-3720
-6664
-3544
-1200
5160
13736
3152
-16128
-5332
7260
9540
-6540
-10916
-208
7684
9380
-4980
-676
-3692
-2492
1168
832
5376
6908
-2108
-18572
-10172
13048
16000
476
-1204
-2860
-5684
-6572
-820
3716
8756
396
-8972
-1780
5792
12176
-7064
-11164
2008
9848
-4020
-11004
348
5296
4760
5448
7208
-5464
-9700
-6660
-2524
-1288
9384
13364
548
-10788
-6632
6036
2584
-6560
-1128
8544
3176
-7860
-8976
3192
9708
4916
-2232
-6688
4876
2716
-9556
-11612
1476
15240
2036
1012
3128
2256
-5136
-13196
-1880
3220
3124
1960
-1912
1452
11576
14328
-9452
-30480
-11984
20116
15356
-5804
76
4236
68
-3056
-2576
-5200
-3284
3700
2252
6608
6908
-8660
-13016
-2592
12752
10260
-3348
-1528
-6036
-3816
-1880
-1936
3748
10184
7984
-8452
-22024
1492
32764
14596
-31128
-32768
7172
26976
9956
-4432
6940
3804
-15652
-17740
-2088
9388
5816
4640
7856
8488
-5792
-20260
-14308
10404
18576
1452
-3376
-2040
-4436
-7424
2728
9412
8464
-60
-15680
-16504
-1988
30420
28472
-16092
-32768
-10876
25324
11268
-9768
3268
14720
-1252
-18352
-9452
2212
3680
2072
5260
16228
11168
-17552
-29532
-11820
23064
22872
-4220
-4872
-3476
-6224
572
5948
688
-2640
-3220
-4032
-3116
8700
25708
1700
-32768
-27020
19004
30544
-6568
-2972
8176
-3664
-18388
-8092
11596
6528
2660
-4596
-1216
16088
14756
-20876
-32768
-6300
32764
21612
-6044
1332
1812
-12980
-19592
-4412
4668
15468
16184
-436
-9816
1936
6408
-22976
-24544
11632
32764
10172
-11288
-2056
-1860
-15524
-11720
6080
16804
6912
-8916
-8636
19320
23624
-24832
-32768
-9412
30908
29964
-200
-1008
5332
-22424
-18664
-2784
9640
11936
2272
-2988
3280
24896
3080
-32768
-32768
-760
32764
28288
1936
-3248
-5424
-21740
-18088
108
11292
6356
6872
13284
16960
-668
-30900
-32768
-7596
32596
32764
15160
-9276
-12436
-20436
-24816
-4968
12928
31012
30656
-7236
-32768
-15944
27520
4824
-31896
-8064
32764
26628
-13680
-18944
5804
-2508
-18048
-268
19608
20904
-9196
-32768
-3036
32764
18044
-32768
-32768
7120
32204
5752
-8524
14396
-3104
-27960
-11564
18832
25072
-1200
-30756
-19804
27744
32764
-3872
-32768
-27580
14672
28728
404
1084
7068
-12856
-23596
5560
26348
1424
-23524
-17804
17116
32764
6816
-32768
-32768
1312
30848
11616
424
10876
-6368
-24232
1508
16756
-7720
-24100
-3160
21188
28764
20228
-14304
-32768
-32768
6228
32764
17092
1260
136
-2540
-4380
-8276
-17988
-25400
10312
32764
21988
13884
-6244
-32120
-32768
-8364
32764
29012
5332
-1992
3336
-2640
-13652
-30536
-21220
16596
32764
20540
-4284
5152
-10052
-32768
-32768
9732
32764
23928
-3176
-4288
10872
-7276
-30372
-30048
-4828
29220
32764
4384
7124
3076
-31804
-32768
-15352
32764
32600
3712
648
16904
-8660
-32768
-32768
-2640
32764
32764
1916
-19780
9828
2076
-32768
-32768
13960
32764
18676
-10016
-2872
14344
-10144
-32768
-31460
13392
32764
25884
-11988
1056
15080
-26904
-32768
-12116
31280
32764
-2900
-2632
27980
-12640
-32768
-32768
6592
32764
31412
-6904
-20828
19088
2908
-31152
-32768
9188
32764
22932
-16148
1416
18764
-19468
-32768
-23408
25632
32764
21168
-20472
1816
11388
-27056
-32768
-10472
32764
32764
3484
1468
13128
-23760
-32768
-26828
21988
32764
23268
-13260
-16484
20912
-424
-32768
-32768
6576
32764
21184
-13204
13932
10088
-31728
-32768
-9568
32764
32764
504
-28792
13924
22424
-25624
-32768
-11692
32764
31012
-3652
8764
16468
-25424
-32768
-24220
27392
32764
18008
-11800
-13924
17136
1220
-32768
-32768
4496
32764
24116
-2868
14360
856
-32768
-32768
-4580
32764
28960
516
-19676
13012
15612
-28368
-32768
-10740
32128
32764
2848
11616
2508
-32768
-32768
-9204
32764
32164
12048
-13312
-5176
6116
-2536
-28528
-32768
8236
32764
29540
10744
7384
-12752
-32768
-32768
5220
32764
24788
3824
-8092
13080
2212
-24048
-32768
-20512
28756
32764
19740
19888
-8500
-32768
-32768
-10396
32764
32096
14940
-2072
-6984
-10772
-3916
-20388
-30436
7860
32492
32764
15492
-4436
-21528
-32768
-32768
14252
32764
25800
2604
-7856
88
-1080
-15996
-32768
-17000
24316
32764
29096
14692
-21312
-32768
-32768
-3892
32764
25416
5332
3008
-1276
-15436
-2556
-4532
-28996
-13560
27436
32764
23916
-4400
-26264
-32768
-28540
21760
32764
10312
2816
-948
-9344
3188
500
-29312
-31304
13712
32764
32764
15100
-26072
-32768
-32768
5800
32764
14608
5348
14152
-8316
-22676
5408
6748
-27168
-28172
19484
32764
32764
-4148
-32768
-32768
-16124
23084
26076
428
8672
5988
-14440
580
5340
-20840
-32768
9644
32764
32764
10260
-32768
-32768
-27008
15980
27300
5608
7400
17212
-10220
-26048
11852
8096
-29012
-29288
18436
32764
32764
-11792
-32768
-30924
-15524
25356
11348
9276
21508
1248
-20340
-4768
10628
-19860
-32768
11884
32764
32764
-1156
-32768
-32768
-18196
23096
13616
8912
22772
16172
-24676
-32268
9852
16408
-29784
-25136
28620
32764
27360
-23976
-32768
-28364
620
18832
7744
14468
26088
-2500
-27840
-1628
7080
-22484
-32364
15408
32764
32764
-9652
-32768
-32364
-13472
21124
11924
13388
23520
6888
-31136
-25840
20376
14820
-29544
-25848
23756
32764
19224
-30432
-32768
-13344
13384
6812
-796
16224
22744
-5400
-30736
2000
22192
-18976
-32768
8052
32764
32764
-16256
-32768
-20132
9448
10364
-2908
9376
25764
8472
-32768
-22032
25196
16904
-32768
-23516
27284
32764
5580
-32768
-32768
-676
25984
6456
-1508
11568
13836
-17664
-28040
17416
25944
-27908
-32768
14072
32764
29928
-23360
-32768
-16316
10588
5508
-1136
18828
30944
-2696
-32768
-13792
32764
8136
-32768
-16964
32764
32764
3852
-32768
-32768
4728
19500
-5936
3752
25468
17880
-25184
-31456
19696
20200
-32768
-27244
24776
32764
15468
-32768
-32768
-4388
20292
-5640
-6884
26088
27308
-7408
-32768
-3112
32764
-7312
-32768
-7564
32764
32764
-10024
-32768
-18164
20336
7944
-20176
4764
32764
17888
-30892
-24732
25984
10120
-32768
-21456
31232
32764
9160
-32768
-31612
11888
18760
-11604
-9448
24048
24336
-16776
-32768
15968
32764
-21824
-32768
1388
32764
32764
-22920
-32768
-3604
31068
-648
-26048
11508
32764
4492
-32768
-12944
32764
-76
-32768
-8252
32764
32764
-8624
-32768
-24180
27228
14976
-21276
4256
32764
14624
-32640
-32768
21344
32764
-26780
-32768
15380
32764
19876
-32768
-32768
10464
28992
-19280
-17208
27448
31244
-8140
-32768
532
32764
-12792
-32768
744
32764
32764
-20036
-32768
-10176
32764
-1976
-25424
14244
32764
6016
-32768
-24032
30820
23448
-32768
-25944
29472
32764
3072
-32768
-31596
26948
27264
-31976
-12536
31360
29488
-16616
-32768
15808
31732
-28048
-32768
13332
32764
22512
-31440
-32768
15580
32764
-26844
-24072
23476
32764
156
-32768
-5660
32764
-3364
-32768
-10248
32764
32764
-10248
-32768
-12912
32764
2344
-32768
5172
32764
17904
-32768
-24428
32764
14872
-32768
-27728
26984
32764
6388
-32768
-31756
27608
21144
-32768
-6764
32764
27788
-17496
-32768
4504
32764
-13056
-32768
4808
32764
30224
-23080
-32768
2512
32764
-16176
-29644
18596
32764
7596
-32768
-13708
32764
2092
-32768
-13412
32764
32764
-7816
-32768
-13168
32764
-4136
-32768
9624
32764
22016
-27260
-32768
23160
26252
-32768
-29944
24196
32764
8148
-32768
-32756
23320
28496
-28760
-16584
29528
29168
-13312
-32768
10556
32764
-20464
-32768
5256
32764
27520
-27984
-32768
7280
32764
-16544
-30308
21452
32764
4028
-32768
-17236
32764
5928
-32768
-14888
32764
32764
-2580
-32768
-24244
32764
13420
-32768
-272
32764
22000
-27552
-32768
19692
32480
-30800
-32372
23260
32764
7760
-32768
-32768
23100
30756
-25576
-15200
30548
27688
-15820
-32768
-1368
32764
-2840
-32768
-4672
32764
32764
-21848
-32768
-2636
32764
-9032
-32768
18688
32764
10700
-32768
-24000
32764
9156
-32768
-15768
32764
32764
-7892
-32768
-22512
32764
12300
-32768
4080
32764
18596
-24848
-32768
20092
32764
-25244
-32768
8660
32764
21908
-32768
-32768
18012
32764
-26936
-32012
26200
32764
-3468
-32768
1228
32764
-11640
-32768
-5164
32764
32764
-17832
-32768
-6752
32764
-10160
-32768
19528
32764
9784
-32768
-32492
30620
29184
-32768
-27336
28532
32764
2588
-32768
-24636
32764
23036
-32768
-14596
32764
28272
-13888
-32768
19128
26984
-32768
-31800
20248
32764
14856
-32768
-32768
21640
32764
-15484
-30904
20028
32764
-9772
-32768
-2612
32764
776
-32768
-13672
32764
32764
-11720
-32768
-12908
32764
4524
-32768
4312
32764
19252
-32768
-24800
32764
6740
-32768
-18356
32764
32764
-844
-32768
-29132
31788
6988
-32768
11216
32764
22444
-27040
-32768
16984
32764
-21932
-32768
8836
32764
23612
-29152
-32768
6956
32584
-19584
-10696
25644
32764
-11628
-32768
-6124
32764
2188
-32768
-5608
32764
32764
-21128
-32768
-1668
32764
-7192
-32768
11680
32764
19484
-32768
-31872
32764
22936
-32768
-30200
26216
32764
4664
-32768
-25744
32764
28680
-32768
-24780
25344
30080
-18036
-28668
31148
18112
-32768
-30240
23400
32764
10100
-32768
-32768
22992
32692
-20940
-23820
18552
28348
-2460
-32768
1444
32764
-9188
-32768
-9520
32764
32764
-17584
-32768
-7216
32764
6552
-32768
2016
32764
8168
-32768
-16520
32764
7488
-32768
-15232
32764
32764
-10240
-32768
-16484
32764
5608
-32768
4656
32764
21252
-27868
-32768
15624
32764
-21112
-32768
10124
32764
20500
-32768
-32768
17016
32764
-23104
-27468
21964
32764
-8228
-32768
15584
32764
-26348
-32768
10376
32764
20868
-31908
-32768
13772
31984
-22116
-20244
22928
32764
1336
-32768
-19888
32764
13304
-32768
-18524
32764
32764
-7376
-32768
-21996
32764
18508
-32768
-8600
29892
26364
-21948
-28988
30344
11876
-32768
-22760
30908
32764
2940
-32768
-27640
31856
16656
-32096
-10964
30444
31412
-16608
-32768
6656
32764
-13896
-32768
1552
32764
32580
-21892
-32768
1700
32764
-10592
-32768
12440
32764
8312
-32768
2700
31008
-22640
-32768
4036
32764
28860
-25160
-32768
-5448
32764
-5320
-28228
16308
32764
8476
-32768
-32768
27188
30072
-32768
-29584
25296
32764
5300
-32768
-32768
23620
26216
-26768
-12128
32624
27124
-19488
-32768
15172
22744
-32768
-28404
25768
32764
14700
-32768
-32768
6232
27192
-9828
-8376
28812
24132
-15692
-32768
-8700
32764
11744
-32768
-17376
32764
32764
-9352
-32768
-20736
32284
15772
-30596
-684
32764
13572
-30884
-13320
32764
-4900
-32768
-13872
32764
32764
-3004
-32768
-25632
17576
8400
-19088
9180
32764
16176
-29040
-32768
13104
32764
-16292
-32768
7988
32764
28808
-25360
-32768
-768
31200
3072
-18084
7584
15928
-3324
-22264
14852
28128
-25460
-32768
20
32764
32764
-18276
-32768
-6804
24168
-176
-14040
10120
22660
7692
-25984
-20332
26924
18120
-32768
-27580
23264
32764
10216
-32768
-32768
13032
32764
-15112
-14788
10232
22060
-6736
-10944
19480
-3252
-32768
-26500
25672
32764
20752
-27752
-32768
-11344
11680
-3152
984
21412
23884
3084
-23972
-15192
8880
-6300
-30516
2632
32764
32764
-10664
-32768
-29508
4920
25468
904
-1764
12532
11076
-14360
-6452
14564
-6192
-32768
-14292
32764
32764
15152
-32768
-32596
2836
9864
-8168
28
20404
22528
-2172
-22132
-5744
11128
-14044
-32768
10672
32764
32764
-6660
-32768
-26196
3560
9312
-364
13272
21100
4404
-14768
-3076
-2972
-10068
-29572
-4408
32764
32764
12900
-32768
-31596
-12460
10216
5052
6848
19636
7332
-4136
-16908
940
5356
-16296
-21408
5256
32764
28056
-6272
-32768
-21180
10368
10556
884
9868
8156
-4084
-8880
-1276
-992
-5972
-8992
-3672
19520
25520
9516
-27920
-25788
-412
7984
7904
3032
6788
5376
-2872
-2888
-4536
-7496
-5780
-2228
6844
3832
17928
16168
-17284
-28028
-10408
10608
12696
9612
4324
-1920
-3792
-3388
-17984
-1256
14588
2720
-2168
4436
11560
-308
-17028
-10980
1172
2728
5000
11968
4632
-2852
-5480
-4204
-4272
-9252
2572
8904
6972
4932
4248
-5252
-12608
-12368
6232
9180
4324
3564
-5544
460
2584
-5304
-4228
1456
3568
-1252
-1040
9228
-4472
-3268
-1896
-1904
7384
1608
-968
-10628
1560
8724
5316
-5876
-8352
-40
1200
3636
5844
9456
-7348
-13356
-5448
4692
3628
3768
7324
1544
2332
-10060
-14748
1772
7568
3732
4348
5828
-1652
-9768
-7244
2056
7400
4888
-964
-4544
-4204
572
5536
1580
-6984
-3176
8596
1184
-1016
4100
196
-8856
-8936
-912
7840
11552
2524
-596
-9136
4200
-2616
-14068
-2020
4876
14888
6428
3284
-6380
-12824
-6928
-1240
9384
8568
6324
-7388
-14876
668
14268
1668
-3632
1000
-2764
-5276
-6196
7732
5888
584
488
2996
-2384
-6544
-10248
-2324
19296
7520
-7748
-7656
-1504
5200
-1800
-264
5224
380
-4772
-3620
-1184
5848
3220
48
-5692
-4488
11268
-8
-6412
-6080
3184
8328
7240
-3848
-13912
-3948
-1828
10068
16232
3184
-9056
-17504
-8620
12148
8160
2204
-2004
1732
1884
-6920
-2672
-364
3276
-940
2240
472
800
-1964
-4500
-2004
10112
15260
-10460
-19700
-8752
10460
16288
748
880
44
-7832
-5664
-600
1532
3300
-2904
-2344
10700
11436
-6796
-14096
-8076
4552
8864
4584
1912
-2280
-9492
-4092
10480
8556
-8228
-11124
20
6144
14232
4516
-9072
-19720
-6428
12808
10920
5692
4724
-8988
-11036
-2356
960
4632
1508
-1864
2660
7460
3296
-9248
-10608
-416
8924
9544
-7612
-5668
-2748
4108
6472
2960
288
-6332
-4584
-1888
1416
5092
3288
-7860
-2860
8452
10728
-4756
-10320
1540
-4856
-2040
7412
208
2016
-1212
-2608
10824
6696
-12304
-18784
-6152
13968
20136
204
-3740
-1380
-8360
-9956
-2452
8628
8896
2784
-3712
-1412
-1472
2840
-28
-12560
-1876
11384
9072
-2436
-3008
-2780
-9720
3408
6272
-1796
1076
-1080
3388
2012
3828
-5228
-14152
2104
6108
6032
-176
1296
-2068
-5212
1564
2920
3924
-7040
-4992
1400
-60
10612
5932
-7724
-11628
-520
17400
2928
-15232
-9148
1460
10352
8156
4224
-4840
-8164
-4092
-5808
9116
13108
-8072
-13140
6340
9504
4544
-9232
-5784
1788
-1820
3152
4044
3480
928
-11172
-7076
10244
9764
2784
-14816
-10948
9908
14636
-1272
-8720
-5284
-1128
3008
3444
5872
-656
-4932
-3624
712
6900
-1168
-10276
-3704
8544
10604
-2160
-1836
456
-6084
-5108
796
4484
-1484
-1908
1788
4276
11324
3600
-9812
-20648
-8848
16832
9520
2888
828
-3260
484
-5784
-4268
3696
-420
-3732
416
6876
12664
-2628
-14612
-8936
5652
12028
-668
-6480
-2380
2820
1124
5128
-3124
-5828
1244
-484
4300
7296
1928
-12484
-14448
7196
10888
5936
-624
-2084
-2448
-9164
-1208
3852
9320
-652
-8276
6480
4972
-3608
-13128
-8132
12060
17336
4916
-12532
-6876
-4008
-8044
4596
12784
6984
-1056
-3732
-8984
-2344
10200
-3884
-10216
328
11424
8996
-2800
-5912
-4804
-3416
5632
5296
-8924
-8152
6380
12508
8892
-1292
-12812
-17164
-488
10684
10808
6876
-6700
-4028
-6624
-2256
8748
1112
-2420
-888
-396
3064
3668
-1580
-9796
-7840
10740
15308
-2448
-10628
-5592
2636
4980
-1004
-1792
-296
2692
-556
-2804
8348
4796
-10248
-12576
1668
9336
9400
84
-7944
-4616
-1132
5192
396
4712
-2236
-6608
1008
4352
3648
-5264
-8848
1388
13720
4784
-6384
-6448
-3344
-2260
1212
9476
5032
-3988
-4832
-5128
5232
5716
-2584
-9552
556
9356
3116
-4696
-6920
1844
3904
4708
3156
-5036
-12048
-2212
6576
7632
8348
308
-9764
-15992
1948
14724
4692
-3332
-6140
772
2056
-3944
5556
-660
-1860
-2232
-1976
8676
5500
-9700
-13984
3832
15548
14396
-13772
-15124
-2732
4024
9824
3020
1280
-3028
-5200
-2428
3152
6208
76
-10904
-5324
9752
6044
-1660
-3392
3916
824
-7216
3068
-4268
-2376
-920
6564
14332
-336
-8272
-17712
-4108
16156
8184
-3492
-6088
-8
6812
-2136
-1320
-2852
-4336
120
1580
7492
7784
2632
-14992
-14108
-1040
12900
13760
376
-4372
-5596
-2892
-1824
148
-4144
4884
4196
4184
6256
-3604
-9332
-12056
-1360
14508
10608
-3552
-1884
-4248
-7160
1080
2928
4404
1964
-3096
-104
-4032
6656
-696
-9676
5592
6468
-988
-8924
-4900
11924
6572
-3320
-5936
-3448
-1716
1676
5912
1152
6556
-7100
-11820
640
6356
8876
880
-5000
-1732
-5928
-3732
5156
6080
3668
-132
3292
-6672
-10360
-3656
-3352
11492
13672
7972
-4632
-17508
-5480
-780
1364
9864
5212
-3864
-860
-1252
3768
1280
-3612
-8908
-5772
6048
9464
7064
-1548
-6688
204
-748
-8668
176
2340
8136
3068
-1708
-1756
-28
-1620
-10040
1604
8248
6980
-4380
-5672
2476
-2936
672
5032
436
-1676
-1652
-5936
1612
8160
-308
-2756
140
-764
-2768
-5856
4128
13256
312
-5984
-4660
-2184
-996
-3832
3960
8540
6712
-376
-11708
-10236
6480
8220
-784
-5472
660
4848
-384
2480
-4288
-3396
4020
-468
-5996
2404
4832
1936
-2052
2112
-3320
-4836
1272
1460
6444
-3652
-2028
412
540
-984
-1632
4108
4728
3124
-13596
-9484
3700
12324
6364
-3776
2640
-536
-10188
-10188
364
10936
8416
2864
652
-6432
-1516
-9608
-7700
5376
12536
8824
-2544
-1980
-3636
-9940
-4560
6872
2772
5512
392
-1528
-704
-548
1564
-5480
-2912
-708
2496
3172
3176
6348
300
-8788
-5824
-2772
220
6892
2832
2964
3728
-4308
-10640
-4400
8428
7008
-1004
-1348
872
-5516
-5112
2288
7252
4512
-2420
-6080
-1464
4096
644
-4544
-4448
6784
5636
-1572
-1636
2472
68
-10472
-4572
4768
6860
7004
-332
-3952
-796
-4720
-9364
-1496
11184
10448
1768
-4800
-4508
-2892
-9168
2760
7780
3496
1432
-1424
-1016
-292
-268
-8068
-4764
3716
12640
7452
-5612
-4700
-4260
-9696
1332
7900
10100
2976
-8328
-5452
-952
5804
456
-11784
276
12332
5116
-152
-6044
-2072
-4056
-2180
692
4000
3472
1820
1344
-3244
3264
-5068
-9492
-2008
9636
11536
-4796
-5348
2760
-1920
-6308
4768
3420
-3044
-484
384
976
2156
4048
-7892
-9712
5436
11656
1904
-3212
-4592
-3608
-1252
612
4068
3760
1668
-4632
-3912
1500
1812
996
-3224
-700
5660
6120
-6560
-7284
-348
-4888
8968
9324
3316
-4224
-11608
-8176
684
17700
7156
-10140
-11772
5856
7140
-2108
-4008
1376
7528
-6636
-4968
-2296
4368
4684
52
3424
-1940
3544
-3216
-19080
592
9436
11036
5612
-1556
-4248
-8872
-4312
1924
440
3236
3272
676
2380
2356
-3476
-9120
-1096
4888
5240
-3500
1268
140
1488
-1592
-2796
-1952
-3372
8372
1244
3108
1672
-6532
-5592
-6852
7116
7920
5468
-5064
-6988
3084
-320
88
-332
-2536
-2692
4700
8628
2964
-3552
-14696
-8044
8764
10936
4044
-1920
-1920
-1812
-2412
-6416
728
-936
3560
5984
5632
2484
-4204
-8688
-11196
-1580
9196
13116
7464
-4108
-11292
-3728
-6952
1072
8816
3056
6252
-920
-2192
-3932
-6676
-5832
1368
12940
9820
-3208
-9708
-2032
-4780
-1284
3564
8548
7924
-4860
-9680
-3820
1184
3036
4916
116
-1496
-428
2388
-2036
-8136
6656
1852
-1364
-1504
804
4448
-5788
-172
628
6392
1436
-8320
-7832
2876
12236
2304
-5032
-6456
2564
2828
-2968
2484
-2404
-2660
2600
3176
-612
1888
-48
-4004
-3664
2688
7608
-2072
-7324
-4600
5396
5500
1556
2576
-2468
-8052
-4752
4980
4016
5640
-2768
-5224
-476
3028
680
-3800
1748
2012
-1096
504
2072
-6016
456
476
2144
3188
20
5248
-6916
-14832
3248
11092
9204
-2148
-6012
-5428
-2276
3100
2528
-1656
-1504
5376
3520
4160
-4096
-10956
-7640
660
11332
6560
3036
3228
-5200
-12220
-6936
4664
6020
1652
1344
4340
-404
5392
-7784
-11416
-6448
3896
16328
5724
2928
-8896
-9388
-9732
-1324
15416
9872
4668
-6340
-10216
-5728
828
-768
4016
7924
5996
-4236
-7896
4784
-3280
-4504
-4884
1612
10408
5928
4952
-8924
-8260
-2572
2184
108
2688
8684
-3868
-3580
-4128
8260
4112
-9356
-8080
1152
10164
5512
-832
-6668
612
2156
-8708
-3000
6204
11808
-1448
-5564
-5976
-1760
4980
1796
4764
-8152
1028
1572
1364
-1564
3244
-3144
-6904
4496
3644
9068
-7800
-8408
912
-204
6200
4872
-1448
-4576
-228
-980
-1380
2448
1356
636
-8308
3320
8308
2116
-4708
-4920
-48
-88
-1112
3164
3384
-3060
408
-1744
4564
6136
-3528
-11764
-7484
5492
7420
4892
4132
2076
-6972
-8352
-528
4476
-3264
-3140
2000
12072
7672
-5520
-10200
-8856
444
6468
9392
-4156
240
3460
-9032
-3728
2388
6616
4532
-128
-4716
-4100
3276
-4048
-6736
-752
13272
11380
-4812
-6680
-4196
-2140
-3096
2752
2688
1648
2696
1140
684
-2180
216
-6400
-7008
5920
6148
6156
-6688
-1852
5280
-3892
-2040
2104
-2732
-4296
7012
2780
1456
1012
-6028
-9656
-152
13172
5808
-544
-8216
-4948
4104
-3756
392
5344
-1528
328
8292
-3504
-2156
-2936
-12196
4460
2880
11852
3784
-5160
-3616
-5860
-1576
-260
8112
860
-3364
1796
1040
-96
-1676
-8292
3928
1064
7416
3436
-12448
3060
5136
-5684
-1832
692
2224
4032
-6580
8868
-2008
-3724
2036
-12924
996
9076
10428
3516
-14220
-4204
2812
-1204
6040
-2744
-2932
3784
-1236
4644
768
-2364
-1948
-14472
7788
10752
7884
-4360
-15276
472
-148
7812
7068
-1508
-9524
308
496
2936
484
1584
-5628
-6152
9776
4028
2888
-6216
-1552
1816
-5816
-6964
5628
8932
4704
344
-7492
-7628
1740
12628
-6404
-8756
-260
1880
9236
3676
5792
-3508
-13656
-7356
-72
4520
9024
7308
-5364
-356
1912
-32
-8944
-14200
6132
14448
9256
-180
-8572
-7780
-2204
40
7772
-1236
-2536
5832
2060
1596
-3524
-9708
-8284
7532
11252
5300
-3328
-4080
-784
-164
-8288
-876
4180
3032
8640
-3160
-2712
-436
308
-7396
-5956
8924
8520
3512
-3296
-7324
-4232
-4172
2140
9952
8548
780
-11396
-6520
-3192
2036
3068
5396
10336
-752
-7216
-8768
-956
204
-664
5484
5272
-584
140
3188
-2652
-11420
-1156
7248
-2460
-2308
8752
10048
-4516
-9464
-6704
2296
4100
-1980
1004
5036
2340
-656
-2264
-1248
-5472
-1696
1860
1696
10164
-6112
848
2840
-7948
-1584
188
7476
-1388
-4932
3028
-64
4
4372
-1824
-3632
-4960
2052
5516
-652
2872
136
1776
-6040
-10012
6344
3964
-3928
3920
7176
5636
-9356
-9028
-2992
3140
7332
-4072
276
9784
-1600
-6380
740
-4168
-2212
7480
696
-6920
1448
5652
4032
-732
-10968
-616
8444
-3728
-628
2460
2332
-2444
-1020
-3060
-1280
4600
940
7024
-3308
-7128
4100
-5864
-9996
13648
6792
-1316
4556
-10268
748
-4952
-6584
13148
516
2084
3560
-10228
-2012
-496
5660
5880
-9140
4372
5764
-8056
-7668
-2080
7564
9740
-2684
1992
-3052
-5324
1268
-5520
1104
2524
7944
-188
-7996
460
5512
4980
-8116
-6376
3872
104
-5252
6208
10132
1216
-2900
-8240
-11184
1672
15504
6224
-10936
-10116
5780
9728
1660
-4748
-848
-2436
-2736
-4616
4884
4004
2972
4264
-4380
-1972
-8464
3596
5116
-2208
2652
-3356
-1968
-2344
5992
9488
-3000
-10284
-5220
5608
4064
5740
-3192
-8092
-2980
5288
3548
2068
340
-3792
-2468
396
9936
-4664
-13836
-1924
9340
11672
5068
-10416
-4008
-2624
-3536
5200
1728
-2888
-3660
10536
7248
-3500
-11008
-1796
1376
-1036
68
7432
5136
-3012
-4040
-7168
1676
1240
5264
5212
-4892
-4932
892
164
924
-1116
1924
4540
-3620
-4984
3280
3368
-2480
1084
-112
-508
-6968
-884
11232
-376
-3512
-2076
5112
4068
-7200
-5288
1312
-2088
-560
10844
6248
-3344
-7824
-2812
-1944
-1440
4424
6292
3824
-6840
-7924
6672
4280
-920
-1736
-1328
-2036
-8448
1976
14576
5076
-2864
-8728
-7036
0
5468
6236
-220
-5532
4036
288
-8168
1320
1184
6560
-2192
1948
2832
-8328
-3584
-2852
7048
4212
-964
2956
520
-484
-9320
-4988
6784
972
2700
580
3336
2836
-5784
-7928
-3616
2920
5796
10732
420
-8268
-6336
88
-3092
224
16148
1344
-11020
-3456
1768
-716
2972
-1444
-4548
14120
808
-8676
2744
-12252
-732
9972
4460
-356
-372
-1388
-7492
-320
196
11496
4724
-8612
-6012
-1712
-4388
2428
11824
4656
3556
-9548
-6164
-3140
-4668
4876
6056
4568
3488
2336
-13184
-5296
-2096
8328
10696
-4620
2452
-10380
-7116
10288
-1236
4200
220
-1764
3460
-7812
3456
-72
-4676
136
2928
5272
5040
-2464
-10332
-5344
4520
8708
1056
-3112
-6328
740
3408
1640
4748
-3892
-3596
-1936
4360
-1272
-3968
1628
1680
4096
1260
1428
-1564
-8032
-9100
1796
11184
13172
2804
-10580
-17184
-1852
2120
11284
14708
-2716
-5032
-14724
-5840
5240
10572
13700
-8548
-14160
-4272
3652
10484
7716
-2020
-7148
-4732
-6152
-1008
12524
6304
320
-10448
-10512
5380
9888
10612
-6336
-7876
-10308
-1524
11288
13716
-216
-20348
-7356
11200
14172
-1916
-7184
-2388
-1040
2280
-5052
-1808
8812
4024
1008
-6640
-4868
588
4104
2004
-1900
1108
-3020
964
-1544
3936
-3812
604
6724
228
1212
-11636
-8320
6112
8676
4124
3708
-6380
-800
-6588
-3308
7056
-1444
2152
4040
1088
-3136
-2340
-3512
-2072
2184
3476
7840
-1872
-4332
-1052
-7096
-644
5872
9948
-1128
-13092
-6372
12384
10732
-4264
-3056
-8128
-1112
-1096
860
7796
3100
-1028
-1444
1064
-2796
-1600
-7952
1124
3804
7868
10092
-9872
-4556
-6236
-728
2144
2396
7588
2116
-2392
-2732
904
-6100
-10316
-596
16152
14980
-7116
-9076
-1796
-3268
-8080
9968
12640
-6380
-7456
-4412
3344
9100
4916
-5036
-6996
3080
-2524
-4336
4564
1108
1580
3968
-4980
-5336
6176
4732
-2396
368
-6856
-3096
9332
-5268
-13840
13616
19304
-840
-6844
-15116
-5584
-1300
2800
13932
14964
-9300
-16156
92
-1188
10864
5104
-5916
-584
-6724
504
5780
-36
184
-2492
-3868
6624
5220
-5032
-2016
-916
-5588
2916
5992
-1204
4580
-2036
-4204
3584
-384
-13836
-10932
16916
29756
-1256
-14812
-14092
-16684
4368
8944
18964
11360
-7328
-15332
-13108
7120
9252
468
648
-5012
-2844
5956
2352
-240
-2004
-3196
-232
672
-1708
4336
3512
748
-4104
-7496
328
940
4416
5972
4988
-1676
-10376
-7376
772
7952
-5692
-3968
14208
17772
-1620
-25916
-7532
-552
6708
3636
7360
12604
-8864
-8912
-11852
2084
9460
8492
5420
-7552
-6456
-4716
-3348
6984
3988
-848
-328
3040
2420
-1048
-3520
-8088
776
4244
1320
404
-1944
4056
4056
-308
-944
-6732
-6304
432
6120
5924
388
-3380
-4272
-1368
1144
5236
6652
4236
-2336
-16520
-25256
500
30384
32764
2356
-29108
-18816
-17780
-4740
21764
31764
10840
-12524
-21276
-24664
-4676
26448
23700
12504
-18700
-20020
-9236
-3840
12736
9920
11704
-2944
-5128
-5352
-2592
-6164
2540
1344
856
8412
1172
388
-3168
-5724
-4924
3232
4368
1020
-5348
3768
5224
424
1064
-6848
-5656
-3944
572
7548
14160
4200
-7700
-17040
-7376
6376
6364
7760
1872
2000
-4036
-5924
-3004
-1620
-2648
3492
12176
1168
88
-10424
-6120
1676
480
9580
1000
5844
7456
-23476
-32768
13352
32764
30276
-20904
-31444
-8276
-22408
4756
30268
32764
10560
-26268
-32768
-17192
9612
16544
17360
8800
-4680
-13576
-7460
-4892
-840
11216
9604
-2764
-1508
-6060
-10508
6060
9316
656
808
-2772
-5948
396
2432
-984
1608
3280
-4528
4964
-5460
-7876
13592
-1144
1952
5800
-17228
-4440
4552
4448
12528
-1836
-7928
-4756
472
-180
6568
2948
-7092
-700
-4648
2872
8692
112
1436
-3416
-8872
1020
216
5132
6680
-7312
656
-4616
-1800
7724
-1180
8764
-2224
-7204
-4548
-6124
2548
3280
8852
6328
3400
-7356
-10232
-7464
1276
6124
2772
2492
5776
6832
-7720
-8500
-13192
1992
11908
7976
10364
-9424
-9672
-5364
-4576
1580
14408
9876
-2112
-5540
-13056
-7232
6116
11992
600
404
1840
-7896
-6672
4492
6220
-680
4152
-6556
-5744
2396
-1948
4724
5448
2796
1548
-8148
-9984
3540
1196
7024
1100
-3744
144
-5120
3872
6844
6136
-7360
-14900
-2748
9332
5448
6920
-3016
-6236
400
-492
928
-2472
848
-3760
5248
4988
176
-724
-9560
-3188
4628
6848
4812
-4860
-2232
-5068
-3380
7700
-756
-1348
5824
4064
-5272
-2544
-1448
-6920
980
2064
8188
6664
360
-6672
-8536
180
-776
2396
832
4352
5284
-1984
-4032
-4028
-1516
2540
-1500
2724
10788
-2012
-11556
-7548
4476
5048
4424
4320
-1276
-964
-7304
-5920
292
6504
3800
1720
2292
-6184
-2700
-1596
1996
3976
3320
-4420
-7288
748
4268
5152
2088
3768
-9744
-7316
-304
2348
9248
2140
-3588
-3948
2344
-1056
512
-2236
-1916
4744
2928
-1452
-5508
540
1048
2848
2152
2148
-3168
-9040
1280
-148
3000
10408
3784
-10280
-6752
736
-936
2900
3324
3136
1300
4124
-8024
-10296
2824
-1236
4376
8924
4700
-4576
-6972
-2920
-5140
8092
7860
-7128
-756
536
-5528
6152
8420
-3788
-3028
-9004
-4940
10112
7432
2872
-1760
-5748
-6700
1084
372
3508
5852
-3600
1556
-972
-4392
-1528
2668
356
3696
2000
-4048
-384
-3312
-3820
2608
9132
4136
-5444
-7700
3148
-636
-3508
2372
-3076
12388
7348
-8908
-5816
-13356
2744
11560
3340
7460
-2384
-8116
-6704
-3784
6984
5152
3200
1272
-10104
-4480
5828
7932
2392
-6028
-8124
-2464
5856
4780
2264
2132
-4100
-7140
-4412
4360
8020
4888
-1088
-6572
-5512
-3800
1768
6664
7120
3912
-4140
-9632
-4388
-2988
2916
9960
10756
-2828
-9628
-4772
-6632
4476
6828
2180
-1452
776
5360
-1676
-9476
-4904
-1284
4948
7464
6604
4736
-11404
-9712
-3300
3996
7632
2928
1640
-3620
-6096
1680
3112
1676
1064
-436
-7472
-9448
2328
17612
13664
-4500
-15352
-18020
368
12792
14692
7152
-10052
-10464
-7120
-748
10528
5040
4024
96
-8616
-3192
-4416
-44
10060
2636
-296
-1388
-1628
-340
-6360
-4008
1816
11268
9136
-4004
-9316
-7364
-796
4528
6236
2464
168
-4944
-6488
5436
5624
1328
-5364
-8552
3432
500
5396
9720
-3836
-9804
-7252
3256
5988
7860
1428
-7040
-4344
-3936
2160
428
4888
5628
-1616
-428
-4468
-5420
-788
4772
2352
892
-980
-972
4268
-684
-5236
-4640
5464
3812
-6320
1668
7380
64
-6544
-7004
2544
8788
3900
-2332
-5732
-4380
-1356
3876
2172
1344
5016
3192
-8672
-4984
-1572
316
9772
-4272
-1296
948
4988
6048
-11848
-4252
2164
-1008
3456
3816
-4748
4000
6224
-5272
-3572
-6480
804
2080
6656
3860
-1928
1852
-9136
-6044
1152
8712
3976
4236
-5052
-12196
1244
5704
740
3628
3208
-6532
3620
-8272
-4232
8544
2868
3072
-1472
-8676
-888
4640
2264
5408
-3280
-6604
-868
-2156
2488
9928
120
-5680
-72
-8900
3476
9456
1484
552
-14192
-3672
8676
3428
6656
-464
-6296
-904
-3948
-8
1908
-2920
4344
168
1112
11404
-2216
-11484
-9576
584
8104
2616
7300
476
-5904
-6152
-1860
6136
880
-1360
2012
1992
-3952
-6004
-436
5776
8840
128
-5376
-4212
-2372
-588
-1452
-332
8348
8524
-1724
-8148
-7192
1396
3692
244
652
3356
-2228
452
820
-4364
2880
976
156
-5816
-5356
7512
11100
2144
-7032
-9752
-3924
664
3680
13012
8040
-6204
-13672
-10244
-304
12796
11980
4188
-7640
-13336
-8264
3764
19112
8644
-8240
-16060
-6712
3240
11776
12236
856
-10444
-12928
-752
7364
6084
1724
-4256
-4912
5380
424
-2388
-2880
828
12980
1608
-12100
-13548
-76
8348
6920
11216
6944
-9512
-17828
-10628
3044
16420
6884
1568
-6840
-3780
684
-576
5664
-3252
-10064
380
7576
7036
2876
-8724
-5856
3572
2584
-1772
2808
-48
-812
-28
-3192
-6424
848
17088
4872
-8660
-9524
-6756
1016
6820
11476
6052
-9492
-13312
-5344
5384
12124
6652
1220
-9112
-8432
-396
748
2740
48
1540
2068
5508
5520
-4092
-11048
-6976
-2508
4084
10064
7424
516
-4232
-8172
-2712
7416
1280
-5200
-7032
5332
5588
-2724
6092
3880
-2376
-6372
-7380
-956
-124
6160
3428
-804
13800
2164
-15432
-19628
-5080
18212
21188
3820
-17160
-6932
880
-4888
-2732
13588
7572
-4856
740
-5008
-10024
348
7540
724
7264
-2408
-3316
5196
-10780
-7536
8880
9524
-1080
-460
-6908
-4324
7508
-2724
-6352
7088
9152
5828
-4172
-21840
-692
5704
-1556
12136
2952
3140
5456
-9612
-12200
-8336
-3916
13732
10892
496
9604
-1088
-13564
-10716
-12000
6844
18592
9712
4476
-9872
-13540
-12888
-5480
25672
23616
-8456
-18180
-13564
6224
3068
-3740
13396
13808
-1504
-20840
-11896
8624
1044
3168
12080
5916
-8304
-13792
-5800
4240
12712
5152
1932
-4268
-14936
-10852
3308
23628
17488
-13728
-18356
-3784
1760
-1896
7252
23112
4076
-24356
-18416
-232
12360
10308
6108
9804
-7264
-18768
-10244
1516
12960
11816
6512
-11836
-18696
1840
18896
12588
-13752
-13884
-2432
1632
7260
11592
8724
-11976
-14064
-4548
3120
10008
10376
928
-12792
-9024
1228
9464
8216
4064
-13024
-21600
7684
27236
8996
-15148
-21668
-7860
16252
15960
8412
-2920
-14136
-10916
-12044
2776
20224
18912
3192
-15780
-20568
-5620
11704
14696
2996
-15888
-5016
16052
12956
-12228
-22960
-4236
6208
21672
20140
-3172
-17708
-23892
-16128
10176
26248
23196
1500
-21544
-16300
-7752
12076
15240
-7308
-15968
232
26044
12808
-12960
-22636
-12684
8528
16036
12980
3184
-9472
-16344
-12924
7004
19204
12820
-4000
-16080
-9168
5624
10312
-3132
-17464
4096
27172
12232
-20084
-26832
1624
13716
7552
2908
3572
1508
-15812
-15012
6160
18136
10132
-8904
-11816
2240
8100
1496
-12880
-13528
8932
28036
10836
-19260
-21260
-8124
6828
13680
13312
6476
-5748
-17536
-18560
-3092
27004
21464
-10272
-14044
-3444
7656
-1420
-12552
-4608
14836
21964
-4468
-28592
-1004
16284
-4544
-3216
8880
7276
-4460
-16892
-12236
17748
16516
-680
-1844
-5116
-10912
-10376
-2212
9104
32256
10924
-32528
-23348
7864
14792
2588
-1560
7732
5228
-17792
-18404
11864
15948
4212
2656
-6396
-12000
-15176
-2236
32764
23120
-22136
-25360
-1940
14144
1580
-4604
11804
3956
-12396
-6084
4012
7596
-1732
388
4628
-21292
-11160
22548
28612
-296
-32768
-5392
11896
-4932
612
7660
13444
-6248
-20440
3004
9048
4512
6776
-2288
-18112
-19636
14244
32764
8120
-30660
-21620
7828
8500
772
8312
13944
-7536
-27000
-4100
13556
13916
10344
-940
-23128
-26616
9084
32764
17316
-21152
-15812
2108
1332
-4884
328
17260
-1720
-16600
1056
12976
8104
2656
-13376
-32180
-2888
32764
28420
-13716
-16552
-2952
-5588
-9868
236
22476
11072
-9480
-6468
-2936
-2860
8584
-2768
-12908
-2676
18656
21840
-14664
-27828
7860
15760
-6332
-13604
5504
23560
-6112
-18360
3608
8992
5152
1000
-19828
-23140
11804
32764
18232
-17212
-17404
-7092
-12804
-5956
16692
28652
4632
-15520
-13656
-2272
9952
-6440
-18724
4800
32180
16696
-16904
-20872
-1584
-1260
-11624
11008
24260
9620
-12256
-18524
-8892
8528
16400
-2048
-18548
-5844
24376
14360
-13500
-17160
3992
6036
-11920
2652
20920
5076
-19464
-17832
11472
16788
7972
3100
-27192
-27428
11420
32764
16508
-11740
-7640
-5064
-16724
-10704
14472
25640
1716
-14704
-5496
3548
4904
4192
-12076
-22228
3440
29736
23272
-14328
-21676
752
2972
-13780
-6068
24400
12964
-8260
-8804
2352
4112
1752
-3872
-20180
-16604
14676
32764
12900
-12656
-10208
-12728
-24756
-6808
27672
25156
4708
-12088
-13508
-4516
5236
4240
-4732
-13624
-1616
32568
13172
-22752
-12776
2956
-1908
-9132
6032
23860
6772
-17684
-9384
-3340
604
15376
7100
-17868
-19376
8852
25612
12620
-6776
-8228
-16408
-20356
2292
22932
22648
-896
-8064
-10700
-8568
5652
4156
-10916
-12828
16788
25248
1816
-14308
-6792
-3924
-11072
-8036
16948
24612
-4756
-10164
-8148
684
10844
-1824
-24508
-13632
24536
32764
16692
-24180
-32768
-19252
-4508
17128
30500
25908
-2280
-31604
-23632
7012
10700
-6520
-9172
11248
29760
4280
-14844
-8096
-15676
-16008
1968
26740
20976
-384
-9216
-20512
-9228
8792
17112
4644
-24792
-8612
20052
14164
3940
-7272
-13300
-12268
-12096
16316
28500
6468
-11268
-18596
-15300
7108
23152
7436
-18008
-19836
6760
24284
15216
-6108
-14744
-21812
-17804
10872
32592
22972
-4368
-20748
-21544
-596
17852
3188
-18564
-7516
16868
25864
9220
-13524
-20184
-22368
-8112
19248
24232
17484
-5636
-28372
-12472
11244
20772
-752
-24748
-12276
14360
23956
14188
-7204
-22244
-25672
-8412
23876
32032
14712
-14032
-28660
-18740
7292
28740
1668
-21364
-7648
16544
27896
2316
-19188
-22288
-20700
-2848
23372
32764
19216
-14344
-31204
-19464
7908
20300
-3140
-18360
-2580
26644
29476
-2700
-27508
-27948
-18236
7280
32764
32172
10336
-26236
-32768
-10956
16588
23960
-276
-17856
-3064
22720
16164
-12376
-18304
-18920
-9412
9612
28940
28196
2232
-26644
-32768
-5012
22176
17792
-8532
-17632
12972
29736
3768
-20912
-21368
-18424
-1124
17956
28620
23880
-8504
-31428
-25244
4920
22268
5612
-15808
-4020
21556
21280
-6180
-24548
-17996
-8816
3976
19400
32060
10032
-24748
-26588
-10564
16284
14808
-9508
-9656
7388
19340
15796
-14560
-23720
-13544
-7024
12508
23268
23004
-548
-26348
-22724
1436
19632
8432
-14180
-18332
11684
32216
12792
-18140
-23112
-16000
-8192
14036
27768
22164
-6260
-28000
-21352
8744
22556
1532
-17684
-16536
16632
32284
7136
-19460
-20856
-15320
-8248
16136
29352
23120
-7792
-32096
-19020
6732
17940
1068
-15532
-4236
23620
23628
-3724
-21224
-24900
-12988
4364
20836
31292
15836
-21576
-29820
-15440
8064
29552
-1204
-22532
-5156
21868
26236
-2528
-24888
-23940
-8520
6284
16224
30776
15148
-22716
-28408
-11980
14636
18004
-8028
-16628
2764
27600
21960
-17320
-29028
-12288
-2400
10064
19144
23108
156
-26616
-20460
2140
25340
5140
-19552
-16080
6088
32764
19316
-18700
-30668
-18440
3744
15076
19512
17096
1000
-18168
-24736
-3884
20464
3836
-17052
-8676
18920
32764
4108
-32000
-29728
-11120
10628
20664
21032
10084
-16596
-23252
-3936
12816
16972
-10592
-28920
-3888
32012
32656
-432
-26564
-32660
-10748
12364
19264
22012
10328
-15612
-23388
-6680
12176
15632
-9828
-26324
-220
31588
32508
-4688
-32768
-31636
-4516
19132
26072
22392
-1320
-24200
-28452
2012
22476
8860
-10116
-20872
760
32764
27068
-16920
-32768
-29992
5560
32420
25660
11192
-11756
-32768
-18872
15324
24756
12188
-22812
-29628
9088
32764
24628
-24020
-32768
-22112
11408
24904
19324
16392
-8124
-32400
-23280
11344
27088
12580
-21664
-26416
11592
32764
16092
-27828
-32768
-15380
11684
23152
24752
7360
-13848
-24372
-16840
15052
22852
-3652
-27024
-9856
26212
32764
5420
-32768
-32768
-10304
13180
23784
26920
9120
-18932
-29376
-11988
18424
20828
-8136
-26084
-6356
29768
31468
-1744
-23476
-29572
-13304
9220
20240
24096
9244
-15688
-26132
-5396
17036
16376
-15016
-26844
1004
32764
32764
-10336
-32768
-28816
-984
18912
21828
24356
-3232
-25896
-19356
-128
17972
9120
-17820
-17748
16760
32764
12524
-26352
-32768
-19144
12076
25300
25484
12704
-13320
-31456
-14416
12116
18856
7784
-21716
-20348
16740
32764
14720
-29444
-32768
-14648
16484
23916
19448
7228
-15000
-25012
-10224
15892
21088
-8352
-32768
4264
32764
27932
-15328
-32768
-26044
6228
24648
23340
14864
-5676
-22012
-24744
2256
22176
10876
-9000
-23068
-5244
28736
32180
-5580
-32768
-26500
1036
15832
16736
16768
-1420
-20240
-14632
6408
14652
3184
-15688
-17740
8576
32764
14084
-17856
-31276
-15588
14912
14504
17448
8652
-13300
-24152
-11196
18928
22136
-1056
-25444
-20208
16132
32764
16212
-27180
-29252
-10688
1948
19868
19676
11072
-10308
-20680
-8480
8828
16824
-4564
-25424
-8844
25384
32764
2248
-32768
-32768
-4712
21056
27068
19004
-7648
-26380
-20332
7368
18936
6020
-8972
-18376
1476
30656
21456
-15044
-32768
-20264
8880
19352
19052
9336
-3820
-18684
-14532
8400
6328
-5756
-16016
2512
27180
32764
-4524
-32768
-32768
-5204
32068
28788
18120
-3164
-27188
-30980
764
22324
15092
-2956
-18108
-8216
23048
29660
-9160
-32768
-26256
10024
21920
16776
13756
-10584
-17696
-3788
3476
1124
-4784
-9072
-4292
19716
32616
5332
-29712
-32768
-5448
18340
17232
18416
6056
-11868
-21712
-5364
9056
4320
-3236
-13140
1204
30512
26048
-16408
-32768
-22096
15012
20964
16180
12980
-9616
-24016
-11060
8840
12544
4340
-14616
-16856
19832
32764
-32
-31956
-28932
732
16076
13604
15268
4548
-11808
-17168
-4224
2928
5124
-556
-8548
7548
26600
13548
-22936
-32768
-8952
22572
14916
15988
16996
-11888
-29404
-11980
3488
11284
7448
-9820
-2500
23052
24012
-13840
-32768
-21568
6272
21168
14024
13796
-564
-17744
-9832
-2212
1132
5464
-5172
-10776
15872
32764
6892
-32768
-32768
-3116
22020
16548
19980
10024
-20300
-19648
-11804
8
15740
4400
-7300
3024
25812
13176
-30668
-32768
76
15344
14668
16244
5872
-9764
-16628
-10420
-1140
11720
12708
-12636
-15916
20264
32196
-5992
-32768
-22880
13372
19804
17248
9264
-8004
-18428
-12028
-3748
6880
14596
-3540
-10612
18408
28240
-10788
-32768
-27624
11544
20336
19132
22000
-1816
-23820
-22760
-10688
6116
25960
14496
-23520
-15848
29916
24340
-21656
-32768
-5340
15308
9536
11072
12036
164
-17176
-17340
-7316
9468
17448
-7668
-7000
23516
20916
-19956
-32768
-12484
17892
14696
12564
14644
-4928
-17012
-19584
-9464
18060
27148
-6872
-32768
4052
32764
6844
-32768
-15296
25956
4660
-12656
3224
9172
2764
-5528
-11000
1024
16312
-1284
-27524
1672
32764
14072
-27724
-30360
5568
15112
5132
11372
11120
-7140
-21852
-20488
6176
27148
16488
-21424
-27980
25268
32764
-9588
-32768
-12232
13708
4116
6900
19972
5420
-20036
-20416
-6452
19632
21828
-12520
-29312
10656
32764
-472
-32768
-16536
12976
5424
1164
12732
14444
-3608
-20912
-14700
-600
24848
1752
-31788
1492
32764
24736
-22008
-32768
-14396
8576
6308
19300
24296
-1568
-24652
-24476
2904
30192
11780
-32768
-18708
31060
32764
-12912
-32768
2004
4256
-6732
7104
20944
11428
-16128
-26752
-7476
24196
27696
-24336
-32768
20436
32764
6264
-32768
-20616
6912
-1456
6028
22160
19936
-7012
-30848
-25088
9704
32764
-908
-31088
9268
32764
4332
-32768
-26756
13244
11328
3336
15980
10840
-8704
-28536
-20468
16208
32764
5344
-32768
-15112
32764
32216
-19104
-32768
-9760
13116
2240
11152
24556
13868
-15008
-32768
-19656
26576
26636
-22332
-19312
30180
32764
-18932
-32768
-7392
22164
5132
-624
15860
9144
-17656
-28216
-5084
30732
27764
-22268
-32768
7900

vt# [S->SB] Send_Keepalive(seq:41,len:6, time:4096)
Send Beacon (RC_COORD 0x0)
[S->SB] Send_Keepalive(seq:41,len:6, time:4096)
(S)broadcast pkt timeout, drop
[S->SB] Send_Keepalive(seq:41,len:6, time:4096)
(S)broadcast pkt timeout, drop
Wait RREP(0x0102) Timeout
cmd delete route
dcu delete route success
[S->SB] Send_Keepalive(seq:41,len:6, time:4096)
(S)broadcast pkt timeout, drop

