task_loop: DCU PKT received (25)

      03 00 01 00 56 83 11 39 02 00 00 03 00 00 07 00 
      01 04 04 2e 4e 0e 00 6c 54 
vtmac_pkt_submit_encrypt_op(30000200) unencryption, dma 300004C0(31), allo 300004C0(31)
  300004C0 | BE 00 00 00 01 40 56 88 - 1E 00 56 83 11 39 02 00
  300004D0 | 00 03 00 00 07 00 01 04 - 04 2E 4E 0E 00 6C 54
vtmac_pkt_payload_commit(30000160) encryption, dma 30001198(35), allo 30001180(96)
  30001198 | D0 45 EA D2 CA 4F 73 FB - 04 F8 93 8F 75 F8 D6 53
  300011A8 | 69 B4 11 D7 5D 28 2A 0F - BF 85 70 A5 9F D4 80 4F
  300011B8 | 12 1B F4
max segmentation size 255 -> 239 (one rs block)(D-3)
max segmentation size 255 -> 478 (two rs block)(D-3)
last pkt(55 + pad 9) tx.duration = 18
vtdmac_tx_populate(30002F40)
  30002F8C | 68 00 00 1C 00 00 00 00
  30002F94 | 42 00 00 00 01 00 00 6B - FF FF FF 03 00 00 00 00
  30002FA4 | 00 00 00 00 00 00 00 00 - 00 00 00 00
vtdmac_tx_populate(30002D60)
  30002DAC | 00 80 00 40 20 12 10 12
  30002DB4 | 01 00 23 69 88 97 3A DC - 01 00 00 00 0D 5D 00 00
  30002DC4 | 00 00
  30001198 | D0 45 EA D2 CA 4F 73 FB - 04 F8 93 8F 75 F8 D6 53
  300011A8 | 69 B4 11 D7 5D 28 2A 0F - BF 85 70 A5 9F D4 80 4F
  300011B8 | 12 1B F4 00 00 00 00 00 - 00 00 00 00
CSMA Success, CR1 = 0x00022013

Rx Packet : (type 2, size 8)
****************************************************************
  30005650 | 00 00 0C 20 E0 BE 0C A8
****************************************************************

ACK, CR1 = 0x00002017

Rx Packet : (type 1, size 85)
****************************************************************
  30005770 | 4D 00 08 10 60 60 13 20 - 01 00 31 69 88 F8 3A DC
  30005780 | 00 00 01 00 0D 87 51 12 - A0 00 C8 AC 79 A1 26 61
  30005790 | E0 1F 4E 32 D3 46 FC 29 - 9A C1 06 0D 0C 7A 14 4C
  300057A0 | D7 C4 78 97 B8 61 97 41 - A5 63 5F F2 11 EB C7 81
  300057B0 | 7B 6D CB E5 86 0A C9 6A - 2F 8E 67 00 00 00 00 00
  300057C0 | 00 00 00 D2 BB
****************************************************************

Decrypt Rx Packet :
    30001490 | 4D 00 08 10 60 60 13 20 - 01 00 31 69 88 F8 3A DC
    300014A0 | 00 00 01 00 0D 87 51 12 - A0 00 BE 00 01 00 00 40
    300014B0 | 56 88 0F 00 56 83 11 39 - 02 00 00 83 00 00 15 00
    300014C0 | 01 04 04 2E 4E 0E 00 01 - 02 03 00 00 67 01 03 01
    300014D0 | 06 01 01 01 00 75 54

****PHY Parameter(FCC)******************************************
  phase = 3
  lqi = 96(0x60)
  tone_map = 0xFFFFFF(expect 0xFFFFFF)
  modulation = D-3(expect D-3)
  det_scale = 20
  noise_thr = 30
****************************************************************

task_loop: PLC PKT received (35) from Short Addr

      56 83 11 39 02 00 00 83 00 00 15 00 01 04 04 2e 
      4e 0e 00 01 02 03 00 00 67 01 03 01 06 01 01 01 
      00 75 54 
vtsdk_send VTSDK_PORT_DCU
task_loop: DCU PKT received (25)

      03 00 02 00 56 53 87 38 02 00 00 03 00 00 07 00 
      01 04 04 ce 5d 0e 00 60 54 
vtmac_pkt_submit_encrypt_op(300001C0) unencryption, dma 30000440(31), allo 30000440(31)
  30000440 | BE 00 00 00 02 40 56 88 - 1F 00 56 53 87 38 02 00
  30000450 | 00 03 00 00 07 00 01 04 - 04 CE 5D 0E 00 60 54
vtmac_pkt_payload_commit(30000320) encryption, dma 300014F8(35), allo 300014E0(96)
  300014F8 | 20 77 06 95 87 8D BA B0 - 11 29 4B 52 29 99 96 8A
  30001508 | DF AC AF E9 20 6A E7 65 - A4 91 D6 16 79 DF 95 25
  30001518 | B2 4D F4
max segmentation size 255 -> 247 (one rs block)(D-0)
max segmentation size 255 -> 494 (two rs block)(D-0)
last pkt(55 + pad 0) tx.duration = 69
vtdmac_tx_populate(30001A00)
  30001A4C | 68 00 00 1C 00 00 00 00
  30001A54 | 42 00 00 00 02 00 00 6A - FF FF FF 00 00 00 00 00
  30001A64 | 00 00 00 00 00 00 00 00 - 00 00 00 00
vtdmac_tx_populate(30003300)
  3000334C | 02 80 00 37 20 45 10 0C
  30003354 | 09 00 23 69 88 98 3A DC - 02 00 00 00 0D 5E 00 00
  30003364 | 00 00
  300014F8 | 20 77 06 95 87 8D BA B0 - 11 29 4B 52 29 99 96 8A
  30001508 | DF AC AF E9 20 6A E7 65 - A4 91 D6 16 79 DF 95 25
  30001518 | B2 4D F4
CSMA Success, CR1 = 0x00022013

Rx Packet : (type 2, size 8)
****************************************************************
  300059B0 | 00 00 0C 20 B0 EF 0C A8
****************************************************************

ACK, CR1 = 0x00002017

Rx Packet : (type 1, size 35)
****************************************************************
  30005AD0 | 1B 00 0C 10 00 5C 2C 00 - 03 00 0D 43 88 93 3A DC
  30005AE0 | 00 00 02 00 0A 03 FF FF - FF 56 00 00 00 00 00 00
  30005AF0 | 00 02 AB
****************************************************************


****PHY Parameter(FCC)******************************************
  phase = 3
  lqi = 92(0x5C)
  tone_map = 0xFFFFFF(expect 0xFFFFFF)
  modulation = D-0(expect D-3)
  det_scale = 20
  noise_thr = 30
****************************************************************


Rx Packet : (type 1, size 78)
****************************************************************
  30005D10 | 46 00 0B 10 00 62 52 20 - 09 00 31 69 88 94 3A DC
  30005D20 | 00 00 02 00 0D 35 00 00 - 00 00 87 D1 32 47 D3 10
  30005D30 | 5B 37 A9 A3 C9 43 25 EA - 75 F4 9F 54 E7 D5 65 8B
  30005D40 | 18 ED FF EB 4D 10 65 AD - 16 A2 18 88 F1 F3 52 21
  30005D50 | 4D 91 D1 42 1C 8F 76 F1 - 02 06 EE 00 C9 04
****************************************************************

Decrypt Rx Packet :
    30000DD0 | 46 00 0B 10 00 62 52 20 - 09 00 31 69 88 94 3A DC
    30000DE0 | 00 00 02 00 0D 35 00 00 - 00 00 BE 00 02 00 00 40
    30000DF0 | 56 88 0F 00 56 53 87 38 - 02 00 00 83 00 00 15 00
    30000E00 | 01 04 04 CE 5D 0E 00 01 - 02 03 00 00 56 01 03 01
    30000E10 | 05 01 01 01 00 57 54

****PHY Parameter(FCC)******************************************
  phase = 3
  lqi = 98(0x62)
  tone_map = 0xFFFFFF(expect 0xFFFFFF)
  modulation = D-0(expect D-3)
  det_scale = 20
  noise_thr = 30
****************************************************************

max segmentation size 255 -> 247 (one rs block)(D-0)
max segmentation size 255 -> 494 (two rs block)(D-0)
last pkt(27 + pad 0) tx.duration = 44

Send ToneMap Response(0002), Mod D-3 0xFFFFFF
vtdmac_tx_populate(30001AA0)
  30001AEC | 68 00 00 1C 00 00 00 00
  30001AF4 | 42 00 00 00 FF FF 00 00 - FF FF FF 00 00 00 00 00
  30001B04 | 00 00 00 00 00 00 00 00 - 00 00 00 00
vtdmac_tx_populate(300034E0)
  3000352C | 04 40 00 1B 00 2C 10 12
  30003534 | 03 00 0D 43 88 99 3A DC - 02 00 00 00
  30000500 | 0A 03 FF FF FF 62 00 00 - 00 00 00 00 00
task_loop: PLC PKT received (35) from Short Addr

      56 53 87 38 02 00 00 83 00 00 15 00 01 04 04 ce 
      5d 0e 00 01 02 03 00 00 56 01 03 01 05 01 01 01 
      00 57 54 
vtsdk_send VTSDK_PORT_DCU

vt# 
vt# re oo   boot

vtmm_flush_nvram(1195) nvram_rom= 0x0007f000 0x0007e000, ptr = 0x20001314, size = 1748 chk = 0xf306f360
[0x54000020] <- 0x02000080__info_block = 0x000ff000
__info_h0    = 0x000ff030
__info_h1    = 0x000ff2b0
__info_hb0   = 0x000ff0b0
__info_hb1   = 0x000ff330

bbp_reloc    = 0x00000001


  PHY_CR1		a00000c0	<- 00000000
  vma)a0200000 lma)0005f800 vma_size)000000d4 lma_size)000000e0
  vma)a0200400 lma)0005f8e0 vma_size)0000016c lma_size)00000170
  vma)a020057c lma)0005fa50 vma_size)00000008 lma_size)00000010
  vma)a020059c lma)0005fa60 vma_size)00000008 lma_size)00000010
  vma)a02005bc lma)0005fa70 vma_size)00000008 lma_size)00000010
  vma)a02005dc lma)0005fa80 vma_size)0000000c lma_size)00000010
  vma)a02005fc lma)0005fa90 vma_size)00000004 lma_size)00000010
  vma)a020061c lma)0005faa0 vma_size)00000008 lma_size)00000010
  vma)a0200638 lma)0005fab0 vma_size)00000004 lma_size)00000010
  vma)a020063c lma)0005fac0 vma_size)00000018 lma_size)00000020
  vma)a020065c lma)0005fae0 vma_size)00000008 lma_size)00000010
  vma)a0220000 lma)0005faf0 vma_size)00000010 lma_size)00000010
  vma)a0240000 lma)73826577 vma_size)00000348 lma_size)00000000
(decompress) get config ... target vma:a0240000 target size:348
  vma)76907765 lma)0005fb00 vma_size)0000017c lma_size)00000180
(decompress) bbp image done ... outsize:348
  vma)a0220020 lma)73826577 vma_size)000003e0 lma_size)00000000
(decompress) get config ... target vma:a0220020 target size:3e0
  vma)76907765 lma)0005fc80 vma_size)00000180 lma_size)00000180
(decompress) bbp image done ... outsize:3e0
  vma)a0200678 lma)73826577 vma_size)000168f8 lma_size)00000000
(decompress) get config ... target vma:a0200678 target size:168f8
  vma)76907765 lma)0005fe00 vma_size)0000f490 lma_size)0000f490
(decompress) bbp image done ... outsize:168f5

heap size internal 1200 remain)023c 
heap size total    b100 remain)b100
pool size total    efe8 remain)efe8 min)efe8

Flash status:0000001c, Protect, ret=0
vtmm_restore_nvram R:0 addr= 0x0007f000, ptr = 0x20001314, size = 1748
vtmm_restore_nvram cs= 0xf306f360, nvcs = 0xf306f360  

Magpie PLC Platform - Copyright (c) 2015 Vango Technologies, Inc.

Version: v6.1.3.103_6.0.0.0 2019/09/26 17:12:43
reset		: hw_reset)0 watchdog)0 dormant)0 power_off)0
remap		: 2
hw-strap	: 0x13 pll_bypass)pll xtal)24M bootstrap)efc ate_spi)gpio jtag)gpio/mcu
clkin_mux	: AHB[1:0] 0x0 APB[3:2] 0x1
pwmtmr_clk	: apb_clk

xtal_clk	: 24000000
clk_in		: 128000000
fclk		: 128000000
hclk		: 128000000
pclk		: 32000000
uart_uclk	: 32000000
ssp_sclk	: 32000000
pwmtmr_extclk	: 500000
wdt_extclk	: 32000000
scu_clk		: 100000
rtc_clk		: 32000


vt# vtmm_flush_nvram(1195) nvram_rom= 0x0007f000 0x0007e000, ptr = 0x20001314, size = 1748 chk = 0xf308f662
[vtapp_keepalive_init] keepalive_nvram.keepalive_seq = 5
ChipVer	: V6306 
System Init, LBS
  macMaxFrameRetries = 3
  macMaxRobustFrameRetries = 3
  macMaxSegmentFrameRetries = 3

  PHY_CR1		a00000c0	<- 00001003
[A00000C8] -> 00000000 bbp busy ...
bbp ready ~
g_lbs_keepalive_seq = 5
vtmm_flush_nvram(1195) nvram_rom= 0x0007f000 0x0007e000, ptr = 0x20001314, size = 1748 chk = 0xf308f762
set_vango_band_freq_range:(init/total/perGrp) 64/36/3
set bandplan 3, modulation 0
  macMaxFrameRetries = 3
  macMaxRobustFrameRetries = 3
  macMaxSegmentFrameRetries = 3
set bandplan: 3
set modulation: 0
Clear tone mask
Bandplan as FCC
set pmb syncp sym: 8
set pmb match sym: 3
set TDP FIR3 scale_max=134 scale_min=10 thr=15, start_scale
set LD gain select: 12V
set PGA mode: 0
set urgetnIn_en 1 
set apdt param: 1 20 1 32 20 500 2 1 10 3 9 6 9 6
set ant param: 1 24 5 30
set pmb det idle gain misc: 00000054 00000024 0000002a 0000002a 00000002
set syncm inv det ratio :55
set ack tx additional gain :0 dB
set modulation: 0

  PHY_CR1		a00000c0	<- 00011003
Role = (0)....as LBS
dcu_if_init

Release Ver: E00

Device Type: as dcu

as FCC

task_init: start task init
g_plc_msg_hdr.dest_addr = 0x00 00first task app (priority 3) size 24
[S->SB] Send_Keepalive(seq:5,len:6, time:4096)
bbp adaptive scale ready

Receive beacon_request
    ->form: 538738FFFE020000

Receive beacon_request
    ->form: 831139FFFE020000
SPI not ready, don't send beacon
[S->SB] Send_Keepalive(seq:5,len:6, time:4096)
vtmm_flush_nvram(1195) nvram_rom= 0x0007f000 0x0007e000, ptr = 0x20001314, size = 1748 chk = 0xf309f764
task_loop: DCU PKT received (25)

      03 00 01 00 56 83 11 39 02 00 00 03 00 00 07 00 
      01 04 04 1e 21 0f 00 30 54 
cmd search route
add task immed (priority 3) size 24
dcu search route success
Tx Packet Give Up (TxCMP, nack_or_ackto = 3)
vtmac_pkt_do_fragmentation() tmr force = 1
Robust retry fail(3)
set_tmr_valid_time_to_zero search Neighbor 0x0001 fail
cmd delete route
add task rxch (priority 6) size 24
dcu delete route success
cmd search route
dcu search route success
[S->SB] Send_Keepalive(seq:5,len:6, time:4096)
Send RREQ, Dest 0x0001, Seq 0, Flag 8
[S->SB] Send_Keepalive(seq:5,len:6, time:4096)
[S->SB] Send_Keepalive(seq:5,len:6, time:4096)

Receive beacon_request
    ->form: 538738FFFE020000

Receive beacon_request
    ->form: 831139FFFE020000
[S->SB] Send_Keepalive(seq:5,len:6, time:4096)
[S->SB] Send_Keepalive(seq:5,len:6, time:4096)
Send Beacon (RC_COORD 0x0)
cmd delete route
add task tcip (priority 4) size 24
dcu delete route success
cmd delete route
dcu delete route success
LR F,G RERR
RERR dest is myself, Stop RERR
[S->SB] Send_Keepalive(seq:5,len:6, time:4096)
Wait RREP(0x0001) Timeout
cmd delete route
dcu delete route success
[S->SB] Send_Keepalive(seq:5,len:6, time:4096)
[S->SB] Send_Keepalive(seq:5,len:6, time:4096)
task_loop: DCU PKT received (25)

      03 00 02 00 56 53 87 38 02 00 00 03 00 00 07 00 
      01 04 04 ce d4 0f 00 d8 54 
cmd search route
dcu search route success
Tx Packet Give Up (TxCMP, nack_or_ackto = 3)
vtmac_pkt_do_fragmentation() tmr force = 1

vt# 
vt# 
vt# Robust retry fail(3)
set_tmr_valid_time_to_zero search Neighbor 0x0002 fail
cmd delete route
dcu delete route success
cmd search route
dcu search route success
Send RREQ, Dest 0x0002, Seq 1, Flag 8
[S->SB] Send_Keepalive(seq:5,len:6, time:4096)

vt# 
vt# 
vt# 
vt# [S->SB] Send_Keepalive(seq:5,len:6, time:4096)
[D->S] Bootstrap: Receive_Join
[S->D] Bootstrap: Send_eap_psk_msg1
[D->S] Bootstrap: Receive_Msg2
[S->D] Bootstrap: Send_EAP_Result (shortAddr:0x0003)
[S->D] Bootstrap: Send_eap_psk_msg3
[D->S] Bootstrap: Receive_Msg4
[S->D] Bootstrap: Send_join_accept (LBD:831139FFFE020000)
[D->S] Bootstrap: Receive_Join
[S->D] Bootstrap: Send_eap_psk_msg1

vt# 
vt# 
vt# 
vt# [D->S] Bootstrap: Receive_Msg2
[S->D] Bootstrap: Send_EAP_Result (shortAddr:0x0004)
[S->D] Bootstrap: Send_eap_psk_msg3
[D->S] Bootstrap: Receive_Msg4
[S->D] Bootstrap: Send_join_accept (LBD:538738FFFE020000)

vt# 
vt# 
vt# cmd delete route
dcu delete route success
cmd delete route
dcu delete route success
LR F,G RERR
RERR dest is myself, Stop RERR
Wait RREP(0x0002) Timeout
cmd delete route
dcu delete route success

vt# debug txrx 1

 all		0x00020000
 txrx		1		Mac TxRx Pkt Format
 fwupgrade	0		upgrade task
 ackon		0		ACK debug message

vt# pinge 1 1 r 


Ping Test : size 7, loops 1
cmd search route
add task cli (priority 3) size 24
dcu search route success
cmd search route
dcu search route success
Send RREQ, Dest 0x0001, Seq 2, Flag 0
vtmac_pkt_submit_encrypt_op(300003A0) unencryption, dma 30000460(14), allo 30000460(14)
  30000460 | 40 01 00 00 01 00 00 00 - 02 0F 00 00 E0 00
vtmac_pkt_payload_commit(30000160) encryption, dma 30001318(18), allo 30001300(96)
  30001318 | C6 4E F9 54 F9 AA 67 44 - 2C 46 F8 39 A9 E9 E5 1A
  30001328 | 45 BF
max segmentation size 255 -> 247 (one rs block)(D-0)
max segmentation size 255 -> 494 (two rs block)(D-0)
last pkt(38 + pad 0) tx.duration = 54
vtdmac_tx_populate(30003580)
  300035CC | 68 00 00 1C 00 00 00 00
  300035D4 | 42 00 00 00 FF FF 00 00 - FF FF FF 00 00 00 00 00
  300035E4 | 00 00 00 00 00 00 00 00 - 00 00 00 00
vtdmac_tx_populate(30003300)
  3000334C | 06 40 00 26 00 36 10 12
  30003354 | 01 00 12 49 88 B0 3A DC - FF FF 00 00 0D 6F 00 00
  30003364 | 00 00
  30001318 | C6 4E F9 54 F9 AA 67 44 - 2C 46 F8 39 A9 E9 E5 1A
  30001328 | 45 BF
cmd search route
dcu search route success

Rx Packet : (type 1, size 46)
****************************************************************
  30005410 | 26 00 0C 10 00 6D 36 00 - 01 00 12 49 88 9A 3A DC
  30005420 | FF FF 04 00 0D 36 00 00 - 00 00 E4 72 3A CC 43 C7
  30005430 | F1 19 98 DE C8 40 4C A9 - 82 B9 35 DA B9 69
****************************************************************

Decrypt Rx Packet :
    300013D0 | 26 00 0C 10 00 6D 36 00 - 01 00 12 49 88 9A 3A DC
    300013E0 | FF FF 04 00 0D 36 00 00 - 00 00 40 01 00 00 01 00
    300013F0 | 00 00 02 0F 00 1A D1 00

****PHY Parameter(FCC)******************************************
  phase = 3
  lqi = 109(0x6D)
  tone_map = 0xFFFFFF(expect 0xFFFFFF)
  modulation = D-0(expect D-3)
  det_scale = 20
  noise_thr = 30
****************************************************************


Rx Packet : (type 1, size 46)
****************************************************************
  30005650 | 26 00 0C 10 00 67 36 00 - 01 00 12 49 88 FE 3A DC
  30005660 | FF FF 03 00 0D 88 51 12 - A0 00 75 65 D3 5A 05 22
  30005670 | 79 9F 4D D9 36 94 9D EA - F2 EF 5D 39 CC CC
****************************************************************

Decrypt Rx Packet :
    30001490 | 26 00 0C 10 00 67 36 00 - 01 00 12 49 88 FE 3A DC
    300014A0 | FF FF 03 00 0D 88 51 12 - A0 00 40 01 00 00 01 00
    300014B0 | 00 00 02 0F 00 1A D1 00

****PHY Parameter(FCC)******************************************
  phase = 3
  lqi = 103(0x67)
  tone_map = 0xFFFFFF(expect 0xFFFFFF)
  modulation = D-0(expect D-3)
  det_scale = 20
  noise_thr = 30
****************************************************************

cmd search route
dcu search route success
cmd search route
dcu search route success
cmd search route
dcu search route success
cmd search route
dcu search route success
cmd search route
dcu search route success
cmd search route
dcu search route success
cmd search route
dcu search route success
cmd search route
dcu search route success
cmd search route
dcu search route success
cmd search route
dcu search route success
cmd search route
dcu search route success
cmd search route
dcu search route success
cmd search route
dcu search route success
cmd search route
dcu search route success
Route error (give up)!!

Total Send Tx 1, AvgTime 15501 msec

vt# pinge 1 1 r 


Ping Test : size 7, loops 1
cmd search route
dcu search route success
cmd search route
dcu search route success
cmd search route
dcu search route success
cmd search route
dcu search route success
cmd search route
dcu search route success
cmd search route
dcu search route success
cmd search route
dcu search route success
cmd search route
dcu search route success
cmd search route
dcu search route success
cmd search route
dcu search route success
cmd search route
dcu search route success
cmd search route
dcu search route success
cmd search route
dcu search route success
cmd search route
dcu search route success
cmd delete route
dcu delete route success
cmd delete route
dcu delete route success
LR F,G RERR
RERR dest is myself, Stop RERR
cmd search route
dcu search route success
cmd search route
dcu search route success
Wait RREP(0x0001) Timeout
cmd delete route
dcu delete route success
cmd search route
dcu search route success
Route error (give up)!!

Total Send Tx 1, AvgTime 15608 msec

vt# pinge 1 1 r  1 r  3 1 r  s 100


Ping Test : size 107, loops 1
cmd search route
dcu search route success
cmd search route
dcu search route success
Send RREQ, Dest 0x0003, Seq 3, Flag 0
vtmac_pkt_submit_encrypt_op(300003C0) unencryption, dma 30000440(14), allo 30000440(14)
  30000440 | 40 01 00 00 03 00 00 00 - 03 0F 00 00 E0 00
vtmac_pkt_payload_commit(300002E0) encryption, dma 30001558(18), allo 30001540(96)
  30001558 | A7 C1 3A 67 FB 8F 3E 81 - 6B 8D 81 0B F2 67 CF ED
  30001568 | 43 BC
max segmentation size 255 -> 247 (one rs block)(D-0)
max segmentation size 255 -> 494 (two rs block)(D-0)
last pkt(38 + pad 0) tx.duration = 54
vtdmac_tx_populate(30002220)
  3000226C | 68 00 00 1C 00 00 00 00
  30002274 | 42 00 00 00 FF FF 00 00 - FF FF FF 00 00 00 00 00
  30002284 | 00 00 00 00 00 00 00 00 - 00 00 00 00
vtdmac_tx_populate(30002040)
  3000208C | 08 40 00 26 00 36 10 12
  30002094 | 01 00 12 49 88 B1 3A DC - FF FF 00 00 0D 70 00 00
  300020A4 | 00 00
  30001558 | A7 C1 3A 67 FB 8F 3E 81 - 6B 8D 81 0B F2 67 CF ED
  30001568 | 43 BC
cmd search route
dcu search route success

Rx Packet : (type 1, size 46)
****************************************************************
  30005890 | 26 00 0C 10 00 67 36 00 - 01 00 12 49 88 9B 3A DC
  300058A0 | FF FF 04 00 0D 37 00 00 - 00 00 4F 0E A0 FB 33 0C
  300058B0 | B2 E9 86 D4 11 5E 97 A4 - 05 17 EC 0E EF FF
****************************************************************

Decrypt Rx Packet :
    30001670 | 26 00 0C 10 00 67 36 00 - 01 00 12 49 88 9B 3A DC
    30001680 | FF FF 04 00 0D 37 00 00 - 00 00 40 01 00 00 03 00
    30001690 | 00 00 03 0F 00 1B D1 00

****PHY Parameter(FCC)******************************************
  phase = 3
  lqi = 103(0x67)
  tone_map = 0xFFFFFF(expect 0xFFFFFF)
  modulation = D-0(expect D-3)
  det_scale = 20
  noise_thr = 30
****************************************************************

cmd search route
dcu search route success
cmd search route
dcu search route success
cmd search route
dcu search route success

Rx Packet : (type 1, size 46)
****************************************************************
  30005AD0 | 26 00 0C 10 00 68 36 20 - 09 00 12 69 88 FF 3A DC
  30005AE0 | 00 00 03 00 0D 89 51 12 - A0 00 EC 67 EE 51 49 DF
  30005AF0 | E0 92 43 9B 48 A8 68 63 - 77 B2 A6 60 FF 6D
****************************************************************

Decrypt Rx Packet :
    300011F0 | 26 00 0C 10 00 68 36 20 - 09 00 12 69 88 FF 3A DC
    30001200 | 00 00 03 00 0D 89 51 12 - A0 00 40 01 01 00 00 00
    30001210 | 03 00 00 0F 00 00 E0 00

****PHY Parameter(FCC)******************************************
  phase = 3
  lqi = 104(0x68)
  tone_map = 0xFFFFFF(expect 0xFFFFFF)
  modulation = D-0(expect D-3)
  det_scale = 20
  noise_thr = 30
****************************************************************

LCPNT_TRACE 0x0003 evt 0
LCPNT_TRACE 0x0003 state(0->1)
Route Discovery Success (Dest 0x0003, Next 0x0003, Hop 1)
vtmsg_nwk_event
check_link_repair() send packet to 0x0003 (next 0x0003)
max segmentation size 255 -> 247 (one rs block)(D-0)
max segmentation size 255 -> 494 (two rs block)(D-0)
last pkt(27 + pad 0) tx.duration = 44

Send ToneMap Response(0003), Mod D-3 0xFFFFFF
vtdmac_tx_populate(30002EA0)
  30002EEC | 68 00 00 1C 00 00 00 00
  30002EF4 | 42 00 00 00 FF FF 00 00 - FF FF FF 00 00 00 00 00
  30002F04 | 00 00 00 00 00 00 00 00 - 00 00 00 00
vtdmac_tx_populate(30002F40)
  30002F8C | 0A 40 00 1B 00 2C 10 0C
  30002F94 | 03 00 0D 43 88 B2 3A DC - 03 00 00 00
  300002A0 | 0A 03 FF FF FF 68 00 00 - 00 00 00 00 00
vtmac_pkt_submit_encrypt_op(30000160) unencryption, dma 30002CD0(116), allo 30002CC0(116)
  30002CD0 | BE 00 00 00 03 40 56 50 - 6B 54 03 00 2C 27 00 20
  30002CE0 | 00 00 00 00 00 00 00 00 - 00 00 00 00 00 00 00 00
  30002CF0 | 00 00 00 00 00 00 00 00 - 00 00 00 00 00 00 00 00
  30002D00 | 00 00 00 00 00 00 00 00 - 00 00 00 00 00 00 00 00
  30002D10 | 00 00 00 00 00 00 00 00 - 00 00 00 00 00 00 00 00
  30002D20 | 00 00 00 00 00 00 00 00 - 00 00 00 00 00 00 00 00
  30002D30 | 00 00 00 00 00 00 00 00 - 00 00 00 00 00 00 00 00
  30002D40 | 00 00 00 00
vtmac_pkt_payload_commit(300004C0) encryption, dma 30002FF8(120), allo 30002FE0(160)
  30002FF8 | 3F DA 01 C1 16 24 22 16 - AC DD 72 74 95 E9 9D BD
  30003008 | E3 F3 89 BC 76 45 99 BC - 0F 51 31 AE F6 97 1A D6
  30003018 | 42 D5 B0 B3 EA 7A 6B CC - F8 7C 7A 13 9C ED F4 00
  30003028 | 04 BB 36 E4 1F 1A 8B 58 - 5B 58 11 10 F1 7C BF 95
  30003038 | FD 66 35 C3 A5 1E A6 FD - 61 5A DA 92 80 F8 79 96
  30003048 | 6C A4 4E 13 EE C3 0A E5 - E3 FB 95 62 9F 70 F2 02
  30003058 | 51 AA C4 C6 63 69 97 25 - C1 43 96 52 01 9B B8 A5
  30003068 | 7E 32 E1 14 4E 5F D7 4E
max segmentation size 255 -> 247 (one rs block)(D-0)
max segmentation size 255 -> 494 (two rs block)(D-0)
last pkt(140 + pad 0) tx.duration = 145
vtdmac_tx_populate(300033A0)
  300033EC | 68 00 00 1C 00 00 00 00
  300033F4 | 42 00 00 00 03 00 00 00 - FF FF FF 00 00 00 00 00
  30003404 | 00 00 00 00 00 00 00 00 - 00 00 00 00
vtdmac_tx_populate(30003120)
  3000316C | 0C 80 00 8C 20 91 10 06
  30003174 | 09 00 78 69 88 B3 3A DC - 03 00 00 00 0D 71 00 00
  30003184 | 00 00
  30002FF8 | 3F DA 01 C1 16 24 22 16 - AC DD 72 74 95 E9 9D BD
  30003008 | E3 F3 89 BC 76 45 99 BC - 0F 51 31 AE F6 97 1A D6
  30003018 | 42 D5 B0 B3 EA 7A 6B CC - F8 7C 7A 13 9C ED F4 00
  30003028 | 04 BB 36 E4 1F 1A 8B 58 - 5B 58 11 10 F1 7C BF 95
  30003038 | FD 66 35 C3 A5 1E A6 FD - 61 5A DA 92 80 F8 79 96
  30003048 | 6C A4 4E 13 EE C3 0A E5 - E3 FB 95 62 9F 70 F2 02
  30003058 | 51 AA C4 C6 63 69 97 25 - C1 43 96 52 01 9B B8 A5
  30003068 | 7E 32 E1 14 4E 5F D7 4E
CSMA Success, CR1 = 0x00022013

Rx Packet : (type 2, size 8)
****************************************************************
  30005D10 | 00 00 0C 20 D9 DA 0C A8
****************************************************************

ACK, CR1 = 0x00002017
vtmac_pkt_submit_encrypt_op(30000240) unencryption, dma 30003620(116), allo 30003620(116)
  30003620 | BE 00 00 00 03 40 56 50 - 6B 54 03 00 2C 27 00 20
  30003630 | 00 00 00 00 00 00 00 00 - 00 00 00 00 00 00 00 00
  30003640 | 00 00 00 00 00 00 00 00 - 00 00 00 00 00 00 00 00
  30003650 | 00 00 00 00 00 00 00 00 - 00 00 00 00 00 00 00 00
  30003660 | 00 00 00 00 00 00 00 00 - 00 00 00 00 00 00 00 00
  30003670 | 00 00 00 00 00 00 00 00 - 00 00 00 00 00 00 00 00
  30003680 | 00 00 00 00 00 00 00 00 - 00 00 00 00 00 00 00 00
  30003690 | 00 00 00 00
vtmac_pkt_payload_commit(30000460) encryption, dma 30003598(120), allo 30003580(160)
  30003598 | B6 78 26 5B 38 4F 8D 17 - 00 E4 9E 96 36 99 00 F5
  300035A8 | 7B BE E7 3A 5F 97 62 3D - BC 09 A6 D5 A2 21 70 66
  300035B8 | 3A 9E F3 32 5F E8 29 BC - 0C BB 9A 28 70 DD E0 6B
  300035C8 | 33 C0 F7 81 69 34 C1 38 - 90 0B 7D EE 3F AC E9 26
  300035D8 | 62 91 65 52 A4 0C CB E0 - 97 31 57 5F 3D 30 B5 62
  300035E8 | 68 24 D3 B2 2D C2 ED 6A - 9E D8 C3 CD C8 E2 1A 80
  300035F8 | 39 84 2E 50 07 CA 30 2E - 45 5F EC D7 BB CC 66 93
  30003608 | 36 7E 89 AB 82 25 43 AF
max segmentation size 255 -> 247 (one rs block)(D-0)
max segmentation size 255 -> 494 (two rs block)(D-0)
last pkt(140 + pad 0) tx.duration = 145
vtdmac_tx_populate(30001960)
  300019AC | 68 00 00 1C 00 00 00 00
  300019B4 | 42 00 00 00 03 00 00 00 - FF FF FF 00 00 00 00 00
  300019C4 | 00 00 00 00 00 00 00 00 - 00 00 00 00
vtdmac_tx_populate(30003440)
  3000348C | 0E 80 00 8C 20 91 10 12
  30003494 | 09 00 78 69 88 B4 3A DC - 03 00 00 00 0D 72 00 00
  300034A4 | 00 00
  30003598 | B6 78 26 5B 38 4F 8D 17 - 00 E4 9E 96 36 99 00 F5
  300035A8 | 7B BE E7 3A 5F 97 62 3D - BC 09 A6 D5 A2 21 70 66
  300035B8 | 3A 9E F3 32 5F E8 29 BC - 0C BB 9A 28 70 DD E0 6B
  300035C8 | 33 C0 F7 81 69 34 C1 38 - 90 0B 7D EE 3F AC E9 26
  300035D8 | 62 91 65 52 A4 0C CB E0 - 97 31 57 5F 3D 30 B5 62
  300035E8 | 68 24 D3 B2 2D C2 ED 6A - 9E D8 C3 CD C8 E2 1A 80
  300035F8 | 39 84 2E 50 07 CA 30 2E - 45 5F EC D7 BB CC 66 93
  30003608 | 36 7E 89 AB 82 25 43 AF
. seq=0003
Total Send Tx 1, AvgTime 5337 mCSMA Success, CR1 = 0x00022013
sec

vt# 
Rx Packet : (type 2, size 8)
****************************************************************
  30005E30 | 00 00 0C 20 A2 92 0C A8
****************************************************************

ACK, CR1 = 0x00002017

Rx Packet : (type 1, size 35)
****************************************************************
  30005F50 | 1B 00 0C 10 00 62 2C 00 - 03 00 0D 43 88 00 3A DC
  30005F60 | 00 00 03 00 0A 03 FF FF - FF 60 00 00 00 00 00 00
  30005F70 | 00 94 9C
****************************************************************


****PHY Parameter(FCC)******************************************
  phase = 3
  lqi = 98(0x62)
  tone_map = 0xFFFFFF(expect 0xFFFFFF)
  modulation = D-0(expect D-3)
  det_scale = 20
  noise_thr = 30
****************************************************************

pinge 3 1 r  s 100   50


Ping Test : size 57, loops 1
vtmac_pkt_submit_encrypt_op(30000180) unencryption, dma 30000DC0(66), allo 30000DC0(66)
  30000DC0 | BE 00 00 00 03 40 56 50 - 39 54 04 00 E0 05 00 30
  30000DD0 | 00 00 00 00 00 00 00 00 - 00 00 00 00 00 00 00 00
  30000DE0 | 00 00 00 00 00 00 00 00 - 00 00 00 00 00 00 00 00
  30000DF0 | 00 00 00 00 00 00 00 00 - 00 00 00 00 00 00 00 00
  30000E00 | 00 00
vtmac_pkt_payload_commit(30000240) encryption, dma 30000E38(70), allo 30000E20(96)
  30000E38 | 0C B9 96 A9 EE 25 7E 1C - D0 E1 9C 5E 01 6B 30 60
  30000E48 | 0E C5 00 48 C0 70 0F 00 - 43 50 E2 54 E6 44 B3 A1
  30000E58 | 35 6E 75 FF DA 23 AC 1F - 46 24 99 C9 89 5C F4 1E
  30000E68 | AC 18 7A C6 DF F0 AA AD - 0D DE 0C FA C2 8B D6 8F
  30000E78 | FB 21 05 81 D5 27
max segmentation size 255 -> 239 (one rs block)(D-3)
max segmentation size 255 -> 478 (two rs block)(D-3)
last pkt(90 + pad 1) tx.duration = 20
vtdmac_tx_populate(30001BE0)
  30001C2C | 68 00 00 1C 00 00 00 00
  30001C34 | 42 00 00 00 03 00 00 60 - FF FF FF 03 00 00 00 00
  30001C44 | 00 00 00 00 00 00 00 00 - 00 00 00 00
vtdmac_tx_populate(30001C80)
  30001CCC | 00 80 00 5B 20 14 10 06
  30001CD4 | 01 00 46 69 88 B5 3A DC - 03 00 00 00 0D 73 00 00
  30001CE4 | 00 00
  30000E38 | 0C B9 96 A9 EE 25 7E 1C - D0 E1 9C 5E 01 6B 30 60
  30000E48 | 0E C5 00 48 C0 70 0F 00 - 43 50 E2 54 E6 44 B3 A1
  30000E58 | 35 6E 75 FF DA 23 AC 1F - 46 24 99 C9 89 5C F4 1E
  30000E68 | AC 18 7A C6 DF F0 AA AD - 0D DE 0C FA C2 8B D6 8F
  30000E78 | FB 21 05 81 D5 27 00
. seq=0CSMA Success, CR1 = 0x00022013
004
Total Send Tx 1, AvgTime 136 msec

vt# 
Rx Packet : (type 2, size 8)
****************************************************************
  30006190 | 00 00 0C 20 CD A5 0C A8
****************************************************************

ACK, CR1 = 0x00002017
pinge 3 1 r  s 50                 
vt# pinge 3 1 r  s 50


Ping Test : size 57, loops 1
vtmac_pkt_submit_encrypt_op(30000480) unencryption, dma 30001180(66), allo 30001180(66)
  30001180 | BE 00 00 00 03 40 56 50 - 39 54 05 00 E0 05 00 30
  30001190 | 00 00 00 00 00 00 00 00 - 00 00 00 00 00 00 00 00
  300011A0 | 00 00 00 00 00 00 00 00 - 00 00 00 00 00 00 00 00
  300011B0 | 00 00 00 00 00 00 00 00 - 00 00 00 00 00 00 00 00
  300011C0 | 00 00
vtmac_pkt_payload_commit(30000360) encryption, dma 300012B8(70), allo 300012A0(96)
  300012B8 | 29 ED AE 88 7E 9D 6D B5 - 56 19 55 28 1A 65 11 F1
  300012C8 | 1D E2 2C 59 B1 23 72 A3 - 0A C1 52 C7 FA 54 43 2C
  300012D8 | 77 10 3F 89 2A CB AA A0 - 1D 78 13 EB C8 EA 55 27
  300012E8 | 73 60 1A 28 DC 3A AF 22 - 38 A6 7B AC 97 5C 39 3A
  300012F8 | B0 F6 42 5E AF 68
max segmentation size 255 -> 239 (one rs block)(D-3)
max segmentation size 255 -> 478 (two rs block)(D-3)
last pkt(90 + pad 1) tx.duration = 20
vtdmac_tx_populate(30002220)
  3000226C | 68 00 00 1C 00 00 00 00
  30002274 | 42 00 00 00 03 00 00 60 - FF FF FF 03 00 00 00 00
  30002284 | 00 00 00 00 00 00 00 00 - 00 00 00 00
vtdmac_tx_populate(30001FA0)
  30001FEC | 02 80 00 5B 20 14 10 0C
  30001FF4 | 01 00 46 69 88 B6 3A DC - 03 00 00 00 0D 74 00 00
  30002004 | 00 00
  300012B8 | 29 ED AE 88 7E 9D 6D B5 - 56 19 55 28 1A 65 11 F1
  300012C8 | 1D E2 2C 59 B1 23 72 A3 - 0A C1 52 C7 FA 54 43 2C
  300012D8 | 77 10 3F 89 2A CB AA A0 - 1D 78 13 EB C8 EA 55 27
  300012E8 | 73 60 1A 28 DC 3A AF 22 - 38 A6 7B AC 97 5C 39 3A
  300012F8 | B0 F6 42 5E AF 68 00
. seq=0005
Total Send Tx CSMA Success, CR1 = 0x00022013
1, AvgTime 133 msec

vt# 
Rx Packet : (type 2, size 8)
****************************************************************
  300062B0 | 00 00 0C 20 62 34 0C A8
****************************************************************

ACK, CR1 = 0x00002017
cmd delete route
dcu delete route success
cmd delete route
dcu delete route success
LR F,G RERR
RERR dest is myself, Stop RERR
pinge 3 1 r  s 50


Ping Test : size 57, loops 1
vtmac_pkt_submit_encrypt_op(30000300) unencryption, dma 30001360(66), allo 30001360(66)
  30001360 | BE 00 00 00 03 40 56 50 - 39 54 06 00 E0 05 00 30
  30001370 | 00 00 00 00 00 00 00 00 - 00 00 00 00 00 00 00 00
  30001380 | 00 00 00 00 00 00 00 00 - 00 00 00 00 00 00 00 00
  30001390 | 00 00 00 00 00 00 00 00 - 00 00 00 00 00 00 00 00
  300013A0 | 00 00
vtmac_pkt_payload_commit(300002A0) encryption, dma 30001438(70), allo 30001420(96)
  30001438 | C4 64 67 F3 03 60 4D 68 - F2 F5 83 9D 6A A2 FB D6
  30001448 | 76 CF 80 3B 8F 43 F5 B9 - 72 95 36 BF AC B5 4D 55
  30001458 | 4F 70 BB DB EE 32 AC D4 - 30 32 58 A0 10 8D D8 F9
  30001468 | BE 14 F8 1A 9A F6 6D AB - AE 96 EB 2E 6A EE 61 23
  30001478 | EA AE 33 93 F1 88
max segmentation size 255 -> 239 (one rs block)(D-3)
max segmentation size 255 -> 478 (two rs block)(D-3)
last pkt(90 + pad 1) tx.duration = 20
vtdmac_tx_populate(30002180)
  300021CC | 68 00 00 1C 00 00 00 00
  300021D4 | 42 00 00 00 03 00 00 60 - FF FF FF 03 00 00 00 00
  300021E4 | 00 00 00 00 00 00 00 00 - 00 00 00 00
vtdmac_tx_populate(300020E0)
  3000212C | 04 80 00 5B 20 14 10 0C
  30002134 | 01 00 46 69 88 B7 3A DC - 03 00 00 00 0D 75 00 00
  30002144 | 00 00
  30001438 | C4 64 67 F3 03 60 4D 68 - F2 F5 83 9D 6A A2 FB D6
  30001448 | 76 CF 80 3B 8F 43 F5 B9 - 72 95 36 BF AC B5 4D 55
  30001458 | 4F 70 BB DB EE 32 AC D4 - 30 32 58 A0 10 8D D8 F9
  30001468 | BE 14 F8 1A 9A F6 6D AB - AE 96 EB 2E 6A EE 61 23
  30001478 | EA AE 33 93 F1 88 00
. seq=0006
Total Send TxCSMA Success, CR1 = 0x00022013
 1, AvgTime 134 msec

vt# 
Rx Packet : (type 2, size 8)
****************************************************************
  300063D0 | 00 00 0C 20 89 AA 0C A8
****************************************************************

ACK, CR1 = 0x00002017
pinge 3 1 r  s 50


Ping Test : size 57, loops 1
vtmac_pkt_submit_encrypt_op(300001E0) unencryption, dma 30001540(66), allo 30001540(66)
  30001540 | BE 00 00 00 03 40 56 50 - 39 54 07 00 2C 27 00 20
  30001550 | 00 00 00 00 00 00 00 00 - 00 00 00 00 00 00 00 00
  30001560 | 00 00 00 00 00 00 00 00 - 00 00 00 00 00 00 00 00
  30001570 | 00 00 00 00 00 00 00 00 - 00 00 00 00 00 00 00 00
  30001580 | 00 00
vtmac_pkt_payload_commit(300003C0) encryption, dma 30001678(70), allo 30001660(96)
  30001678 | 1A FB 70 2F 2B C1 53 DB - A0 A7 97 BE 31 32 54 71
  30001688 | ED BC 29 56 47 07 39 41 - 48 00 E1 AD 8F FC 6F 68
  30001698 | 1E 80 7F 9C EB D7 60 B1 - DD 07 6E 6D 5D A7 D6 4F
  300016A8 | 0E 2D 28 57 8D 3A 30 88 - B8 C3 11 3A 3F 0D A4 67
  300016B8 | 82 C0 CB 73 F0 D6
max segmentation size 255 -> 239 (one rs block)(D-3)
max segmentation size 255 -> 478 (two rs block)(D-3)
last pkt(90 + pad 1) tx.duration = 20
vtdmac_tx_populate(30002860)
  300028AC | 68 00 00 1C 00 00 00 00
  300028B4 | 42 00 00 00 03 00 00 60 - FF FF FF 03 00 00 00 00
  300028C4 | 00 00 00 00 00 00 00 00 - 00 00 00 00
vtdmac_tx_populate(30001F00)
  30001F4C | 06 80 00 5B 20 14 10 12
  30001F54 | 01 00 46 69 88 B8 3A DC - 03 00 00 00 0D 76 00 00
  30001F64 | 00 00
  30001678 | 1A FB 70 2F 2B C1 53 DB - A0 A7 97 BE 31 32 54 71
  30001688 | ED BC 29 56 47 07 39 41 - 48 00 E1 AD 8F FC 6F 68
  30001698 | 1E 80 7F 9C EB D7 60 B1 - DD 07 6E 6D 5D A7 D6 4F
  300016A8 | 0E 2D 28 57 8D 3A 30 88 - B8 C3 11 3A 3F 0D A4 67
  300016B8 | 82 C0 CB 73 F0 D6 00
. seq=0007
Total Send Tx 1, AvgTime 134CSMA Success, CR1 = 0x00022013
 msec

vt# 
Rx Packet : (type 2, size 8)
****************************************************************
  300064F0 | 00 00 0C 20 06 BB 0C A8
****************************************************************

ACK, CR1 = 0x00002017
pinge 3 1 r  s 50


Ping Test : size 57, loops 1
vtmac_pkt_submit_encrypt_op(30000100) unencryption, dma 300011E0(66), allo 300011E0(66)
  300011E0 | BE 00 00 00 03 40 56 50 - 39 54 08 00 E0 05 00 30
  300011F0 | 00 00 00 00 00 00 00 00 - 00 00 00 00 00 00 00 00
  30001200 | 00 00 00 00 00 00 00 00 - 00 00 00 00 00 00 00 00
  30001210 | 00 00 00 00 00 00 00 00 - 00 00 00 00 00 00 00 00
  30001220 | 00 00
vtmac_pkt_payload_commit(30000040) encryption, dma 30000E98(70), allo 30000E80(96)
  30000E98 | F0 36 61 FD 41 E0 A5 4D - 84 10 52 CD 58 17 51 10
  30000EA8 | 21 6C 4F 6B A6 F7 A5 74 - 8D 47 0F 66 F3 8C E9 95
  30000EB8 | 69 E5 F4 C4 34 45 56 16 - 29 AF B2 D3 61 91 A4 52
  30000EC8 | 27 F9 05 22 D7 0D 3A F0 - E0 9F F4 A3 AC AB 12 F7
  30000ED8 | 21 8D 9A CC 98 AE
max segmentation size 255 -> 239 (one rs block)(D-3)
max segmentation size 255 -> 478 (two rs block)(D-3)
last pkt(90 + pad 1) tx.duration = 20
vtdmac_tx_populate(30002AE0)
  30002B2C | 68 00 00 1C 00 00 00 00
  30002B34 | 42 00 00 00 03 00 00 60 - FF FF FF 03 00 00 00 00
  30002B44 | 00 00 00 00 00 00 00 00 - 00 00 00 00
vtdmac_tx_populate(30002680)
  300026CC | 08 80 00 5B 20 14 10 12
  300026D4 | 01 00 46 69 88 B9 3A DC - 03 00 00 00 0D 77 00 00
  300026E4 | 00 00
  30000E98 | F0 36 61 FD 41 E0 A5 4D - 84 10 52 CD 58 17 51 10
  30000EA8 | 21 6C 4F 6B A6 F7 A5 74 - 8D 47 0F 66 F3 8C E9 95
  30000EB8 | 69 E5 F4 C4 34 45 56 16 - 29 AF B2 D3 61 91 A4 52
  30000EC8 | 27 F9 05 22 D7 0D 3A F0 - E0 9F F4 A3 AC AB 12 F7
  30000ED8 | 21 8D 9A CC 98 AE 00
. seq=0008
Total Send Tx 1, AvgTime 134 msecCSMA Success, CR1 = 0x0002A013


vt# 
Rx Packet : (type 2, size 8)
****************************************************************
  30006610 | 00 00 0C 20 67 51 0C A8
****************************************************************

ACK, CR1 = 0x00002017
pinge 3 1 r  s 50


Ping Test : size 57, loops 1
vtmac_pkt_submit_encrypt_op(300004A0) unencryption, dma 30000AC0(66), allo 30000AC0(66)
  30000AC0 | BE 00 00 00 03 40 56 50 - 39 54 09 00 E0 05 00 30
  30000AD0 | 00 00 00 00 00 00 00 00 - 00 00 00 00 00 00 00 00
  30000AE0 | 00 00 00 00 00 00 00 00 - 00 00 00 00 00 00 00 00
  30000AF0 | 00 00 00 00 00 00 00 00 - 00 00 00 00 00 00 00 00
  30000B00 | 00 00
vtmac_pkt_payload_commit(30000060) encryption, dma 30001078(70), allo 30001060(96)
  30001078 | E8 07 2E B7 B0 1D 8B 6B - 4B BF FF 90 45 50 BD EC
  30001088 | 26 86 9C E6 93 B3 8E EC - CF 59 17 19 72 3C 29 C7
  30001098 | EC 82 CB 67 92 29 DE 6B - 8F 07 6D B8 A3 7C 07 D4
  300010A8 | 46 F3 C4 8C 0E 22 45 67 - 02 E0 C2 C4 8A 2B 13 99
  300010B8 | 74 ED 67 DF E0 5B
max segmentation size 255 -> 239 (one rs block)(D-3)
max segmentation size 255 -> 478 (two rs block)(D-3)
last pkt(90 + pad 1) tx.duration = 20
vtdmac_tx_populate(300029A0)
  300029EC | 68 00 00 1C 00 00 00 00
  300029F4 | 42 00 00 00 03 00 00 60 - FF FF FF 03 00 00 00 00
  30002A04 | 00 00 00 00 00 00 00 00 - 00 00 00 00
vtdmac_tx_populate(30002B80)
  30002BCC | 0A 80 00 5B 20 14 10 0C
  30002BD4 | 01 00 46 69 88 BA 3A DC - 03 00 00 00 0D 78 00 00
  30002BE4 | 00 00
  30001078 | E8 07 2E B7 B0 1D 8B 6B - 4B BF FF 90 45 50 BD EC
  30001088 | 26 86 9C E6 93 B3 8E EC - CF 59 17 19 72 3C 29 C7
  30001098 | EC 82 CB 67 92 29 DE 6B - 8F 07 6D B8 A3 7C 07 D4
  300010A8 | 46 F3 C4 8C 0E 22 45 67 - 02 E0 C2 C4 8A 2B 13 99
  300010B8 | 74 ED 67 DF E0 5B 00
. seq=0009
Total Send TxCSMA Success, CR1 = 0x00022013
 1, AvgTime 133 msec

vt# 
Rx Packet : (type 2, size 8)
****************************************************************
  30006730 | 00 00 0C 20 42 D8 0C A8
****************************************************************

ACK, CR1 = 0x00002017
pinge 3 1 r  s 50 1 r  s 50 4 1 r  s 50


Ping Test : size 57, loops 1
cmd search route
dcu search route success
cmd search route
dcu search route success
Send RREQ, Dest 0x0004, Seq 4, Flag 0
vtmac_pkt_submit_encrypt_op(300002A0) unencryption, dma 30000160(14), allo 30000160(14)
  30000160 | 40 01 00 00 04 00 00 00 - 04 0F 00 00 E0 00
vtmac_pkt_payload_commit(300004A0) encryption, dma 30001378(18), allo 30001360(96)
  30001378 | 01 0B E7 CC 51 F6 F7 21 - E8 6B DE FA E8 52 6C 68
  30001388 | 82 94
max segmentation size 255 -> 247 (one rs block)(D-0)
max segmentation size 255 -> 494 (two rs block)(D-0)
last pkt(38 + pad 0) tx.duration = 54
vtdmac_tx_populate(300031C0)
  3000320C | 68 00 00 1C 00 00 00 00
  30003214 | 42 00 00 00 FF FF 00 00 - FF FF FF 00 00 00 00 00
  30003224 | 00 00 00 00 00 00 00 00 - 00 00 00 00
vtdmac_tx_populate(30002EA0)
  30002EEC | 0C 40 00 26 00 36 10 0C
  30002EF4 | 01 00 12 49 88 BB 3A DC - FF FF 00 00 0D 79 00 00
  30002F04 | 00 00
  30001378 | 01 0B E7 CC 51 F6 F7 21 - E8 6B DE FA E8 52 6C 68
  30001388 | 82 94
cmd search route
dcu search route success

Rx Packet : (type 1, size 46)
****************************************************************
  30006850 | 26 00 0C 10 00 5E 36 00 - 01 00 12 49 88 01 3A DC
  30006860 | FF FF 03 00 0D 8A 51 12 - A0 00 96 82 E6 CE 37 4F
  30006870 | 2A 6F 07 68 0E F8 10 E3 - A3 10 68 35 EE 2E
****************************************************************

Decrypt Rx Packet :
    30001550 | 26 00 0C 10 00 5E 36 00 - 01 00 12 49 88 01 3A DC
    30001560 | FF FF 03 00 0D 8A 51 12 - A0 00 40 01 00 00 04 00
    30001570 | 00 00 04 0F 00 2A D1 10

****PHY Parameter(FCC)******************************************
  phase = 3
  lqi = 94(0x5E)
  tone_map = 0xFFFFFF(expect 0xFFFFFF)
  modulation = D-0(expect D-3)
  det_scale = 20
  noise_thr = 30
****************************************************************

cmd search route
dcu search route success
cmd search route
dcu search route success
cmd search route
dcu search route success

Rx Packet : (type 1, size 46)
****************************************************************
  30006A90 | 26 00 0C 10 00 6F 36 20 - 09 00 12 69 88 9C 3A DC
  30006AA0 | 00 00 04 00 0D 38 00 00 - 00 00 4F F4 47 FB 1F AD
  30006AB0 | FC 0D 74 A1 0C A7 F2 FF - D8 8D B3 3E BE A7
****************************************************************

Decrypt Rx Packet :
    30000D70 | 26 00 0C 10 00 6F 36 20 - 09 00 12 69 88 9C 3A DC
    30000D80 | 00 00 04 00 0D 38 00 00 - 00 00 40 01 01 00 00 00
    30000D90 | 04 00 00 0F 00 00 E0 00

****PHY Parameter(FCC)******************************************
  phase = 3
  lqi = 111(0x6F)
  tone_map = 0xFFFFFF(expect 0xFFFFFF)
  modulation = D-0(expect D-3)
  det_scale = 20
  noise_thr = 30
****************************************************************

LCPNT_TRACE 0x0004 evt 0
LCPNT_TRACE 0x0004 state(0->1)
Route Discovery Success (Dest 0x0004, Next 0x0004, Hop 1)
vtmsg_nwk_event
check_link_repair() send packet to 0x0004 (next 0x0004)
max segmentation size 255 -> 247 (one rs block)(D-0)
max segmentation size 255 -> 494 (two rs block)(D-0)
last pkt(27 + pad 0) tx.duration = 44

Send ToneMap Response(0004), Mod D-3 0xFFFFFF
vtdmac_tx_populate(300034E0)
  3000352C | 68 00 00 1C 00 00 00 00
  30003534 | 42 00 00 00 FF FF 00 00 - FF FF FF 00 00 00 00 00
  30003544 | 00 00 00 00 00 00 00 00 - 00 00 00 00
vtdmac_tx_populate(30001960)
  300019AC | 0E 40 00 1B 00 2C 10 0C
  300019B4 | 03 00 0D 43 88 BC 3A DC - 04 00 00 00
  30000000 | 0A 03 FF FF FF 6F 00 00 - 00 00 00 00 00
vtmac_pkt_submit_encrypt_op(300000E0) unencryption, dma 30000E30(66), allo 30000E20(66)
  30000E30 | BE 00 00 00 04 40 56 50 - 39 54 0A 00 E0 05 00 30
  30000E40 | 00 00 00 00 00 00 00 00 - 00 00 00 00 00 00 00 00
  30000E50 | 00 00 00 00 00 00 00 00 - 00 00 00 00 00 00 00 00
  30000E60 | 00 00 00 00 00 00 00 00 - 00 00 00 00 00 00 00 00
  30000E70 | 00 00
vtmac_pkt_payload_commit(30000120) encryption, dma 30001078(70), allo 30001060(96)
  30001078 | 33 E2 9E 29 01 1F 65 C5 - 8A 10 F1 4E 67 CC 1E A6
  30001088 | 8D 4C BF 57 27 6C 1C 81 - E5 E7 3D AF 1E 31 D2 63
  30001098 | 3C 40 15 96 08 0C A4 1E - ED 0E 78 DE BF 27 E7 3F
  300010A8 | AD 1B 9D 95 87 D4 B1 62 - 7E 3E 42 C7 A2 D7 BF 19
  300010B8 | 9A 47 88 02 89 D9
max segmentation size 255 -> 247 (one rs block)(D-0)
max segmentation size 255 -> 494 (two rs block)(D-0)
last pkt(90 + pad 0) tx.duration = 100
vtdmac_tx_populate(30003440)
  3000348C | 68 00 00 1C 00 00 00 00
  30003494 | 42 00 00 00 04 00 00 00 - FF FF FF 00 00 00 00 00
  300034A4 | 00 00 00 00 00 00 00 00 - 00 00 00 00
vtdmac_tx_populate(30001B40)
  30001B8C | 00 80 00 5A 20 64 10 12
  30001B94 | 09 00 46 69 88 BD 3A DC - 04 00 00 00 0D 7A 00 00
  30001BA4 | 00 00
  30001078 | 33 E2 9E 29 01 1F 65 C5 - 8A 10 F1 4E 67 CC 1E A6
  30001088 | 8D 4C BF 57 27 6C 1C 81 - E5 E7 3D AF 1E 31 D2 63
  30001098 | 3C 40 15 96 08 0C A4 1E - ED 0E 78 DE BF 27 E7 3F
  300010A8 | AD 1B 9D 95 87 D4 B1 62 - 7E 3E 42 C7 A2 D7 BF 19
  300010B8 | 9A 47 88 02 89 D9
CSMA Success, CR1 = 0x00022013

Rx Packet : (type 2, size 8)
****************************************************************
  300037F0 | 00 00 0C 20 63 AD 0C A8
****************************************************************

ACK, CR1 = 0x00002017

Rx Packet : (type 1, size 35)
****************************************************************
  30003910 | 1B 00 0C 10 00 6D 2C 00 - 03 00 0D 43 88 9D 3A DC
  30003920 | 00 00 04 00 0A 03 FF FF - FF 62 00 00 00 00 00 00
  30003930 | 00 CB 34
****************************************************************


****PHY Parameter(FCC)******************************************
  phase = 3
  lqi = 109(0x6D)
  tone_map = 0xFFFFFF(expect 0xFFFFFF)
  modulation = D-0(expect D-3)
  det_scale = 20
  noise_thr = 30
****************************************************************

vtmac_pkt_submit_encrypt_op(300001C0) unencryption, dma 30000EE0(66), allo 30000EE0(66)
  30000EE0 | BE 00 00 00 04 40 56 50 - 39 54 0A 00 E0 05 00 30
  30000EF0 | 00 00 00 00 00 00 00 00 - 00 00 00 00 00 00 00 00
  30000F00 | 00 00 00 00 00 00 00 00 - 00 00 00 00 00 00 00 00
  30000F10 | 00 00 00 00 00 00 00 00 - 00 00 00 00 00 00 00 00
  30000F20 | 00 00
vtmac_pkt_payload_commit(30000320) encryption, dma 30001378(70), allo 30001360(96)
  30001378 | E8 8E 5F 6F 5F F2 C3 8C - CF 4A 73 4F 33 FE 19 69
  30001388 | 7D D1 14 CC DC 43 E6 94 - AE DC 16 5B F0 35 8B 0D
  30001398 | C6 C9 42 44 77 35 C4 2E - 7B 4C 74 9E 0A 2B B5 20
  300013A8 | EC A2 04 52 B7 30 95 5F - A0 A9 FE F7 EE 36 E7 49
  300013B8 | 32 C0 52 60 5E 00
max segmentation size 255 -> 239 (one rs block)(D-3)
max segmentation size 255 -> 478 (two rs block)(D-3)
last pkt(90 + pad 1) tx.duration = 20
vtdmac_tx_populate(30001C80)
  30001CCC | 68 00 00 1C 00 00 00 00
  30001CD4 | 42 00 00 00 04 00 00 62 - FF FF FF 03 00 00 00 00
  30001CE4 | 00 00 00 00 00 00 00 00 - 00 00 00 00
vtdmac_tx_populate(30001AA0)
  30001AEC | 02 80 00 5B 20 14 10 12
  30001AF4 | 01 00 46 69 88 BE 3A DC - 04 00 00 00 0D 7B 00 00
  30001B04 | 00 00
  30001378 | E8 8E 5F 6F 5F F2 C3 8C - CF 4A 73 4F 33 FE 19 69
  30001388 | 7D D1 14 CC DC 43 E6 94 - AE DC 16 5B F0 35 8B 0D
  30001398 | C6 C9 42 44 77 35 C4 2E - 7B 4C 74 9E 0A 2B B5 20
  300013A8 | EC A2 04 52 B7 30 95 5F - A0 A9 FE F7 EE 36 E7 49
  300013B8 | 32 C0 52 60 5E 00 00
. seq=000a
Total Send Tx 1, AvgTime 5303 CSMA Success, CR1 = 0x00022013
msec

vt# 
Rx Packet : (type 2, size 8)
****************************************************************
  30003B50 | 00 00 0C 20 59 D1 0C A8
****************************************************************

ACK, CR1 = 0x00002017
pinge 4 1 r  s 50


Ping Test : size 57, loops 1
vtmac_pkt_submit_encrypt_op(30000280) unencryption, dma 30001300(66), allo 30001300(66)
  30001300 | BE 00 00 00 04 40 56 50 - 39 54 0B 00 2C 27 00 20
  30001310 | 00 00 00 00 00 00 00 00 - 00 00 00 00 00 00 00 00
  30001320 | 00 00 00 00 00 00 00 00 - 00 00 00 00 00 00 00 00
  30001330 | 00 00 00 00 00 00 00 00 - 00 00 00 00 00 00 00 00
  30001340 | 00 00
vtmac_pkt_payload_commit(300000E0) encryption, dma 30001558(70), allo 30001540(96)
  30001558 | 9F 75 86 D7 91 40 B9 C0 - FC 6D 2A 91 D9 EB 3E 7C
  30001568 | 7D 76 3E 52 6B E1 A3 1C - 33 12 2B 08 20 FA F9 0D
  30001578 | 8A 5A 26 22 CE D2 47 6A - C9 C6 35 06 09 E0 59 D7
  30001588 | 22 0B 53 8A B6 E3 4F 09 - D4 19 31 7D AA 1C 41 8C
  30001598 | E3 2E DE 9E E7 B4
max segmentation size 255 -> 239 (one rs block)(D-3)
max segmentation size 255 -> 478 (two rs block)(D-3)
last pkt(90 + pad 1) tx.duration = 20
vtdmac_tx_populate(30001FA0)
  30001FEC | 68 00 00 1C 00 00 00 00
  30001FF4 | 42 00 00 00 04 00 00 62 - FF FF FF 03 00 00 00 00
  30002004 | 00 00 00 00 00 00 00 00 - 00 00 00 00
vtdmac_tx_populate(30002360)
  300023AC | 04 80 00 5B 20 14 10 0C
  300023B4 | 01 00 46 69 88 BF 3A DC - 04 00 00 00 0D 7C 00 00
  300023C4 | 00 00
  30001558 | 9F 75 86 D7 91 40 B9 C0 - FC 6D 2A 91 D9 EB 3E 7C
  30001568 | 7D 76 3E 52 6B E1 A3 1C - 33 12 2B 08 20 FA F9 0D
  30001578 | 8A 5A 26 22 CE D2 47 6A - C9 C6 35 06 09 E0 59 D7
  30001588 | 22 0B 53 8A B6 E3 4F 09 - D4 19 31 7D AA 1C 41 8C
  30001598 | E3 2E DE 9E E7 B4 00
. seq=000b
Total Send Tx 1, CSMA Success, CR1 = 0x00022013
AvgTime 134 msec

vt# 
Rx Packet : (type 2, size 8)
****************************************************************
  30003C70 | 00 00 0C 20 C7 77 0C A8
****************************************************************

ACK, CR1 = 0x00002017
pinge 4 1 r  s 50


Ping Test : size 57, loops 1
vtmac_pkt_submit_encrypt_op(300001C0) unencryption, dma 300014E0(66), allo 300014E0(66)
  300014E0 | BE 00 00 00 04 40 56 50 - 39 54 0C 00 E0 05 00 30
  300014F0 | 00 00 00 00 00 00 00 00 - 00 00 00 00 00 00 00 00
  30001500 | 00 00 00 00 00 00 00 00 - 00 00 00 00 00 00 00 00
  30001510 | 00 00 00 00 00 00 00 00 - 00 00 00 00 00 00 00 00
  30001520 | 00 00
vtmac_pkt_payload_commit(30000160) encryption, dma 300011F8(70), allo 300011E0(96)
  300011F8 | 10 78 AF 4F 99 67 CD E7 - C5 53 71 AF E1 C6 30 20
  30001208 | AF 8D 34 F1 32 36 D3 63 - FC 82 07 3D 21 06 C7 81
  30001218 | C5 B1 47 42 29 B9 BF C0 - 20 09 A3 05 F7 49 D5 1B
  30001228 | 94 94 79 45 B9 FF 1A 66 - 11 16 8A B2 82 1A 04 BE
  30001238 | 45 6D 71 25 19 AA
max segmentation size 255 -> 239 (one rs block)(D-3)
max segmentation size 255 -> 478 (two rs block)(D-3)
last pkt(90 + pad 1) tx.duration = 20
vtdmac_tx_populate(300020E0)
  3000212C | 68 00 00 1C 00 00 00 00
  30002134 | 42 00 00 00 04 00 00 62 - FF FF FF 03 00 00 00 00
  30002144 | 00 00 00 00 00 00 00 00 - 00 00 00 00
vtdmac_tx_populate(30002540)
  3000258C | 06 80 00 5B 20 14 10 0C
  30002594 | 01 00 46 69 88 C0 3A DC - 04 00 00 00 0D 7D 00 00
  300025A4 | 00 00
  300011F8 | 10 78 AF 4F 99 67 CD E7 - C5 53 71 AF E1 C6 30 20
  30001208 | AF 8D 34 F1 32 36 D3 63 - FC 82 07 3D 21 06 C7 81
  30001218 | C5 B1 47 42 29 B9 BF C0 - 20 09 A3 05 F7 49 D5 1B
  30001228 | 94 94 79 45 B9 FF 1A 66 - 11 16 8A B2 82 1A 04 BE
  30001238 | 45 6D 71 25 19 AA 00
. seq=000c
Total Send Tx 1, ACSMA Success, CR1 = 0x00022013
vgTime 133 msec

vt# 
Rx Packet : (type 2, size 8)
****************************************************************
  30003D90 | 00 00 0C 20 BE B8 0C A8
****************************************************************

ACK, CR1 = 0x00002017
pinge 4 1 r  s 50


Ping Test : size 57, loops 1
vtmac_pkt_submit_encrypt_op(30000240) unencryption, dma 30000E80(66), allo 30000E80(66)
  30000E80 | BE 00 00 00 04 40 56 50 - 39 54 0D 00 E0 05 00 30
  30000E90 | 00 00 00 00 00 00 00 00 - 00 00 00 00 00 00 00 00
  30000EA0 | 00 00 00 00 00 00 00 00 - 00 00 00 00 00 00 00 00
  30000EB0 | 00 00 00 00 00 00 00 00 - 00 00 00 00 00 00 00 00
  30000EC0 | 00 00
vtmac_pkt_payload_commit(300002C0) encryption, dma 30000AD8(70), allo 30000AC0(96)
  30000AD8 | CF 35 7A 14 8F F3 CF AC - 09 70 34 C9 AB FA 2B 5F
  30000AE8 | 5B CA 69 E4 18 7A 2C CE - 4D B3 85 64 75 AE 42 EB
  30000AF8 | 43 98 FF D1 C0 E5 F1 04 - 40 01 40 F2 50 E8 19 09
  30000B08 | F0 AC 03 52 BC D6 6A 6B - 28 AE 8C E2 DB DA 91 C0
  30000B18 | EB 09 CC 60 93 B8
max segmentation size 255 -> 239 (one rs block)(D-3)
max segmentation size 255 -> 478 (two rs block)(D-3)
last pkt(90 + pad 1) tx.duration = 20
vtdmac_tx_populate(30001F00)
  30001F4C | 68 00 00 1C 00 00 00 00
  30001F54 | 42 00 00 00 04 00 00 62 - FF FF FF 03 00 00 00 00
  30001F64 | 00 00 00 00 00 00 00 00 - 00 00 00 00
vtdmac_tx_populate(300024A0)
  300024EC | 08 80 00 5B 20 14 10 0C
  300024F4 | 01 00 46 69 88 C1 3A DC - 04 00 00 00 0D 7E 00 00
  30002504 | 00 00
  30000AD8 | CF 35 7A 14 8F F3 CF AC - 09 70 34 C9 AB FA 2B 5F
  30000AE8 | 5B CA 69 E4 18 7A 2C CE - 4D B3 85 64 75 AE 42 EB
  30000AF8 | 43 98 FF D1 C0 E5 F1 04 - 40 01 40 F2 50 E8 19 09
  30000B08 | F0 AC 03 52 BC D6 6A 6B - 28 AE 8C E2 DB DA 91 C0
  30000B18 | EB 09 CC 60 93 B8 00
. seq=000d
Total Send Tx 1, ACSMA Success, CR1 = 0x00022013
vgTime 133 msec

vt# 
Rx Packet : (type 2, size 8)
****************************************************************
  30003EB0 | 00 00 0C 20 FE F8 0C A8
****************************************************************

ACK, CR1 = 0x00002017
pinge 4 1 r  s 50


Ping Test : size 57, loops 1
vtmac_pkt_submit_encrypt_op(30000440) unencryption, dma 30000D60(66), allo 30000D60(66)
  30000D60 | BE 00 00 00 04 40 56 50 - 39 54 0E 00 E0 05 00 30
  30000D70 | 00 00 00 00 00 00 00 00 - 00 00 00 00 00 00 00 00
  30000D80 | 00 00 00 00 00 00 00 00 - 00 00 00 00 00 00 00 00
  30000D90 | 00 00 00 00 00 00 00 00 - 00 00 00 00 00 00 00 00
  30000DA0 | 00 00
vtmac_pkt_payload_commit(300000C0) encryption, dma 300013D8(70), allo 300013C0(96)
  300013D8 | 1D 4E B7 D0 07 31 FF 94 - 39 C2 E2 00 4C 0B D8 E7
  300013E8 | B4 B4 A3 37 CE C3 86 B0 - 71 59 AD A0 2A 35 BC C2
  300013F8 | 8C EC 4C C4 A1 76 13 74 - 23 CB 5F 24 FB 89 DE 3D
  30001408 | C3 8A A2 58 63 10 62 E0 - 8C D2 A7 B8 72 58 16 53
  30001418 | D8 E3 3E 92 4A 9E
max segmentation size 255 -> 239 (one rs block)(D-3)
max segmentation size 255 -> 478 (two rs block)(D-3)
last pkt(90 + pad 1) tx.duration = 20
vtdmac_tx_populate(30002680)
  300026CC | 68 00 00 1C 00 00 00 00
  300026D4 | 42 00 00 00 04 00 00 62 - FF FF FF 03 00 00 00 00
  300026E4 | 00 00 00 00 00 00 00 00 - 00 00 00 00
vtdmac_tx_populate(30002720)
  3000276C | 0A 80 00 5B 20 14 10 12
  30002774 | 01 00 46 69 88 C2 3A DC - 04 00 00 00 0D 7F 00 00
  30002784 | 00 00
  300013D8 | 1D 4E B7 D0 07 31 FF 94 - 39 C2 E2 00 4C 0B D8 E7
  300013E8 | B4 B4 A3 37 CE C3 86 B0 - 71 59 AD A0 2A 35 BC C2
  300013F8 | 8C EC 4C C4 A1 76 13 74 - 23 CB 5F 24 FB 89 DE 3D
  30001408 | C3 8A A2 58 63 10 62 E0 - 8C D2 A7 B8 72 58 16 53
  30001418 | D8 E3 3E 92 4A 9E 00
. seq=000e
Total Send Tx 1, AvgTime 202 msecCSMA Success, CR1 = 0x00022013


vt# 
Rx Packet : (type 2, size 8)
****************************************************************
  30003FD0 | 00 00 0C 20 4D 79 0C A8
****************************************************************

ACK, CR1 = 0x00002017
pinge 4 1 r  s 50


Ping Test : size 57, loops 1
vtmac_pkt_submit_encrypt_op(30000360) unencryption, dma 30001180(66), allo 30001180(66)
  30001180 | BE 00 00 00 04 40 56 50 - 39 54 0F 00 E0 05 00 30
  30001190 | 00 00 00 00 00 00 00 00 - 00 00 00 00 00 00 00 00
  300011A0 | 00 00 00 00 00 00 00 00 - 00 00 00 00 00 00 00 00
  300011B0 | 00 00 00 00 00 00 00 00 - 00 00 00 00 00 00 00 00
  300011C0 | 00 00
vtmac_pkt_payload_commit(30000500) encryption, dma 300015B8(70), allo 300015A0(96)
  300015B8 | 92 D9 CA 12 B0 E7 7B A7 - A6 4B D8 82 1A 36 C4 5B
  300015C8 | 7F 9F E5 F4 41 8B 9B 41 - B7 38 BC 61 96 06 00 D7
  300015D8 | 85 22 B6 49 A7 49 DD CE - 8E E8 50 8B 2B 0F 80 20
  300015E8 | ED 87 11 5B 64 DA FD 8B - 83 D8 05 48 BD 44 E1 BD
  300015F8 | 59 F1 42 08 FF 27
max segmentation size 255 -> 239 (one rs block)(D-3)
max segmentation size 255 -> 478 (two rs block)(D-3)
last pkt(90 + pad 1) tx.duration = 20
vtdmac_tx_populate(30002B80)
  30002BCC | 68 00 00 1C 00 00 00 00
  30002BD4 | 42 00 00 00 04 00 00 62 - FF FF FF 03 00 00 00 00
  30002BE4 | 00 00 00 00 00 00 00 00 - 00 00 00 00
vtdmac_tx_populate(30002E00)
  30002E4C | 0C 80 00 5B 20 14 10 0C
  30002E54 | 01 00 46 69 88 C3 3A DC - 04 00 00 00 0D 80 00 00
  30002E64 | 00 00
  300015B8 | 92 D9 CA 12 B0 E7 7B A7 - A6 4B D8 82 1A 36 C4 5B
  300015C8 | 7F 9F E5 F4 41 8B 9B 41 - B7 38 BC 61 96 06 00 D7
  300015D8 | 85 22 B6 49 A7 49 DD CE - 8E E8 50 8B 2B 0F 80 20
  300015E8 | ED 87 11 5B 64 DA FD 8B - 83 D8 05 48 BD 44 E1 BD
  300015F8 | 59 F1 42 08 FF 27 00
. seq=000f
Total Send Tx 1, CSMA Success, CR1 = 0x00022013
AvgTime 134 msec

vt# 
Rx Packet : (type 2, size 8)
****************************************************************
  30004210 | 00 00 0C 20 FC 8C 0C A8
****************************************************************

ACK, CR1 = 0x00002017
task_loop: DCU PKT received (25)

      03 00 03 00 56 83 11 39 02 00 00 03 00 00 07 00 
      01 04 04 46 b5 11 00 ee 54 
vtmac_pkt_submit_encrypt_op(300000E0) unencryption, dma 30000400(31), allo 30000400(31)
  30000400 | BE 00 00 00 03 40 56 88 - 02 00 56 83 11 39 02 00
  30000410 | 00 03 00 00 07 00 01 04 - 04 46 B5 11 00 EE 54
vtmac_pkt_payload_commit(30000440) encryption, dma 300012B8(35), allo 300012A0(96)
  300012B8 | 3F CE 43 D1 7F F9 8A 37 - E4 8C AA BD F7 E9 E9 70
  300012C8 | BD 6F B1 06 47 1A 81 56 - D9 DF 62 9F 18 0A 70 5C
  300012D8 | 90 C4 DF
max segmentation size 255 -> 239 (one rs block)(D-3)
max segmentation size 255 -> 478 (two rs block)(D-3)
last pkt(55 + pad 9) tx.duration = 18
vtdmac_tx_populate(30003260)
  300032AC | 68 00 00 1C 00 00 00 00
  300032B4 | 42 00 00 00 03 00 00 60 - FF FF FF 03 00 00 00 00
  300032C4 | 00 00 00 00 00 00 00 00 - 00 00 00 00
vtdmac_tx_populate(30002CC0)
  30002D0C | 0E 80 00 40 20 12 10 12
  30002D14 | 01 00 23 69 88 C4 3A DC - 03 00 00 00 0D 81 00 00
  30002D24 | 00 00
  300012B8 | 3F CE 43 D1 7F F9 8A 37 - E4 8C AA BD F7 E9 E9 70
  300012C8 | BD 6F B1 06 47 1A 81 56 - D9 DF 62 9F 18 0A 70 5C
  300012D8 | 90 C4 DF 00 00 00 00 00 - 00 00 00 00
CSMA Success, CR1 = 0x00022013

Rx Packet : (type 2, size 8)
****************************************************************
  300040F0 | 00 00 0C 20 22 FF 0C A8
****************************************************************

ACK, CR1 = 0x00002017

Rx Packet : (type 1, size 85)
****************************************************************
  30004330 | 4D 00 08 10 60 5E 13 20 - 01 00 31 69 88 02 3A DC
  30004340 | 00 00 03 00 0D 8B 51 12 - A0 00 C3 6E 05 26 DE DF
  30004350 | 31 62 AC BE AD 9E BC 93 - 68 74 74 80 3D 1D BE DF
  30004360 | A0 28 D2 C7 A1 82 C6 2D - 92 1A 76 87 63 A8 77 3D
  30004370 | 01 B9 5C C7 40 9D D8 4B - BB AA 4F 00 00 00 00 00
  30004380 | 00 00 00 F9 07
****************************************************************

Decrypt Rx Packet :
    300014F0 | 4D 00 08 10 60 5E 13 20 - 01 00 31 69 88 02 3A DC
    30001500 | 00 00 03 00 0D 8B 51 12 - A0 00 BE 00 03 00 00 40
    30001510 | 56 88 00 00 56 83 11 39 - 02 00 00 83 00 00 15 00
    30001520 | 01 04 04 46 B5 11 00 01 - 02 03 00 00 66 01 03 01
    30001530 | 06 01 01 01 00 F6 54

****PHY Parameter(FCC)******************************************
  phase = 3
  lqi = 94(0x5E)
  tone_map = 0xFFFFFF(expect 0xFFFFFF)
  modulation = D-3(expect D-3)
  det_scale = 20
  noise_thr = 30
****************************************************************

task_loop: PLC PKT received (35) from Short Addr

      56 83 11 39 02 00 00 83 00 00 15 00 01 04 04 46 
      b5 11 00 01 02 03 00 00 66 01 03 01 06 01 01 01 
      00 f6 54 
vtsdk_send VTSDK_PORT_DCU
task_loop: DCU PKT received (25)

      03 00 04 00 56 53 87 38 02 00 00 03 00 00 07 00 
      01 04 04 e6 c4 11 00 e2 54 
vtmac_pkt_submit_encrypt_op(30000040) unencryption, dma 30000320(31), allo 30000320(31)
  30000320 | BE 00 00 00 04 40 56 88 - 03 00 56 53 87 38 02 00
  30000330 | 00 03 00 00 07 00 01 04 - 04 E6 C4 11 00 E2 54
vtmac_pkt_payload_commit(300004A0) encryption, dma 30000E98(35), allo 30000E80(96)
  30000E98 | 11 2E D5 3A 4B 1C 51 3B - B8 68 2D 42 90 40 57 38
  30000EA8 | 1E 3A A5 0F 85 51 0E 7D - F8 10 66 45 9B 80 1E 32
  30000EB8 | E3 A7 B3
max segmentation size 255 -> 239 (one rs block)(D-3)
max segmentation size 255 -> 478 (two rs block)(D-3)
last pkt(55 + pad 9) tx.duration = 18
vtdmac_tx_populate(30001960)
  300019AC | 68 00 00 1C 00 00 00 00
  300019B4 | 42 00 00 00 04 00 00 62 - FF FF FF 03 00 00 00 00
  300019C4 | 00 00 00 00 00 00 00 00 - 00 00 00 00
vtdmac_tx_populate(30003120)
  3000316C | 00 80 00 40 20 12 10 0C
  30003174 | 01 00 23 69 88 C5 3A DC - 04 00 00 00 0D 82 00 00
  30003184 | 00 00
  30000E98 | 11 2E D5 3A 4B 1C 51 3B - B8 68 2D 42 90 40 57 38
  30000EA8 | 1E 3A A5 0F 85 51 0E 7D - F8 10 66 45 9B 80 1E 32
  30000EB8 | E3 A7 B3 00 00 00 00 00 - 00 00 00 00
CSMA Success, CR1 = 0x00022013

Rx Packet : (type 2, size 8)
****************************************************************
  30004450 | 00 00 0C 20 B9 BE 0C A8
****************************************************************

ACK, CR1 = 0x00002017

Rx Packet : (type 1, size 85)
****************************************************************
  300047B0 | 4D 00 08 10 60 5F 13 20 - 01 00 31 69 88 9E 3A DC
  300047C0 | 00 00 04 00 0D 39 00 00 - 00 00 6F 15 C1 47 52 7A
  300047D0 | 8A 16 28 6F 72 A1 5F 19 - 0D D0 BF 78 60 F2 C5 33
  300047E0 | 78 E0 7B BA 06 BE 26 33 - DE F8 FE 0B 32 AE 36 BA
  300047F0 | 38 27 3D 9F F2 62 5E 9A - A1 7F 8B 00 00 00 00 00
  30004800 | 00 00 00 C8 FD
****************************************************************

Decrypt Rx Packet :
    30000AD0 | 4D 00 08 10 60 5F 13 20 - 01 00 31 69 88 9E 3A DC
    30000AE0 | 00 00 04 00 0D 39 00 00 - 00 00 BE 00 04 00 00 40
    30000AF0 | 56 88 00 00 56 53 87 38 - 02 00 00 83 00 00 15 00
    30000B00 | 01 04 04 E6 C4 11 00 01 - 02 03 00 00 66 01 03 01
    30000B10 | 06 01 01 01 00 EA 54

****PHY Parameter(FCC)******************************************
  phase = 3
  lqi = 95(0x5F)
  tone_map = 0xFFFFFF(expect 0xFFFFFF)
  modulation = D-3(expect D-3)
  det_scale = 20
  noise_thr = 30
****************************************************************

task_loop: PLC PKT received (35) from Short Addr

      56 53 87 38 02 00 00 83 00 00 15 00 01 04 04 e6 
      c4 11 00 01 02 03 00 00 66 01 03 01 06 01 01 01 
      00 ea 54 
vtsdk_send VTSDK_PORT_DCU

Rx Packet : (type 1, size 99)
****************************************************************
  300049F0 | 5B 00 07 10 60 67 14 20 - 01 00 46 69 88 03 3A DC
  30004A00 | 00 00 03 00 0D 8C 51 12 - A0 00 00 B0 73 AF 7E E9
  30004A10 | 93 88 EA A0 5B 3E F4 EE - A8 D0 B4 B9 01 80 58 BF
  30004A20 | 8B 7A E2 4D B8 8D 6C 01 - 49 7A 7A 59 C1 5E BB 38
  30004A30 | F3 B6 EA CE 5C AD 71 85 - 56 C0 75 CF 73 07 48 52
  30004A40 | 39 20 DC 19 31 44 DE C6 - 24 00 BE A8 B2 22 ED 3A
  30004A50 | 00 24 AF
****************************************************************

Decrypt Rx Packet :
    30001DD0 | 5B 00 07 10 60 67 14 20 - 01 00 46 69 88 03 3A DC
    30001DE0 | 00 00 03 00 0D 8C 51 12 - A0 00 BE 00 03 00 00 40
    30001DF0 | 56 50 39 72 01 00 84 23 - 00 20 00 00 00 00 00 00
    30001E00 | 00 00 00 00 00 00 00 00 - 00 00 00 00 00 00 00 00
    30001E10 | 00 00 00 00 00 00 00 00 - 00 00 00 00 00 00 00 00
    30001E20 | 00 00 00 00 00 00 00 00 - 00 00 00 00

****PHY Parameter(FCC)******************************************
  phase = 3
  lqi = 103(0x67)
  tone_map = 0xFFFFFF(expect 0xFFFFFF)
  modulation = D-3(expect D-3)
  det_scale = 20
  noise_thr = 30
****************************************************************

vtesc_process() r ping_seq:0001
vtmac_pkt_submit_encrypt_op(30000420) unencryption, dma 30001180(66), allo 30001180(66)
  30001180 | BE 00 00 00 03 40 56 50 - 39 61 01 00 84 23 00 20
  30001190 | 00 00 00 00 00 00 00 00 - 00 00 00 00 00 00 00 00
  300011A0 | 00 00 00 00 00 00 00 00 - 00 00 00 00 00 00 00 00
  300011B0 | 00 00 00 00 00 00 00 00 - 00 00 00 00 00 00 00 00
  300011C0 | 00 00
vtmac_pkt_payload_commit(30000160) encryption, dma 30000EF8(70), allo 30000EE0(96)
  30000EF8 | CB 3E 74 76 C4 4C 97 FD - AF 6E 74 43 8A EE 30 B8
  30000F08 | DC C3 EE 4B CF B2 80 A2 - EC 30 27 34 58 4B CF D8
  30000F18 | 61 CA 6A 68 C1 7A 7D 6B - D3 B0 85 34 B4 25 13 51
  30000F28 | E5 6E 29 DF 7F 69 81 C5 - 8B 97 F4 1A CA 88 7B 4C
  30000F38 | 9B 87 14 12 B3 28
max segmentation size 255 -> 239 (one rs block)(D-3)
max segmentation size 255 -> 478 (two rs block)(D-3)
last pkt(90 + pad 1) tx.duration = 20
vtdmac_tx_populate(30002040)
  3000208C | 68 00 00 1C 00 00 00 00
  30002094 | 42 00 00 00 03 00 00 60 - FF FF FF 03 00 00 00 00
  300020A4 | 00 00 00 00 00 00 00 00 - 00 00 00 00
vtdmac_tx_populate(300022C0)
  3000230C | 02 80 00 5B 20 14 10 12
  30002314 | 01 00 46 69 88 C6 3A DC - 03 00 00 00 0D 83 00 00
  30002324 | 00 00
  30000EF8 | CB 3E 74 76 C4 4C 97 FD - AF 6E 74 43 8A EE 30 B8
  30000F08 | DC C3 EE 4B CF B2 80 A2 - EC 30 27 34 58 4B CF D8
  30000F18 | 61 CA 6A 68 C1 7A 7D 6B - D3 B0 85 34 B4 25 13 51
  30000F28 | E5 6E 29 DF 7F 69 81 C5 - 8B 97 F4 1A CA 88 7B 4C
  30000F38 | 9B 87 14 12 B3 28 00
CSMA Success, CR1 = 0x00022013

Rx Packet : (type 2, size 8)
****************************************************************
  30004B10 | 00 00 0C 20 23 83 0C A8
****************************************************************

ACK, CR1 = 0x00002017

Rx Packet : (type 1, size 99)
****************************************************************
  30004C30 | 5B 00 07 10 60 63 14 20 - 01 00 46 69 88 04 3A DC
  30004C40 | 00 00 03 00 0D 8D 51 12 - A0 00 A4 5C 6E 63 07 91
  30004C50 | 37 C2 F1 02 64 F1 8E 67 - 78 C8 68 B5 E3 EA 13 A2
  30004C60 | 19 6E 95 DE A4 53 33 C2 - A0 9D 39 67 14 2A F5 15
  30004C70 | 4E 88 2E A6 9E 28 32 EA - 13 E6 BA 08 29 81 B4 AA
  30004C80 | 96 8C 2E 25 02 5D 18 D4 - 2E 99 67 5B C4 A4 F4 9E
  30004C90 | 00 D9 85
****************************************************************

Decrypt Rx Packet :
    30002910 | 5B 00 07 10 60 63 14 20 - 01 00 46 69 88 04 3A DC
    30002920 | 00 00 03 00 0D 8D 51 12 - A0 00 BE 00 03 00 00 40
    30002930 | 56 50 39 72 02 00 E0 05 - 00 30 00 00 00 00 00 00
    30002940 | 00 00 00 00 00 00 00 00 - 00 00 00 00 00 00 00 00
    30002950 | 00 00 00 00 00 00 00 00 - 00 00 00 00 00 00 00 00
    30002960 | 00 00 00 00 00 00 00 00 - 00 00 00 00

****PHY Parameter(FCC)******************************************
  phase = 3
  lqi = 99(0x63)
  tone_map = 0xFFFFFF(expect 0xFFFFFF)
  modulation = D-3(expect D-3)
  det_scale = 20
  noise_thr = 30
****************************************************************

vtesc_process() r ping_seq:0002
vtmac_pkt_submit_encrypt_op(300000E0) unencryption, dma 30001540(66), allo 30001540(66)
  30001540 | BE 00 00 00 03 40 56 50 - 39 61 02 00 E0 05 00 30
  30001550 | 00 00 00 00 00 00 00 00 - 00 00 00 00 00 00 00 00
  30001560 | 00 00 00 00 00 00 00 00 - 00 00 00 00 00 00 00 00
  30001570 | 00 00 00 00 00 00 00 00 - 00 00 00 00 00 00 00 00
  30001580 | 00 00
vtmac_pkt_payload_commit(300003C0) encryption, dma 300014F8(70), allo 300014E0(96)
  300014F8 | F6 B8 8E 4E C1 24 E7 65 - 4F 0F B2 5E 0F 44 37 F3
  30001508 | 6A 91 CA 65 C8 81 23 1E - 42 A9 86 E5 85 C1 8B 14
  30001518 | F1 C0 D8 5E C3 6E 65 26 - D1 89 2B 34 4F 7C BF 2F
  30001528 | D5 9F AA 5C FD 49 3C B9 - 3C 38 67 8F 6B A7 81 F1
  30001538 | 76 AC 8D 0E FA 1C
max segmentation size 255 -> 239 (one rs block)(D-3)
max segmentation size 255 -> 478 (two rs block)(D-3)
last pkt(90 + pad 1) tx.duration = 20
vtdmac_tx_populate(30002400)
  3000244C | 68 00 00 1C 00 00 00 00
  30002454 | 42 00 00 00 03 00 00 60 - FF FF FF 03 00 00 00 00
  30002464 | 00 00 00 00 00 00 00 00 - 00 00 00 00
vtdmac_tx_populate(30001E60)
  30001EAC | 04 80 00 5B 20 14 10 0C
  30001EB4 | 01 00 46 69 88 C7 3A DC - 03 00 00 00 0D 84 00 00
  30001EC4 | 00 00
  300014F8 | F6 B8 8E 4E C1 24 E7 65 - 4F 0F B2 5E 0F 44 37 F3
  30001508 | 6A 91 CA 65 C8 81 23 1E - 42 A9 86 E5 85 C1 8B 14
  30001518 | F1 C0 D8 5E C3 6E 65 26 - D1 89 2B 34 4F 7C BF 2F
  30001528 | D5 9F AA 5C FD 49 3C B9 - 3C 38 67 8F 6B A7 81 F1
  30001538 | 76 AC 8D 0E FA 1C 00
CSMA Success, CR1 = 0x00022013

Rx Packet : (type 2, size 8)
****************************************************************
  30004D50 | 00 00 0C 20 E1 EF 0C A8
****************************************************************

ACK, CR1 = 0x00002017

Rx Packet : (type 1, size 58)
****************************************************************
  30004F90 | 32 00 0A 10 60 5F 11 20 - 01 00 14 69 88 05 3A DC
  30004FA0 | 00 00 03 00 0D 8E 51 12 - A0 00 69 2B 64 93 FD 61
  30004FB0 | B3 F8 88 09 ED 29 0B D6 - 8D A1 93 38 7D 8E 00 00
  30004FC0 | 00 00 00 00 00 00 00 00 - 50 E7
****************************************************************

Decrypt Rx Packet :
    30001430 | 32 00 0A 10 60 5F 11 20 - 01 00 14 69 88 05 3A DC
    30001440 | 00 00 03 00 0D 8E 51 12 - A0 00 BE 00 03 00 00 40
    30001450 | 56 50 07 72 03 00 84 23 - 00 20

****PHY Parameter(FCC)******************************************
  phase = 3
  lqi = 95(0x5F)
  tone_map = 0xFFFFFF(expect 0xFFFFFF)
  modulation = D-3(expect D-3)
  det_scale = 20
  noise_thr = 30
****************************************************************

vtesc_process() r ping_seq:0003
vtmac_pkt_submit_encrypt_op(300004C0) unencryption, dma 300004A0(16), allo 300004A0(16)
  300004A0 | BE 00 00 00 03 40 56 50 - 07 61 03 00 84 23 00 20
vtmac_pkt_payload_commit(30000180) encryption, dma 300011F8(20), allo 300011E0(96)
  300011F8 | 0D 8A A0 FB 47 4D FF 28 - B9 EE 7C C8 85 D1 4B 3A
  30001208 | 2F A5 85 E8
max segmentation size 255 -> 239 (one rs block)(D-3)
max segmentation size 255 -> 478 (two rs block)(D-3)
last pkt(40 + pad 10) tx.duration = 17
vtdmac_tx_populate(300029A0)
  300029EC | 68 00 00 1C 00 00 00 00
  300029F4 | 42 00 00 00 03 00 00 60 - FF FF FF 03 00 00 00 00
  30002A04 | 00 00 00 00 00 00 00 00 - 00 00 00 00
vtdmac_tx_populate(30002680)
  300026CC | 06 80 00 32 20 11 10 12
  300026D4 | 01 00 14 69 88 C8 3A DC - 03 00 00 00 0D 85 00 00
  300026E4 | 00 00
  300011F8 | 0D 8A A0 FB 47 4D FF 28 - B9 EE 7C C8 85 D1 4B 3A
  30001208 | 2F A5 85 E8 00 00 00 00 - 00 00 00 00 00 00
CSMA Success, CR1 = 0x00022013

Rx Packet : (type 2, size 8)
****************************************************************
  300052F0 | 00 00 0C 20 E5 D9 0C A8
****************************************************************

ACK, CR1 = 0x00002017

Rx Packet : (type 1, size 58)
****************************************************************
  300050B0 | 32 00 0A 10 60 6A 11 20 - 01 00 14 69 88 06 3A DC
  300050C0 | 00 00 03 00 0D 8F 51 12 - A0 00 D0 07 61 E2 4C 0A
  300050D0 | B3 F3 D7 54 8B 96 39 E0 - F8 2E 0B 91 99 FE 00 00
  300050E0 | 00 00 00 00 00 00 00 00 - 82 B4
****************************************************************

Decrypt Rx Packet :
    300016D0 | 32 00 0A 10 60 6A 11 20 - 01 00 14 69 88 06 3A DC
    300016E0 | 00 00 03 00 0D 8F 51 12 - A0 00 BE 00 03 00 00 40
    300016F0 | 56 50 07 72 04 00 E0 05 - 00 30

****PHY Parameter(FCC)******************************************
  phase = 3
  lqi = 106(0x6A)
  tone_map = 0xFFFFFF(expect 0xFFFFFF)
  modulation = D-3(expect D-3)
  det_scale = 20
  noise_thr = 30
****************************************************************

vtesc_process() r ping_seq:0004
vtmac_pkt_submit_encrypt_op(300004C0) unencryption, dma 300004A0(16), allo 300004A0(16)
  300004A0 | BE 00 00 00 03 40 56 50 - 07 61 04 00 E0 05 00 30
vtmac_pkt_payload_commit(30000360) encryption, dma 30000AD8(20), allo 30000AC0(96)
  30000AD8 | 57 BA 89 52 4B DF EB C1 - 53 B8 C5 95 3C 1E 41 D9
  30000AE8 | 96 1E 91 2B
max segmentation size 255 -> 239 (one rs block)(D-3)
max segmentation size 255 -> 478 (two rs block)(D-3)
last pkt(40 + pad 10) tx.duration = 17
vtdmac_tx_populate(30002CC0)
  30002D0C | 68 00 00 1C 00 00 00 00
  30002D14 | 42 00 00 00 03 00 00 60 - FF FF FF 03 00 00 00 00
  30002D24 | 00 00 00 00 00 00 00 00 - 00 00 00 00
vtdmac_tx_populate(30002EA0)
  30002EEC | 08 80 00 32 20 11 10 0C
  30002EF4 | 01 00 14 69 88 C9 3A DC - 03 00 00 00 0D 86 00 00
  30002F04 | 00 00
  30000AD8 | 57 BA 89 52 4B DF EB C1 - 53 B8 C5 95 3C 1E 41 D9
  30000AE8 | 96 1E 91 2B 00 00 00 00 - 00 00 00 00 00 00
CSMA Success, CR1 = 0x00022013

Rx Packet : (type 2, size 8)
****************************************************************
  30005530 | 00 00 0C 20 E2 8E 0C A8
****************************************************************

ACK, CR1 = 0x00002017

Rx Packet : (type 1, size 58)
****************************************************************
  30005650 | 32 00 0A 10 60 63 11 20 - 01 00 14 69 88 07 3A DC
  30005660 | 00 00 03 00 0D 90 51 12 - A0 00 97 94 0C F3 12 84
  30005670 | E3 C5 9E 88 50 85 52 16 - AE 35 CF 94 B1 11 00 00
  30005680 | 00 00 00 00 00 00 00 00 - BD 17
****************************************************************

Decrypt Rx Packet :
    30000D70 | 32 00 0A 10 60 63 11 20 - 01 00 14 69 88 07 3A DC
    30000D80 | 00 00 03 00 0D 90 51 12 - A0 00 BE 00 03 00 00 40
    30000D90 | 56 50 07 54 05 00 84 23 - 00 20

****PHY Parameter(FCC)******************************************
  phase = 3
  lqi = 99(0x63)
  tone_map = 0xFFFFFF(expect 0xFFFFFF)
  modulation = D-3(expect D-3)
  det_scale = 20
  noise_thr = 30
****************************************************************

vtesc_process() T ping_seq:0005

Rx Packet : (type 1, size 58)
****************************************************************
  30005890 | 32 00 0A 10 60 63 11 20 - 01 00 14 69 88 08 3A DC
  300058A0 | 00 00 03 00 0D 91 51 12 - A0 00 58 7B 4A 4F 83 AB
  300058B0 | E2 7F 16 9A 69 1F 9D DB - A9 42 7E AB B9 07 00 00
  300058C0 | 00 00 00 00 00 00 00 00 - 2A DA
****************************************************************

Decrypt Rx Packet :
    30000DD0 | 32 00 0A 10 60 63 11 20 - 01 00 14 69 88 08 3A DC
    30000DE0 | 00 00 03 00 0D 91 51 12 - A0 00 BE 00 03 00 00 40
    30000DF0 | 56 50 07 54 06 00 E0 05 - 00 30

****PHY Parameter(FCC)******************************************
  phase = 3
  lqi = 99(0x63)
  tone_map = 0xFFFFFF(expect 0xFFFFFF)
  modulation = D-3(expect D-3)
  det_scale = 20
  noise_thr = 30
****************************************************************

vtesc_process() T ping_seq:0006

Rx Packet : (type 1, size 58)
****************************************************************
  30005AD0 | 32 00 0A 10 60 63 11 20 - 01 00 14 69 88 09 3A DC
  30005AE0 | 00 00 03 00 0D 92 51 12 - A0 00 3F A0 45 7F 5C 64
  30005AF0 | 9E FB 85 BE BD 99 74 C8 - 92 76 73 76 5F E2 00 00
  30005B00 | 00 00 00 00 00 00 00 00 - 77 AF
****************************************************************

Decrypt Rx Packet :
    30001190 | 32 00 0A 10 60 63 11 20 - 01 00 14 69 88 09 3A DC
    300011A0 | 00 00 03 00 0D 92 51 12 - A0 00 BE 00 03 00 00 40
    300011B0 | 56 50 07 54 07 00 E0 05 - 00 30

****PHY Parameter(FCC)******************************************
  phase = 3
  lqi = 99(0x63)
  tone_map = 0xFFFFFF(expect 0xFFFFFF)
  modulation = D-3(expect D-3)
  det_scale = 20
  noise_thr = 30
****************************************************************

vtesc_process() T ping_seq:0007

Rx Packet : (type 1, size 58)
****************************************************************
  30005D10 | 32 00 0A 10 60 60 11 20 - 01 00 14 69 88 0A 3A DC
  30005D20 | 00 00 03 00 0D 93 51 12 - A0 00 4A 2C 8F 4E 63 5A
  30005D30 | 1D 71 3C A5 98 2D EC 61 - 7E 29 BF DF B3 A9 00 00
  30005D40 | 00 00 00 00 00 00 00 00 - 89 34
****************************************************************

Decrypt Rx Packet :
    300013D0 | 32 00 0A 10 60 60 11 20 - 01 00 14 69 88 0A 3A DC
    300013E0 | 00 00 03 00 0D 93 51 12 - A0 00 BE 00 03 00 00 40
    300013F0 | 56 50 07 54 08 00 E0 05 - 00 30

****PHY Parameter(FCC)******************************************
  phase = 3
  lqi = 96(0x60)
  tone_map = 0xFFFFFF(expect 0xFFFFFF)
  modulation = D-3(expect D-3)
  det_scale = 20
  noise_thr = 30
****************************************************************

vtesc_process() T ping_seq:0008

Rx Packet : (type 1, size 58)
****************************************************************
  30005F50 | 32 00 0A 10 60 60 11 20 - 01 00 14 69 88 0B 3A DC
  30005F60 | 00 00 03 00 0D 94 51 12 - A0 00 20 66 8D B1 CB B6
  30005F70 | B3 EC BC 14 77 3F 28 5B - C4 66 06 AD AD EE 00 00
  30005F80 | 00 00 00 00 00 00 00 00 - F0 12
****************************************************************

Decrypt Rx Packet :
    300015B0 | 32 00 0A 10 60 60 11 20 - 01 00 14 69 88 0B 3A DC
    300015C0 | 00 00 03 00 0D 94 51 12 - A0 00 BE 00 03 00 00 40
    300015D0 | 56 50 07 54 09 00 E0 05 - 00 30

****PHY Parameter(FCC)******************************************
  phase = 3
  lqi = 96(0x60)
  tone_map = 0xFFFFFF(expect 0xFFBFFF)
  modulation = D-3(expect D-3)
  det_scale = 20
  noise_thr = 30
****************************************************************

vtesc_process() T ping_seq:0009
task_loop: DCU PKT received (25)

      03 00 03 00 56 83 11 39 02 00 00 03 00 00 07 00 
      01 04 04 36 88 12 00 b2 54 
vtmac_pkt_submit_encrypt_op(30000120) unencryption, dma 30000440(31), allo 30000440(31)
  30000440 | BE 00 00 00 03 40 56 88 - 04 00 56 83 11 39 02 00
  30000450 | 00 03 00 00 07 00 01 04 - 04 36 88 12 00 B2 54
vtmac_pkt_payload_commit(30000200) encryption, dma 30001558(35), allo 30001540(96)
  30001558 | 8B 88 DE 34 BC 03 AF 0F - 6A 37 7D CB 88 21 C6 D6
  30001568 | F8 BE 28 A6 B8 C4 66 13 - F7 7F 1C C7 2C 77 48 77
  30001578 | 6A A6 41
max segmentation size 255 -> 239 (one rs block)(D-3)
max segmentation size 255 -> 478 (two rs block)(D-3)
last pkt(55 + pad 9) tx.duration = 18
vtdmac_tx_populate(300020E0)
  3000212C | 68 00 00 1C 00 00 00 00
  30002134 | 42 00 00 00 03 00 00 60 - FF FF FF 03 00 00 00 00
  30002144 | 00 00 00 00 00 00 00 00 - 00 00 00 00
vtdmac_tx_populate(30001FA0)
  30001FEC | 0A 80 00 40 20 12 10 0C
  30001FF4 | 01 00 23 69 88 CA 3A DC - 03 00 00 00 0D 87 00 00
  30002004 | 00 00
  30001558 | 8B 88 DE 34 BC 03 AF 0F - 6A 37 7D CB 88 21 C6 D6
  30001568 | F8 BE 28 A6 B8 C4 66 13 - F7 7F 1C C7 2C 77 48 77
  30001578 | 6A A6 41 00 00 00 00 00 - 00 00 00 00
CSMA Success, CR1 = 0x00022013

Rx Packet : (type 2, size 8)
****************************************************************
  30006190 | 00 00 0C 20 60 43 0C A8
****************************************************************

ACK, CR1 = 0x00002017

Rx Packet : (type 1, size 85)
****************************************************************
  300062B0 | 4D 00 08 10 60 5C 13 20 - 01 00 31 69 88 0C 3A DC
  300062C0 | 00 00 03 00 0D 95 51 12 - A0 00 72 F7 6A 9F A4 DA
  300062D0 | 23 6E 59 BD 81 19 8A 5B - 3E B4 F8 75 22 B2 A6 75
  300062E0 | 9D 8A D8 6B B7 48 E3 AF - 41 D9 92 27 42 CF 8B 9C
  300062F0 | 80 89 4A 93 E6 8F 82 3E - 2C 6A 0C 00 00 00 00 00
  30006300 | 00 00 00 BB F5
****************************************************************

Decrypt Rx Packet :
    300014F0 | 4D 00 08 10 60 5C 13 20 - 01 00 31 69 88 0C 3A DC
    30001500 | 00 00 03 00 0D 95 51 12 - A0 00 BE 00 03 00 00 40
    30001510 | 56 88 01 00 56 83 11 39 - 02 00 00 83 00 00 15 00
    30001520 | 01 04 04 36 88 12 00 01 - 02 03 00 00 62 01 03 01
    30001530 | 06 01 01 01 00 B6 54

****PHY Parameter(FCC)******************************************
  phase = 3
  lqi = 92(0x5C)
  tone_map = 0xFFFFFF(expect 0xFFFFFF)
  modulation = D-3(expect D-3)
  det_scale = 20
  noise_thr = 30
****************************************************************

task_loop: PLC PKT received (35) from Short Addr

      56 83 11 39 02 00 00 83 00 00 15 00 01 04 04 36 
      88 12 00 01 02 03 00 00 62 01 03 01 06 01 01 01 
      00 b6 54 
vtsdk_send VTSDK_PORT_DCU

Rx Packet : (type 1, size 58)
****************************************************************
  300064F0 | 32 00 0A 10 60 6B 11 20 - 01 00 14 69 88 9F 3A DC
  30006500 | 00 00 04 00 0D 3A 00 00 - 00 00 38 0A A9 51 E6 87
  30006510 | 21 F8 DA 37 D1 33 88 EA - B5 83 D2 13 89 74 00 00
  30006520 | 00 00 00 00 00 00 00 00 - CA C2
****************************************************************

Decrypt Rx Packet :
    300011F0 | 32 00 0A 10 60 6B 11 20 - 01 00 14 69 88 9F 3A DC
    30001200 | 00 00 04 00 0D 3A 00 00 - 00 00 BE 00 04 00 00 40
    30001210 | 56 50 07 54 01 00 E0 05 - 00 30

****PHY Parameter(FCC)******************************************
  phase = 3
  lqi = 107(0x6B)
  tone_map = 0xFFFFFF(expect 0xFFFFFF)
  modulation = D-3(expect D-3)
  det_scale = 20
  noise_thr = 30
****************************************************************

vtesc_process() T ping_seq:0001
task_loop: DCU PKT received (25)

      03 00 04 00 56 53 87 38 02 00 00 03 00 00 07 00 
      01 04 04 d6 97 12 00 a6 54 
vtmac_pkt_submit_encrypt_op(30000240) unencryption, dma 300000C0(31), allo 300000C0(31)
  300000C0 | BE 00 00 00 04 40 56 88 - 05 00 56 53 87 38 02 00
  300000D0 | 00 03 00 00 07 00 01 04 - 04 D6 97 12 00 A6 54
vtmac_pkt_payload_commit(30000300) encryption, dma 300016D8(35), allo 300016C0(96)
  300016D8 | C8 61 7B B5 9B CE FB C3 - D0 69 B4 00 E8 53 EF 99
  300016E8 | AB 8A F2 D2 3F 3F 01 7F - EC FC C4 98 90 5D D6 BE
  300016F8 | 6C 38 2D
max segmentation size 255 -> 239 (one rs block)(D-3)
max segmentation size 255 -> 478 (two rs block)(D-3)
last pkt(55 + pad 9) tx.duration = 18
vtdmac_tx_populate(30002D60)
  30002DAC | 68 00 00 1C 00 00 00 00
  30002DB4 | 42 00 00 00 04 00 00 62 - FF FF FF 03 00 00 00 00
  30002DC4 | 00 00 00 00 00 00 00 00 - 00 00 00 00
vtdmac_tx_populate(30002C20)
  30002C6C | 0C 80 00 40 20 12 10 06
  30002C74 | 01 00 23 69 88 CB 3A DC - 04 00 00 00 0D 88 00 00
  30002C84 | 00 00
  300016D8 | C8 61 7B B5 9B CE FB C3 - D0 69 B4 00 E8 53 EF 99
  300016E8 | AB 8A F2 D2 3F 3F 01 7F - EC FC C4 98 90 5D D6 BE
  300016F8 | 6C 38 2D 00 00 00 00 00 - 00 00 00 00
CSMA Success, CR1 = 0x00022013

Rx Packet : (type 2, size 8)
****************************************************************
  30006730 | 00 00 0C 20 3C 34 0C A8
****************************************************************

ACK, CR1 = 0x00002017

Rx Packet : (type 1, size 85)
****************************************************************
  30006850 | 4D 00 08 10 60 5F 13 20 - 01 00 31 69 88 A0 3A DC
  30006860 | 00 00 04 00 0D 3B 00 00 - 00 00 CA 05 AA 3F C3 0D
  30006870 | 9C 87 13 13 51 FE 87 67 - AA 68 12 D4 F4 E2 E9 9F
  30006880 | 2E C3 CE CC AD E8 0B 58 - B7 7A AD 72 E2 70 AD 97
  30006890 | A0 25 D0 45 8C 8D B2 0A - DB 16 0D 00 00 00 00 00
  300068A0 | 00 00 00 36 88
****************************************************************

Decrypt Rx Packet :
    30000D70 | 4D 00 08 10 60 5F 13 20 - 01 00 31 69 88 A0 3A DC
    30000D80 | 00 00 04 00 0D 3B 00 00 - 00 00 BE 00 04 00 00 40
    30000D90 | 56 88 01 00 56 53 87 38 - 02 00 00 83 00 00 15 00
    30000DA0 | 01 04 04 D6 97 12 00 01 - 02 03 00 00 58 01 03 01
    30000DB0 | 05 01 01 01 00 9F 54

****PHY Parameter(FCC)******************************************
  phase = 3
  lqi = 95(0x5F)
  tone_map = 0xFFFFFF(expect 0xFFFFFF)
  modulation = D-3(expect D-3)
  det_scale = 20
  noise_thr = 30
****************************************************************

task_loop: PLC PKT received (35) from Short Addr

      56 53 87 38 02 00 00 83 00 00 15 00 01 04 04 d6 
      97 12 00 01 02 03 00 00 58 01 03 01 05 01 01 01 
      00 9f 54 
vtsdk_send VTSDK_PORT_DCU

Rx Packet : (type 1, size 58)
****************************************************************
  30006A90 | 32 00 0A 10 60 64 11 20 - 01 00 14 69 88 A1 3A DC
  30006AA0 | 00 00 04 00 0D 3C 00 00 - 00 00 FA 91 E0 67 FA 20
  30006AB0 | 0B B7 52 FB 83 0E 46 2A - 5E F8 BE F7 A9 EE 00 00
  30006AC0 | 00 00 00 00 00 00 00 00 - 65 83
****************************************************************

Decrypt Rx Packet :
    30001190 | 32 00 0A 10 60 64 11 20 - 01 00 14 69 88 A1 3A DC
    300011A0 | 00 00 04 00 0D 3C 00 00 - 00 00 BE 00 04 00 00 40
    300011B0 | 56 50 07 54 02 00 E0 05 - 00 30

****PHY Parameter(FCC)******************************************
  phase = 3
  lqi = 100(0x64)
  tone_map = 0xFFFFFF(expect 0xFFFFFF)
  modulation = D-3(expect D-3)
  det_scale = 20
  noise_thr = 30
****************************************************************

vtesc_process() T ping_seq:0002

Rx Packet : (type 1, size 58)
****************************************************************
  300037F0 | 32 00 0A 10 60 5F 11 20 - 01 00 14 69 88 A2 3A DC
  30003800 | 00 00 04 00 0D 3D 00 00 - 00 00 04 8B 95 57 CD F0
  30003810 | E5 9B 20 E6 4E 70 8F 9D - CB F7 A6 4F 81 C8 00 00
  30003820 | 00 00 00 00 00 00 00 00 - EA A7
****************************************************************

Decrypt Rx Packet :
    300013D0 | 32 00 0A 10 60 5F 11 20 - 01 00 14 69 88 A2 3A DC
    300013E0 | 00 00 04 00 0D 3D 00 00 - 00 00 BE 00 04 00 00 40
    300013F0 | 56 50 07 54 03 00 E0 05 - 00 30

****PHY Parameter(FCC)******************************************
  phase = 3
  lqi = 95(0x5F)
  tone_map = 0xFFFFFF(expect 0xFFFFFF)
  modulation = D-3(expect D-3)
  det_scale = 20
  noise_thr = 30
****************************************************************

vtesc_process() T ping_seq:0003

Rx Packet : (type 1, size 58)
****************************************************************
  30003A30 | 32 00 0A 10 60 5E 11 20 - 01 00 14 69 88 A3 3A DC
  30003A40 | 00 00 04 00 0D 3E 00 00 - 00 00 46 82 FB E2 B9 57
  30003A50 | 3A E9 05 29 58 1F 54 01 - 0D 84 6D 36 0D 71 00 00
  30003A60 | 00 00 00 00 00 00 00 00 - 53 EE
****************************************************************

Decrypt Rx Packet :
    300015B0 | 32 00 0A 10 60 5E 11 20 - 01 00 14 69 88 A3 3A DC
    300015C0 | 00 00 04 00 0D 3E 00 00 - 00 00 BE 00 04 00 00 40
    300015D0 | 56 50 07 54 04 00 E0 05 - 00 30

****PHY Parameter(FCC)******************************************
  phase = 3
  lqi = 94(0x5E)
  tone_map = 0xFFFFFF(expect 0xFFFFFF)
  modulation = D-3(expect D-3)
  det_scale = 20
  noise_thr = 30
****************************************************************

vtesc_process() T ping_seq:0004

Rx Packet : (type 1, size 58)
****************************************************************
  30003C70 | 32 00 0A 10 60 63 11 20 - 01 00 14 69 88 A4 3A DC
  30003C80 | 00 00 04 00 0D 3F 00 00 - 00 00 AF EE 5D 09 98 3A
  30003C90 | 32 28 8A 7C 60 76 49 4A - C7 26 31 47 CC 3D 00 00
  30003CA0 | 00 00 00 00 00 00 00 00 - 81 57
****************************************************************

Decrypt Rx Packet :
    30001130 | 32 00 0A 10 60 63 11 20 - 01 00 14 69 88 A4 3A DC
    30001140 | 00 00 04 00 0D 3F 00 00 - 00 00 BE 00 04 00 00 40
    30001150 | 56 50 07 54 05 00 E0 05 - 00 30

****PHY Parameter(FCC)******************************************
  phase = 3
  lqi = 99(0x63)
  tone_map = 0xFFFFFF(expect 0xFFFFFF)
  modulation = D-3(expect D-3)
  det_scale = 20
  noise_thr = 30
****************************************************************

vtesc_process() T ping_seq:0005

Rx Packet : (type 1, size 58)
****************************************************************
  30003EB0 | 32 00 0A 10 60 68 11 20 - 01 00 14 69 88 A5 3A DC
  30003EC0 | 00 00 04 00 0D 40 00 00 - 00 00 58 94 D7 B2 5E C3
  30003ED0 | 38 CD C4 45 64 59 91 82 - BC D1 E8 AF BB A8 00 00
  30003EE0 | 00 00 00 00 00 00 00 00 - 42 CC
****************************************************************

Decrypt Rx Packet :
    300012B0 | 32 00 0A 10 60 68 11 20 - 01 00 14 69 88 A5 3A DC
    300012C0 | 00 00 04 00 0D 40 00 00 - 00 00 BE 00 04 00 00 40
    300012D0 | 56 50 07 54 06 00 E0 05 - 00 30

****PHY Parameter(FCC)******************************************
  phase = 3
  lqi = 104(0x68)
  tone_map = 0xFFFFFF(expect 0xFFFFFF)
  modulation = D-3(expect D-3)
  det_scale = 20
  noise_thr = 30
****************************************************************

vtesc_process() T ping_seq:0006

Rx Packet : (type 1, size 58)
****************************************************************
  30004210 | 32 00 0A 10 60 60 11 20 - 01 00 14 69 88 A6 3A DC
  30004220 | 00 00 04 00 0D 41 00 00 - 00 00 9A 6B BD 45 27 7C
  30004230 | 42 31 38 F0 DF 21 3E 08 - 62 F4 69 8F 0A 57 00 00
  30004240 | 00 00 00 00 00 00 00 00 - 81 FC
****************************************************************

Decrypt Rx Packet :
    300014F0 | 32 00 0A 10 60 60 11 20 - 01 00 14 69 88 A6 3A DC
    30001500 | 00 00 04 00 0D 41 00 00 - 00 00 BE 00 04 00 00 40
    30001510 | 56 50 07 54 07 00 E0 05 - 00 30

****PHY Parameter(FCC)******************************************
  phase = 3
  lqi = 96(0x60)
  tone_map = 0xFFFFFF(expect 0xFFFFFF)
  modulation = D-3(expect D-3)
  det_scale = 20
  noise_thr = 30
****************************************************************

vtesc_process() T ping_seq:0007

Rx Packet : (type 1, size 58)
****************************************************************
  30004330 | 32 00 0A 10 60 60 11 20 - 01 00 14 69 88 A7 3A DC
  30004340 | 00 00 04 00 0D 42 00 00 - 00 00 A6 64 70 A2 67 85
  30004350 | 02 D7 B1 E8 C0 F9 67 D7 - 57 77 DC C0 48 FE 00 00
  30004360 | 00 00 00 00 00 00 00 00 - 21 15
****************************************************************

Decrypt Rx Packet :
    30001610 | 32 00 0A 10 60 60 11 20 - 01 00 14 69 88 A7 3A DC
    30001620 | 00 00 04 00 0D 42 00 00 - 00 00 BE 00 04 00 00 40
    30001630 | 56 50 07 54 08 00 E0 05 - 00 30

****PHY Parameter(FCC)******************************************
  phase = 3
  lqi = 96(0x60)
  tone_map = 0xFFFFFF(expect 0xFFFFFF)
  modulation = D-3(expect D-3)
  det_scale = 20
  noise_thr = 30
****************************************************************

vtesc_process() T ping_seq:0008

Rx Packet : (type 1, size 58)
****************************************************************
  30004450 | 32 00 0A 10 60 5F 11 20 - 01 00 14 69 88 A8 3A DC
  30004460 | 00 00 04 00 0D 43 00 00 - 00 00 4F 3F A9 67 2D AE
  30004470 | FD 9C 2B 23 3B C2 A7 53 - 88 F7 92 3C 15 34 00 00
  30004480 | 00 00 00 00 00 00 00 00 - D4 7B
****************************************************************

Decrypt Rx Packet :
    300011F0 | 32 00 0A 10 60 5F 11 20 - 01 00 14 69 88 A8 3A DC
    30001200 | 00 00 04 00 0D 43 00 00 - 00 00 BE 00 04 00 00 40
    30001210 | 56 50 07 54 09 00 E0 05 - 00 30

****PHY Parameter(FCC)******************************************
  phase = 3
  lqi = 95(0x5F)
  tone_map = 0xFFFFFF(expect 0xFFFFFF)
  modulation = D-3(expect D-3)
  det_scale = 20
  noise_thr = 30
****************************************************************

vtesc_process() T ping_seq:0009

Rx Packet : (type 1, size 58)
****************************************************************
  30004690 | 32 00 0A 10 60 60 11 20 - 01 00 14 69 88 A9 3A DC
  300046A0 | 00 00 04 00 0D 44 00 00 - 00 00 0A C7 E7 2A 9B A9
  300046B0 | 81 4D 6B 39 2A 3B 6E 92 - B7 24 7B 36 C0 5C 00 00
  300046C0 | 00 00 00 00 00 00 00 00 - DB F6
****************************************************************

Decrypt Rx Packet :
    30000E90 | 32 00 0A 10 60 60 11 20 - 01 00 14 69 88 A9 3A DC
    30000EA0 | 00 00 04 00 0D 44 00 00 - 00 00 BE 00 04 00 00 40
    30000EB0 | 56 50 07 54 0A 00 E0 05 - 00 30

****PHY Parameter(FCC)******************************************
  phase = 3
  lqi = 96(0x60)
  tone_map = 0xFFFFFF(expect 0xFFFFFF)
  modulation = D-3(expect D-3)
  det_scale = 20
  noise_thr = 30
****************************************************************

vtesc_process() T ping_seq:000a

vt# 
vt# 
vt# 
vt# pinge 4 1 r  s 50                 
Rx Packet : (type 1, size 58)
****************************************************************
  300048D0 | 32 00 0A 10 60 60 11 20 - 01 00 14 69 88 AA 3A DC
  300048E0 | 00 00 04 00 0D 45 00 00 - 00 00 1D 27 C7 37 A8 83
  300048F0 | B1 6B 3B 81 38 D6 B7 CE - 38 BF 6A 87 99 12 00 00
  30004900 | 00 00 00 00 00 00 00 00 - FD 16
****************************************************************

Decrypt Rx Packet :
    30000AD0 | 32 00 0A 10 60 60 11 20 - 01 00 14 69 88 AA 3A DC
    30000AE0 | 00 00 04 00 0D 45 00 00 - 00 00 BE 00 04 00 00 40
    30000AF0 | 56 50 07 54 0B 00 E0 05 - 00 30

****PHY Parameter(FCC)******************************************
  phase = 3
  lqi = 96(0x60)
  tone_map = 0xFFFFFF(expect 0xFFFFFF)
  modulation = D-3(expect D-3)
  det_scale = 20
  noise_thr = 30
****************************************************************

vtesc_process() T ping_seq:000b

Rx Packet : (type 1, size 58)
****************************************************************
  30004C30 | 32 00 0A 10 60 60 11 20 - 01 00 14 69 88 AB 3A DC
  30004C40 | 00 00 04 00 0D 46 00 00 - 00 00 0B 6D EC 19 29 33
  30004C50 | 21 BB EF 9F CC 7D 35 7E - 80 51 53 CC 30 96 00 00
  30004C60 | 00 00 00 00 00 00 00 00 - 7F 83
****************************************************************

Decrypt Rx Packet :
    30000D70 | 32 00 0A 10 60 60 11 20 - 01 00 14 69 88 AB 3A DC
    30000D80 | 00 00 04 00 0D 46 00 00 - 00 00 BE 00 04 00 00 40
    30000D90 | 56 50 07 54 0C 00 E0 05 - 00 30

****PHY Parameter(FCC)******************************************
  phase = 3
  lqi = 96(0x60)
  tone_map = 0xFFFFFF(expect 0xFFFFFF)
  modulation = D-3(expect D-3)
  det_scale = 20
  noise_thr = 30
****************************************************************

vtesc_process() T ping_seq:000c
task_loop: DCU PKT received (25)

      03 00 03 00 56 83 11 39 02 00 00 03 00 00 07 00 
      01 04 04 26 5b 13 00 76 54 
vtmac_pkt_submit_encrypt_op(300001C0) unencryption, dma 30000320(31), allo 30000320(31)
  30000320 | BE 00 00 00 03 40 56 88 - 06 00 56 83 11 39 02 00
  30000330 | 00 03 00 00 07 00 01 04 - 04 26 5B 13 00 76 54
vtmac_pkt_payload_commit(30000240) encryption, dma 30001018(35), allo 30001000(96)
  30001018 | 52 31 04 3E F7 E3 36 10 - 66 F0 E4 F0 BD ED AB C4
  30001028 | 47 BC 82 44 99 2C 42 BD - 9C 51 1E 2B AE 65 23 DA
  30001038 | EC 47 99
max segmentation size 255 -> 247 (one rs block)(D-0)
max segmentation size 255 -> 494 (two rs block)(D-0)
last pkt(55 + pad 0) tx.duration = 69
vtdmac_tx_populate(30002E00)
  30002E4C | 68 00 00 1C 00 00 00 00
  30002E54 | 42 00 00 00 03 00 00 60 - FF FF FF 00 00 00 00 00
  30002E64 | 00 00 00 00 00 00 00 00 - 00 00 00 00
vtdmac_tx_populate(30002720)
  3000276C | 0E 80 00 37 20 45 10 0C
  30002774 | 09 00 23 69 88 CC 3A DC - 03 00 00 00 0D 89 00 00
  30002784 | 00 00
  30001018 | 52 31 04 3E F7 E3 36 10 - 66 F0 E4 F0 BD ED AB C4
  30001028 | 47 BC 82 44 99 2C 42 BD - 9C 51 1E 2B AE 65 23 DA
  30001038 | EC 47 99
CSMA Success, CR1 = 0x00022013

Rx Packet : (type 2, size 8)
****************************************************************
  30004D50 | 00 00 0C 20 56 EB 0C A8
****************************************************************

ACK, CR1 = 0x00002017

Rx Packet : (type 1, size 78)
****************************************************************
  30004F90 | 46 00 0B 10 00 62 52 20 - 09 00 31 69 88 0D 3A DC
  30004FA0 | 00 00 03 00 0D 96 51 12 - A0 00 73 ED 27 64 DC 10
  30004FB0 | 94 C9 E5 1B 78 B4 95 79 - D0 62 58 35 3B E0 99 03
  30004FC0 | 9D 7E DB 0F 38 22 63 77 - 7A 2E 0F F7 51 E5 DF 42
  30004FD0 | 84 FA 45 0D 0F C3 63 CA - 37 75 18 00 5C BE
****************************************************************

Decrypt Rx Packet :
    300013D0 | 46 00 0B 10 00 62 52 20 - 09 00 31 69 88 0D 3A DC
    300013E0 | 00 00 03 00 0D 96 51 12 - A0 00 BE 00 03 00 00 40
    300013F0 | 56 88 02 00 56 83 11 39 - 02 00 00 83 00 00 15 00
    30001400 | 01 04 04 26 5B 13 00 01 - 02 03 00 00 68 01 03 01
    30001410 | 06 01 01 01 00 80 54

****PHY Parameter(FCC)******************************************
  phase = 3
  lqi = 98(0x62)
  tone_map = 0xFFFFFF(expect 0xFFFFFF)
  modulation = D-0(expect D-3)
  det_scale = 20
  noise_thr = 30
****************************************************************

max segmentation size 255 -> 247 (one rs block)(D-0)
max segmentation size 255 -> 494 (two rs block)(D-0)
last pkt(27 + pad 0) tx.duration = 44

Send ToneMap Response(0003), Mod D-3 0xFFFFFF
vtdmac_tx_populate(30001780)
  300017CC | 68 00 00 1C 00 00 00 00
  300017D4 | 42 00 00 00 FF FF 00 00 - FF FF FF 00 00 00 00 00
  300017E4 | 00 00 00 00 00 00 00 00 - 00 00 00 00
vtdmac_tx_populate(30002B80)
  30002BCC | 00 40 00 1B 00 2C 10 12
  30002BD4 | 03 00 0D 43 88 CD 3A DC - 03 00 00 00
  30000300 | 0A 03 FF FF FF 62 00 00 - 00 00 00 00 00
task_loop: PLC PKT received (35) from Short Addr

      56 83 11 39 02 00 00 83 00 00 15 00 01 04 04 26 
      5b 13 00 01 02 03 00 00 68 01 03 01 06 01 01 01 
      00 80 54 
vtsdk_send VTSDK_PORT_DCU

Rx Packet : (type 1, size 35)
****************************************************************
  300052F0 | 1B 00 0C 10 00 63 2C 00 - 03 00 0D 43 88 0E 3A DC
  30005300 | 00 00 03 00 0A 03 FF FF - FF 67 00 00 00 00 00 00
  30005310 | 00 9F 5B
****************************************************************


****PHY Parameter(FCC)******************************************
  phase = 3
  lqi = 99(0x63)
  tone_map = 0xFFFFFF(expect 0xFFFFFF)
  modulation = D-0(expect D-3)
  det_scale = 20
  noise_thr = 30
****************************************************************

task_loop: DCU PKT received (25)

      03 00 04 00 56 53 87 38 02 00 00 03 00 00 07 00 
      01 04 04 c6 6a 13 00 6a 54 
vtmac_pkt_submit_encrypt_op(30000480) unencryption, dma 30000340(31), allo 30000340(31)
  30000340 | BE 00 00 00 04 40 56 88 - 07 00 56 53 87 38 02 00
  30000350 | 00 03 00 00 07 00 01 04 - 04 C6 6A 13 00 6A 54
vtmac_pkt_payload_commit(30000120) encryption, dma 30001558(35), allo 30001540(96)
  30001558 | DB 7D 31 68 E5 08 BC DF - 3F D5 88 1F 6A AB 9A 63
  30001568 | 3F 01 6E C7 70 BC 9C 66 - 2F CB 91 3B 17 90 50 07
  30001578 | E8 83 58
max segmentation size 255 -> 239 (one rs block)(D-3)
max segmentation size 255 -> 478 (two rs block)(D-3)
last pkt(55 + pad 9) tx.duration = 18
vtdmac_tx_populate(300033A0)
  300033EC | 68 00 00 1C 00 00 00 00
  300033F4 | 42 00 00 00 04 00 00 62 - FF FF FF 03 00 00 00 00
  30003404 | 00 00 00 00 00 00 00 00 - 00 00 00 00
vtdmac_tx_populate(30002CC0)
  30002D0C | 02 80 00 40 20 12 10 12
  30002D14 | 01 00 23 69 88 CE 3A DC - 04 00 00 00 0D 8A 00 00
  30002D24 | 00 00
  30001558 | DB 7D 31 68 E5 08 BC DF - 3F D5 88 1F 6A AB 9A 63
  30001568 | 3F 01 6E C7 70 BC 9C 66 - 2F CB 91 3B 17 90 50 07
  30001578 | E8 83 58 00 00 00 00 00 - 00 00 00 00
CSMA Success, CR1 = 0x00022013

Rx Packet : (type 2, size 8)
****************************************************************
  30005410 | 00 00 0C 20 93 CF 0C A8
****************************************************************

ACK, CR1 = 0x00002017

Rx Packet : (type 1, size 78)
****************************************************************
  30005530 | 46 00 0B 10 00 5D 52 20 - 09 00 31 69 88 AC 3A DC
  30005540 | 00 00 04 00 0D 47 00 00 - 00 00 7D B5 99 60 12 87
  30005550 | DA 6F A5 17 94 D5 C5 01 - 4A FC 7F 81 23 DF BF B1
  30005560 | 44 CF 8E C5 A0 8C 54 41 - FB 4C F6 CB 51 FF 07 6A
  30005570 | 67 FB D0 6F 0D CC F1 7A - 5B 5C E9 00 2B B6
****************************************************************

Decrypt Rx Packet :
    300014F0 | 46 00 0B 10 00 5D 52 20 - 09 00 31 69 88 AC 3A DC
    30001500 | 00 00 04 00 0D 47 00 00 - 00 00 BE 00 04 00 00 40
    30001510 | 56 88 02 00 56 53 87 38 - 02 00 00 83 00 00 15 00
    30001520 | 01 04 04 C6 6A 13 00 01 - 02 03 00 00 63 01 03 01
    30001530 | 06 01 01 01 00 6F 54

****PHY Parameter(FCC)******************************************
  phase = 3
  lqi = 93(0x5D)
  tone_map = 0xFFFFFF(expect 0xFFFFFF)
  modulation = D-0(expect D-3)
  det_scale = 20
  noise_thr = 30
****************************************************************

max segmentation size 255 -> 247 (one rs block)(D-0)
max segmentation size 255 -> 494 (two rs block)(D-0)
last pkt(27 + pad 0) tx.duration = 44

Send ToneMap Response(0004), Mod D-3 0xFFFFFF
vtdmac_tx_populate(30001B40)
  30001B8C | 68 00 00 1C 00 00 00 00
  30001B94 | 42 00 00 00 FF FF 00 00 - FF FF FF 00 00 00 00 00
  30001BA4 | 00 00 00 00 00 00 00 00 - 00 00 00 00
vtdmac_tx_populate(300018C0)
  3000190C | 04 40 00 1B 00 2C 10 06
  30001914 | 03 00 0D 43 88 CF 3A DC - 04 00 00 00
  300001A0 | 0A 03 FF FF FF 5D 00 00 - 00 00 00 00 00
task_loop: PLC PKT received (35) from Short Addr

      56 53 87 38 02 00 00 83 00 00 15 00 01 04 04 c6 
      6a 13 00 01 02 03 00 00 63 01 03 01 06 01 01 01 
      00 6f 54 
vtsdk_send VTSDK_PORT_DCU
