376
-572
-28
1388
360
-252
-940
-640
-256
364
1432
356
-232
-592
-1124
-492
356
1472
932
-220
-728
-1444
-732
612
1568
1208
-328
-1100
-1436
-644
996
1700
832
-812
-1228
-976
-64
1508
1160
-320
-1192
-936
380
1120
712
-492
-1232
-740
896
1764
108
-1348
-1340
-80
1532
1112
-196
-1304
-1148
776
1328
200
-1028
-916
540
1104
532
-1020
-1608
484
1732
508
-1076
-1184
320
1156
372
-1016
-976
864
1368
-204
-1552
-712
1320
1304
-736
-1636
332
1616
104
-1340
-824
1020
1240
-540
-1420
300
1632
-392
-1732
108
1652
580
-1432
-984
1132
1048
-984
-1304
1208
1432
-1328
-1180
1144
964
-1204
-1024
1444
1148
-1276
-1316
1020
1356
-1244
-1156
1572
996
-1632
-844
1644
356
-1796
208
1968
-476
-1952
752
1632
-1340
-1208
1956
744
-2132
16
1800
-996
-1372
1716
1088
-2080
-536
2152
-616
-1632
1636
592
-1952
484
1760
-1440
-1068
2052
-216
-1872
1384
944
-1784
272
1500
-1460
-628
1952
-692
-1268
1716
-112
-1728
1340
488
-1780
1280
984
-2160
592
1480
-1772
104
1548
-1492
88
1592
-1724
-100
1624
-1600
84
1524
-1368
224
952
-1596
420
1068
-1276
772
548
-1548
1000
104
-1144
1304
-412
-508
1236
-896
-320
704
-692
392
428
-676
548
-196
-536
888
-852
4
1196
-1228
524
440
-1012
764
-864
260
1032
-1100
1016
-436
-872
904
-1004
764
596
-592
696
-1000
-176
188
-300
1160
-272
24
88
-924
