Network
LBD
Attached LBD list
Index	Short Addr	EUI-64	Next Hop	Route Cost	Hop Count	Weak Link
1	0x0726	610707fffe020000	0x0784	0x0220	7	2
2	0x0714	560707fffe020000	--	--	--	--
3	0x07f6	840407fffe020000	--	--	--	--
4	0x079d	791407fffe020000	0x06d2	0x018f	5	0
5	0x0729	649206fffe020000	0x07ba	0x0240	3	0
6	0x06db	821407fffe020000	--	--	--	--
7	0x06d1	639706fffe020000	0x06d1	0x00d3	1	1
8	0x06e3	579706fffe020000	0x06e3	0x00b0	1	1
9	0x06d2	700607fffe020000	0x06d2	0x002a	1	1
10	0x07ba	851407fffe020000	0x07ba	0x00ff	1	0
11	0x06fc	760607fffe020000	0x06fc	0x002a	1	1
12	0x071e	079906fffe020000	--	--	--	--
13	0x0721	340307fffe020000	--	--	--	--
14	0x0779	108906fffe020000	0x0795	0x00b2	2	1
15	0x06f3	839706fffe020000	0x07eb	0x008d	4	0
16	0x0738	890407fffe020000	--	--	--	--
17	0x0734	939606fffe020000	--	--	--	--
18	0x0755	990407fffe020000	--	--	--	--
19	0x077c	160707fffe020000	0x064a	0x00af	4	2
20	0x0764	780207fffe020000	--	--	--	--
21	0x07c7	239006fffe020000	--	--	--	--
22	0x0742	829706fffe020000	--	--	--	--
23	0x068a	530707fffe020000	0x06d1	0x0147	8	1
24	0x06d8	680607fffe020000	--	--	--	--
25	0x06f4	610607fffe020000	--	--	--	--
26	0x07c3	448606fffe020000	0x07eb	0x01ef	4	2
27	0x0759	960307fffe020000	0x0784	0x02f5	14	6
28	0x069a	218606fffe020000	--	--	--	--
29	0x0710	740207fffe020000	--	--	--	--
30	0x0281	438606fffe020000	--	--	--	--
31	0x06d5	639206fffe020000	0x06d2	0x0085	4	0
32	0x07af	488606fffe020000	0x07af	0x00ff	1	0
33	0x0662	690607fffe020000	--	--	--	--
34	0x06e6	780607fffe020000	0x06e6	0x00ff	1	1
35	0x0727	310307fffe020000	0x0727	0x00ff	1	1
36	0x0732	320307fffe020000	--	--	--	--
37	0x06ec	670607fffe020000	--	--	--	--
38	0x0731	220707fffe020000	--	--	--	--
39	0x0796	629206fffe020000	0x0796	0x00ff	1	0
40	0x077b	790607fffe020000	0x06d2	0x0044	2	1
41	0x0664	899606fffe020000	0x0664	0x002a	1	1
42	0x0773	630707fffe020000	0x0783	0x0118	2	1
43	0x071f	410307fffe020000	--	--	--	--
44	0x067b	441207fffe020000	0x06d2	0x00bb	4	2
45	0x06cf	659706fffe020000	--	--	--	--
46	0x068c	998806fffe020000	--	--	--	--
47	0x0708	849706fffe020000	--	--	--	--
48	0x0693	720207fffe020000	--	--	--	--
49	0x0793	431207fffe020000	--	--	--	--
50	0x0675	751407fffe020000	--	--	--	--
51	0x068f	670507fffe020000	--	--	--	--
52	0x066a	160607fffe020000	--	--	--	--
53	0x04f7	950307fffe020000	0x0784	0x01e0	7	3
54	0x0794	651307fffe020000	--	--	--	--
55	0x07b9	841407fffe020000	--	--	--	--
56	0x0749	679206fffe020000	--	--	--	--
57	0x071d	270707fffe020000	--	--	--	--
58	0x068d	018906fffe020000	0x06d2	0x00a1	4	1
59	0x0705	400307fffe020000	0x0705	0x002a	1	1
60	0x06e1	629706fffe020000	--	--	--	--
61	0x06ee	589706fffe020000	--	--	--	--
62	0x067a	108606fffe020000	--	--	--	--
63	0x071b	620607fffe020000	--	--	--	--
64	0x07d0	820407fffe020000	--	--	--	--
65	0x073c	850407fffe020000	--	--	--	--
66	0x07b1	710207fffe020000	--	--	--	--
67	0x074a	879706fffe020000	--	--	--	--
68	0x070a	710607fffe020000	--	--	--	--
69	0x0661	019906fffe020000	--	--	--	--
70	0x06e7	640607fffe020000	--	--	--	--
71	0x06dc	268606fffe020000	0x0795	0x0129	2	2
72	0x07ed	630607fffe020000	--	--	--	--
73	0x07aa	420307fffe020000	--	--	--	--
74	0x0756	889606fffe020000	--	--	--	--
75	0x06d3	950407fffe020000	--	--	--	--
76	0x0795	089906fffe020000	--	--	--	--
77	0x074b	230707fffe020000	--	--	--	--
78	0x0679	048906fffe020000	0x0795	0x0234	3	1
79	0x07be	330307fffe020000	0x07be	0x00ff	1	0
80	0x07cd	099906fffe020000	0x07cd	0x003c	1	0
81	0x06a4	879606fffe020000	0x06a4	0x00ff	1	1
82	0x067d	468606fffe020000	0x07ba	0x0399	6	1
83	0x0735	919606fffe020000	--	--	--	--
84	0x070c	650607fffe020000	--	--	--	--
85	0x0677	580607fffe020000	0x06d2	0x015e	3	2
86	0x07db	371207fffe020000	0x07eb	0x01d1	6	1
87	0x06bb	800407fffe020000	--	--	--	--
88	0x06eb	281407fffe020000	--	--	--	--
89	0x06a1	649706fffe020000	0x06e6	0x0054	2	2
90	0x0784	750607fffe020000	--	--	--	--
91	0x06d4	208606fffe020000	0x064a	0x00d1	4	2
92	0x0781	240707fffe020000	--	--	--	--
93	0x069f	170607fffe020000	0x06d1	0x00c6	6	1
94	0x0670	249006fffe020000	--	--	--	--
95	0x07c6	609706fffe020000	--	--	--	--
96	0x073d	799706fffe020000	--	--	--	--
97	0x0763	619706fffe020000	--	--	--	--
98	0x07ae	150607fffe020000	--	--	--	--
99	0x07d6	198606fffe020000	--	--	--	--
100	0x0725	900407fffe020000	0x0725	0x002a	1	1
101	0x06df	600607fffe020000	--	--	--	--
102	0x074d	260707fffe020000	--	--	--	--
103	0x07bf	390307fffe020000	0x07bf	0x0065	1	1
104	0x0720	241407fffe020000	0x0795	0x00b4	2	0
105	0x06e9	720607fffe020000	--	--	--	--
106	0x072e	789706fffe020000	--	--	--	--
107	0x0739	929606fffe020000	--	--	--	--
108	0x0678	620507fffe020000	--	--	--	--
109	0x0730	569706fffe020000	--	--	--	--
110	0x06da	770607fffe020000	--	--	--	--
111	0x0750	809706fffe020000	--	--	--	--
112	0x07e3	229006fffe020000	--	--	--	--
113	0x0699	671107fffe020000	--	--	--	--
114	0x07b4	760407fffe020000	0x0784	0x01f1	8	2
115	0x07e6	600707fffe020000	--	--	--	--
116	0x0715	360307fffe020000	--	--	--	--
117	0x06b1	691107fffe020000	0x07eb	0x00b6	5	1
118	0x0107	039906fffe020000	0x06d2	0x01d4	7	0
119	0x0686	869706fffe020000	--	--	--	--
120	0x0802	518606fffe020000	--	--	--	--
121	0x06e0	889706fffe020000	--	--	--	--
122	0x0668	689206fffe020000	--	--	--	--
123	0x079e	258606fffe020000	0x07eb	0x00bc	5	1
124	0x07e4	110607fffe020000	--	--	--	--
125	0x027c	459006fffe020000	--	--	--	--
126	0x0740	829606fffe020000	--	--	--	--
127	0x074c	839606fffe020000	--	--	--	--
128	0x06fa	980407fffe020000	--	--	--	--
129	0x0689	250707fffe020000	--	--	--	--
130	0x06ca	860407fffe020000	--	--	--	--
131	0x07a5	271407fffe020000	0x07a5	0x00ff	1	1
132	0x026c	200507fffe020000	--	--	--	--
133	0x06c7	188606fffe020000	0x06cf	0x00dc	5	2
134	0x00aa	711307fffe020000	0x064a	0x020b	5	2
135	0x0096	171907fffe020000	--	--	--	--
136	0x0770	671307fffe020000	--	--	--	--
137	0x06d7	960407fffe020000	--	--	--	--
138	0x0279	689006fffe020000	0x07ba	0x03c3	7	2
139	0x077d	170707fffe020000	0x06e3	0x007f	3	1
140	0x07a4	620707fffe020000	--	--	--	--
141	0x070f	560607fffe020000	--	--	--	--
142	0x07a2	311407fffe020000	--	--	--	--
143	0x074f	899706fffe020000	--	--	--	--
144	0x0761	819706fffe020000	--	--	--	--
145	0x0134	801407fffe020000	0x06cf	0x01eb	5	2
146	0x06e8	770207fffe020000	--	--	--	--
147	0x067c	130607fffe020000	0x07eb	0x009d	4	1
148	0x06fb	820207fffe020000	--	--	--	--
149	0x071c	790207fffe020000	0x07eb	0x019c	4	2
150	0x0697	691307fffe020000	0x06d2	0x02c7	9	4
151	0x0688	301407fffe020000	0x0688	0x00ff	1	1
152	0x07f0	428606fffe020000	--	--	--	--
153	0x0776	681307fffe020000	0x0784	0x00e7	5	2
154	0x00af	150507fffe020000	--	--	--	--
155	0x00b1	170807fffe020000	--	--	--	--
156	0x06b2	421207fffe020000	--	--	--	--
157	0x07df	699206fffe020000	0x07df	0x00ff	1	1
158	0x0760	350307fffe020000	--	--	--	--
159	0x0151	931307fffe020000	0x05f6	0x02d6	11	3
160	0x06bd	680507fffe020000	0x0795	0x038d	7	4
161	0x0674	190807fffe020000	--	--	--	--
162	0x07b6	761407fffe020000	--	--	--	--
163	0x072a	930407fffe020000	0x06d2	0x003d	2	0
164	0x0751	590707fffe020000	--	--	--	--
165	0x0800	580707fffe020000	--	--	--	--
166	0x0245	429006fffe020000	0x06ff	0x00ad	5	2
167	0x07d2	038906fffe020000	--	--	--	--
168	0x00c2	449006fffe020000	0x0545	0x02e2	7	4
169	0x06d0	909606fffe020000	0x06d1	0x004b	2	2
170	0x026d	170507fffe020000	--	--	--	--
171	0x07c0	178606fffe020000	--	--	--	--
172	0x0788	870407fffe020000	0x06a4	0x01b8	5	1
173	0x0259	814619fffe020000	0x06cf	0x032a	9	3
174	0x07c4	770407fffe020000	--	--	--	--
175	0x0684	859606fffe020000	--	--	--	--
176	0x0700	940407fffe020000	--	--	--	--
177	0x077f	190707fffe020000	--	--	--	--
178	0x07d1	590607fffe020000	--	--	--	--
179	0x0744	570607fffe020000	--	--	--	--
180	0x07bb	710518fffe020000	--	--	--	--
181	0x00d2	321407fffe020000	0x064a	0x02d1	7	2
182	0x06ff	920407fffe020000	0x06ff	0x002a	1	1
183	0x0774	719206fffe020000	--	--	--	--
184	0x00d6	270807fffe020000	0x06d2	0x0203	8	2
185	0x0737	920307fffe020000	--	--	--	--
186	0x00d8	961307fffe020000	0x06d1	0x0120	9	1
187	0x07e0	559706fffe020000	--	--	--	--
188	0x0713	849606fffe020000	--	--	--	--
189	0x00df	798706fffe020000	--	--	--	--
190	0x06d9	750207fffe020000	0x064a	0x00c9	5	2
191	0x06a6	058906fffe020000	--	--	--	--
192	0x00e3	248606fffe020000	--	--	--	--
193	0x074e	370307fffe020000	--	--	--	--
194	0x07eb	730607fffe020000	0x07eb	0x002a	1	1
195	0x00e6	458606fffe020000	--	--	--	--
196	0x0706	880407fffe020000	--	--	--	--
197	0x0682	098906fffe020000	--	--	--	--
198	0x00ea	409006fffe020000	--	--	--	--
199	0x077e	180707fffe020000	0x06cf	0x00ad	4	2
200	0x068e	681107fffe020000	--	--	--	--
201	0x0658	008906fffe020000	--	--	--	--
202	0x07f3	970407fffe020000	--	--	--	--
203	0x06c3	190607fffe020000	--	--	--	--
204	0x0193	981307fffe020000	0x064a	0x0175	8	3
205	0x0786	230507fffe020000	--	--	--	--
206	0x0186	199006fffe020000	0x07eb	0x0317	8	3
207	0x06c2	028906fffe020000	0x0784	0x01e2	7	2
208	0x06c0	508606fffe020000	--	--	--	--
209	0x06c4	299006fffe020000	0x06e3	0x00ab	4	1
210	0x06a7	140607fffe020000	--	--	--	--
211	0x06ba	120607fffe020000	0x06d2	0x0369	9	2
212	0x06c1	640707fffe020000	--	--	--	--
213	0x07ef	289006fffe020000	--	--	--	--
214	0x00ff	180507fffe020000	--	--	--	--
215	0x0140	700507fffe020000	--	--	--	--
216	0x06ea	380307fffe020000	0x06ea	0x002a	1	1
217	0x0792	980307fffe020000	0x0706	0x008d	4	1
218	0x06ce	970307fffe020000	0x07eb	0x00f5	6	1
219	0x0691	261407fffe020000	--	--	--	--
220	0x014b	269006fffe020000	0x064a	0x02f0	8	2
221	0x06dd	709206fffe020000	0x07bf	0x018b	5	0
222	0x0280	701307fffe020000	0x06d2	0x0343	10	2
223	0x0716	660607fffe020000	--	--	--	--
224	0x06c8	029906fffe020000	--	--	--	--
225	0x0111	158606fffe020000	--	--	--	--
226	0x07de	078906fffe020000	--	--	--	--
227	0x06f7	498606fffe020000	--	--	--	--
228	0x0118	220807fffe020000	--	--	--	--
229	0x06b8	659206fffe020000	0x06b8	0x00ff	1	1
230	0x07b2	780407fffe020000	--	--	--	--
231	0x011c	210807fffe020000	0x07eb	0x0193	5	1
232	0x06f0	549706fffe020000	--	--	--	--
233	0x07a1	619206fffe020000	--	--	--	--
234	0x06c6	341407fffe020000	0x07eb	0x00e1	6	2
235	0x0782	200707fffe020000	--	--	--	--
236	0x06ef	711107fffe020000	--	--	--	--
237	0x072b	910407fffe020000	--	--	--	--
238	0x0124	180807fffe020000	--	--	--	--
239	0x0125	399006fffe020000	--	--	--	--
240	0x066c	068906fffe020000	--	--	--	--
241	0x067e	710507fffe020000	0x06d1	0x0127	3	1
242	0x025c	172509fffe020000	0x064a	0x009e	5	1
243	0x0752	210707fffe020000	--	--	--	--
244	0x078f	669206fffe020000	0x06d1	0x007a	3	1
245	0x0801	451207fffe020000	--	--	--	--
246	0x0652	810407fffe020000	0x0784	0x01df	7	3
247	0x0133	389006fffe020000	--	--	--	--
248	0x01c5	748706fffe020000	0x0784	0x0216	9	2
249	0x07dc	690507fffe020000	--	--	--	--
250	0x020e	221907fffe020000	--	--	--	--
251	0x06ed	881007fffe020000	--	--	--	--
252	0x072f	760207fffe020000	--	--	--	--
253	0x0804	831407fffe020000	--	--	--	--
254	0x07f4	830407fffe020000	--	--	--	--
255	0x019e	661307fffe020000	0x051f	0x020e	8	4
256	0x0694	461207fffe020000	0x064a	0x02cd	7	2
257	0x06b7	251407fffe020000	0x06b7	0x00ff	1	1
258	0x0142	162509fffe020000	--	--	--	--
259	0x0143	098606fffe020000	--	--	--	--
260	0x0146	540707fffe020000	--	--	--	--
261	0x014a	881307fffe020000	--	--	--	--
262	0x07b0	331407fffe020000	--	--	--	--
263	0x07d8	090607fffe020000	--	--	--	--
264	0x0680	990307fffe020000	0x06cf	0x008d	4	1
265	0x0707	599706fffe020000	--	--	--	--
266	0x07ce	109906fffe020000	0x0784	0x0084	4	1
267	0x01c6	180607fffe020000	--	--	--	--
268	0x0745	030407fffe020000	0x07ba	0x0262	4	1
269	0x0698	811407fffe020000	0x06d2	0x00ae	3	2
270	0x07ca	219006fffe020000	--	--	--	--
271	0x0746	119906fffe020000	0x06d2	0x00a5	5	1
272	0x073e	730207fffe020000	0x073e	0x002a	1	1
273	0x07b7	729206fffe020000	--	--	--	--
274	0x073a	610507fffe020000	0x06a4	0x01aa	5	2
275	0x076a	341207fffe020000	--	--	--	--
276	0x0197	140507fffe020000	--	--	--	--
277	0x0176	418606fffe020000	--	--	--	--
278	0x07fc	790407fffe020000	--	--	--	--
279	0x07f5	020407fffe020000	--	--	--	--
280	0x069b	209006fffe020000	--	--	--	--
281	0x017a	824619fffe020000	--	--	--	--
282	0x0765	570707fffe020000	--	--	--	--
283	0x017d	088606fffe020000	--	--	--	--
284	0x0283	709006fffe020000	--	--	--	--
285	0x0246	901307fffe020000	--	--	--	--
286	0x06f1	940307fffe020000	0x06d2	0x01c6	6	3
287	0x076d	800207fffe020000	--	--	--	--
288	0x0692	771407fffe020000	--	--	--	--
289	0x076c	160807fffe020000	--	--	--	--
290	0x0683	129906fffe020000	--	--	--	--
291	0x0753	859706fffe020000	--	--	--	--
292	0x018d	768706fffe020000	--	--	--	--
293	0x06cd	291407fffe020000	0x0725	0x00f7	6	1
294	0x07c2	228606fffe020000	--	--	--	--
295	0x0722	000407fffe020000	--	--	--	--
296	0x06be	220507fffe020000	--	--	--	--
297	0x06bc	080607fffe020000	0x0795	0x0125	3	0
298	0x07ec	600507fffe020000	--	--	--	--
299	0x019a	278606fffe020000	--	--	--	--
300	0x0254	788706fffe020000	--	--	--	--
301	0x0206	769006fffe020000	0x064a	0x00eb	5	2
302	0x01a4	250807fffe020000	0x06e3	0x0184	8	1
303	0x01a6	118606fffe020000	--	--	--	--
304	0x076b	528606fffe020000	--	--	--	--
305	0x07ea	650507fffe020000	--	--	--	--
306	0x0268	160507fffe020000	--	--	--	--
307	0x0754	810207fffe020000	0x07eb	0x0198	4	2
308	0x01f2	701107fffe020000	--	--	--	--
309	0x01d4	280807fffe020000	--	--	--	--
310	0x01ae	640507fffe020000	--	--	--	--
311	0x0783	550707fffe020000	0x0783	0x00ff	1	1
312	0x07c8	088906fffe020000	--	--	--	--
313	0x01b2	679006fffe020000	0x0562	0x0099	5	0
314	0x07a9	480007fffe020000	--	--	--	--
315	0x01b4	911307fffe020000	--	--	--	--
316	0x07ff	630507fffe020000	--	--	--	--
317	0x07f2	259006fffe020000	--	--	--	--
318	0x0681	279006fffe020000	0x07eb	0x033d	9	2
319	0x01ba	181907fffe020000	--	--	--	--
320	0x022f	191907fffe020000	0x0784	0x0129	7	3
321	0x01be	069906fffe020000	--	--	--	--
322	0x01c1	200807fffe020000	--	--	--	--
323	0x0221	260807fffe020000	--	--	--	--
324	0x01c9	210507fffe020000	--	--	--	--
325	0x0687	478606fffe020000	--	--	--	--
326	0x01cb	729006fffe020000	0x07bf	0x0294	9	2
327	0x01ef	941307fffe020000	0x06af	0x013a	4	1
328	0x0791	891007fffe020000	0x0795	0x0139	3	0
329	0x0284	470007fffe020000	--	--	--	--
330	0x0209	749006fffe020000	--	--	--	--
331	0x020f	708706fffe020000	--	--	--	--
332	0x069d	271907fffe020000	--	--	--	--
333	0x01d5	951307fffe020000	--	--	--	--
334	0x066d	549006fffe020000	--	--	--	--
335	0x026f	359006fffe020000	--	--	--	--
336	0x0264	758706fffe020000	--	--	--	--
337	0x07b3	148606fffe020000	--	--	--	--
338	0x0241	541008fffe020000	--	--	--	--
339	0x069c	190507fffe020000	--	--	--	--
340	0x0762	901007fffe020000	--	--	--	--
341	0x05e8	049906fffe020000	--	--	--	--
342	0x01ea	419006fffe020000	--	--	--	--
343	0x0743	660507fffe020000	--	--	--	--
344	0x077a	731307fffe020000	--	--	--	--
345	0x06af	861407fffe020000	--	--	--	--
346	0x075d	781407fffe020000	--	--	--	--
347	0x0785	059906fffe020000	--	--	--	--
348	0x0232	871307fffe020000	--	--	--	--
349	0x01f6	891307fffe020000	--	--	--	--
350	0x01fe	230807fffe020000	--	--	--	--
351	0x07fe	010407fffe020000	--	--	--	--
352	0x07c1	238606fffe020000	--	--	--	--
353	0x0288	500007fffe020000	--	--	--	--
354	0x0672	631307fffe020000	--	--	--	--
355	0x020a	369006fffe020000	0x07af	0x0148	3	1
356	0x0275	778706fffe020000	0x07eb	0x00dd	6	0
357	0x075a	779006fffe020000	--	--	--	--
358	0x0292	871007fffe020000	--	--	--	--
359	0x0771	401207fffe020000	--	--	--	--
360	0x0214	759006fffe020000	--	--	--	--
361	0x0772	261907fffe020000	--	--	--	--
362	0x066b	439006fffe020000	--	--	--	--
363	0x0244	930307fffe020000	0x064a	0x0543	11	2
364	0x0272	058606fffe020000	--	--	--	--
365	0x0228	068606fffe020000	--	--	--	--
366	0x0229	241907fffe020000	0x06cf	0x022b	9	2
367	0x022e	349006fffe020000	--	--	--	--
368	0x0266	161907fffe020000	--	--	--	--
369	0x0671	138606fffe020000	0x0683	0x0152	4	1
370	0x0673	699006fffe020000	--	--	--	--
371	0x0695	128606fffe020000	--	--	--	--
372	0x0255	120507fffe020000	--	--	--	--
373	0x023c	130507fffe020000	0x07ba	0x04d1	8	1
374	0x0777	719006fffe020000	--	--	--	--
375	0x024b	339006fffe020000	--	--	--	--
376	0x0251	211907fffe020000	--	--	--	--
377	0x0243	422319fffe020000	--	--	--	--
378	0x024c	964319fffe020000	--	--	--	--
379	0x024d	789006fffe020000	0x06d1	0x03cc	11	4
380	0x0270	288606fffe020000	0x07eb	0x01c2	5	1
381	0x0258	698706fffe020000	--	--	--	--
382	0x0663	168606fffe020000	--	--	--	--
383	0x0282	621307fffe020000	--	--	--	--
384	0x0269	721307fffe020000	--	--	--	--
385	0x026a	078606fffe020000	--	--	--	--
386	0x026b	921307fffe020000	0x07eb	0x01e2	6	1
387	0x026e	641307fffe020000	--	--	--	--
388	0x07d7	739006fffe020000	0x07ba	0x039b	6	1
389	0x028a	231907fffe020000	--	--	--	--
390	0x07bc	201907fffe020000	--	--	--	--
391	0x075f	490007fffe020000	--	--	--	--
392	0x028e	721107fffe020000	--	--	--	--
393	0x07cc	921007fffe020000	--	--	--	--
394	0x07bd	251907fffe020000	0x07eb	0x0200	11	4
395	0x0294	931007fffe020000	--	--	--	--
396	0x0295	861007fffe020000	--	--	--	--
397	0x0790	911007fffe020000	0x07ba	0x03b3	7	1
398	0x07cb	351407fffe020000	0x07cb	0x00ff	1	0
399	0x053b	740607fffe020000	--	--	--	--


Routing Table : [000]-[999]
                    Addr   Next_Hop  Cost   Hop  Weak        EUI64
[001](65516m41s):  0x01C5   0x0784  0x0216   9    2      748706fffe020000
[002](65215m47s):  0x0779   0x0795  0x00B2   2    1      108906fffe020000
[003](65114m59s):  0x024D   0x06D1  0x03CC  11    4      789006fffe020000
[004](65529m17s):  0x07EB   0x07EB  0x002A   1    1      730607fffe020000
[005](65465m26s):  0x0754   0x07EB  0x0198   4    2      810207fffe020000
[006](65506m46s):  0x06C2   0x0784  0x01E2   7    2      028906fffe020000
[007](65252m40s):  0x0720   0x0795  0x00B4   2    0      241407fffe020000
[008](65196m02s):  0x0280   0x06D2  0x0343  10    2      701307fffe020000
[009](64912m17s):  0x0677   0x06D2  0x015E   3    2      580607fffe020000
[010](65526m41s):  0x06E6   0x06E6  0x00FF   1    1      780607fffe020000
[011](65519m33s):  0x0776   0x0784  0x00E7   5    2      681307fffe020000
[012](65474m25s):  0x0279   0x07BA  0x03C3   7    2      689006fffe020000
[013](64924m47s):  0x077E   0x06CF  0x00AD   4    2      180707fffe020000
[014](65532m03s):  0x020A   0x07AF  0x0148   3    1      369006fffe020000
[015](65533m50s):  0x06BE   0x0661  0x013C   3    0      220507fffe020000
[016](65496m12s):  0x0773   0x0783  0x0118   2    1      630707fffe020000
[017](65035m37s):  0x0697   0x06D2  0x02C7   9    4      691307fffe020000
[018](64917m34s):  0x06D0   0x06D1  0x004B   2    2      909606fffe020000
[019](65146m45s):  0x0681   0x07EB  0x033D   9    2      279006fffe020000
[020](65520m59s):  0x06DD   0x07BF  0x018B   5    0      709206fffe020000
[021](65083m46s):  0x0186   0x07EB  0x0317   8    3      199006fffe020000
[022](65529m29s):  0x06D5   0x06D2  0x0085   4    0      639206fffe020000
[023](65352m41s):  0x079E   0x07EB  0x00BC   5    1      258606fffe020000
[024](65106m07s):  0x022F   0x0784  0x0129   7    3      191907fffe020000
[025](65513m48s):  0x01A4   0x06E3  0x0184   8    1      250807fffe020000
[026](65534m12s):  0x0688   0x0688  0x00FF   1    1      301407fffe020000
[027](65534m18s):  0x07CD   0x07CD  0x003D   1    1      099906fffe020000
[028](65503m58s):  0x06C6   0x07EB  0x00E1   6    2      341407fffe020000
[029](65532m03s):  0x07AF   0x07AF  0x00FF   1    0      488606fffe020000
[030](65109m20s):  0x067B   0x06D2  0x00BB   4    2      441207fffe020000
[031](65532m42s):  0x0682   0x0682  0x00FF   1    1      098906fffe020000
[032](65471m11s):  0x067C   0x07EB  0x009D   4    1      130607fffe020000
[033](65533m50s):  0x0661   0x0661  0x00FF   1    0      019906fffe020000
[034](65460m31s):  0x00D6   0x06D2  0x0203   8    2      270807fffe020000
[035](65512m34s):  0x0729   0x07BA  0x0240   3    0      649206fffe020000
[036](65229m45s):  0x0193   0x064A  0x0175   8    3      981307fffe020000
[037](65449m07s):  0x067E   0x06D1  0x0127   3    1      710507fffe020000
[038](65466m56s):  0x06F3   0x07EB  0x008D   4    0      839706fffe020000
[039](64876m25s):  0x06A1   0x06E6  0x0054   2    2      649706fffe020000
[040](65362m54s):  0x0664   0x0664  0x002A   1    1      899606fffe020000
[041](65469m15s):  0x072A   0x06D2  0x003D   2    0      930407fffe020000
[042](65534m17s):  0x0691   0x0749  0x011B   2    1      261407fffe020000
[043](65129m51s):  0x06C7   0x06CF  0x00DC   5    2      188606fffe020000
[044](65499m40s):  0x07B4   0x0784  0x01F1   8    2      760407fffe020000
[045](64902m59s):  0x0107   0x06D2  0x01D4   7    0      039906fffe020000
[046](65531m10s):  0x07BF   0x07BF  0x0065   1    1      390307fffe020000
[047](65450m33s):  0x068D   0x06D2  0x00A1   4    1      018906fffe020000
[048](64567m32s):  0x00C2   0x0545  0x02E2   7    4      449006fffe020000
[049](65419m25s):  0x0790   0x07BA  0x03B3   7    1      911007fffe020000
[050](65532m35s):  0x06B8   0x06B8  0x00FF   1    1      659206fffe020000
[051](65114m47s):  0x0259   0x06CF  0x032A   9    3      814619fffe020000
[052](65359m50s):  0x011C   0x07EB  0x0193   5    1      210807fffe020000
[053](65442m32s):  0x01CB   0x07BF  0x0294   9    2      729006fffe020000
[054](65479m14s):  0x0245   0x06FF  0x00AD   5    2      429006fffe020000
[055](65520m16s):  0x0679   0x0795  0x0234   3    1      048906fffe020000
[056](65526m13s):  0x06D1   0x06D1  0x00D3   1    1      639706fffe020000
[057](65335m28s):  0x0788   0x06A4  0x01B8   5    1      870407fffe020000
[058](65497m12s):  0x0791   0x0795  0x0139   3    0      891007fffe020000
[059](65409m55s):  0x0694   0x064A  0x02CD   7    2      461207fffe020000
[060](65518m35s):  0x07BA   0x07BA  0x00FF   1    0      851407fffe020000
[061](65527m50s):  0x06A4   0x06A4  0x00FF   1    1      879606fffe020000
[062](65526m57s):  0x07CE   0x0784  0x0084   4    1      109906fffe020000
[063](65097m29s):  0x06D9   0x064A  0x00C9   5    2      750207fffe020000
[064](65122m51s):  0x0229   0x06CF  0x022B   9    2      241907fffe020000
[065](65476m14s):  0x067D   0x07BA  0x0399   6    1      468606fffe020000
[066](65336m14s):  0x07BD   0x07EB  0x0200  11    4      251907fffe020000
[067](65093m49s):  0x06BA   0x06D2  0x0369   9    2      120607fffe020000
[068](65251m09s):  0x077C   0x064A  0x00AF   4    2      160707fffe020000
[069](65534m18s):  0x06B2   0x07CD  0x0079   3    1      421207fffe020000
[070](65432m13s):  0x06DC   0x0795  0x0129   2    2      268606fffe020000
[071](64661m24s):  0x01B2   0x0562  0x0099   5    0      679006fffe020000
[072](65111m36s):  0x073A   0x06A4  0x01AA   5    2      610507fffe020000
[073](65281m27s):  0x06D4   0x064A  0x00D1   4    2      208606fffe020000
[074](65426m27s):  0x0680   0x06CF  0x008D   4    1      990307fffe020000
[075](65473m51s):  0x0746   0x06D2  0x00A5   5    1      119906fffe020000
[076](65534m12s):  0x07C3   0x0688  0x0129   2    2      448606fffe020000
[077](65513m07s):  0x06B1   0x07EB  0x00B6   5    1      691107fffe020000
[078](65473m51s):  0x07D7   0x07BA  0x039B   6    1      739006fffe020000
[079](65505m42s):  0x0652   0x0784  0x01DF   7    3      810407fffe020000
[080](65282m16s):  0x06BC   0x0795  0x0125   3    0      080607fffe020000
[081](64422m09s):  0x0151   0x05F6  0x02D6  11    3      931307fffe020000
[082](65448m01s):  0x079D   0x06D2  0x018F   5    0      791407fffe020000
[083](65210m21s):  0x00AA   0x064A  0x020B   5    2      711307fffe020000
[084](65210m00s):  0x0206   0x064A  0x00EB   5    2      769006fffe020000
[085](65354m55s):  0x025C   0x064A  0x009E   5    1      172509fffe020000
[086](65288m23s):  0x06CE   0x07EB  0x00F5   6    1      970307fffe020000
[087](65520m03s):  0x01EF   0x06AF  0x013A   4    1      941307fffe020000
[088](65527m15s):  0x07DF   0x07DF  0x00FF   1    1      699206fffe020000
[089](65149m47s):  0x00D8   0x06D1  0x0120   9    1      961307fffe020000
[090](65505m25s):  0x04F7   0x0784  0x01E0   7    3      950307fffe020000
[091](65440m04s):  0x06BD   0x0795  0x038D   7    4      680507fffe020000
[092](65525m27s):  0x0270   0x07EB  0x01C2   5    1      288606fffe020000
[093](65521m05s):  0x0726   0x0784  0x0220   7    2      610707fffe020000
[094](65534m17s):  0x0749   0x0749  0x00FF   1    1      679206fffe020000
[095](64974m06s):  0x0698   0x06D2  0x00AE   3    2      811407fffe020000
[096](65435m48s):  0x077B   0x06D2  0x0044   2    1      790607fffe020000
[097](65524m18s):  0x0275   0x07EB  0x00DD   6    0      778706fffe020000
[098](65457m54s):  0x07BE   0x07BE  0x00FF   1    0      330307fffe020000
[099](65514m59s):  0x071C   0x07EB  0x019C   4    2      790207fffe020000
[100](65520m58s):  0x07CB   0x07CB  0x00FF   1    0      351407fffe020000
[101](65496m11s):  0x0783   0x0783  0x00FF   1    1      550707fffe020000
[102](65503m47s):  0x0745   0x07BA  0x0262   4    1      030407fffe020000
[104](65219m33s):  0x06C4   0x06E3  0x00AB   4    1      299006fffe020000
[105](65107m12s):  0x068A   0x06D1  0x0147   8    1      530707fffe020000
[106](65520m44s):  0x06EA   0x06EA  0x002A   1    1      380307fffe020000
[107](65531m06s):  0x06D2   0x06D2  0x002A   1    1      700607fffe020000
[108](65460m17s):  0x0705   0x0705  0x002A   1    1      400307fffe020000
[109](65526m13s):  0x0725   0x0725  0x002A   1    1      900407fffe020000
[110](65285m08s):  0x077D   0x06E3  0x007F   3    1      170707fffe020000
[111](65534m48s):  0x07B0   0x07B0  0x002A   1    1      331407fffe020000
[112](65516m45s):  0x06FF   0x06FF  0x002A   1    1      920407fffe020000
[113](65524m04s):  0x07A5   0x07A5  0x00FF   1    1      271407fffe020000
[114](65100m32s):  0x0792   0x0706  0x008D   4    1      980307fffe020000
[115](64670m29s):  0x0244   0x064A  0x0543  11    2      930307fffe020000
[116](65489m58s):  0x06CD   0x0725  0x00F7   6    1      291407fffe020000
[119](65533m56s):  0x06FC   0x06FC  0x002A   1    1      760607fffe020000
[120](65104m38s):  0x0134   0x06CF  0x01EB   5    2      801407fffe020000
[121](64453m04s):  0x019E   0x051F  0x020E   8    4      661307fffe020000
[123](65489m26s):  0x073E   0x073E  0x002A   1    1      730207fffe020000
[125](65407m27s):  0x06F1   0x06D2  0x01C6   6    3      940307fffe020000
[126](65448m18s):  0x07DB   0x07EB  0x01D1   6    1      371207fffe020000
[127](65450m54s):  0x0727   0x0727  0x00FF   1    1      310307fffe020000
[128](65480m07s):  0x023C   0x07BA  0x04D1   8    1      130507fffe020000
[135](65513m47s):  0x06E3   0x06E3  0x00B0   1    1      579706fffe020000
[138](65041m46s):  0x06B7   0x06B7  0x00FF   1    1      251407fffe020000
[139](65127m25s):  0x069F   0x06D1  0x00C6   6    1      170607fffe020000
[150](64434m51s):  0x014B   0x064A  0x02F0   8    2      269006fffe020000
[156](65251m36s):  0x0759   0x0784  0x02F5  14    6      960307fffe020000
[165](65409m23s):  0x078F   0x06D1  0x007A   3    1      669206fffe020000
[192](64725m11s):  0x00D2   0x064A  0x02D1   7    2      321407fffe020000
