bandplan FCC

preamble section 0
-32
-1872
-588
-292
2000
1564
-1840
-2452
224
2452
1232
-596
-1880
-1492
676
1856
1048
-388
-468
-372
-1676
-824
1756
2524
348
-1824
-2152
-832
1168
1284
1136
1412
-856
-3364
-1460
1740
2548
1192
-764
-2628
-1532
1540
1460
832
740
-1944
-2824
292
3340
1684
-1880
-2144
168
1264
960
-32
-1668
-768
1428
1492
-532
-1668
-1452
1232
3040
652
-3000
-3160
1160
4160
1192
-2936
-2300
1008
2484
-340
-2088
-112
1396
1120
-904
-2280
-248
3912
2232
-4216
-4192
2208
4832
48
-4024
-1748
3644
2748
-3296
-4144
2040
5328
120
-5016
-2380
3516
3732
-1348
-3968
-300
3348
372
-2896
484
2096
-444
-1284
120
668
-724
-144
2008
1292
-3304
-3176
2300
3984
56
-3120
-96
840
-1684
-500
3008
2176
-2788
-2340
1540
452
-1276
1808
2316
-2904
-3176
2604
2224
-1460
276
268
-2308
-256
2732
652
-2280
-596
2316
-292
-1636
784
-40
-676
2112
1340
-4332
-2024
4144
1864
-1500
-912
-1372
-716
2732
2324
-2612
-1856
2000
-476
-928
1580
-700
-732
2452
-1064
-3208
2000
1580
-936
1580
-168
-4048
668
3280
-676
144
-332
-2444
1308
1992
-2420
128
2548
-588
-872
-784
-1332
1692
2168
-776
-1332
-1856
56
3152
1088
-1832
-1556
-564
2024
1264
-2144
-56
832
40
404
-1792
-356
2724
192
-1184
-1208
-992
2340
888
-1668
32
316
460
-32
-1960
620
1968
-308
708
-2064
-1800
2468
1284
48
-1708
-1508
1040
332
660
404
-364
596
-1276
-224
912
-700
800
agc_result_db 45
afe_gain      0
id_gain       0
afe_att       0
comp_gain     0
decim_gain    0
comp_coeff    0
decim_coeff   0
inv_tone_cnt  0

preamble section 1
-224
908
-436
-680
848
176
-1000
648
528
-848
320
168
-980
716
892
-1224
84
1132
-1048
-536
944
-192
8
744
-928
-768
972
220
-108
284
-788
-248
816
-352
252
724
-1176
-412
576
12
688
276
-876
-624
-312
856
1212
-656
-776
80
116
340
-192
-436
296
140
528
564
-1380
-1068
496
696
1308
364
-1344
-1240
-444
1072
1244
-84
-224
-180
-340
-744
-776
828
1748
932
-728
-2192
-1292
952
1860
800
-492
-404
-548
-1044
-504
916
1756
908
-968
-2112
-720
1144
1148
424
-44
-624
-944
-292
736
900
-32
-912
-528
1084
1104
-1236
-1732
376
1608
1060
-164
-1444
-1648
52
2392
2128
-1460
-3568
-1068
3100
3432
-204
-2972
-2852
-724
2324
3788
1400
-2360
-3316
-1112
492
1208
2736
2580
-1152
-4752
-3240
1460
4272
3692
-328
-4912
-3996
1932
4608
600
-2372
-504
608
-244
-280
128
-72
188
432
-140
52
808
-712
-2504
-16
3000
2020
-636
-2888
-3056
1096
5072
2084
-4084
-4580
620
5368
3560
-4016
-6160
904
6312
1572
-4100
-2796
1452
3704
-112
-4532
-644
4640
1744
-3032
-3252
604
4268
876
-4188
-1088
2936
1172
-776
-1880
-1264
2164
2132
-1096
-1936
-576
2040
1384
-3088
-1140
3892
916
-3500
-1324
2804
1708
-2760
-1456
3064
612
-2720
-12
1888
364
-2164
-592
2964
-168
-2452
1160
1212
-1588
-864
1904
704
-2428
436
2428
-1224
-1912
352
1588
684
-1348
-576
1152
116
-1532
-4
2104
-328
-1700
agc_result_db 30
afe_gain      0
id_gain       0
afe_att       0
comp_gain     0
decim_gain    0
comp_coeff    0
decim_coeff   0
inv_tone_cnt  0

preamble section 2
-2596
660
3316
2740
-952
-2444
-944
-308
372
1184
556
128
80
256
-708
-3152
-208
4724
548
-2348
1064
-284
-3048
-700
2300
3224
1340
-2708
-3524
-676
1048
1984
3308
256
-3756
-2516
120
1452
1436
1984
1008
-3420
-2708
1516
784
308
2452
24
-3628
-1104
1684
1088
1388
-144
-2872
-484
1388
1120
1056
-776
-1808
-1708
768
3628
644
-2984
-708
1080
-668
-144
1492
452
-136
-356
-1572
-1676
976
3604
1572
-2160
-3880
-1460
3780
3604
-1096
-3356
-1356
2040
960
-500
1300
-256
-3152
-936
2920
3348
-1276
-3168
-428
-356
1604
2740
-2348
-1800
2912
284
-2492
-1756
356
5320
2280
-5788
-4152
1444
4580
2428
-2324
-2056
-684
-668
784
2104
1184
-700
-2356
-1652
1556
2872
896
-3428
-3316
3804
3524
-3016
-1548
888
-168
756
104
-284
192
-904
308
800
-700
-64
508
-540
856
460
-2548
-628
2540
2764
-768
-5372
-1160
5072
2160
-2500
-1856
800
740
-1008
412
1032
-864
380
80
-1652
724
2192
-32
-2024
-2740
776
5272
1240
-4296
-2896
72
2056
4280
2024
-5952
-5620
3364
4976
1096
-1160
-2628
-2992
1708
4096
-1008
-1644
840
-1660
-420
3372
-572
-2428
660
716
256
-120
-1780
-24
3628
1540
-4064
-4232
1952
5168
808
-3216
-1096
184
-1396
2008
2984
-2596
-1276
2580
-1316
-3580
1992
4280
-476
-2856
-1692
444
2660
356
-1620
708
-436
-1716
1372
2300
-428
-2468
-2088
1420
3832
660
-2508
-1824
-224
840
372
1152
2404
-1968
-4644
716
agc_result_db 39
afe_gain      0
id_gain       0
afe_att       0
comp_gain     0
decim_gain    0
comp_coeff    0
decim_coeff   0
inv_tone_cnt  0

preamble section 3
-80
24
-996
1080
580
296
-164
-864
-392
-596
824
940
316
212
-1100
-816
-384
272
1268
880
268
-1248
-1444
-240
468
1428
1004
-144
-1136
-1420
-272
768
1528
712
-716
-1112
-1100
380
1328
744
-252
-1092
-576
228
928
808
-556
-1272
-636
1144
1424
-116
-1108
-1212
104
1200
1144
-80
-1708
-668
872
992
232
-1064
-672
380
1112
568
-1472
-1008
756
1124
364
-948
-756
308
780
200
-860
-396
720
796
-360
-1136
-164
1008
684
-792
-784
584
580
-232
-596
-40
656
224
-612
-468
856
468
-1012
-436
524
724
-44
-840
-16
636
48
-832
-36
1240
-208
-1044
280
736
-288
-944
476
1136
-372
-1132
4
1240
-112
-1324
540
1280
-740
-1184
936
908
-1272
-624
1416
536
-1444
-252
1516
-416
-1584
984
1544
-1352
-972
1636
-100
-1716
788
1728
-1088
-1604
1604
724
-1892
712
1388
-1684
-624
2052
-152
-1968
1188
1036
-1952
316
1748
-1232
-788
1676
-480
-1576
1584
544
-1864
896
1072
-1692
392
1352
-1808
40
2088
-1652
-772
2140
-1020
-1164
1804
-640
-1052
2076
-840
-1584
2196
-700
-1348
2036
-804
-860
1752
-1144
-704
1688
-1140
-248
1680
-1644
148
1452
-1908
764
696
-1616
1480
84
-1200
1040
-636
-392
1144
-680
92
624
-1096
688
-16
-1120
1812
-796
-828
1708
-1348
560
120
-1464
1840
-828
100
1076
-1760
1160
-584
-756
1540
-940
1000
-64
-1320
740
-812
836
384
-672
1068
-888
agc_result_db 18
afe_gain      0
id_gain       0
afe_att       0
comp_gain     0
decim_gain    0
comp_coeff    0
decim_coeff   0
inv_tone_cnt  0

preamble section 4
-32
-1872
-588
-292
2000
1564
-1840
-2452
224
2452
1232
-596
-1880
-1492
676
1856
1048
-388
-468
-372
-1676
-824
1756
2524
348
-1824
-2152
-832
1168
1284
1136
1412
-856
-3364
-1460
1740
2548
1192
-764
-2628
-1532
1540
1460
832
740
-1944
-2824
292
3340
1684
-1880
-2144
168
1264
960
-32
-1668
-768
1428
1492
-532
-1668
-1452
1232
3040
652
-3000
-3160
1160
4160
1192
-2936
-2300
1008
2484
-340
-2088
-112
1396
1120
-904
-2280
-248
3912
2232
-4216
-4192
2208
4832
48
-4024
-1748
3644
2748
-3296
-4144
2040
5328
120
-5016
-2380
3516
3732
-1348
-3968
-300
3348
372
-2896
484
2096
-444
-1284
120
668
-724
-144
2008
1292
-3304
-3176
2300
3984
56
-3120
-96
840
-1684
-500
3008
2176
-2788
-2340
1540
452
-1276
1808
2316
-2904
-3176
2604
2224
-1460
276
268
-2308
-256
2732
652
-2280
-596
2316
-292
-1636
784
-40
-676
2112
1340
-4332
-2024
4144
1864
-1500
-912
-1372
-716
2732
2324
-2612
-1856
2000
-476
-928
1580
-700
-732
2452
-1064
-3208
2000
1580
-936
1580
-168
-4048
668
3280
-676
144
-332
-2444
1308
1992
-2420
128
2548
-588
-872
-784
-1332
1692
2168
-776
-1332
-1856
56
3152
1088
-1832
-1556
-564
2024
1264
-2144
-56
832
40
404
-1792
-356
2724
192
-1184
-1208
-992
2340
888
-1668
32
316
460
-32
-1960
620
1968
-308
708
-2064
-1800
2468
1284
48
-1708
-1508
1040
332
660
404
-364
596
-1276
-224
912
-700
800
agc_result_db 45
afe_gain      0
id_gain       0
afe_att       0
comp_gain     0
decim_gain    0
comp_coeff    0
decim_coeff   0
inv_tone_cnt  0

vt# 
Receive beacon_request
    ->form: 234639FFFE020000

Receive beacon_request
    ->form: 334639FFFE020000

Receive beacon_request
    ->form: 211732FFFE020000

Receive beacon_request
    ->form: 301532FFFE020000

Receive beacon_request
    ->form: 739951FFFE020000

Receive beacon_request
    ->form: 919138FFFE020000

