-32
-1872
-588
-292
2000
1564
-1840
-2452
224
2452
1232
-596
-1880
-1492
676
1856
1048
-388
-468
-372
-1676
-824
1756
2524
348
-1824
-2152
-832
1168
1284
1136
1412
-856
-3364
-1460
1740
2548
1192
-764
-2628
-1532
1540
1460
832
740
-1944
-2824
292
3340
1684
-1880
-2144
168
1264
960
-32
-1668
-768
1428
1492
-532
-1668
-1452
1232
3040
652
-3000
-3160
1160
4160
1192
-2936
-2300
1008
2484
-340
-2088
-112
1396
1120
-904
-2280
-248
3912
2232
-4216
-4192
2208
4832
48
-4024
-1748
3644
2748
-3296
-4144
2040
5328
120
-5016
-2380
3516
3732
-1348
-3968
-300
3348
372
-2896
484
2096
-444
-1284
120
668
-724
-144
2008
1292
-3304
-3176
2300
3984
56
-3120
-96
840
-1684
-500
3008
2176
-2788
-2340
1540
452
-1276
1808
2316
-2904
-3176
2604
2224
-1460
276
268
-2308
-256
2732
652
-2280
-596
2316
-292
-1636
784
-40
-676
2112
1340
-4332
-2024
4144
1864
-1500
-912
-1372
-716
2732
2324
-2612
-1856
2000
-476
-928
1580
-700
-732
2452
-1064
-3208
2000
1580
-936
1580
-168
-4048
668
3280
-676
144
-332
-2444
1308
1992
-2420
128
2548
-588
-872
-784
-1332
1692
2168
-776
-1332
-1856
56
3152
1088
-1832
-1556
-564
2024
1264
-2144
-56
832
40
404
-1792
-356
2724
192
-1184
-1208
-992
2340
888
-1668
32
316
460
-32
-1960
620
1968
-308
708
-2064
-1800
2468
1284
48
-1708
-1508
1040
332
660
404
-364
596
-1276
-224
912
-700
800
