7152
-23760
-20556
21552
26772
8772
-29360
-32768
13976
32764
13240
-23708
-31600
6812
27552
4340
-872
-3264
-5596
-19064
-11308
29056
22072
-12820
-27156
-5604
30516
7956
-13436
-912
-4360
-9368
4052
17008
420
-9092
1268
-10688
-16380
19932
27960
-6704
-25456
-3128
15756
1876
-6064
3060
-4972
-3504
6024
1960
10032
-3788
-22124
-8544
10844
23724
12264
-11732
-15820
-7788
-456
4908
14904
7296
-22352
-9976
6540
12296
28892
-4396
-32768
-15736
24300
26272
18080
-16988
-32768
-11540
23264
28824
-4564
-19224
-13348
4468
15328
5744
14612
-15052
-32768
4384
28364
5452
-5648
-5632
-1676
-2544
-2972
11588
4088
-3140
-4616
-8260
-3360
26716
2732
-23876
-16364
-4784
32764
18668
-17364
-11952
1100
-4636
-2984
3388
-868
13116
8616
-26076
-2608
32764
2440
-32768
-28732
18932
32764
7964
-32768
-26412
12752
18128
3292
-1632
-10048
-9168
4244
14672
7424
3376
-14532
-21072
-11192
13100
32764
7708
-32768
-28888
16100
28932
6960
-8220
-10224
-10644
-7532
8556
22108
9204
-18736
-29796
1264
27564
18616
2176
-23316
-26152
14164
24540
2316
-20824
-13736
19548
8180
-8760
10764
2976
-19020
-13796
-444
23996
16568
-12088
-14280
-1340
2744
12780
5880
-23872
-13604
13516
23820
5284
-10188
-3512
-24596
-5808
25396
4692
3228
2732
-7684
-13408
-3208
22368
4564
-28716
-5156
24664
5220
1060
7032
-22244
-26096
8368
32764
13304
-19076
-30652
-4240
24552
10048
1992
-4352
-7400
-14740
-5516
26784
24092
-12036
-32768
-15916
24104
29044
2784
-11096
-19176
-14660
26576
20068
-23872
-4136
5648
-4236
1068
2824
15328
-8120
-24748
1192
19744
20632
-6820
-32768
-444
32716
16684
-18516
-20004
2508
21692
-6852
-22316
18664
19204
-6812
-28056
-2140
25132
9496
-18964
-12128
10532
7976
828
-1448
-7600
5400
3180
-1752
-13284
3612
20588
-6008
-23988
-4936
32764
11268
-19768
-25192
-3908
29420
12072
-5620
-18468
-14668
12928
15220
4828
916
-3048
-26836
-17328
23444
32068
11388
-21244
-32768
-6980
32764
20264
-11316
-18616
-11852
8036
14944
8912
-11440
-10240
-8156
8124
7580
1476
4280
-9528
2092
2484
-4528
-3868
6020
13900
-10124
-21244
8816
29148
-4776
-32768
-6768
22180
26600
1716
-17916
-19152
-6136
17436
9904
2256
-3908
-8844
-9864
-4668
23080
21020
-7612
-32768
-15996
19204
27792
9344
-15980
-25712
-4984
20492
4016
4432
7136
-21652
-16204
17088
32764
1656
-32768
-29448
-2124
32764
22152
-22064
-17628
-3072
-840
5068
13424
6096
-8616
-21860
-2712
13244
22572
6260
-10800
-32768
-15188
32764
31344
-20844
-31556
2372
7208
9368
340
-6140
-292
-2148
-2704
14996
20704
-24832
-27480
3140
15384
16032
8824
-11044
-23736
2416
12456
14176
-14648
-17900
19520
12656
-6304
-17608
13664
16212
-29996
-14804
21996
12432
1992
-13684
-8660
15140
4844
-7952
-1828
-1992
-5888
1384
9112
12232
3356
-8988
-30836
-7000
28112
18960
1500
-13104
-25856
844
32764
-5296
-17636
1836
-3056
4856
-1404
10636
6564
-16388
-8332
-10592
14432
31884
-3452
-30788
-11648
13800
12044
10568
-3060
-27712
-13404
15720
32416
14944
-19204
-30884
-18880
13452
32364
20280
-15264
-31612
-6328
14540
14948
2072
-6232
-9312
-8232
3416
16972
21816
-9560
-29184
-24176
22716
23292
-5016
-4304
-892
-3512
-10072
19624
4572
-13936
-3232
-320
-96
13124
5144
-8316
-15140
-10364
17748
9356
804
6760
-10940
-13656
3736
6844
6444
4568
-10636
-21980
4196
32764
17564
-23396
-32768
-4120
29992
25596
-10768
-29616
76
20052
-36
-9292
3324
1820
-6084
592
6328
9368
-2996
-13756
-8452
3040
11292
22636
-18804
-32768
19968
32764
-3732
-32640
-4636
6492
11352
-1816
-156
1676
-2888
2876
-13444
-8128
19784
13344
-3752
-16888
-10408
11844
10352
952
-4292
-4276
164
-4424
-12080
16712
29212
-7172
-32768
-16008
32764
31044
-5712
-31640
-32768
24160
32764
-5376
-12468
-4368
-4520
-9220
5148
28392
16640
-28428
-32768
5576
32764
18288
-5248
-24112
-21156
4220
32764
12260
-30388
-10044
19544
-1348
-868
1796
9532
-20100
-21544
18824
21824
9812
-26112
-11136
8680
5944
9040
9252
-21108
-12836
13132
6544
-1816
-3788
11304
-4296
-21496
-6716
23264
26788
-9956
-29392
-548
16056
-4128
-4112
18980
-10080
-18112
5112
9872
14376
-3528
-20148
-14560
16944
20336
5544
-6628
-28804
-9788
25588
11048
-4060
-11996
-7940
12772
15948
-7992
-7464
1916
-6884
-10972
-1252
30004
2416
-13612
-11204
-456
8564
14368
-7220
-18456
14204
1220
-11300
9504
19652
-15072
-24096
-4044
16624
19528
7040
-21104
-16824
14064
14904
1828
-25584
-8376
22792
13948
-17884
-6316
10996
4888
-5620
-22752
6420
28764
10700
-20960
-24304
5660
13000
4392
9064
-10404
-22008
17204
15960
-8552
3336
3668
-20340
-19716
14416
26544
8920
-15972
-19064
7424
2992
8204
3832
-4492
-13428
-3776
18776
-5744
12240
-1748
-22328
-11936
16532
24096
-5676
-10736
-9744
-112
14932
8976
-11928
-8408
-10324
2104
22144
5636
-5384
-6956
-8572
-5320
1112
16432
9968
-6964
-10692
-2388
-1580
-10988
21464
17784
-18060
-20468
7572
13668
6548
6840
-23944
-21952
11380
32764
11924
-27944
-23988
3328
14360
18344
192
-24564
2600
6680
3840
6640
-5948
9252
-26188
-16208
17880
30108
3264
-24920
-2996
-8744
9460
17076
-2968
-1980
-2068
-24540
-3000
29168
14608
-92
-20584
-25908
-8796
28252
32764
-1460
-24252
-16720
5044
-3088
-8400
21372
27432
-20564
-32768
2188
29384
27896
-19176
-32768
-4232
28864
23204
-11852
-22028
-11020
9680
16060
-928
-3416
11364
-13192
-22884
14444
22916
16732
-9496
-32768
-32768
32764
32764
3496
-32768
-22828
10444
7192
24168
704
-12400
-14356
-4860
9828
14952
17768
-15980
-32768
-6728
32764
29188
-548
-20480
-24200
-72
21652
2316
-16892
11776
9616
-12068
-13352
7792
32764
-3208
-32768
-14020
27036
15756
1532
-3760
-15084
-7948
16416
6168
-7872
2200
-9656
4360
7744
376
-1476
8120
-3652
-32768
3528
32764
15296
-32768
-26192
18556
19972
-1340
-7596
-16916
9400
4340
-188
-3256
3516
14196
-15436
-19404
-6436
29460
30992
-18884
-29652
2564
15716
4344
-18204
-2380
21728
-1652
-24940
2724
28816
20192
-22984
-32768
-3336
32764
29760
-9432
-31268
-14800
17496
20688
252
-22536
-7588
14976
7668
-4732
3800
10972
-4252
-27720
-23640
28676
32764
-5332
-25144
-8300
7856
4804
308
1588
12596
-12608
-12852
-648
7864
21096
7528
-32768
-21404
30832
21044
5376
-15196
-11872
-2400
13896
6868
-18836
-9084
23612
4676
-24548
632
22484
12692
-19540
-29464
5300
29016
21452
-17312
-32768
5800
31916
-2028
-18080
504
-1568
7668
3040
-380
5476
11768
-12104
-32768
1836
32764
24052
-11408
-32768
-9304
31636
20416
-15288
-23296
5584
9720
-856
-4764
1504
16888
-1200
-22020
-23932
14464
32764
20696
-30880
-27956
-12932
27452
28000
-28112
-6468
6168
-1440
420
15144
10380
-6988
-24324
-22780
16100
29552
11980
-10008
-26532
-7424
8988
15400
11684
-8124
-17296
-4244
6452
14092
15440
-4452
-26844
-32468
9032
32764
18608
-25184
-23696
-5724
20756
8512
-9048
-4580
-6120
4404
1152
2212
10536
12756
-21836
-26552
5592
19204
26412
-8684
-28740
-7556
23340
16780
-11172
-32768
8784
32764
-17792
-23500
13496
22872
-184
-22488
-28240
1776
32764
20972
-14268
-24984
-7980
16064
7744
1748
-7232
-17288
4936
11896
19492
3252
-16668
-20452
-24504
18468
32764
9176
-30524
-32768
7548
30124
5076
-2768
-6576
-18540
-1928
17960
2900
3944
4380
-4976
-24444
-18796
23392
32764
4604
-32768
-19460
20336
19172
-17892
-11684
13056
12460
-8868
-7876
-440
21600
-1160
-26472
-8960
7428
25692
10824
-10272
-29632
-5360
18388
20492
-164
-16264
-7180
-14396
6640
31492
16184
-9084
-32768
-32768
26672
32764
7056
-28584
-27828
8472
23440
5432
-9968
-17020
4576
7688
-2512
-1468
8920
13776
-11376
-25256
-9976
24272
27444
-3012
-19292
-19356
-60
23064
5456
-9656
-4684
2112
-1016
-9556
13816
23200
-2352
-32768
-20848
13160
32764
21704
-32768
-28900
2808
15420
19412
6664
-10840
-13172
-10584
4744
9024
24156
11684
-32768
-32768
18104
32764
19028
-6072
-32336
-21772
20352
17088
876
-7328
-400
-4748
-7544
4284
9808
10844
-4640
-21948
-16840
28048
25840
-10688
-21992
-8516
22244
6428
-22620
-7928
19732
11688
-11104
-5080
4668
-4776
10944
-36
-29252
9136
25128
728
-17996
-9128
6044
20448
-1196
-18048
136
5996
-6520
5312
7348
-784
9644
-18512
-18912
4224
22024
20292
-7832
-27540
-4128
19012
-712
-7164
3676
5104
-5112
-1184
1244
-6152
11836
12564
-15208
-22444
5220
15800
10932
6056
-24572
-2000
4812
-2756
7608
9704
-1048
-27260
5680
20196
1700
1024
-2124
-26944
-10224
28512
17420
396
-22212
-9136
5468
13796
-696
-6028
-5452
5112
12536
-20752
1348
25892
-7012
-20680
-12704
12980
19500
-96
3576
-14420
-15404
10476
12824
-3212
-1016
28
-12268
-2020
9832
9412
6076
-1924
-18744
-21036
17504
23060
4564
-5272
-6440
-23156
-14668
24296
32764
988
-32108
-13500
6600
20596
12476
-4340
-20952
-22904
6096
31788
24160
-32768
-30352
19536
29152
-10732
-14912
9732
-10452
3348
4404
7684
-2108
-3976
-10156
-12544
16784
10324
2392
5592
-13208
-20328
9980
18796
-2236
-8892
-4964
4684
4956
-11148
-1936
18228
15688
-16196
-32768
-668
29084
18596
-3736
-16084
-31292
5240
32764
11236
-20952
-19788
10580
6276
-7352
7548
19452
-7336
-29580
-19704
19364
32764
4124
-32768
-24824
948
29888
19312
-11756
-18128
-1780
12588
-3356
-6660
5136
14396
-13132
-1760
-16772
3192
32764
-10560
-32768
-6396
20252
11616
-4288
-13484
2688
15084
1480
-18236
-4876
19440
10336
-23904
-25700
20024
32764
10524
-27916
-32768
5312
32764
27440
-24792
-32768
-256
26132
18924
-16688
-11736
6964
-2224
-8416
-8
16940
10544
-5120
-17400
-5840
2636
8008
13360
-2356
-12336
-11504
10448
9076
-17580
16176
19232
-17964
-30896
2888
32764
8548
-22356
-26428
15180
9904
1668
884
-6852
-720
-1512
3760
-5284
8944
10864
-1160
-27464
-11120
26456
23788
-1724
-32768
-16588
21792
30592
-5952
-21612
4556
4932
-5056
-5256
6752
14928
11468
-26276
-32768
9316
32764
27492
-24872
-32768
-916
19312
26816
-7072
-18156
4728
1604
-21956
-1900
28560
30496
-17864
-32768
-12304
24124
32764
-1140
-17840
-26392
-4656
16256
20944
-4908
-16700
2876
-9180
10308
3784
1944
19152
-11372
-31564
-6044
25448
22944
-13708
-21340
-560
17072
3316
-1224
-6392
-7948
7320
296
2832
-2348
5220
10696
-16024
-16912
1292
12508
21008
-4472
-21960
1292
4356
3956
11356
-1920
-12616
-10068
-5184
11688
22828
9988
-18588
-25040
-11484
17876
24720
12420
-15912
-31596
2224
16712
16256
-4252
-2516
-15420
-9808
8376
13148
12440
-3508
3396
-32768
-18344
32764
16320
-9596
6372
-7992
-25228
11064
16860
988
-664
-9548
-13956
4636
25308
5184
-5676
-18040
-22708
2508
30472
26192
-22936
-20556
-2292
14768
14720
-11160
-9736
-6344
5436
8856
6484
-2244
-9736
-1456
9292
-12760
-2752
17088
3412
-2680
-6820
-7068
-5672
12024
3008
3792
-6796
1952
-2708
-15172
13448
26488
1916
-32124
-28952
5664
32764
21292
-21716
-32768
-7152
30916
27404
-6232
-31264
-11116
17516
15996
-1844
-4520
-488
-9072
-13220
-3312
24268
26168
-10844
-25672
-13780
13780
21184
1452
-11988
-27012
-4892
32764
12720
-19036
-1812
13940
-8468
-32768
1496
31764
24288
-9060
-32768
-15408
7172
28244
16228
-21032
-12656
3088
4728
9860
-6616
9024
716
-23616
-5264
-6660
27876
32672
-26032
-32768
13972
18388
-4832
1556
-2948
-2116
-3192
-1432
-2012
10756
13080
-12528
-20896
-5640
19560
22792
5068
-24012
-14416
-1112
8356
14892
-10924
-2100
14144
-9876
-8980
-6224
20996
31416
-26560
-21268
-23940
7452
32764
15260
-10968
-24156
-1536
280
4568
376
10212
6148
-6892
-9764
-12924
17312
14964
-7776
-18388
-5124
12144
8920
4132
4924
440
-32768
-7504
16732
20524
22544
-15008
-32768
-16040
32764
32764
9340
-32768
-32768
6548
32764
32764
-20496
-32768
-13716
29036
25588
11828
-26108
-19868
9172
25964
11140
-32768
-14956
25828
20988
-12200
-32768
4784
32764
32340
-32768
-32768
12432
32764
32764
-32768
-32768
15232
32764
18772
-32768
-32768
25544
32764
-26120
-32768
29096
32764
-344
-32768
-26536
32764
32764
-32768
-32768
23408
32764
-24560
-32768
32764
32764
-32768
-32768
16420
32764
4344
-28816
-4480
10764
-26832
-26420
32764
32764
-32768
-32768
28996
32764
-26712
-12900
32764
-6068
-32768
-4124
32764
13216
-24852
1308
-6228
-24056
13800
32764
-10932
-32768
22200
4636
-29136
8144
32764
4324
-29044
4852
-9864
-18240
32764
31920
-32768
-31980
32764
8476
-23172
29000
3552
-32768
4780
32764
-17996
-10472
32764
-14332
-32768
14848
31600
-11856
32764
-2308
-32768
18928
32764
-32768
-12896
32764
-32768
-16588
32764
-32768
-11932
32764
-32768
-32768
32764
-12604
-23140
32764
-30464
-32768
32764
-11696
-32768
32764
-17780
-32768
32764
-32768
-22252
32764
-12084
-15940
-4816
-32768
32764
32764
-32768
-6692
7216
-21396
24060
2468
-1448
8288
-32768
6640
18284
-936
16212
776
-32768
15876
-18356
2736
32764
-32768
-240
-2968
1064
21004
-32768
32764
15816
-32768
13384
-12736
13332
30556
-20548
-4812
-22948
-7904
32764
-972
11240
-23624
-20296
30000
-17424
26480
1584
-32768
24940
-10392
-7628
10912
19012
-1756
-31212
10068
-2992
5144
21080
-4912
-18592
-21984
17796
27256
5972
-12196
-27736
-2440
3472
15272
17732
4508
-8184
-18072
-23980
912
32764
17872
-5976
-18880
-21428
-4368
19368
32764
7860
-32768
-24276
6776
20968
26180
2444
-24284
-18896
-5832
18872
32764
-18976
-26152
-4104
8500
21928
17920
-22340
-32768
13500
24584
15664
-17960
-26388
8576
29308
29672
-26692
-32768
-9596
32764
32764
-30804
-32768
-25172
32764
32764
-15400
-32768
-15364
32764
32764
-17508
-32768
16200
32764
7840
-32768
-32768
32764
32764
-700
-32768
-31120
32764
32764
-32768
-32768
17924
32764
-3088
-32768
-5244
32764
24752
-32768
-32768
32764
32764
-32696
-32768
16160
32764
-17416
-20124
25644
23364
-32768
-27528
32764
32764
-32768
-32768
31784
19612
-32768
-16752
32764
31692
-32768
-32768
24644
16820
-12856
7732
22048
-19452
-30440
16396
22224
-21416
7208
32764
-31184
-32768
15940
32764
3560
-15448
1332
-18528
-29364
32764
32764
-32768
-15072
16876
-18636
-6036
32764
10384
-32768
8164
12380
-32768
32764
32764
-32768
-32768
32764
2448
-18268
32764
-17316
-32768
32764
23476
-32768
19748
32764
-32768
-20372
32764
-32768
1744
32764
-32768
-32768
32764
-20284
-11544
32764
-32768
-32768
32764
-22204
-32768
32764
-15988
-19172
32764
-32768
-32768
32764
6400
-32768
12664
-32768
22304
32764
-32768
920
12132
-32480
19636
10932
-15728
25052
-4092
-20484
2336
-20924
11896
32764
-4704
4488
-32768
-21528
32764
-16052
-27812
20684
-10660
19156
-22932
-13912
32764
-22240
-8592
-3408
-32768
32764
6728
-6224
5836
-30504
9200
-5896
14056
23600
-26628
3764
-9700
-6972
28020
-12076
16200
-1664
-32768
2768
32764
32764
-28964
-32768
4784
11012
20828
3704
-2336
-10992
-17812
3124
2992
17536
10312
348
-7260
-29440
-11324
17808
24316
18220
-10292
-19228
-20804
-7268
18940
14468
16144
5472
-22968
-32768
-7224
32764
32764
-9356
-32768
-32768
3608
32764
32764
-12368
-32768
-32768
28132
32764
24732
-30640
-32768
-16904
24568
32764
19944
-20244
-32768
-13312
11900
32764
10784
-27440
-7012
8064
6164
-1972
-23672
-2636
32764
21720
-31736
-32768
-5740
32764
32764
-5856
-32768
-32768
32764
32764
-13948
-32768
-13864
32764
32764
-32768
-32768
32764
32764
-13364
-32768
-16776
32764
32764
-32768
-32768
9124
32764
-1164
-27808
-1944
32764
7644
-32768
-22516
32764
32764
-32768
-32768
21496
32764
-10232
-32768
26548
28180
-32768
-32768
32140
32764
-21444
-32768
17184
26344
-29456
-5464
32764
5080
-32768
-10336
26032
14140
-23148
9648
32764
-32768
-16672
27920
-3780
-17944
17052
28192
-30548
-27736
25008
5604
-12636
21784
22952
-32768
-32768
32764
32764
-22876
-19260
-512
-32044
9528
32764
-6268
-32768
9900
16492
-27860
32764
32764
-32768
-19400
32764
-18188
-29204
32764
15004
-32768
5148
9848
-31004
32764
32764
-32768
-13600
32764
-32768
-4148
32764
-28764
-32768
32764
-32768
-13044
32764
-18896
-32768
32764
-32768
-32768
32764
-12020
-32768
32764
-32768
-29272
32764
-32768
1664
32764
-32768
-26336
32764
-26940
31812
25848
-32768
5692
-5432
-18952
32764
13672
-13572
-10288
-32300
5132
32764
-972
2176
-21968
-17580
30724
-14836
8384
28580
-32768
3544
-8084
-3328
32764
-30904
188
500
-32768
32764
-12804
1852
22708
-31828
18800
-19228
-3964
17720
-6344
25476
-4592
-24092
-18256
-3884
32764
12780
-30804
-17208
3740
23384
-14472
-2948
12012
-6152
1480
-8216
1520
22452
-4016
-16668
-18672
11508
17828
2988
15004
-21332
-31464
1996
23388
24168
-412
-11476
-20208
-15996
10880
25536
13216
-8640
-584
-32768
-27060
32764
32764
4424
-32768
-32176
-9784
31528
31664
1172
-25184
-19136
-6536
22816
20620
-5200
-19320
-22904
23912
32104
-8896
-32768
-4556
18300
24288
14540
-32768
-29980
17364
25700
27528
140
-32768
-32768
32764
32764
-7148
-32768
-32768
32764
32764
-11796
-32768
-9900
32764
23956
-25828
-32768
1976
32764
29404
-32768
-32768
31272
32764
8520
-32768
-32768
28020
32764
-17920
-32768
21248
32764
-25256
-32768
520
32764
25448
-32768
-32768
32764
32764
-32768
-32768
32764
32764
-32768
-32768
768
32764
16968
-25228
5664
12220
-21728
-24060
21204
24944
-8276
-21760
19152
6376
-26800
808
32764
6404
-32768
-5360
32764
-10600
-12528
25456
1944
-32768
1916
32764
-8704
-27980
18696
-36
-32768
11592
32764
7880
-32768
-4060
14420
-32768
16700
32764
-26780
-32768
23240
17852
-24520
16904
22512
-32768
2244
27328
-32768
-10892
32764
-3820
-31780
13104
-76
-32768
32764
32764
-32768
7304
32764
-32768
17488
32764
-32768
-27940
32764
-18192
-23244
32764
-25508
-16304
32764
-32768
-32768
32764
6932
-32768
32764
-32768
-29224
32764
-24848
-32768
32764
-31108
-29664
32764
-32768
5720
32764
-32768
-4344
15748
-32768
32132
32764
-6696
-13676
-32768
-1808
32764
3560
-6764
-60
-30268
14088
3588
-17264
32764
-1628
-21596
-14640
-32200
32764
21352
-25852
23416
-32768
1780
30192
-15340
32764
-18864
-24740
7108
-12596
32764
3236
-20972
17232
-17936
-5680
-16744
23568
32764
-32768
3296
-8808
-27836
24640
27036
5968
-17340
-21272
-9196
2648
27124
12180
13748
-18308
-32768
-1468
4780
17344
19540
16228
-6680
-32768
-21424
31240
32764
12500
-19700
-22924
-15080
-508
18256
31344
13004
-26576
-32768
-12676
10476
30708
30660
-4988
-32768
-31352
24416
29860
21932
-5612
-32768
-28192
-588
32764
32764
-1468
-32768
-24352
30544
13148
-3256
10356
-18920
-15084
20880
25224
-16472
-32768
6628
22300
21888
-14336
-32768
4720
32764
26940
-9228
-32768
-32768
32764
32764
-5428
-32768
-28120
32764
32764
-32768
-32768
-3384
32764
32608
-32768
-32768
29632
32764
15088
-32768
-32768
32764
32764
-24500
-32768
31112
32764
-30668
-32768
11160
32764
24296
-32768
-32768
32764
32764
-32768
-15200
32764
15960
-32768
-32768
32764
32764
-14336
-32768
-9648
32764
-248
-24004
21536
17532
-26232
-25792
25348
29992
-26112
-20228
32764
548
-32768
-4792
32764
9288
-17400
-6248
-26676
-18988
32764
32764
-29756
-32768
14592
9672
-16304
12388
31160
-23556
-32364
29000
15004
-32768
13760
27868
-25616
-15568
31736
3028
-32768
32764
32764
-32768
-10632
32764
-30032
-6460
32764
-14804
-32768
32764
8344
-32768
32764
32764
-32768
-8464
29900
-32768
6796
32764
-32768
-32076
32764
-30232
-27304
32764
-15460
-32768
32764
-32768
-32768
32764
2840
-32768
32764
-32768
-32768
32764
-29324
-12188
32764
-32768
-32768
32764
-12484
5632
32764
-32768
912
7380
-32768
32764
27812
-16476
7536
-22852
-10596
32764
-9152
-4872
11492
-32768
14012
9564
-16820
32764
-19716
-11444
14468
-32768
25856
8260
-1412
26808
-32768
15944
-9224
-32768
32764
3564
-18604
11012
-31876
21492
1876
-8556
18960
-19736
17332
-11896
-20168
27484
-8480
12364
6296
-32768
1616
19980
29608
-16096
-32768
10708
16212
14436
-19212
-7392
32644
-2840
-14320
-21888
-9944
23856
32764
5436
-32768
-28844
10704
26568
25600
15388
-32768
-32768
6120
18384
25300
27736
-9244
-32768
-22080
1264
15248
23416
23080
-16356
-32768
-14676
16984
32764
12672
-24124
-32768
-4348
32752
16904
-15348
-14932
-3488
13588
10648
-4636
-11216
-24064
13220
32764
5652
-32768
-32768
19568
32764
27456
-20864
-32768
-21992
32764
32764
-12944
-32768
-28340
32764
32764
-19780
-32768
-6588
32764
27384
-32768
-32768
10060
32764
32764
-32768
-32768
29136
32764
12900
-32768
-32768
32764
32764
-32768
-32768
32764
32764
-30352
-32768
-8500
32764
32764
-32768
-32768
32764
32764
-32768
-32768
32764
32764
-8796
-32768
-11768
32764
-5948
-23692
21272
32764
-24964
-32768
28036
32764
-29892
-32768
32292
24328
-32768
-15548
32764
4112
-32768
10276
32764
-30588
-32768
32764
32764
-32768
-25284
32268
-12108
-11796
13672
14772
-20028
-6984
25204
-8872
-28012
23784
30580
-32768
-4104
14560
-29152
-4232
32764
5388
-32768
6656
29316
-32768
7856
32764
-25812
-32768
30116
1452
-24096
32764
8208
-32768
17800
10144
-32768
24332
32764
-32768
-10508
32764
-32768
-10748
32764
-25844
-32768
32764
-32768
-32768
32764
-18480
-32768
32764
-19328
-32768
32764
-436
2560
32764
-32768
-29020
32764
-21824
-19956
32764
-28092
-25280
24900
-31792
23836
22808
-20928
18820
-14824
-32768
27024
10028
956
22312
-28032
-14024
3768
-13656
32764
-4360
-32768
24820
-32768
6928
32764
-23584
11700
-4456
-25268
16528
-31932
25656
26560
-27768
24656
-32768
-2820
32764
-26144
20012
-5256
-14900
8000
-16864
19240
-3996
6764
21332
-32768
-3188
6428
-11256
27772
-776
-9020
-5156
-7700
8556
-7804
28900
-2440
-21720
3164
-11336
1796
9008
12900
9796
1280
-26156
-20972
3812
9352
29296
12376
-22196
-14228
-4316
-4280
9244
24600
13048
-27840
-20632
-3752
6952
20716
11744
1896
-13348
-29680
-11704
32764
32764
-14472
-32768
-9992
-1256
22328
32764
-14320
-32768
-24924
23896
32764
6708
-26780
-32768
5300
30208
23360
-23160
-32768
15580
32764
22708
-24488
-32768
4268
32764
32764
-20304
-32768
-12816
27416
32764
6112
-32768
-24904
32764
32168
-28708
-32768
15392
32764
23428
-32768
-32768
32764
32764
10564
-32768
-32768
32764
32764
-32768
-32768
32764
32764
-22036
-32768
-7036
32764
22424
-32768
-32768
32764
32764
-32768
-26024
32764
23060
-32768
-32768
19188
32764
-8
-32768
132
23764
-16680
-30620
32764
32764
-32768
-32768
10332
31376
-15924
-6352
15724
-4040
-25192
11640
32764
-20520
-32768
24768
32764
-19388
-17800
6840
-3404
-2580
31120
-8340
-32768
1404
32764
19212
-32768
-3380
28456
-30340
-4308
32764
-7140
-24728
21272
-5088
-32768
22896
32764
-29028
-2672
24960
-32768
-14368
32764
-8812
-32768
25972
1116
-27992
21956
12464
-31496
32664
19800
-32768
5500
32764
-32768
-6476
32764
-32768
-32768
32764
-22356
-14288
32764
-32768
-32768
32764
-25840
-32352
32764
-20740
-32768
32764
-30360
-18784
32764
-31672
-21084
28508
-32768
23476
32764
-32768
27640
29072
-32768
4020
16512
-4028
32764
-2116
-24924
-2532
-21240
1136
32764
2600
2936
-20128
-24872
32764
-11396
6760
15916
-32768
23748
4724
-16092
32764
-21180
15788
4036
-32768
19868
5088
14620
13792
-26724
9004
-17796
4484
23052
-17872
13832
-1888
-16548
5428
-19028
30340
18824
-29044
-384
-612
6228
-9860
-1992
12916
660
3728
-5948
-14844
9860
12260
-2704
-17336
5784
12952
-21252
7004
17592
4720
-10128
-26132
14288
28552
-19620
-25936
16632
7112
-8228
18264
7628
-10492
-22496
-12856
21832
25824
2952
-23584
-15956
660
10872
28792
-2060
-32768
-20328
12136
27996
26956
-16732
-32768
-8644
21556
32764
3228
-25172
-32768
-8016
32764
32764
-22708
-32768
-17568
32764
32764
-18380
-32768
-4868
32764
28168
-29176
-32768
-6392
32764
32764
-32768
-32768
-13780
32764
32764
-32768
-32768
22716
32764
19396
-32768
-32768
32764
32764
-21012
-32768
-2464
32764
32764
-30864
-32768
10068
32764
-15168
-32768
17456
32764
3296
-32768
-31812
32764
32764
-32768
-32768
32764
32764
-24528
-30492
14168
29976
-17952
-32768
24604
32764
-11356
-32768
-1692
32764
-22188
-32768
32764
32764
-32768
-30324
20584
9944
-8196
-7612
31656
-4064
-32768
29516
27960
-32768
-1168
28452
-412
-32768
796
32764
-19148
-1624
32764
-22612
-32768
10412
32764
-1652
-13832
8300
-16052
-19536
32764
456
-32768
32764
5284
-32768
8812
32764
-23524
-7216
32764
-22012
-32768
32764
29412
-32768
25284
22968
-32768
2844
32764
-32768
15100
32764
-32768
-30028
32764
-7460
-10196
32764
-32768
-30324
32764
-31104
-32768
32764
-14228
-32768
32764
-15276
-23088
31696
-23576
-676
32764
-32768
-32768
32764
-15368
12016
32764
-32768
-16068
15904
-13160
32764
1432
-32768
8240
420
9516
32764
-19224
-12352
452
-30832
21636
7948
-6724
32764
-32768
-19576
32636
-18892
12576
9144
-10480
10264
-30400
4572
14284
-7836
32764
-32768
-13832
32764
-29608
26280
-2768
-14600
13964
-25868
16588
4484
816
6960
-27476
17520
9376
-28208
16884
20332
-17900
-2320
-5616
-1296
22184
-18652
-12892
19944
5172
-8616
-7552
12912
7796
-7304
-7248
-18844
8756
22716
10212
-13448
-25576
3544
15444
6268
-836
8884
-12700
-18684
-924
17756
6376
1208
1640
-17732
-11664
19328
19680
-8392
-25780
-9644
32764
16200
-4640
-18416
-32396
-11064
32764
32764
-28172
-32768
-8380
15828
32764
32764
-32768
-32768
5236
32764
32764
-6200
-32768
-28924
17580
32764
-496
-29724
-19428
16516
32384
5524
-32768
-28348
32764
32764
-7824
-32768
-23932
32764
32764
-3148
-32768
-32768
32764
32764
-28584
-32768
-9000
32764
31144
-32768
-32768
32764
32764
-32768
-32768
14664
32764
20392
-32768
-26836
32764
20680
-32768
-32768
32764
32764
-32268
-32768
28568
32764
-32768
-24196
24544
32012
-14240
-32768
32764
32764
-32768
-32768
32764
20000
-32768
-28216
31820
32764
-22688
-14708
22068
-26964
-32768
32764
32764
-26680
-32768
17052
17692
-31576
32764
32764
-32768
-25964
26824
9544
-16164
9500
32764
-30532
-32768
32764
15492
-23036
12204
10184
-27144
-18524
32764
-1996
-26224
27608
-6124
-32768
18412
16204
-21612
17368
32764
-32768
-13424
32764
-27600
-8520
32764
-22132
-32768
32764
6128
-32768
32764
25108
-32768
9060
11748
-32768
32764
32764
-32768
13916
31908
-32768
32764
32764
-32768
14116
24444
-32768
32764
32764
-32768
29600
12992
-32768
32764
6724
-26004
32764
-24532
-32768
32764
-16840
-580
32764
-32060
-8900
11420
-7676
16804
-8744
-4788
32764
-18800
-32564
16360
3668
18052
-6840
-22548
23236
-25124
11336
29500
-32768
13076
-4660
720
21644
-32768
22228
15208
-21176
3584
-17224
17724
-1416
-3988
27984
-32768
-7752
16044
-6924
22200
-9336
-1576
13444
-28672
-11908
11736
24980
2112
-8496
-5300
-20864
12664
11368
-4636
2376
-12
13888
-10044
-26680
-6328
16136
32764
2960
-19928
-14232
-17676
11064
25204
2840
-324
-4536
-26140
-18096
32764
28352
-14796
-14752
-9704
4476
1840
9500
24620
-16924
-32768
1512
32388
13104
672
-8564
-32768
-21884
31996
32764
-5760
-32768
-16840
1668
30456
31980
-17896
-32768
-23984
31140
32764
-4296
-32768
-14196
22736
28216
-9600
-32352
-18140
16436
32764
23000
-32768
-32768
25496
32764
15632
-32768
-32768
18048
32764
7644
-32768
-30792
32764
32764
-32768
-32768
15784
32764
32764
-32768
-32768
32764
32764
-32768
-32768
7328
32764
21304
-32768
-22520
32764
32764
-32768
-32768
12536
32764
-5360
-32768
28564
32764
-32768
-32060
32764
32764
-15352
-32768
28688
32764
-32768
-26708
32764
5704
-18456
40
-17848
-700
24884
9428
-5724
-11200
-14096
1916
22684
21368
-32768
-18128
26196
-7768
14840
-3332
-23072
15780
10792
12600
-15148
-32768
17396
32764
17300
-13268
-32768
4476
32764
-6804
-32768
8476
32764
5052
-32768
-19736
32764
32764
-32768
-32768
32764
20668
-17424
16532
2012
-27268
-6460
10348
15512
8612
-14816
-19832
13948
24216
-19040
-8480
11240
-21588
29188
16824
-32768
18264
32764
-4052
1612
-32768
-10464
32764
16744
-32768
-24576
32764
2640
-26992
29860
-23972
-4264
32764
-11784
-22016
-19656
14956
32764
-14756
-10296
19180
-23064
-18588
18912
10564
14628
-8628
-30796
14252
22132
-10616
-12400
5376
4592
-9888
3216
3980
-9752
12604
8444
-4744
-1400
-27452
-5968
32764
14608
-28484
-13376
-13860
-4000
32764
12168
-32768
-1180
428
-6968
32764
12080
-30932
-10488
-7328
-1556
30224
-2576
-32768
22304
32764
-24236
-21072
20036
2348
-3108
18496
-18032
-32768
20480
32764
5012
-30416
-27820
24024
4008
-8752
22120
-3076
-16940
-9576
2884
23420
9624
-10552
-29488
-12888
31412
21572
-4880
-19376
-14284
17076
16676
-16216
-18464
16072
8708
-9264
5724
-4556
-6324
11000
8436
-2592
-14252
10140
-6896
-29796
32764
19444
-32712
10208
11032
-13808
372
-17912
21656
32764
-32768
-27908
18156
2308
32764
752
-32768
-20356
28860
32764
-17420
-32768
9964
32764
4868
-32768
808
32764
6904
11368
-32768
-19704
32764
8000
-12064
-8004
-3860
8712
-15444
6876
27032
-15028
-9076
1452
-11904
11084
13912
-19472
16956
27384
-32768
-27520
32764
14772
-28224
-1696
-19052
-1404
27360
-14812
7324
32764
-32768
-32768
32764
32764
-15780
-32768
-15152
19204
17708
-4984
3516
-13604
-10232
25852
-8756
-18608
15180
14644
-2728
-8564
-2832
-16328
10024
26176
-29140
-10540
30316
1312
-2884
-8184
-8928
11108
-6296
15232
-4180
-30256
10672
21872
17244
-15352
-32768
-9100
25644
32764
-3984
-32768
1628
26200
6200
14920
-13420
-14556
-1420
-3372
408
13960
23248
3960
-32768
-5844
32764
-19624
-32768
28792
15600
-12680
-10752
-15808
20572
14252
6432
-13340
-21588
-1892
11688
18272
-4008
-13044
6972
-10724
-11272
27192
17136
-11828
-32768
12408
21020
-20512
32764
-2668
-32768
25556
3400
-22952
18968
14256
6804
-7240
-26108
-5352
16732
26692
-1672
-19568
-25148
-8020
32032
15460
11632
-12692
-32768
4640
10500
11960
17480
-3360
-13500
-22772
-7240
31532
20548
-26120
-15768
25888
-344
-31892
48
32764
32764
-22896
-32768
-20192
32764
32764
-24428
-16680
1432
-18416
-4396
32764
6424
-32768
11356
23396
-32768
-30900
30576
32764
6072
-32768
-32768
23924
32764
-19888
-17200
24616
-22240
-22100
16364
22160
12752
-14316
-29396
-7880
14244
31960
15660
-26220
-27556
3416
12500
-10884
20812
12060
-16148
6668
-31376
-12280
32764
14924
-1036
-6776
-30360
-11980
25116
32764
-10216
-32768
2576
6348
-2916
6860
20588
-1224
-12016
-13644
-10432
29856
12084
-32768
12024
19196
-10276
-16464
-25768
29284
32764
-31816
-32768
26648
32004
2372
20576
-28048
-32768
12892
19880
14000
1424
-32768
-13628
32764
1208
-32768
23492
32764
-32768
-20888
13080
-7932
14328
7848
-17944
14328
11040
-32768
8104
32764
-23224
-4412
16004
-27448
1208
32656
-10340
-12068
21960
-26524
-27680
26324
21124
32764
-30740
-32768
20880
32764
30220
-19104
-32768
24544
26792
-17692
2708
2216
6320
15400
-9612
-32768
2760
32764
-10940
-13440
10040
-17360
6056
-3576
7844
32764
-32768
-32768
32764
21568
-19108
-1528
-1944
-11192
23504
-8808
-32768
32764
32764
-32768
-19688
-8176
19756
23132
-6528
-22268
-16128
32764
-2280
-32768
28976
18736
-20552
-5888
-9164
7724
27296
-12188
-8356
-7372
12624
280
-24260
14292
16372
11404
-17528
-25552
-2248
17356
32764
-9080
-32768
1832
15684
21096
19104
-22964
-18312
4052
20320
-3216
-22552
17564
24468
-32624
-13684
17896
-3464
14964
27480
-32768
-32768
32764
-264
-20076
32764
-3724
-32768
1940
9500
1428
32764
8680
-32768
-32768
13420
32764
32764
-32768
-32768
26732
32764
-9588
-29308
-2712
2772
22668
-23704
-30444
32764
23908
-32768
-1864
23520
-2148
-700
-6880
14228
19228
-27288
-32488
16292
11560
32764
352
-32768
12988
32764
76
1080
-208
-1628
-29064
-18800
32764
29304
-25372
-22652
-11684
10576
4644
13040
12292
-15732
-420
-26900
-5100
32764
-10400
-28024
18756
-20000
-6192
14380
13688
6392
-27412
272
6356
-6888
20296
-1528
-21120
21216
-14584
-20524
30764
17472
-28528
14304
3300
-32768
32424
32764
-31400
1520
-600
-32768
26080
32180
-18380
11772
12552
-28276
-11544
16328
-4956
11628
14940
-17716
-8396
-15608
-5180
32764
27224
-29704
-31372
4864
5936
14172
25864
3840
-32768
-32768
32764
32764
-11872
-32768
-8180
32764
8960
-29052
12472
-9844
-2940
25020
-29916
-10356
22792
4820
15520
-22940
-32768
32764
1660
-5464
16840
-8604
-15724
-25880
23620
30040
6080
-4804
-32768
-9400
32764
7344
-32768
-16768
32764
32764
-17872
-32768
9296
32764
-4820
-32768
-2800
30168
21784
-6748
-30732
-7744
9940
17860
12740
-32768
-1616
32764
-17856
7448
5408
-30280
22052
25260
-17868
-9720
-21624
8452
32764
-16444
-32768
-924
18016
16172
-1888
-13368
2632
488
4308
-4156
-6212
20224
-13696
10516
-2592
-24896
6364
21060
1764
-19976
-4740
14040
7080
-3224
-3356
-1224
-3584
-2168
19584
-9480
-17528
3028
11368
19628
-18312
-26204
22176
18496
-2260
-12468
-22984
-3080
13084
32764
1348
-32768
3844
19956
6288
9404
-11092
-16368
9648
8908
-4368
12560
-26092
-68
32764
-28816
-32768
11600
32764
32764
-28128
-32768
7728
32764
16764
-23392
-32768
2808
32764
-2556
-11380
-13972
7136
27864
-30552
-17584
32764
-264
-26680
-3176
20396
8328
-17952
-29864
32764
32764
-32768
-31852
32764
5608
-5608
14148
-20524
-16824
13044
9944
-14464
-6144
30736
7780
-25448
-20628
18964
27036
-6220
-18828
-14068
-2192
19900
22780
4280
-31892
-32768
13104
32764
19996
-22856
-32768
104
25368
17476
-72
-17236
-10808
-996
22568
-4984
-14600
9348
16440
-19280
-22840
15872
29004
-1708
-29712
-11636
24600
13608
-14152
-11784
2812
26968
-2444
-29096
6164
19072
-19924
-944
18260
-9864
-13412
8920
4840
-360
4976
-3064
-720
860
-1796
13136
-5280
-32768
10336
24084
-1572
4732
-17432
-16236
28584
4784
-18984
-1200
10960
15496
-22512
-560
19124
-32768
10220
28276
-20428
-14800
3888
14948
32764
-21208
-32768
1004
32764
2108
-32716
15572
-12488
17520
23348
-32768
-15264
32764
9484
-20572
-6004
-14464
-3096
32764
7816
-28048
1452
-3732
-14660
30936
2272
-30764
18732
5480
-17968
25376
1820
-26552
4568
2956
-1400
5536
8220
-3224
-17224
21968
7900
-32768
26876
32764
-32768
-8732
32764
-26844
-24472
25564
-7788
20108
5984
-32768
16028
32764
-10804
-9864
-14804
660
25912
-30304
9240
29748
-32768
-1568
32764
-28848
3636
32764
-30120
-9364
11920
-5012
8164
2448
-26804
8580
29340
-21252
-25876
32764
28232
-32768
-26644
18176
23780
-5828
-26312
-2156
25368
7672
-21924
-12372
6164
32764
14392
-32768
-6204
32764
-8868
-2376
-1788
-23572
27928
16972
-32768
-4880
30256
-4964
-12900
8744
-2656
3872
10344
-27964
12704
12404
-32768
18528
32764
-32768
-21884
32764
-32704
-18028
18584
8496
24052
-21664
-32768
29684
32764
-668
-32768
-26992
11632
32764
-3620
-16412
2004
4444
8476
-17928
-17664
12040
32764
8120
-32768
-18336
32764
12584
-15212
15832
-9152
-32768
17392
6980
-3196
22392
-32768
-9048
32764
-24580
-32768
32764
32764
-32768
-15332
-16048
13528
32764
-32768
-32768
26432
14448
17684
-16784
-32768
32764
29648
-32768
-6620
-11552
6364
31348
19856
-32768
-32768
32764
14148
-24000
13820
12472
-32768
9896
32764
-20512
-32768
15376
26864
2976
-31644
-7744
22712
9648
-1084
-22940
8052
31668
-28172
-32768
32764
24292
-32768
-4536
32764
-6628
-10576
10060
-9960
-4084
6044
4408
1468
-12476
-136
7708
-2768
1064
2336
-13488
4268
5736
3352
6696
-2196
-524
5556
-23344
-8692
28800
-1644
-9400
312
6164
-17672
6872
23244
-1304
-19404
-12216
7696
4188
11116
19368
-10744
-32624
-11668
31208
25800
-22608
-22628
-748
22288
16104
-20776
-2212
4868
-8160
5396
-11620
15732
20104
-32768
8024
19984
-32768
844
26776
372
7888
-15132
-32768
22500
32716
-29804
10412
19256
-32768
12968
32764
-32768
-6440
31256
-32768
4056
32764
-21920
-18216
30948
-10480
-17396
13668
4980
3076
9712
-32768
-20748
32764
9836
-24280
-1160
-12104
-14556
28364
22260
-22232
-10596
12012
11340
-5932
-31788
17740
27060
-28884
5724
-6288
-14596
32764
-21836
-25020
32764
-24476
1776
19996
-11840
1880
-17224
304
20120
-1300
-8556
-2356
736
15288
-16608
-10396
25544
-7544
-11632
12692
4732
-8636
-9148
-1828
19512
7368
-16984
-16272
19128
25484
-30048
-26136
20964
32764
-27296
-32768
14020
32764
952
-32768
5492
24240
13528
-6836
-32768
10804
29656
-14804
-2284
-15452
2312
32764
-12812
-32768
13108
32764
-16188
-32768
9004
29744
5932
-19884
-13128
1816
6628
13396
-6924
-14140
3588
4592
21128
6392
-32768
-5480
31664
-6592
-25644
22572
3192
-23868
14136
-1240
5584
27256
-32768
-23224
32764
-14920
-20848
21240
6708
-10744
5832
-17860
-7068
32764
-10724
-15320
21496
-13032
-32768
32764
16940
-26504
8932
-3340
-14532
11584
10560
-2580
-2856
-508
-13080
14856
13196
-32768
-556
30652
4172
-26740
-18580
26832
22680
-2144
-32680
-22768
32764
27864
-20472
-22704
-7256
6496
18972
16332
-26040
-28620
32764
12812
-28000
9212
-14496
-1208
32764
-30416
-23032
32764
824
-32768
23452
32764
-19180
-8816
-22520
-7456
32764
20252
-32768
-26280
30112
24172
-23556
-21176
19128
20256
-10152
-17100
13320
11516
-29280
-1028
32764
-9252
-31872
9176
3436
4228
6648
-17164
14040
3240
-23796
27368
-7372
-22432
32764
-6772
-32768
22268
10764
588
15008
-32768
-9788
32764
56
-29280
10628
-2556
-3888
22592
-21856
-13784
31700
-15580
-25192
32764
12920
-32768
22412
26004
-14672
-23256
-7376
24680
6992
60
-12664
-21628
28560
20812
-32768
14860
15704
-29824
5780
8680
-1980
15448
-24448
-1156
23580
-26296
9908
21940
-32768
15992
27116
-32476
8128
13836
-14836
-1756
-12272
16296
14228
-32768
21980
27088
-32768
320
-2380
10240
32764
-32768
-31596
32764
22068
-19344
-19480
5648
6928
13856
9548
-32768
4104
32764
-17168
-9540
-9316
4812
32764
-10008
-32768
12816
32764
-2696
-29712
-13592
30368
27168
-22544
-32768
10888
29152
-1460
-16740
-11248
24272
296
-29560
23504
17756
-31224
1356
24460
-10044
-7092
-11924
7416
25348
-28116
-6564
26048
-4576
396
-6824
-11332
12652
9796
-11628
-2000
17936
-27916
-19872
32764
7224
-32768
3424
17288
1064
3572
2148
-8848
-11348
19652
-1860
-18188
4772
12188
376
-14724
13848
11560
-31328
10808
18972
-11408
-4416
-15044
20640
20696
-32768
-13920
32764
14152
-20552
-9176
8556
8540
2944
-20788
4060
8460
-3364
15312
-17728
-19844
27996
8236
-19784
11516
6452
-19828
5120
10908
-6816
-2044
-1836
-2208
7004
-3332
1088
10028
-10460
-6320
17532
4960
-16220
-18356
5220
31648
-1216
-24388
-6940
5132
14912
25336
-21616
-32280
20944
4772
-5368
10648
7152
-20236
-23492
32764
23892
-32768
-5264
23012
-8016
12276
2476
-25568
23148
10532
-32768
5680
23484
-916
-6972
-10272
14516
1896
-16576
19596
17576
-32768
-22964
32764
17360
-32768
524
32764
-18056
-17788
11932
980
7728
14980
-21952
-30760
32764
24336
-32768
-2056
19640
-9928
25092
-10776
-32768
32764
32764
-32768
-32768
22360
15920
13672
-23148
-31464
27532
24544
-27108
-18044
22752
13376
-1480
-6324
-14816
3280
22168
-4480
-31048
10852
25704
-32768
8620
32764
-30392
-13260
17316
-6856
7080
6812
-23448
12504
15852
-31312
15876
18568
-27516
5672
8404
-13628
-4232
29312
3180
-32768
8720
24496
-8188
-16092
-2600
15316
-6700
5808
21632
-30416
-5540
10512
-3632
26372
-17104
-22440
17504
896
2768
-3760
-9864
15872
5432
-12620
-1360
8116
5128
-13976
-16040
11360
32764
-21172
-32768
31556
22272
-8348
-668
-31688
3780
32764
792
-32768
-13028
32764
8392
-9936
-18960
-2428
26952
336
-14468
-8024
9528
14932
-16252
-9724
17344
-4176
-3320
4752
-2628
5920
-8212
-17340
25460
21256
-32768
-8416
17316
-4192
5300
-7376
3348
19828
-25404
-1508
23032
-31612
5152
32764
-29848
-7200
29068
-12516
-16052
19156
-612
-14800
13748
-5116
-14844
28644
-804
-30904
30208
-3692
-32768
32764
-5732
-12732
30276
-32768
-7904
32764
-17508
-15256
2852
3768
30972
-19368
-32768
32764
20668
-32768
20940
27132
-32768
-2044
32352
-10784
-17688
-180
17204
32412
-29844
-32768
32764
32764
-27664
-32768
23792
28828
-17560
-11236
348
7568
10884
-20504
224
22152
-12904
-17788
12860
15192
-9916
-13152
1436
22924
164
-18628
-384
-1564
14320
13364
-27280
-14904
29800
-864
-18132
15228
-10004
2996
18332
-28548
8804
32704
-23328
-27976
18592
18660
-19524
-2736
4836
-12184
32764
6480
-32768
14356
32764
-11256
-18584
-18600
15892
30160
-25232
-10788
6516
-5184
17356
5288
-20648
7676
15340
-18036
5892
-1692
-23356
32764
2348
-32768
17628
21356
-11208
-12532
-10104
28180
32764
-32768
-32768
32764
10956
-32768
11172
17044
-3188
3420
-7704
-5512
18008
6564
-13552
876
-432
-5076
5592
3748
-13020
-10632
15692
12308
4172
-7640
-19520
10404
7868
780
1956
-25144
8008
26276
-15768
2776
-12924
-2640
26220
-22228
-4152
29872
-7924
-3592
-6504
-24740
19368
22200
-8588
-13920
-2132
-1584
2048
21268
5836
-31356
-4872
32764
-3576
-32768
6572
15308
3076
-5124
-16052
-9104
32764
32764
-32768
-32768
32764
6400
-25484
10156
-23528
1520
23220
-5424
-4128
2540
-4312
11172
-4844
-19508
15760
10968
-12432
1564
-4344
-5748
5044
-1576
17720
1824
-32768
15196
31196
-15864
-18808
1168
6920
-6848
10756
1820
-24088
14816
13996
-27328
24912
15936
-28892
11028
-12804
-3948
25384
-23536
4176
32764
-32768
-12380
29064
-4652
14776
-11360
-24492
22688
11520
-16732
8324
25424
-32768
-32768
32764
28004
-25404
-11172
-672
5876
16620
1420
-27520
-4848
25932
-1924
492
-5596
-5888
24616
-23564
-30960
32764
14692
-32768
4312
24124
-14972
18888
-2508
-27024
19968
11164
-15500
-4040
19392
12996
-18028
-20520
2116
10732
2468
-5384
14048
-3796
-27292
600
32764
9192
-29584
3616
14636
-15500
516
22684
-10272
-19100
-7964
-1356
28132
14152
-32248
-11328
24016
2144
-2348
13528
-7948
-13184
-12032
9604
32764
-21368
-32768
32764
25572
-32768
-6196
32764
-8796
-12620
12668
-12652
22544
8424
-32768
2160
32764
-5512
-26504
8544
6156
-16960
8084
-3764
-7688
32764
-924
-32768
3356
32116
3864
5108
-27328
-26032
32764
20284
12928
-29384
-32768
25944
22476
-8272
-22396
25012
17504
-29360
-15316
12140
20424
4600
-13456
-20308
-5460
27868
12796
-6716
-6528
-27972
3104
11048
22136
17532
-32768
668
9896
-26128
17104
32764
-29336
-32652
21224
21228
14260
-22032
-32768
28840
32764
-26756
-17132
30268
6168
-32768
-11976
32764
13300
-25036
-21552
20400
22540
-29644
18148
15400
-23524
13256
-15816
-25696
32764
9492
-31184
704
-12816
12908
28636
-19984
-12844
18064
-14604
11184
32764
-32768
-23560
32764
-3276
-19848
1688
-1356
19412
20432
-32768
-20388
27392
7172
968
-7628
-25940
32764
32764
-32768
-32768
10444
32764
-17868
-27076
20948
1476
952
4824
-16424
-2952
2548
7336
12464
-23148
15732
32764
-32768
-2144
32764
-32768
-29768
20660
16288
22752
-22584
-32768
22892
32764
-8444
-26588
1508
11496
16964
-32768
-14460
32764
-25216
-8360
26992
-29036
80
18520
-5888
4776
6280
-19252
-6148
30884
12036
-10636
-16684
-32360
13560
32764
-30572
-22684
32764
-8568
-22896
18360
26408
-17152
-18512
8448
-4624
12056
22892
-32768
-7264
28556
-24044
10200
19824
-28432
-5692
26024
144
-24052
20352
16920
-32768
-6372
10532
10864
17236
-14656
-23216
18372
-2040
-14352
32680
-8804
-27884
16036
-1760
2760
18556
-26044
-8864
23404
4816
-7644
1196
4956
-2844
-16080
-8504
15140
15628
-2564
-32768
484
32764
13976
-32768
-29004
32764
23184
-32768
-16620
32764
22924
-14108
-30860
-13504
24168
22632
-2676
-15904
-7192
2136
16772
4556
-22648
-12052
13232
21220
-26388
7688
20612
-18556
7752
-18700
-9496
32764
8108
-32768
-17324
32764
13936
-32768
-6724
-8172
12940
16904
-27528
-14404
32764
21184
-32768
-15744
8496
1940
28344
-12960
-32768
25672
15564
-20484
-7560
21092
1676
-14892
12604
9072
-6328
-10488
-7772
192
5556
20828
4152
-32220
-16632
15632
32764
13544
-32768
-16364
15940
-7208
12892
10116
-32740
10856
26024
-24008
11180
26080
-24208
-31136
12652
13104
2556
27980
-32768
-32768
32764
12796
-9448
32764
-19688
-32768
24604
31344
-4192
8056
-16388
-32768
16344
22840
-25492
7372
32764
-20376
-32768
24944
28940
-724
-13884
-32768
29028
32764
-31376
-32768
16208
24888
-15996
-21880
32764
19720
-32768
-10268
32764
10044
2356
-5388
-13848
-28
-12564
-9528
32764
12300
-32704
2916
-13212
-26220
32764
32764
-27372
-19844
-19056
16816
32764
-21488
-9800
-3044
-10676
28704
28572
-32768
-17072
26272
-21172
11060
20088
-18928
8220
-1212
-32768
6996
32764
6548
-31028
-3960
-20148
-15536
32764
16516
-25732
-8360
-12668
-5616
3812
24000
25464
-24116
-16152
2576
-18288
22616
32764
-32768
-32768
22544
26376
26812
300
-32768
-2528
3496
-6392
32764
12364
-32768
-14136
11832
16508
32764
-23528
-32768
27364
32764
-16128
3320
12860
-13456
-21640
-4400
6476
18304
11624
3472
-9540
-32768
-8224
32764
32188
-22372
-32768
25200
32764
-12808
-3488
-14532
-27904
20240
31440
-2204
-6332
-24684
-2484
15532
-9240
28056
5980
-32768
10784
-1736
-12612
25140
14908
-10784
-20508
-5784
3956
7844
8088
-1264
10684
-15644
-21932
21488
9408
-3992
-11500
-1776
-272
17956
27724
-32768
-16940
26128
-5036
8512
952
-23112
2036
-13712
1184
32764
24644
-14712
-32768
-3136
18700
6428
-2384
-15832
22332
22684
-32768
-32768
32764
32764
-32768
-21372
12776
29460
13348
-32768
-12868
14728
17640
5020
-19632
-10852
15092
11268
-1428
-18036
-3308
18116
11024
-15524
-32768
26320
32764
-23512
-16876
13980
9788
-17940
5564
13212
-8036
5216
-7824
-23716
2176
31612
19036
-17976
-32768
5880
32092
-5272
-296
-8364
-23484
25476
21368
-27676
-6604
19564
-6104
-6092
-4720
18588
8896
-32768
6744
16436
-8252
29680
-3820
-14740
18380
-32768
-19116
32764
-1660
-20
360
-32768
10812
32764
2608
-7916
-11612
-18096
5828
14812
604
1128
-3536
-31248
11640
32764
-12208
-8888
-11396
-31412
32764
29124
-32768
-7384
18716
-15136
11732
9636
-27208
17884
32764
-28256
-31496
12220
22020
6692
-1648
-31112
-18964
27604
9920
-11908
18120
21076
-32768
-16736
23648
2696
4752
-7968
-22788
15616
26232
-8436
-25204
20988
13348
-32768
17780
32764
-32768
-13936
28236
-13292
-17768
18980
32764
-2860
-27752
-19732
-1740
32764
7612
-22684
7396
-8444
-27880
11840
32764
-12368
-28396
9768
612
11404
10324
-24956
5552
17736
-13968
-22476
21280
30496
-32768
-25312
32764
26724
-30140
-32768
10216
32764
1504
-32768
-12840
32764
30084
-1568
-28388
-23860
7312
32764
-8976
-21740
14384
124
-32768
11124
32764
12436
-32768
-32768
22804
32764
-27028
-32768
32764
21708
-22212
10296
-19456
-18924
32764
8440
-12604
20260
-32768
-32768
32764
32764
-32768
-32768
13484
21504
32764
-4600
-32768
-10476
24448
32764
12428
-32768
136
26548
-32768
10028
32764
-25220
-32768
24836
15340
-388
-3752
-20436
13612
22184
-15844
-19528
1456
19752
14040
228
-11348
-32768
-9368
32764
32764
-32768
-32768
25112
32764
-3848
-11028
-9652
-16824
-6264
15576
32764
-7188
-32768
-7376
-5904
6440
32764
904
-32768
-2608
5120
-2520
28956
10344
-5936
-2356
-32768
-3464
32764
2844
12836
-21420
-32768
26340
29460
10508
-13492
-31516
18868
9048
-30832
19452
32764
-13580
-20588
-28480
5820
32764
6068
2780
-30384
-32768
32764
31464
-14908
-15800
-6216
1084
9920
8148
-8732
224
17352
-9112
-23600
-11052
32764
25184
-32768
-7848
-1856
-16036
32764
7404
-21108
15104
-32768
-4256
32764
-5128
-9364
-2324
-32768
2144
32764
-15932
-1676
20200
-32768
-25256
32740
31164
8784
-24236
-32768
18808
32764
-9440
-32768
21140
-5152
-25128
20564
-428
-3560
32764
-9512
-32768
3988
32764
3612
1124
-10196
-32768
1476
32764
21632
-15468
-21812
-4032
-6052
19108
7192
-11672
28628
-21696
-32768
15504
32620
24412
-12040
-32768
12816
32764
480
-27808
-8168
5088
-18040
13456
15824
5072
9004
-32768
768
6396
-16732
32764
18452
-32716
-32768
-4008
32764
32764
-32768
-32768
31252
4228
-17616
22044
72
-16748
24568
-13380
-20988
16580
-9724
23596
13224
-32768
-14640
32764
30988
-23332
-6856
-7348
-19648
23336
-3672
-12296
32764
-25848
-32768
32764
-10044
-4016
32764
-32768
-32768
32764
13888
32764
-13660
-32768
16544
18744
-8360
5144
8688
-4220
-19572
-6196
11868
11556
17304
8444
-31852
-32768
27084
32764
-19440
-820
-1416
-32768
10028
32764
248
-32768
11008
-544
-32768
26128
28656
-4636
18300
-32768
-32768
32764
32764
-25208
-4148
-10344
-27776
24456
13048
4328
3672
-21200
-4552
-19608
9652
32764
-6264
-32768
-28872
-856
32764
17212
-8652
-25956
-32768
13176
30480
-6388
-1248
18456
-8972
-23720
-1484
12980
12044
17340
-25044
-32768
7528
14156
32764
18556
-32768
-21892
23332
1584
18852
6948
-32768
9744
4236
-23992
23140
14904
-14500
-10604
-7488
2296
16688
14520
-7264
3244
-9472
-32768
14440
32764
2464
-32768
3512
26900
-31752
6176
32764
1016
-32768
-30976
32120
32764
-24048
-23928
28816
-10460
-32768
26916
32764
-32768
8380
19384
-32768
-212
32764
26640
-32768
-32768
-3680
32764
32764
-32388
-32768
14020
32764
-8920
-32768
19892
32764
-16636
-32768
-25472
32764
32764
-12572
-32768
-25500
32764
27236
-9248
5248
16212
-32768
-32768
32764
32764
6520
-32768
-32768
13728
32764
-20536
-25604
32764
-11472
-32768
9968
8556
16744
29936
-25576
-32768
12440
30688
15644
7312
-32768
-7012
13220
-10804
21800
13948
-21580
-17684
4880
9584
-3352
8636
25032
-21020
-31620
16552
9584
2368
14212
-5768
-20428
-16956
5300
28952
14088
-7240
-27996
-21784
19640
32764
8060
-26264
-15736
-3220
-3388
15272
15604
-1312
-5884
-19928
-6964
25780
-2236
-8700
30632
-9404
-32768
7488
25808
11608
5344
-20276
-17668
4544
-3644
21312
32764
-32768
-32768
32764
13528
-32768
32764
23452
-32768
-13244
-5904
28940
32764
-32768
-32768
15280
32764
9792
-17504
-15388
-3100
20236
-13676
-31248
27276
32764
-21024
-32768
-1884
20592
32764
15108
-32768
-23788
144
25900
-2700
3232
28556
-32768
-22492
18932
-1400
24676
10824
-27928
-100
-5784
-32768
32764
32764
-32768
-29488
25920
-27544
30812
32764
-32768
-5200
22724
-18712
-15852
15652
22308
-1596
-30632
-10564
18104
28724
-252
-19248
-3964
-20900
17988
32764
-25416
-8332
3352
-25632
25128
5036
-13008
22640
8772
-11052
-32768
-8592
32764
24516
-32768
-32440
32764
17544
-12452
-1092
-6464
3060
25100
-21672
-17504
19900
5032
-14644
-7324
21156
-14060
4988
22664
-27908
12448
4532
-32768
26504
32764
-2128
-32768
-26036
24220
16308
3956
-16300
-12960
26488
-3328
-27420
14156
30912
6032
-18476
-22996
-22008
18508
32764
5628
-24348
-20748
18876
2396
2028
17616
-28100
-24876
32764
11080
-18536
24616
976
-32768
9952
448
-20468
32764
9344
-32768
6512
14316
-2748
-4668
14600
24664
-32768
-32712
32764
28820
10908
-152
-32768
-12828
20320
6900
14308
1392
-17204
-17836
-88
17564
15108
-15972
6508
11112
-32768
-1572
32764
10760
-32144
-21088
-5788
25776
3348
-18684
22628
-6140
-23704
16696
2336
-10980
22768
9440
-22280
-6132
-18248
7896
31392
-460
724
-17716
-32768
28940
32764
-5780
-32768
-21332
22556
18800
6556
-5420
-23360
-2960
14000
-17412
10852
32764
-7404
-32768
-2008
32764
-6088
-32768
22104
32764
-29832
-32768
-7012
32284
32764
-23696
-32768
32764
32764
-32768
6128
32764
-26888
-21788
-3060
-232
20564
25680
-29808
-16872
25796
-17004
-1764
22428
-5608
724
-2712
-22852
-17972
32764
32764
-32768
-32768
14620
19304
21104
1700
-21932
-3256
5584
-3748
-8188
11472
8852
-9560
-6676
-7956
2780
20872
30200
-18380
-32768
-1100
6356
32764
5772
-29260
-7272
-19132
28860
32764
-32768
-21124
2112
14860
32764
-26696
-32328
30932
-440
-7900
15584
-27652
-13420
32764
10296
-32768
-11212
31088
5928
-32768
8964
32764
-17496
-25608
5372
10216
12876
19536
-23280
-32768
21404
30184
-2380
-25016
-996
9952
-6496
9800
-6440
-12292
25988
-3280
-32348
12516
19328
10092
18592
-32768
-32768
22124
32764
3508
-276
-17488
-29100
23112
8804
2236
10412
-21628
1728
13944
-29148
-2160
32764
12808
-17676
-32768
-2872
32764
16092
1976
-13024
-32768
12796
14756
-9724
18624
-5408
-15684
7040
-22424
-7404
32764
27392
-32768
-21340
-316
-8484
32764
10752
-32768
-6176
5812
-12920
30928
24284
-32768
-176
16608
-21988
3400
18524
-1476
16752
-16976
-32768
21168
16504
7444
12100
-32768
-8360
25140
9736
-17768
-1112
16240
-21012
-10376
8964
11600
21564
-2076
-32768
-7340
27076
19668
-3300
-32768
7812
13624
-14248
-576
11292
18476
-11892
-26700
-12192
32764
29888
-32768
-9156
10232
-916
-2944
-5572
4940
16524
8760
-30536
-25708
24900
32764
-7744
-32768
-11068
25200
8192
-28872
20388
31528
-12964
-32768
-9040
32764
4240
-13904
-3936
-12544
14604
36
-15492
-3736
7072
32764
-20632
-32768
32764
32764
-22820
-9600
21096
-19268
-29136
30704
27068
-1128
-32768
-15776
32764
-1464
-32768
21560
32764
-23252
-32768
-6772
32764
32764
-32768
-32768
32764
32764
-32768
-8548
25004
3172
-1688
-25004
-52
32764
-9512
-20812
13932
-668
-23508
13512
29420
12692
-32768
-31112
32764
17532
-13476
1948
2800
-13264
6644
-4404
-5972
26416
-6580
-32768
7200
32764
-23328
-16352
32764
-4608
-32768
-16636
-5792
32764
19676
-32768
-16456
26712
-2244
-21324
21488
21308
-11752
-24392
-15788
19684
18280
2884
-1496
-18276
3628
-13668
4676
32764
-24796
-27400
11400
3072
16528
5540
-30324
17424
2456
-30144
19376
2156
-1368
26724
-5488
-28560
-8992
14156
23740
-14320
-10368
23036
-31812
-17296
32764
-444
-30472
10740
15200
-18892
-22936
24048
31716
-14060
-19336
1196
-24252
17228
32764
-31352
-24900
10260
-6788
32764
3332
-32768
15124
13140
-16616
-25760
19056
32764
-20972
-32768
4596
18460
6524
-27004
9876
32764
-20704
-32768
7844
32764
-5100
-32768
-6048
4072
24048
13588
-32768
3392
32764
-25400
-16176
-10852
-15080
32764
26312
-30548
-24532
16672
6752
-3396
-2392
16992
-4388
-21760
3456
-10508
25944
32764
-32768
-16720
20424
-13196
11968
32764
-20896
-16264
-11096
-3016
32764
4544
-26812
-13992
16832
9392
-16028
8840
19312
-9404
-25840
-1688
32764
-4416
-32768
-1296
19328
-856
-19312
13508
7144
3284
19172
-32768
-32768
32764
32764
-10568
-23944
-30720
-7184
32764
20724
-32768
-952
32764
-30716
2044
23716
-10140
8444
-8468
-21812
9860
8092
-10672
15428
13276
-19960
-4744
-9984
17940
32764
-32768
-18824
32764
-10464
-13160
30076
-19916
-6440
30664
-32768
5868
32764
-30712
-12476
12148
-17036
3664
11024
-13220
11952
23656
-32768
-16104
32764
-7444
-10404
26720
-24040
-20180
20
32764
32764
-32768
-32768
32764
32764
-32768
-2292
21484
-11524
17416
3072
-32768
2776
29904
3344
-11932
-3968
-6220
-14520
18376
32764
-10884
-32768
-16232
19360
32764
-21376
-21752
32764
-8288
-32768
19332
22608
15000
12780
-32768
-32768
32764
32764
-16636
-26076
-6760
16968
968
-25228
18144
22116
-23160
8740
-10136
-28924
32764
32764
-32768
-32768
-5776
31604
31140
-27364
-16332
32764
-3036
-32768
13076
28692
-4760
17800
-15684
-25200
12200
4188
3352
64
-8420
13560
9296
-29640
-7776
27968
8040
-8888
4776
-13868
-12132
11272
4632
8896
3552
-32768
11108
25608
-31128
9088
32764
-32768
-24512
32764
-26712
-26876
32764
-1272
-32768
15184
21156
-19464
-10236
6604
-5960
8776
18492
-12708
-3240
19592
-32768
-3528
32764
-15312
-32768
3932
16704
11856
1148
-32768
3812
32764
-30016
-32768
31484
32764
-14164
-28924
-4
5856
-4200
22472
10372
-12792
-13532
-32768
32764
27440
-32580
10160
4456
-10592
-13624
10280
32764
-8608
-22080
-9212
-3428
18708
620
-6196
3852
-1652
7108
-8480
-28468
25400
32764
-11136
-32768
2680
1156
-12724
32764
5212
-24012
-1240
-1240
-7944
23560
-72
-19724
18588
-8756
-4180
9804
-13372
18656
-3416
-32768
27220
11552
-26124
27840
12132
-32768
-12196
23772
17224
-1252
-2652
-25200
-1256
23292
-15008
14928
10460
-27116
3972
-7448
2320
32764
-3704
-32768
-5292
32764
13788
176
-25432
-13228
23568
-10980
-12768
32764
-8244
-24988
13772
-15936
-5004
14084
3672
-3096
-7064
-12240
22756
26000
-19160
-32768
-188
32764
19100
-32768
-32768
32764
32764
-21180
-12876
28
11440
12720
-6108
-27148
-11416
32764
29200
-28496
-18624
-3992
-10392
13680
21320
-2396
-5260
-5984
-27952
17292
32764
-13724
-32768
4148
14316
-4760
-32768
15060
32764
-21720
-32768
7388
27244
13776
-14368
-11292
16264
-6496
-8204
4916
-3380
10996
-8940
-7636
21468
-10864
-19432
22088
12116
-5884
10208
-31448
-24524
32764
19720
-21268
-25408
-7300
30352
14048
-9668
7068
-5068
-20228
12344
-11856
-30020
32764
32764
-32768
-32768
14320
9404
32764
8272
-32768
-444
32764
3016
-32768
10868
26260
-18536
2712
-9200
-13092
26660
21180
-12304
-23636
296
10356
18004
-424
-13160
-25720
-12372
32764
23204
-22400
-11032
19324
-6600
-18900
-3776
32764
18096
-32540
-32768
-11868
32764
32764
-32768
-32768
32764
12772
-32768
-10808
32764
30580
-24476
-32768
-23400
32392
32764
-4176
-32768
-12400
21220
8300
32764
-23568
-32768
32764
-4556
-32768
20740
30168
-15160
-5252
3608
-11824
-4384
16748
20436
6116
-32768
-28296
28908
12240
-14584
30108
-12556
-32768
15948
1700
-6084
32764
4952
-32768
4956
32764
-25912
-5664
32764
-32768
-28276
23216
5096
26168
-14608
-32768
32764
10804
-32768
17712
31812
-26096
-11996
3288
-2196
-540
4968
22804
-2060
-20904
-14944
13728
27224
-9016
-11680
-5784
-11120
15676
14420
-21324
-9248
32764
-1936
-28864
-7220
9612
32764
8764
-32768
-22208
14104
18232
32764
-9064
-32768
-12836
32764
23700
-21144
-10968
4688
-1640
-13128
13544
3192
-18044
31300
13064
-32768
-21536
12852
19236
29344
-2072
-32768
-3584
32764
-3468
-18240
16436
-540
4820
2672
-32768
10232
32764
6800
-32768
-17556
488
-168
32764
8220
-32768
2664
14256
-14364
11224
8712
-4860
9236
-10032
-26704
-11036
32764
32764
-32768
-32768
32764
-24680
-14696
32764
7828
12940
-32768
-32768
32764
32764
-32768
-32768
32764
3416
-32768
26176
9684
-3968
1836
-32384
8084
32108
-2676
-18416
-6596
12100
14816
-21856
-19512
21364
22608
2892
-28460
-32768
32764
32764
-32768
-1484
30120
-32768
-3604
15436
-3924
17660
-5356
-23996
6392
21232
-11092
3500
3504
-8020
15880
-25252
-17284
29720
3248
7592
1556
-27512
-3520
3720
21580
25552
-29048
-20044
10140
-4896
-6820
32764
-2320
-32768
9992
9396
1448
15460
10664
-9400
-20396
-1368
796
8512
-3332
-732
28656
-18068
-32768
13424
27576
1948
10400
-31460
-21432
32764
-32768
-10248
32764
-11748
-32768
10304
32764
3332
-13564
-6832
7152
-10308
-10040
9020
10748
18432
-9352
-29036
-16000
15700
32764
8876
1488
-21844
-32768
27832
32764
-32768
-984
32764
-12440
-25084
-25328
23820
32764
-10160
-32768
11552
32764
-32768
-28156
32764
32764
-7648
-32768
-17008
10048
32764
6092
-27844
-6412
8236
-7372
13328
7588
-8228
9536
-17088
-24560
12472
21048
8068
9484
-15548
-22200
12632
-584
16
15492
1004
-13192
-16268
-660
21580
5948
-6976
13484
-21128
-32768
32764
21648
-24460
8016
16848
-19380
-32768
1568
30220
32764
-24548
-32768
8100
31976
24256
-6524
-18896
3404
-15248
-19668
32764
4980
-9896
23964
-32768
-14536
32764
-9976
4536
21484
-27704
-14304
15584
-9448
4616
31604
-7436
-32000
-12984
15364
15936
576
21160
1176
-32768
-3664
25556
12376
2008
-8352
-9336
-20640
22076
29480
-19216
-12772
10096
5092
-14460
-13556
3508
29548
24216
-32768
-32768
32080
31632
-14260
13636
-3496
-32768
17732
16116
-9044
20100
-17376
-3428
15916
-32768
21012
32764
-32768
-5224
32764
-29492
-32768
32764
19232
-28380
4532
-7884
-7996
26952
6016
-13504
576
-16804
10908
32764
-32768
-32768
32764
32764
-32768
-32768
2532
32764
32764
-32768
-32768
16708
32764
15736
-32768
-1844
17460
-1052
-6292
-24304
836
32764
10620
-32768
3888
23048
-30552
10976
32764
-13520
-23684
-22608
-15064
32764
32764
-32768
-30568
17180
27624
-20140
-4992
28552
-5904
-17488
-13692
14300
17668
-15072
2716
15604
-29024
-12996
23600
8244
14648
-412
-19436
-25076
-13960
32764
32764
-8680
-32768
-32768
21708
32764
-20776
-25596
32764
-19980
-32768
18696
-3716
11332
32764
-32768
-24748
30864
-26412
-9228
32764
-728
-32768
800
21836
6484
636
-6664
980
-13092
4668
-1976
7636
30504
-32768
4464
27100
-32768
3032
28268
-4504
1040
-10844
-22876
-6916
32764
27748
-26760
-22052
-6708
17272
1476
-19736
18264
28896
-23320
-32768
5968
32764
-14572
9964
32764
-32768
-32768
21204
30600
20484
-21388
-32768
22656
22872
-23756
-20020
19724
32764
-18404
-32768
18076
30140
-10964
17884
4896
-32768
-8028
32764
18192
-30832
-3008
8792
-30200
30820
32764
-32768
-11504
22412
-9928
-6348
-4972
10060
29924
-2028
-23184
-26104
-1076
32764
1076
-32768
9148
32764
-15020
-32768
9344
32764
10832
-23772
-26908
-11296
32764
6392
-19460
22224
-12968
-19956
15604
-2112
-11508
26460
10780
-32768
-3188
22984
4756
6424
-10304
-25696
17928
19800
-30612
2628
32764
320
-32768
-16156
29732
16500
-5976
-5640
-7608
1612
2772
-8260
8004
20228
2776
-31800
-32768
28532
32764
-2872
-17692
-12204
-10176
-10020
15812
32764
4168
-32768
-24624
32764
7972
-32768
9692
32764
3936
-32768
-32128
-3564
32764
22112
-32768
-27780
9044
21248
24680
304
-32768
15752
19012
-32768
-7944
32764
4388
-15436
-936
-32768
3896
32764
-4388
-21820
18428
-21080
-28636
28300
16860
13556
-12832
-32768
10556
26820
724
-14720
-9584
31204
10736
-32768
-14780
5288
32764
15148
-32768
-12352
32764
520
-21128
11572
24580
-14284
-32768
6276
32764
-2316
-16228
-6480
-10520
9388
-15976
25064
32764
-32768
-11984
22416
-20660
21788
32764
-32768
-21440
11520
-600
24684
-2116
-32768
29912
8580
-32768
30492
14940
-31540
32764
11580
-32768
1084
-7492
-13640
32764
4884
-32768
15180
8852
-6772
25840
-11760
-9748
20844
-14968
-18616
-908
24052
25952
-24256
-15408
-5824
-13404
22252
32764
-7868
-32768
-2952
-1120
27144
28236
-32768
-7064
31468
-25728
-6560
22184
576
9732
6088
-26340
-22060
23504
32764
-14660
-27368
-3592
2112
13120
-620
2952
17028
-19164
-20868
5628
8604
5508
21240
6068
-32768
-12356
12500
-2940
3980
24256
-660
-30016
-20392
25996
32764
-8124
-23320
-14984
26588
5948
-32768
19336
32764
-16496
-20860
-8516
5128
23536
-4428
-8996
3388
-14212
-1376
13376
8336
752
-14900
-3456
17872
-16772
-23100
32764
27120
-10564
-23820
-14248
-12936
18036
32764
1896
-32768
-32768
32764
32764
-14448
-28896
-18612
32764
14512
-32768
-6056
32764
26664
-32768
-32768
-6944
32764
27820
-32768
2404
24384
-32768
2324
25376
-7100
24076
-16544
-28028
24084
-4540
-17872
26052
21340
-29108
-7316
7052
-17516
23936
15848
-32132
16064
9912
-32768
20072
32764
-15244
10328
-24552
-32768
32764
-3932
-15956
32764
-21364
-32768
24
2396
32764
16632
-32768
-5732
11384
-16716
27456
16196
-32768
-1396
29836
-25236
-19556
32764
15148
-29384
-2964
9340
-15700
2880
21592
384
-10772
-16968
-11124
21176
28224
-10368
-21572
-10224
18976
22052
-20540
-21632
14448
24096
-8136
-24912
-10608
20024
18360
4012
-23264
-13056
27152
-4972
772
5632
-18720
11496
-2736
-23776
9764
15552
23148
3608
-32768
-26936
20048
32764
10856
-27336
-26684
-5816
20104
16516
-19128
6544
23544
-29876
-17356
22852
4804
660
9812
2432
-26416
-10032
17080
-1608
12800
9268
-32768
11380
23088
-26552
6848
29556
-21648
-8004
13188
-32504
-9828
32764
30776
-32768
-31656
8260
16184
15472
17804
-26936
-30780
12512
14716
20300
-8032
-30920
26664
11252
-32768
-5760
26264
12696
15236
5532
-32768
-25172
32764
32608
1608
-20380
-32768
4276
30556
6640
-10248
3128
18436
-18544
-32768
3348
30988
25856
-1124
-32768
-21580
16792
13048
6584
6088
-21968
-9916
5168
14768
11316
-5648
-10580
-1064
3116
-11996
1520
8300
8600
8168
-19620
-13684
8184
20220
15944
-17088
-24104
-8816
17328
18792
-6732
-5744
7372
-4228
-10568
-13476
10280
22496
14132
-11056
-32768
5900
30144
2604
17832
-17752
-32768
20296
27752
-11572
-552
13692
-7496
-9028
-1420
-7360
3068
16548
4232
-4756
-20800
-6276
28972
5756
-5816
-4356
-13568
-10404
16424
19080
-14380
-9488
9576
4356
-9132
-12020
2208
25988
23008
-32768
-24652
22704
9036
22452
-7932
-32768
11880
15752
-20784
24292
17372
-25528
1704
-9272
-16444
29864
16024
-18412
-8720
992
-5168
-11716
32764
19424
-31312
-4616
-14832
1124
26500
-9816
1684
14336
-20088
-23828
18964
12584
6384
17088
-28092
-17960
14844
-6128
3112
29156
-3664
-32768
-2912
32508
4940
-7064
-652
-6540
-2056
5620
-6696
-9052
30424
432
-27332
4900
-13660
16556
29440
-12032
-21480
-10124
8536
9264
12524
5176
-25636
-4080
13044
-13540
4464
14492
6772
296
-24260
-19148
20608
32764
5340
-30156
-23444
4536
23228
5584
-9860
5948
-5484
-9212
3260
-1332
2196
18776
7752
-22976
-10964
-9336
11716
32764
-14476
-32768
10288
1092
-2432
28664
-9644
-9116
16336
-4852
-25940
-19832
30476
32764
-12656
-32768
-12820
8152
22176
16912
-5428
-15576
-20508
-860
23544
11112
-224
-26168
1796
9732
-20624
21836
22372
-13452
-11252
-1984
-14048
5000
32144
212
-21348
-16192
-5796
15004
21436
11852
-23456
-12644
12228
-5804
-5704
6044
15612
11428
-29800
-13844
12424
908
32764
-17360
-30008
29236
-5064
-2616
4524
-14372
9448
13992
-5936
-31448
-3220
32764
15632
-26908
-16276
-828
7808
9456
6408
-7200
-4224
124
-22740
22876
24640
-21524
-5584
-2152
-12240
6808
21664
6052
-3972
-18944
-29052
32764
25796
-12140
-5324
-32716
8784
27404
-11936
8016
1108
-4688
-5500
-10488
9756
-10176
18404
20020
-20180
-3704
-28100
9100
32764
-15224
368
-21116
-10268
23060
5752
-720
-4908
4376
-7304
-9552
-5436
7648
19904
21500
-29744
-30668
19128
11460
5332
13548
-18536
-32400
7948
22760
9028
5644
684
-23216
-8572
2764
-5712
32764
14904
-32768
-22576
10152
32764
4256
-12812
-8476
-13420
16328
-7492
-6724
27072
4240
-15912
-12036
-6772
4688
10588
12392
11124
-22416
-26048
18100
19828
-4512
1404
-1352
-24632
-908
9136
17648
-1164
984
14144
-32768
-15588
21280
14400
15396
-8896
-32672
-5640
24532
14488
-12344
4132
1292
-16804
-512
6676
7532
10084
-9328
-10976
-11576
1916
23296
9616
-5896
-23964
-18084
32528
32764
-29504
-24152
16464
4108
-14988
-3968
23240
8492
-16304
-3328
-18580
1272
29188
11084
8216
-25512
-28048
15840
3660
4644
16028
-16384
-2336
-4680
3060
10116
-4460
12024
2176
-10592
-26160
-15944
32764
25564
-32768
-3244
-15472
-10752
32764
10296
-17904
-9232
-10640
7584
8436
-1988
2604
12520
-9044
-32768
-1240
32764
11744
-9064
-11548
-18216
1468
23296
10536
-32768
-4504
28132
-6368
-4876
-1252
7564
14388
-5728
-21488
-16480
16384
10528
18980
19068
-32768
-25836
30388
14852
9772
-6956
-16628
-10148
3700
21000
6484
1748
-14376
-12688
-6384
8792
14096
2400
3232
-12320
-18476
-924
32764
9084
-22248
4252
-20224
-24264
32764
14428
-28120
11876
-7208
-14432
-12488
15212
32764
-14708
-25180
-11600
5068
24124
-8604
2012
3444
-30372
9168
15476
-9048
11800
1300
244
-9976
-23256
14396
27408
19988
-15636
-32768
-10500
32764
29540
-5964
-11592
-21452
-4392
23116
-5916
12604
6336
-16864
-12256
-19332
8552
32764
19608
-17360
-27180
-31144
24536
32764
-19288
-24724
3816
13268
-12384
-14312
28492
13788
-21772
-10196
-3972
908
14396
10892
8776
-13268
-18516
-16172
22068
20696
-15360
15816
-22296
-32320
32764
23244
-17652
-3348
-4576
-16128
1716
8944
9204
18168
-10280
-24320
6244
-648
1748
22880
-10876
-13824
-2720
-10024
20624
32188
-4120
-32768
-13856
28384
-5760
4472
28832
-16872
-5976
-4000
-32768
28868
32764
-18316
-14228
-2288
-6336
-352
14064
56
884
1484
-12264
-7512
-1192
16456
13964
9904
-21872
-32768
20228
19764
584
-3464
-10404
-12924
696
23568
12180
-4688
-15544
-18988
-5768
25852
13136
-604
1380
-20872
-20736
18428
23452
-9604
8128
-15264
-25464
26040
15408
4724
-14312
-28920
16752
7228
-16048
13072
32764
3292
-32768
-18452
26112
15504
22232
-16620
-32220
-1128
10112
19828
4256
2948
-7044
-27920
4412
7280
2556
17692
8900
-15108
-31540
1968
17776
28352
2848
-29120
-7768
-5532
2808
18196
13192
-2192
-12624
-30876
-10380
32764
22312
-20452
-5032
-15544
-25328
32764
22960
-28860
4184
-7780
-8924
31916
7068
-27400
-4480
16988
-9760
-13544
5708
23912
18588
-22184
-32768
-7096
32764
2308
-21168
28848
-12028
-28376
13108
20496
2696
-18492
-10292
4440
-5208
17844
-7828
8432
32764
-32768
-32768
32764
32764
11504
-32768
-23812
-1488
5708
32040
17096
-14380
-27920
-22672
31404
10420
-19540
29228
1704
-25816
-9152
-3036
29020
7740
-15128
-15280
-4196
21200
6988
-7912
-18152
10088
29408
-30232
-32228
32764
32764
-17820
-32768
-14352
19732
27016
12304
-5324
-16720
-28296
16620
24392
-22212
16724
2508
-17288
-3472
-14944
17068
32764
10480
-27232
-32768
4788
32764
28332
7560
-32768
-19456
21060
11032
12768
-19384
-572
26892
-30724
-21680
23500
32764
716
-22228
-15664
-29700
31956
32764
-24872
-24152
-704
24352
9952
-16648
-5152
10280
276
-13160
-12036
10408
11888
15092
-892
-32464
-9916
14584
32764
3112
-25552
-16596
844
7652
13128
11096
-16580
-14596
13964
-7740
-17424
32764
32764
-32768
-32768
14924
2968
22796
9744
-26888
11408
-2644
-31272
26240
27824
-18880
-3444
-4868
-15220
3752
17712
9412
3140
-8532
-32768
1668
32764
7452
-12200
-3836
-10596
-4168
19128
-2656
5172
-3524
-11300
-4576
-2512
10964
17292
-8936
-11828
16252
-18756
-340
22264
-764
-19468
-11816
13508
8468
7648
-8356
-14664
20920
-14072
-17932
32420
20356
-10544
-32768
-11572
21144
18524
13892
-2112
-26520
-17296
19616
12432
-15820
13172
15396
-16068
-18504
-11504
18472
27792
2912
-12532
-27800
-13432
14004
24496
16684
-17036
-8148
-1468
-17372
19984
22656
-22396
-17644
4292
11628
-6324
5532
27000
-19576
-21108
13088
-4000
10852
11504
-19016
-8628
848
-3720
29044
6560
-32768
6760
4348
-3668
6968
13924
-756
-18024
-9596
-5768
19748
16552
-12000
-8016
-6360
-5752
11916
24260
-3168
-13000
-15000
-17712
19548
25008
-4204
-9172
-8640
-10608
2392
16916
12024
-18748
16260
9608
-32768
2372
26736
9900
-3332
-19408
1264
-5300
-4812
32764
8820
-29824
-7736
-8256
3700
24928
15108
-13968
-32768
5600
10088
12060
17984
-28120
-7412
23284
-10592
-5360
17020
-3980
76
-20508
-16000
25660
22548
11660
-32768
-18688
24240
-5140
13472
3644
-13288
4500
-13212
-17760
23008
29244
1828
-26732
-25508
9272
13772
21200
10804
-32536
-22208
10852
12580
10736
8896
-8448
-10880
-11540
-12852
24168
18668
2332
-7824
-25928
-13568
20824
31500
-3104
-14180
-17128
-14168
17576
11220
-1968
10864
-11136
-5908
3704
-15940
8856
29836
4212
-32360
-31244
23660
30724
-1664
-13316
-16700
8728
3604
-3388
26892
1204
-32768
-6416
7804
2968
16176
21496
-31916
-27180
25820
5616
13332
17956
-30932
-32144
11376
20736
9592
-4308
-6708
-7184
3704
-1372
-7120
12976
28544
-15616
-32768
8412
8064
3188
12988
-4964
-27904
16520
17560
-28796
13576
15876
-3920
1916
-32768
-2848
32764
6560
-32768
-18264
5060
9188
26936
17980
-32768
-24944
14756
24060
-340
-16404
2364
-1120
-13244
-1112
6628
17296
24300
-18964
-32768
5520
29488
10624
-7512
-32768
-7588
29164
3308
-12672
15452
10184
-20020
-7212
-5072
13368
23524
-10088
-10576
-15284
-16204
26800
26668
-16628
-21200
5584
13912
-716
-3360
9104
-552
1264
-32768
-24220
32764
21620
-8280
-23200
-19584
2256
13988
32764
-16196
-32728
14976
-6108
-10260
26968
3668
-2232
1268
-29668
-4012
14456
25220
14624
-32768
-12308
24184
5996
7468
-8784
-10884
7080
-9588
-588
16004
5996
-4600
-23124
4252
5672
-7320
32764
3740
-32768
-10312
32764
11636
-15240
-4224
2388
-14912
2460
14052
5216
19660
-14584
-25120
-7696
5152
24948
15964
-20484
-21580
6396
208
8508
27144
-14964
-20548
-204
13232
5576
-8760
3148
-9524
4920
-16472
-7828
32764
14000
-20544
-19048
-6664
5780
6272
5156
7252
-9932
-19780
-3184
32764
21320
-32768
-1852
9640
-17000
20352
-4860
1716
19400
-18100
-24160
2400
32408
5592
-20352
2556
-14864
-6008
32764
972
-20496
-4708
-16908
16352
15236
-17020
10068
17368
-17592
-29044
14692
28540
-7620
2468
-7156
-32768
18924
17848
-4544
21424
-23444
-18476
7648
-4496
20328
23176
-2340
-32768
-24156
16436
27832
16896
-15516
-32448
5644
21768
-3444
5252
-7052
-2848
11776
-19700
-16272
23908
32764
-12820
-32768
-25516
22356
32764
-20204
-23932
2472
-10832
21800
19492
-25864
-26956
24188
18964
-28084
-15540
32764
32764
-25572
-32768
14920
31900
-8156
3128
-12080
4148
17376
-23792
8
3644
-1852
32444
-24340
-32768
29292
32468
-7832
-5772
-13904
-32756
17216
32764
-8868
-16932
-6232
-16468
24736
12032
-15884
12724
-6704
-25220
15464
9432
-2512
16412
-7936
-23024
-15260
24336
32764
-24308
-14692
-3328
1560
31144
-16336
-20176
27596
-1736
-32768
3724
32764
16832
-22052
-22704
-10884
8512
32764
-5404
-17604
-5992
-19560
12056
21836
8532
-10736
-9200
-20740
-7368
32764
14688
-2476
-6044
-32768
-11300
23296
22240
8024
-17584
-15852
60
16400
3580
-3876
-1524
-15680
5236
6108
3292
18544
-6572
-13840
-21412
-3368
32764
-3168
-6812
1492
-3136
5428
-20476
6908
24052
-5732
-14220
-20204
6500
24840
13420
48
-31588
-10296
13920
5444
21940
-10508
-23780
14092
-2104
-2132
4824
-7352
9572
7396
-26432
-1612
32124
19708
-29800
-32768
21840
24364
8920
-10796
-18428
11184
-17964
-3344
32764
-5156
-21332
4988
-10772
-10004
16640
24680
2144
-32768
-5928
10164
9280
11424
-11792
-2588
10532
-7864
-18060
22932
13348
-27396
6048
-704
-22248
21144
26976
14808
-28980
-32768
17372
32764
8036
-9044
-19604
-19348
12580
32764
-15404
-32768
32764
-536
-32768
28780
32764
-12708
-32768
-13788
13020
25496
1480
-19352
8204
-6184
-7876
23392
5136
-11948
6596
-15548
-23556
15152
23068
13592
-6012
-23212
-18952
7832
27392
3176
-6096
8508
-24116
-14320
29024
-3344
-2380
22680
-32768
-24292
32764
17552
-3064
7364
-24912
-31068
32764
23468
-19988
-4844
-17756
-6804
32764
-2228
-32768
17424
29976
-32768
-11892
32764
9632
-4828
-22664
-22040
3536
29696
23304
-19344
-27392
6440
20808
-1828
-12812
17664
-868
-25256
-1744
4012
11032
23784
-5628
-13704
-24384
-13404
32764
13952
-27300
908
3980
-14356
-464
16284
-652
-5800
680
-19824
4448
32764
6828
-32768
-8820
12884
480
13060
-3252
-11436
-2320
6480
4408
-8388
10552
9120
-22084
-17996
27792
17492
-13672
112
-12316
-8748
16660
-96
756
3276
-19532
13200
11704
-13728
4432
12232
-16356
-20252
13056
7212
15080
16624
-28956
-21556
9656
5704
5268
23808
-4740
-32768
4488
-9352
17992
32764
-29964
-32768
7612
20168
9152
22240
-7280
-32768
-408
25532
-3224
17160
7996
-32768
8548
5588
-13492
12668
10356
-9508
-29628
24036
23864
-10972
7568
-23788
-16440
17948
2296
18404
-5740
-30536
20552
7164
-10288
11788
10744
-17976
-24216
4852
10468
15244
25144
-16372
-32768
-5852
18532
23344
17272
-15176
-32768
-6204
10080
28196
16908
-21760
-17056
-5424
-652
13552
25968
7960
-27628
-26572
-2052
24180
20472
4880
-28152
-24748
14444
13824
19504
-3060
-18896
-5128
-3448
10928
10112
-2420
7372
-17464
-26664
17380
25212
7044
-19248
-17748
13000
1496
17664
120
-19780
-4360
-7240
8980
9000
19368
-488
-29492
-12932
600
20064
25344
-3140
-19288
-11904
-11940
15956
21424
-6576
-3960
-6924
-25776
2900
32764
13684
-32768
-22360
-2128
21448
13760
-9836
-2892
-5760
-7820
1364
14444
8840
-3400
-11160
-22336
16296
29932
-15020
-18512
22004
968
-32768
10144
32764
-10684
-22972
-1564
5192
18928
10204
-26124
-16260
26516
-13120
-11432
30696
16148
-26208
-30128
13776
11160
14476
22640
-25320
-32768
-7844
22796
32764
-2352
-32768
-12320
6608
1188
30608
10820
-10748
-17308
-21784
8224
16792
4788
9468
-2448
-32768
8456
19456
-13740
15848
-5416
-25432
20844
12732
-10008
5580
-3144
-27332
15580
17480
-14500
6692
1356
-14280
5248
10696
-692
-1708
4828
-6336
-25724
1060
23688
32040
1600
-32768
-22504
32764
24780
15868
-4728
-32768
-31480
32764
32764
-10736
-14560
-16376
-9932
10080
22132
12136
-6124
-24204
-5848
8684
2864
13852
6052
-29220
-7900
23900
-8024
10468
6796
-25076
10312
28
184
12648
4176
-13880
-30732
15184
21008
4800
1820
-21568
-13088
26316
12620
-15764
-2020
-1048
-8836
-9112
1084
32764
10508
-20796
-21192
-25716
20912
19588
13108
2956
-22000
-15980
-396
28520
3788
-27940
16756
-11592
-22852
32764
15644
-15048
-19168
-14300
17364
3744
15304
7416
-32768
-2460
11904
8928
25172
-23248
-24816
11188
11736
6444
5044
4160
-18644
-11540
-2344
3356
29720
2236
-24632
-2988
-7340
6572
20680
9232
-14268
-23992
5392
5836
11952
26112
-24352
-32768
10820
17812
17504
-2712
-10200
9864
-23652
-9116
32764
-6116
-30720
17200
-4428
-13344
31608
14176
-22608
-26480
11888
16484
-2568
-684
1792
-2856
-14612
1460
12712
2344
2068
3128
-20084
-9280
23176
15800
220
-11100
-31288
-3960
32764
1972
-2888
3648
-20768
-1188
15388
5016
4932
-3368
-22168
-9472
27152
12908
-9700
-10540
-7948
-16320
26552
24592
-14660
6728
-26840
-15948
21784
24072
-12040
-20984
16800
-8592
-6316
19752
10232
-15164
-16816
8080
2140
8760
5284
-4632
-8336
-7116
-728
7392
14200
-2016
-12500
-27352
15672
32764
-2004
-32768
-15972
7940
15460
6372
-14432
8496
15456
-24316
-14796
26376
18632
-15160
-5520
-12008
-15128
23132
27104
-9216
-26744
1844
-4048
15268
16324
-27428
6988
15780
-25828
5828
26320
-19304
-7008
3388
-20044
19504
26744
-6772
-17108
-14224
-13792
30680
32764
-32768
-13232
13604
-13656
-2656
30424
-2816
-32452
10888
-6612
16264
32764
-25156
-32768
1056
12840
11968
-3580
-3532
12176
-17680
-5592
14432
-11168
20740
964
-29104
-3136
10608
31500
17528
-32768
-32768
2820
32764
22572
-24168
-12048
24636
-10556
-19204
16316
17828
-10592
-27548
4780
5204
12928
23072
-21248
-18740
7668
3484
8696
3300
-16164
7664
1412
-18000
14800
16920
-8444
-18056
-15056
7416
32764
21036
-32768
-29720
25420
13616
100
-2984
-16144
12308
13168
-21388
-4108
23916
4172
-25836
-12728
21496
15424
5932
-4176
-31912
-7304
21316
4508
-3416
13980
-10096
-12700
18284
-10084
-10228
32764
-18816
-32768
20164
32764
7528
-12484
-9276
-15868
2268
19816
3220
-5168
-18424
13924
13688
-23844
9588
9776
-12400
-12544
-2984
14228
32764
8000
-32768
-27736
23904
23428
-1212
-2864
-19828
3880
18176
-23576
1244
32764
-15112
-32768
10824
24560
18492
-2360
-32768
-7868
31144
20424
-20112
-9044
7396
-16844
31932
6896
-32768
9012
32764
-17140
-32768
10916
32764
18004
-32768
-32768
9356
22668
15288
-10032
2208
-804
-21580
12876
19640
-18456
-5964
-2728
-8888
15616
9272
25436
-15144
-32768
10296
24316
12380
-1692
-27316
-8960
16636
19072
-7292
-23468
26504
-5424
-32768
25380
22688
10048
-20516
-32768
8752
19916
10504
-11928
-6916
-3508
-4176
19740
12484
-15524
-5320
1520
-21632
3832
32764
3240
-25584
-19844
-3136
21852
15308
1164
-23348
-4588
15720
112
1796
6488
-22556
-20540
32764
4576
-8336
23604
-1360
-32768
-17760
22160
26644
-1896
-20612
-14200
20812
14196
-24272
156
17728
-16860
-9492
3760
23064
28812
-30232
-32768
-2192
30836
16936
-10312
-14232
-17784
2392
29220
13752
-16724
-3412
-23548
-3684
32764
1204
-15292
-7136
-4792
-3320
16872
18648
-17872
-17376
2528
4232
12272
8000
-2172
-2700
-32688
-18720
32764
32764
-10348
-32768
-11284
17008
996
6296
14556
-22644
-9192
23152
-4580
-16680
11232
25356
-28520
-32768
25144
32764
912
-32768
-10564
2320
28920
17968
-28644
1568
-1112
604
-444
-8232
25992
9172
-32768
-3660
32764
5600
11864
-32768
-20432
25124
7020
13912
-12756
-15584
8124
2596
676
10112
-9516
-1768
10200
-30948
1076
32764
-1340
-32768
-4992
27196
6228
3004
-3684
-10352
-816
-1908
-256
18568
-3900
-15844
1460
-6096
8564
15308
6588
-17256
-21308
11968
17984
7768
-9260
-26164
4472
20908
-6896
-3824
12120
-2660
-18832
-10692
26908
27512
-14492
-19792
-23480
17120
29488
-20544
-8236
9408
-2420
-420
3576
4796
7816
-11224
-18536
-3796
17280
24348
-4184
-12788
-32768
7224
32764
-8312
-32768
-20784
14980
14436
14288
4160
-32768
6360
-9896
2280
32080
6568
-13432
-23584
-8740
5020
32764
3308
-27368
-5080
-5980
10188
27716
-14552
-31028
26108
-7068
-9428
23444
9152
436
-32768
-15304
32764
13172
-21652
9532
1172
-19576
11124
10932
-6716
-2752
-2532
-17120
12296
32764
-12044
-32768
-8176
18736
4416
-7660
31400
-2924
-32768
1780
29680
7876
5752
-16872
-19172
6320
8560
13432
18068
-23816
-32768
5668
32764
10596
-9572
-13144
-7496
3376
11428
1144
-16064
9364
-5256
7172
9924
-4928
2892
-10808
-19080
2428
29148
18168
-24444
-18728
4408
7596
13396
-1832
-16896
-11892
7636
28264
544
-19032
13084
-10152
-19860
14372
8036
-10460
19064
7196
-32248
-7844
18780
15880
-196
-11300
-21972
1860
30188
16828
-18284
-32768
4036
17768
9660
-3892
-3244
-6100
-4248
19676
-17524
9492
7540
-25552
10152
-4032
14624
18972
-22748
-21676
-16
24132
9780
-5116
-7068
-10568
-828
9292
4288
2392
-8188
-16280
8492
10688
18592
6312
-32768
-12744
15840
4736
5320
8084
-17960
-4588
19580
640
-11380
-13572
22968
6104
-32768
5152
32764
6244
-26500
-15340
-10628
32764
18656
-29212
-13788
368
32764
-6892
-25208
24708
-14896
-31880
24888
22344
19480
3064
-32768
-32768
30016
32764
-17260
-22912
452
-16504
28296
5808
-21836
17076
-7960
-25692
24048
29120
-21172
-11908
1776
-9320
4028
14220
792
472
-7236
-21968
26312
31360
-32768
-21344
15628
-15940
13348
32764
-28808
-23664
6564
-5092
12088
7756
-504
-17656
1636
10576
2240
-2940
1248
-1396
-27140
9296
32764
4508
-26068
-14676
8232
6228
4648
6968
-6972
-10324
3696
-12188
6952
28884
-3140
-21676
-17256
3568
26300
28852
-23480
-32768
-2752
24352
21680
-260
-17292
-13568
25444
-5920
-32768
32764
32764
-32768
-32768
32764
32764
1360
-12716
-32768
-8252
32764
5824
-32768
8652
13996
-9460
22924
-4100
-32768
20088
-5408
-24332
32764
17824
-29000
-16560
-22828
22264
32764
-8180
-32768
-13120
17476
10776
8876
-1000
-19984
-6956
13648
7828
508
8392
-11368
-26664
4488
25992
4288
-4596
-2836
-8412
-4812
-6608
23372
9884
-15684
-7508
-11280
7020
16900
21524
-21268
-32768
17560
23148
-9120
-18372
12708
12476
-10412
712
-412
10784
-5084
-32768
9180
32764
1356
-32768
-13152
3912
27336
21120
-15592
-15904
-11912
8840
18212
-3564
-7668
-7912
-3828
5424
1644
26856
11176
-32768
-21200
4256
32764
6984
-32768
10296
-16940
7720
24460
-10820
-8316
-4216
-3624
10660
17480
1632
-13292
-13272
-5856
-8424
30228
13456
-29260
-408
16312
-4904
-14004
21732
11356
-32768
4872
26272
388
-2784
1252
-3004
-26068
15624
13404
-4992
16868
-8500
-16552
-8604
-580
27344
23568
-32768
-32768
32764
31760
-644
-27196
-32768
4792
32764
560
-32768
10360
-1264
-832
4240
-17744
18556
25488
-32768
-21092
32764
32764
-23036
-32768
-1860
32764
21972
-11676
-22904
516
1624
15468
6168
-16956
10220
-6212
-15788
7272
-1304
27536
16732
-32768
-23360
22568
20856
3212
-5712
-19556
632
32764
-3068
-32768
4644
27924
-17140
-7208
23208
13972
-10448
-26948
2536
14996
-3268
15044
-5452
-23840
3660
10176
10096
9288
-17592
-18492
-16492
26676
32764
-15448
-11952
-26536
-32768
32764
32764
-6624
-32768
1896
31592
-12092
4488
-4208
-7440
1304
-8248
17552
21264
-13424
-18044
-6844
-6696
13388
18732
7536
