779006fffe020000
231907fffe020000
251907fffe020000
881007fffe020000
470007fffe020000
480007fffe020000
490007fffe020000
931007fffe020000
911007fffe020000
921007fffe020000

=======
add [000] eui:238606fffe020000
nei add 1 201907fffe020000
add [001] eui:201907fffe020000
nei add 2 049906fffe020000
add [002] eui:049906fffe020000