bandplan FCC
analog_gain 42
digital_gain 18
8332
12276
8052
9504
-572
-8884
-15232
-11164
792
6816
15184
6448
2224
-1788
-9508
-1532
-8776
9356
13304
-14720
-7948
1108
-2108
7148
9520
916
60
-5128
-2608
360
-7684
100
7700
1680
5760
3848
-1304
-13364
-13184
5384
-716
7508
11120
1448
432
272
-3448
-5820
-5340
1652
-2492
5164
3896
-10992
4964
3744
2220
6012
-2120
-4508
-2440
-8360
-3324
9528
8136
3524
2776
-2692
-8992
-10612
-6716
1524
13164
7508
5580
-1456
-5180
5520
-13604
-2472
12576
-6036
-9348
5960
-1036
-1368
7700
2872
2464
-2960
-3692
-2220
-4012
1824
3956
1220
420
6712
676
-6280
-11696
-5680
5196
1596
12000
5220
-10856
16492
-2656
-17572
-3260
2452
16684
-14884
-6416
7492
-532
4144
2984
992
-1796
11564
-12216
-30140
15768
28988
-10548
1052
-952
2452
-25336
-17904
32764
-32768
-32768
32764
5512
8872
9096
-6336
-32768
14136
18540
-17172
-56
2508
2472
7768
-376
-13948
728
9572
260
780
144
8272
-10700
-16580
24292
-116
-32768
32764
32764
-32768
-6888
32764
-4908
32764
-32768
-32768
32764
-22168
-32768
8200
-132
32
7044
6096
-1092
-3616
-2512
1040
336
-728
1536
3444
260
-2964
-6464
3552
24232
-9180
-32768
-4200
18012
7952
9280
32764
-32768
-32768
32764
-9248
-32768
7596
-896
2668
-912
280
-836
6128
6988
-9508
-10780
9648
4836
6440
-13660
-4080
27956
7500
-32768
-23460
7300
-16888
32764
32764
-32768
-32768
32764
32764
-32768
8244
7576
-236
1884
-16420
-15016
4356
15788
11564
9164
-7012
-13788
-4832
3016
8304
4944
3504
-10128
-9756
-12096
2096
5724
-3848
32764
-1820
-32768
9024
-11108
-4528
8168
6276
3508
-3320
-8980
-5816
-620
10028
15676
-2636
13380
-18128
-18468
12556
-13500
1928
10868
4508
96
-3528
-4
196
4036
2760
740
-4212
-9360
-5652
-1032
4548
9464
7940
2416
-2408
-5004
-5668
-5372
-2972
1924
3908
3724
3144
2564
-612
-2500
-752
-2404
-1204
-444
-948
392
752
1812
1700
1160
684
-908
-1480
-1864
-1852
-332
32
2196
2752
3044
-3136
-4992
4020
-596
-2376
-1740
2944
540
-3724
8904
9112
-8060
2644
-23784
-5544
32764
-32404
-3748
25816
-128
4124
-6932
-2880
-3900
-112
-2220
1488
-968
2124
13504
-21264
-15428
27472
15956
-13768
-5312
-280
-1836
3816
156
7792
-30060
-2332
32764
-18620
-32768
18648
27116
32764
2508
-32768
32764
32764
-32768
-12300
-32768
31688
32764
-32768
-32768
32764
-528
3224
31000
-32768
-32768
32764
26472
-19936
-25712
5384
32764
-11648
-32768
32764
32764
-32768
-26232
32764
7904
32764
-32768
-32768
32764
-16464
-32768
10968
-32768
32764
32764
-32768
32
20200
9404
17960
-32768
11288
32764
-32768
-15812
32764
2180
-12172
-240
10952
-32768
-10484
32764
-32768
-32768
32764
-9936
-6148
17724
32764
-32768
-15916
32764
-32768
-4148
22692
-4888
-3012
-5884
-540
740
16436
1264
-1800
-3168
-19652
-1712
18224
-2412
-8916
25964
18064
-32768
-32768
22768
5036
10364
4080
32764
10412
-32768
31136
32764
-32768
28280
17512
-20076
-4884
-32768
28284
32764
-32768
15324
16672
-32768
-14956
5128
13848
13108
11528
-3628
-11484
-13404
-10120
-14464
25180
32764
-21944
-15852
12396
460
-6116
-1304
3060
7200
-9888
-7608
14536
-8704
-18552
10860
25652
3156
-19376
-5936
4848
8512
7964
-24960
-7720
32764
-10140
2372
-9124
-16788
24272
-32768
32764
24596
-32768
32764
-13268
-24188
7968
16436
5028
-15028
-19880
14004
5900
-22656
15892
16068
5044
-6016
-2848
7360
-32768
-10592
32764
808
-6928
624
2244
-19848
-32768
32764
17368
-32768
32764
10452
-32768
32764
-5452
-32768
32764
25904
-32768
22548
11616
-32768
-2212
32764
-32768
-32768
15848
3112
11044
-5896
-6044
32764
-30972
-32768
32764
-32768
14360
32764
-32768
-32768
30784
17840
32764
-32768
-32768
32764
-2104
-32768
-31384
-19120
32764
-16832
-32768
32764
10668
-11200
32764
-32768
-32768
32764
4960
-16708
-2640
-2208
156
-32768
32764
32764
-32768
-32768
32764
32764
32764
-32768
-15240
32764
-29280
-23848
-26920
-4968
32764
-32768
-32768
32764
5304
-4264
32764
-30244
-32768
32764
5128
-32768
10940
3024
10892
13024
-28492
-28216
32764
9652
-32768
9196
32764
22328
31732
-32768
932
32764
-32768
-16380
-32768
32764
32764
-32768
-22164
32764
-628
14368
3284
-22200
-21724
17536
31184
-21752
-10716
5376
4872
9288
604
440
-32768
32764
32764
-32768
1880
32764
23824
32668
-32768
16160
32764
-32768
-23588
3176
-32528
32764
32764
-32768
8436
24304
-12928
6916
5680
-7484
-9948
5432
7984
-21728
9796
25996
-10044
-3800
-4360
-8972
-8688
-3344
16216
10348
-3564
5960
3368
-5472
-8264
-5028
604
4944
724
-5664
1816
-1620
-3200
7320
8136
10160
-3544
-19196
-15380
8532
16100
-692
668
11668
-4496
-512
-26376
-32768
32764
-13932
-32768
32764
-11956
-19236
15460
32764
-32768
-16764
32764
-32768
-10224
24224
-9932
9204
-13240
4632
24048
-18372
7956
-3068
-14816
2140
2804
10284
2344
6992
-32768
2760
32764
-32768
-32768
32764
12584
32764
-32768
-32768
32764
-9468
-32768
14452
-25716
1680
32764
-32768
-27600
29360
5916
7600
-22832
-5908
13264
-4492
6824
5380
-7280
7032
-6520
-3164
-4272
-32768
32764
16244
-32768
32764
-4232
-4772
-4260
32764
-11456
-32768
32764
1264
-32768
27832
2436
-2028
-5088
-2184
2192
5300
5788
8344
-13288
-19808
2620
12752
6592
656
-12020
-9844
32764
-32768
-32768
32764
-32768
7992
24348
32764
-19688
-32768
32764
8764
-32768
32764
-2188
-1480
-32404
-14888
32764
-32768
-11280
32764
-32768
-21740
4264
5620
29288
-9920
-32768
17144
28660
32764
-32768
-32768
32764
2804
32764
-15696
-32768
32764
32764
-32768
-20736
-32768
32764
32764
-32768
-7656
32764
-16892
26200
4212
-32768
29376
32764
-25192
-18200
8952
-17988
-29584
32764
32764
-32768
-18956
32764
20292
32764
-32768
-26268
32764
-19276
-32768
-4948
-32768
32764
18868
-32768
17228
8780
-4376
19592
20604
-32768
-29324
24760
20724
-3308
-3040
3292
7896
-18804
-32768
32764
9620
-32768
-17460
32764
32764
10616
-32768
-32284
32764
-4868
-13192
-15044
-5716
11880
-7028
5356
-4872
8572
9360
4848
-11888
420
22712
-32768
-4408
32764
-15732
-4188
14136
-8780
-25636
-32768
32764
25480
-32768
32764
17104
13532
-18696
-13380
32764
-32768
32764
4352
-32768
32764
-8292
6932
1852
-8628
3360
6372
7528
-1836
-2584
-10204
-4404
-6176
-4092
23944
7544
-4948
17112
-32768
-5872
32764
-32768
12544
21984
9060
32764
-32768
-2820
-23980
-18184
32764
-23688
-5376
17268
-16432
-10328
-5816
4836
12440
27980
-6316
-22816
-636
-1424
-11984
-1204
16072
12924
6996
-32768
-4108
32764
-22824
-32768
32764
-1332
-6456
32764
-32768
22064
32764
-32768
-32768
9992
32764
32764
-32768
-28720
13368
4376
32764
-30688
-32768
32764
32764
-32768
-18388
-11264
4356
13184
15616
-3384
-17708
32764
360
-32768
-6816
32764
-21540
30084
32764
-32768
-1872
32764
-31100
-17792
-13168
-13408
32764
-32768
-32768
32764
9996
27460
18912
-32768
22504
32764
-32768
-13832
12640
5720
-12004
-3632
-9356
12796
32764
-740
-32768
-32732
13700
-1424
8400
32764
-29828
-32768
32764
23468
-32768
-4964
-32768
32764
32764
-32768
648
32764
-27312
15568
32764
-32768
-1144
32764
-26144
-12004
2964
-1068
5012
452
7340
3756
-128
-2428
-32768
32300
32764
-32768
-8076
32764
25960
31140
-32768
20952
32764
-32768
-28936
-32768
32764
32764
-32768
-26712
32764
6492
24836
-18872
-32768
32764
32764
-32768
-2900
2836
-4076
2304
1832
4812
-21404
22852
32764
-9888
-32768
-28612
28312
-2588
32764
32764
-32768
-6608
32764
-32768
-30624
-13932
-16956
32764
-13800
-32768
32764
10732
4440
32764
-32768
-32768
32764
1812
-32768
7848
3392
10208
5596
-28468
4048
4236
12384
32764
-3688
-32768
-30588
16916
-3280
18340
32764
-32768
-32768
32764
1816
-32768
-19820
-19592
32764
-1140
-32768
24404
20444
3760
32764
-32768
-32768
32764
-8556
-32768
5960
2748
9596
-300
-5736
-11980
9416
24588
4168
-7636
-12532
-13976
-4948
-4608
10096
4740
19368
32764
-32768
-24464
32764
-14480
-27228
10620
-32768
32296
32764
-32768
-8800
32764
5748
1876
17356
-9668
-32768
32764
23656
-27780
7208
8972
2308
-5444
6684
-364
7508
-32768
2108
32764
-32768
-32768
32764
31024
32764
-32768
-32300
32764
-24744
-26672
-16800
-23776
32764
-20868
-32768
32764
12496
7380
8820
-3732
-32768
-2688
32764
-26736
-2084
16788
-30956
17168
17120
-3852
-2240
-32768
32764
32764
-32768
-14688
32764
32764
32764
-32768
9788
32764
-32768
-21772
-32768
31552
32764
-32768
-29788
32764
-8268
32764
752
-32768
32764
32764
-30880
-15268
-6320
4796
9080
7392
-22280
3068
32764
6400
-27532
-32768
6924
7848
-4168
32764
15016
-32768
16544
32764
-32768
-6296
-19300
-14288
32764
-32768
-32768
31388
12872
-3500
32764
-25664
-32768
32764
2160
-6020
6864
-8992
-2608
2680
10012
1940
4352
-29772
5828
32764
-32768
-32768
28388
20936
32764
-18332
-32768
32764
32764
-32768
-8272
-32768
32764
32764
-32768
-1436
32764
-9908
-9244
32764
-32768
-5580
32764
-32768
-6868
11920
-4228
7172
-5712
13920
-13152
-17492
32764
23516
-32768
-32768
32764
1332
32764
-25088
-32768
32764
24704
-32768
-5484
-32768
32764
32764
-32768
-10592
32764
6296
2900
13524
-32768
-4048
32764
-32768
-8864
11932
-2944
3964
4864
-13232
-12628
32764
14848
-32768
-32224
32764
-5268
32764
19272
-32768
25892
32764
-32768
-8716
-14940
-28224
32764
-12956
-32768
25664
16184
-988
19448
9456
-32768
-20800
32764
-7176
-25276
14772
9924
3660
-236
-12612
-32768
32764
16376
-32768
20316
20208
-5816
32764
-32768
-32768
32764
11808
-32768
4684
-8336
-1088
4836
2708
4276
-1796
11936
8016
-29072
3156
16284
-20680
3828
19828
-3064
-5892
-2008
-4676
-8784
-31704
32764
19632
-32768
32764
-3864
-32768
32764
32764
-26740
27624
-32768
-32768
25932
4768
18972
-5756
1332
1520
-6516
4624
-120
-13812
10800
19804
-27112
3448
2508
-29560
14800
17164
5308
4968
-1952
12592
-25836
-25072
31640
3988
-12952
3200
-2464
-2460
-232
3492
4812
1956
9536
4268
-11596
-8004
-7224
1420
-3936
2824
21404
-14212
-4512
10728
-408
2416
-252
-2224
-1784
-2424
-2768
-2424
-524
688
3196
8120
-12204
11436
1048
-5876
4884
-11796
19320
-7608
-7232
-336
-15532
19696
-11388
1992
19580
-9312
5188
444
-2888
-4840
-3644
1100
-1860
800
-3500
1716
-232
9924
15884
-30368
7260
10992
-11348
9960
-6668
4768
-32768
24780
32764
-32768
-25980
32764
-8748
31996
4952
-32768
32764
32764
-32768
-4720
2800
-6164
-160
-700
1228
288
5856
-2872
8884
23180
-32768
-23084
32764
19624
-5556
-26672
-14560
9324
-16268
-12660
32764
21364
-32768
14432
32764
-32768
-22132
20476
-3240
13180
-220
-25532
-8144
-2072
22308
29776
-2536
-13984
-12756
-15724
-4468
20020
16596
-444
-2388
-29208
-6860
32320
-11728
-13184
23632
14228
-7552
-16164
-8392
5532
5048
16532
-4840
-28468
-3452
17676
6296
-6092
13344
-12112
-3596
18348
-7576
-15044
3932
6800
7112
-2640
2516
-21828
-24168
32764
-20576
-29280
19996
-12392
14932
32764
-32768
-32768
32764
2780
-32768
12184
4280
-4844
9316
4752
-18460
4588
17360
4764
-13124
-4572
17500
-9804
-26160
10028
8392
-2612
7720
5416
8520
-6128
-28288
13556
26172
-23600
-25452
23232
-9700
32764
23428
-32768
32764
32764
-31800
-32768
-32768
32764
32764
-32768
-7256
32764
-8012
32764
-32768
-32768
32764
-17856
8528
6764
-12620
9804
-1360
-7792
-820
-740
7140
16208
-7028
-10460
-4552
-2544
-3700
14508
20616
-1368
-32768
-10432
32764
-28312
32764
-4688
-32768
32764
32764
-32768
-16628
-12196
32764
8004
-32768
4548
17624
11744
32764
-32768
-32016
32764
-21740
-18688
16344
-1892
-2016
-10792
-1156
-3632
1684
20816
9168
-13860
-5516
2744
-8940
-4960
3548
12144
-348
-3712
28584
-30076
-32768
31764
1576
32764
13740
-32768
23092
32764
-32768
-800
4156
-32768
32764
9112
-32768
23828
17764
408
7008
5700
-268
-27420
10940
3888
-9728
9996
1884
-2352
-3196
-2284
-1248
-184
4920
5684
5728
-3816
-1428
-8764
5572
-11092
-8372
29852
-17172
3464
-5596
-1848
15256
22276
-30456
-32768
32764
-1520
-30532
5852
-5624
-7284
3580
11824
-504
2084
7196
1020
-9488
-8380
2884
2560
976
2368
1080
-1696
-9384
1720
9712
2248
1428
-6916
-6352
-2108
3836
7304
8296
-3932
-17808
19212
18020
-32768
-11284
22380
-4184
8088
13820
3880
26560
-32648
-32768
32764
14816
-32768
26064
-2872
-2596
-3996
-25244
6640
32764
8620
-7016
-8500
-19060
-9316
1184
8168
12084
13108
-1416
-16092
-144
-1332
-6220
2276
2592
6520
4836
-148
2000
4080
-12212
-17424
-540
7740
-6964
32764
15496
-32768
23272
32764
-32768
-928
1280
-32768
32764
14188
-32768
31800
24824
-7384
5352
15372
-32768
-16872
32764
5984
-7244
-8168
-4712
428
6480
3776
976
-696
-2592
-952
-4404
-684
540
228
4636
14820
-724
1408
-18316
-32532
32764
-28644
-32768
32764
-3536
32764
-23332
-32768
32764
21460
-32768
1900
1764
-16648
-1472
31044
-15912
-6636
20864
864
700
8720
-28256
-23124
29656
5720
-5524
7600
-1724
-7484
-2216
4304
-96
-152
3492
1308
-2560
-1816
-9488
10060
18692
-12976
-13628
1772
-4448
-1444
7116
8180
15444
-11360
-18700
32764
-12892
-32768
32764
29016
-25972
7512
920
-7920
-3764
5740
7196
4216
2884
-2712
-7756
-7768
-408
-524
3456
8604
2416
-5024
-8296
632
6896
3716
2144
1424
52
-3792
-8400
-6748
-1620
3436
6664
6324
3092
-1216
-3108
-804
2468
1392
-2492
-4176
-5064
-2836
-512
4668
2368
10456
3720
-20572
4952
25864
-2228
-32768
1904
29100
-11612
4488
5528
-5604
804
-8032
1288
3916
1992
4848
-7228
-5016
12804
6152
-3080
-31284
-2280
32764
-21544
-32768
25228
16860
32764
-4912
-32768
32764
32764
-32768
-7076
28344
-3776
32764
-32768
-26260
27772
-14028
4636
19120
21216
-32768
640
27508
-23048
-10156
6400
8572
7268
-4068
-7580
7060
1448
-9292
1336
2900
3776
1112
-2284
5960
-9096
-17180
32764
-4272
-32768
23744
12060
31424
32764
-32768
12836
32764
-32768
-12764
-13176
-32768
32764
-9032
-32768
32764
12756
-6488
31596
-32768
-32768
32764
21040
-26876
552
-4256
-2640
516
1504
4288
3292
4176
-4268
-2412
-2680
-2348
-1584
-2756
12044
2796
1996
12184
-1872
-32132
-24516
21708
-792
32764
32764
-32768
9808
32764
-32768
-21436
-32768
25128
32764
-32768
-32768
32764
-2536
31576
8216
-32768
32764
32764
-28456
-11576
-18268
4652
18980
-4324
1312
2164
-5220
-1404
13592
-4368
-15156
3764
684
-876
5864
-2060
7160
9172
-3428
-4760
-10716
-11216
-3308
2764
14036
8352
-2000
25800
-23784
-32760
32764
-3880
-13380
6192
-4568
-2368
-2944
2144
3148
4960
7616
-52
228
-8632
9552
-1388
-32768
25272
28780
-17260
6944
2216
-4824
-4240
-2556
-1216
-80
4092
4612
1024
932
-1264
1600
-14440
4340
31648
-31136
-26168
21020
2236
-512
19416
-2872
25848
-608
-32768
32764
32764
-32768
20584
6048
-9520
-10120
6904
-8960
-7888
32764
12204
-17320
-15212
-12400
-2684
6080
10076
7176
3484
-3048
-6124
-2932
-1396
3260
420
-4348
-420
6836
588
3432
-3772
-7664
24508
15292
-32768
-21980
28504
11676
32764
-32768
-32768
32764
30392
-32768
-32768
6336
32764
-25028
-32768
32764
3552
16060
16460
-32768
19364
32764
-44
-15496
-29700
236
4136
2564
6544
-7276
15720
17536
-14040
-20008
-1432
2616
5040
3184
-236
-1232
1912
15736
-21872
-3028
29476
-13528
-10540
-7964
-8188
3760
6164
32764
-26252
-32768
32764
15056
-32768
3720
-16328
-27216
32764
6196
-32768
24448
19932
-972
7948
-452
12328
-24288
-20588
18884
5000
-7848
1532
4412
2776
1876
-784
-4300
-1844
3240
2068
11208
-12456
-27920
9732
13920
6396
10204
8644
-5624
-9308
-17740
-10396
-9788
-3224
32764
-12916
-32768
27348
-14288
-4900
7572
5256
244
-7436
-8528
-9352
-1720
6584
14496
9028
13596
-7304
-30652
-2488
11408
4632
276
2888
-1756
-6432
-3148
184
7168
7472
912
-2244
-2916
-6496
-4684
-8748
-2176
15700
19212
8352
-7176
-9636
-10828
-2392
-29912
19600
32764
-32768
11592
22028
-14156
13116
-12200
32764
-32768
-32768
32764
-14872
-23324
23812
-684
-2840
-9964
3544
4192
8980
8560
-9496
-7688
-3260
-7660
-1188
6292
8024
4832
-1088
-1216
-3124
-3308
5336
3148
-8408
-11444
-1164
10072
9288
5020
1616
1128
-7500
-6924
868
-6192
-8072
1836
7488
2448
7544
3240
23516
-11696
-32768
32764
19896
-25252
9048
-3636
-6864
-5040
428
-16836
32764
32764
-32768
-6028
19036
-15816
-3476
8840
7296
1680
-2432
-5652
-5916
1364
8012
19660
-6104
-24688
6252
1328
-7940
4328
8008
1868
-2800
6136
2136
-3552
-2752
-1560
2756
-24152
22352
-13608
-22732
32764
-8636
-6088
30808
-23152
-32768
32764
19156
-23432
4888
-5036
-3012
-2160
3488
9184
4508
2576
520
-6952
-3020
-6852
18576
-7844
-32768
32764
11324
-17300
10368
-1692
-2744
-1408
3188
4632
-4956
-9136
-4984
5264
9804
3160
-208
-2728
-2676
1076
1360
-336
-2316
-5344
-5228
-1372
6396
8840
1124
1608
556
-1812
-1816
148
-1172
-5268
-3748
-1640
1332
2912
2852
2764
2636
556
2560
-3464
-1644
-4484
11112
-2840
-32768
23920
16824
-13856
9252
496
-1456
-3208
-3804
1644
1100
-364
-2548
1404
-1444
440
5120
2200
836
-1800
588
-532
-5480
-8740
-4724
4000
9760
6940
2728
4028
-6320
-7684
1224
2952
532
-4240
-3776
-4028
-460
4512
3736
5452
2024
-972
-160
-2428
528
-4872
10640
-14340
-20804
28172
1404
-3592
6884
-6152
-744
1728
12
640
-2196
-4596
92
2376
268
212
4364
3972
3336
12
-7872
-9584
-10500
1112
13344
3360
4348
7212
-1860
-3448
-3532
-2248
-744
-1380
-1204
-2248
-2532
164
2804
4656
4600
2296
-100
-2420
-1076
-3928
14360
-19104
-25212
32496
928
-5408
12768
-6140
-4596
212
-2020
1364
3536
-204
-4708
-3972
-288
5428
7128
3628
1500
-2296
-7684
-11376
-7048
2060
8784
7340
5832
5144
-1152
-3536
-4100
-3240
-1024
-1708
-1876
-1512
-1220
1304
3444
3788
3824
3116
-448
-2140
-3720
-2680
-2704
1732
3528
-12676
3804
10676
-3380
4316
2860
-4412
-2792
-744
-1704
-680
-4604
5544
3940
2476
9072
-6000
-4756
-1528
-7832
-6824
76
6352
5028
7880
6816
-332
-3636
-5268
-3780
-2776
-1400
312
-712
-1132
116
2128
4372
5016
4032
304
-3092
-5024
-4804
-2560
316
844
1832
624
796
3928
2680
-12
-2392
-4644
-1252
-900
3724
8320
-25248
7540
32764
-15664
-9468
2708
-9544
-7128
-3400
8464
5436
6856
11360
-3040
-3752
-8292
-3904
-756
164
3076
-3612
-2164
-4504
6816
9840
-864
5172
1196
-5952
-5784
-4060
-1504
788
1464
1296
1100
1284
1684
2256
3836
-6952
8828
-1728
-32768
13576
29124
-6528
4192
7056
-7896
-12892
-10448
-2464
7464
220
15416
14756
-16340
-5228
2324
-2080
4420
-704
184
-6224
-6316
-1064
-1144
7560
6376
7084
1932
-2740
-4508
-5832
-3248
-1156
1480
1352
436
1336
1308
2840
-572
-1132
84
7084
-560
-29704
5468
27552
-3860
1536
3300
-9152
-10020
-6196
876
3976
7840
7360
2364
-1940
-4128
-1828
92
188
476
-2840
-4364
-6764
-40
13300
752
1320
6500
-3192
-3584
-1860
-1888
-1892
-1056
-356
-12
-196
1272
5008
4168
2748
-1548
-16640
-6260
13764
4636
2012
5088
-1904
-6400
-6764
-3920
-684
4192
5428
2548
-472
-1036
952
1408
2112
744
-2468
-4560
-4692
-3288
-872
3136
4696
5212
3700
-1168
-2000
32
-1976
-2596
-2760
-1552
1288
612
996
1584
3788
-40
-5964
2860
12
-1736
816
4048
8212
-17096
968
11360
-11008
-1024
2572
-796
120
1484
1796
2832
3280
1936
-720
-4520
-5364
-3424
-1316
1052
1680
2536
1584
2212
3412
1180
-1208
-2464
-1044
-1188
-4716
-3916
2380
3640
2632
3232
-64
-476
-3280
-5812
2948
5476
1236
16
364
-2280
-3188
-2168
-2104
252
1652
2296
2172
1088
996
1384
740
-280
-1828
-2712
-3384
-2472
-184
-540
2024
3752
3092
2816
2104
-2444
2276
-5252
-15132
8296
5548
-4548
4192
1732
-268
-996
-2888
-392
1960
1700
1528
712
-756
-1248
-1076
-1532
-1168
-616
-432
-372
104
1872
2860
3024
2180
80
-1784
-3216
-2964
-2028
-1492
-284
64
2220
3604
1768
1804
1576
-1688
-968
-1372
-3176
-2308
-344
1292
-492
2672
2580
2112
-1068
-5952
1492
2316
-496
1152
-56
968
1536
-2024
-3796
-2780
-968
924
2428
1904
2036
1704
1344
492
-456
-1704
-3256
-2028
-2628
-1176
-80
1820
5244
2004
1068
1164
-1240
-240
-3292
856
-3668
-4368
1996
2232
3760
1656
1532
-5668
172
2208
-2468
496
1596
1844
708
-280
-1592
-2152
-2452
-1356
-276
1292
2292
1880
2028
1404
780
412
-716
-3240
-3432
-2952
-1192
812
1452
3008
2360
2632
660
-964
628
3788
-8768
-10684
7128
1460
1324
4176
-2188
940
3348
-6276
-4340
8480
-2560
-72
1724
-988
2200
-1712
-172
-1696
-1244
-1804
-1256
996
1768
2856
2888
1876
776
-1416
-3004
-3012
-2352
-960
-76
380
1092
2444
2672
1296
-1084
3188
-216
832
-2368
-20068
6464
12948
-4816
3596
2232
1280
-4132
-5924
3068
1280
-712
1608
1752
48
-732
-260
-736
-860
-160
-1576
-2364
-848
1092
3456
3500
3420
1144
-1548
-3556
-3464
-2504
-2052
1420
624
852
1908
3400
-848
0
3596
7516
-4944
-23636
5828
11224
-4532
3816
2792
-912
852
-4016
-4768
6032
3764
-2852
-2692
-1684
988
2468
2524
1228
-788
-2148
-3008
-3396
-1712
832
3680
4708
3464
876
-1608
-2608
-2256
-1668
-1652
-400
-476
120
1172
2744
3124
-208
-1388
2076
984
-4012
3712
-8908
-10896
14164
3612
-2544
5032
1624
-5200
-4752
2556
-100
-1520
1064
1760
1112
76
620
384
-52
-788
-1664
-3144
-3092
-92
2668
3148
4552
3440
-648
-1924
-3820
-3712
-1660
396
1424
96
856
2004
-308
-396
4004
2976
176
-8492
-7484
6624
2480
-1256
2240
580
-788
-2060
932
2156
-516
-492
-876
-1636
-1740
128
2716
3224
2628
504
-1724
-3996
-3944
-2440
-556
2516
3648
3124
1788
688
-360
-1084
-2372
-2792
-1600
188
824
328
1432
-152
-648
2772
3016
-912
1708
-3528
-11004
4876
6536
-2396
1340
860
-1824
-436
20
-320
936
656
92
-840
-2212
-1312
1480
2832
2744
1512
-864
-3088
-3060
-2372
-1444
596
1988
3000
2952
1656
-60
-804
-1912
-2324
-1648
-128
652
-320
-88
500
1556
1276
256
288
1020
820
-5744
-2588
4536
-304
-272
2180
100
-1440
-1268
-28
472
1160
888
-232
-1136
-1212
-136
-116
1012
1636
1360
668
-932
-1764
-1980
-1568
-496
784
1072
1160
1564
1244
1048
992
-1392
-3304
-2488
-500
1604
1100
524
968
-576
-1216
248
1676
1460
-1004
-1844
-920
668
984
-280
556
-104
-836
-568
120
68
208
1456
1264
-2732
-412
864
40
1056
-2260
3184
-3000
628
1424
-1108
2264
-2620
372
-1908
-88
324
560
1948
1040
1328
-20
-2580
-2712
360
1312
1104
128
-748
-896
-640
252
924
1292
896
-328
-708
-628
-836
52
364
-20
-136
704
12
-436
-16
-268
-60
164
1196
-664
1084
412
-3516
408
1088
1408
-1684
1396
-1184
-1132
3704
-1256
764
-2536
-1088
-688
720
2248
864
1440
-996
-1448
-988
-132
316
1212
-16
-880
64
-448
-140
64
644
1200
-436
-600
-372
92
424
108
-164
-260
304
-200
-152
184
-420
-252
248
-168
236
548
476
-124
280
-104
-436
36
-852
-1312
-392
1192
1224
1608
308
-1188
-348
-1196
-956
-20
1128
604
28
180
-500
36
496
692
-744
44
-188
-656
112
-680
-144
1000
496
228
32
-456
-460
-32
416
-144
204
204
-8
-444
432
-136
-576
-36
-468
136
756
356
-328
640
268
-444
80
172
-876
-924
192
-964
240
1440
836
1652
-100
-1448
-824
-484
-488
-184
620
-144
-260
636
960
516
36
-416
-380
452
-804
-1004
-112
-440
544
1168
844
196
-328
-1032
-988
592
404
216
-68
808
-224
-1008
596
-404
472
144
-1052
-192
164
-108
384
1104
308
-96
-88
-620
-72
-12
-232
-648
-592
-280
-88
2060
1136
-120
304
-676
-408
-88
-740
-1160
-72
-240
-112
1580
1304
760
-752
-508
-80
28
128
-1252
-388
308
-80
104
732
264
-528
336
92
48
468
-96
-376
-404
-528
-436
500
512
524
292
-140
-192
-204
-620
-560
16
880
380
-184
220
-280
456
228
-332
-392
-380
-480
-80
460
108
292
264
84
332
600
-52
-672
-1208
-564
516
276
484
-292
-932
672
1164
380
460
-36
-728
-1180
-968
388
608
408
96
-268
508
-248
-484
680
168
244
-160
-1092
-252
972
304
-336
-476
-76
312
28
196
-236
632
-100
-712
260
76
132
-36
-184
-420
136
788
-160
-336
-188
-372
396
724
-72
-88
-60
-976
152
952
-232
-104
-288
-604
712
1108
-296
-852
-608
148
488
436
20
-616
636
-188
-372
1248
-576
-1864
24
1204
208
-1384
2872
428
-400
-1820
-2060
3016
-2720
2648
-440
168
284
-1932
1728
-1088
1456
-256
-284
-716
924
272
-1964
904
-320
104
1280
-484
-348
892
-568
-752
788
-440
-336
784
-336
-436
676
584
-1068
-520
1516
-764
-412
540
-380
904
220
-812
-372
-388
24
3204
-1864
-2912
1280
828
1260
-480
1400
-3364
-268
1808
604
220
-1008
216
-712
216
40
616
-588
-384
456
412
408
-52
-220
-812
-204
752
352
-420
-1036
1836
-104
-1588
464
-268
496
676
-32
104
-732
292
-100
-384
168
4
232
28
-380
-232
1160
-1444
596
1752
-964
-684
-272
-40
-192
412
-232
176
396
416
344
-884
28
-188
108
760
-668
-636
-132
-1296
1916
1016
-628
880
-552
-584
-548
136
432
-248
496
248
-540
-448
-704
632
832
20
92
264
-1972
976
1908
-812
-868
-460
12
-476
856
148
-68
380
-344
76
784
360
-1280
-764
-156
-512
1280
1128
-964
924
48
-1388
1128
36
-716
-372
-628
-76
1052
284
-1096
524
1288
72
-308
-456
-568
64
792
-1832
824
1628
-1376
468
-200
-1024
-128
1216
-344
48
1572
-300
-972
-216
276
-348
-24
-96
-788
672
-676
-544
3080
760
-1024
180
-1820
-796
-168
-392
328
1380
1796
-428
420
-356
-1820
-676
-256
872
1036
-104
-1888
292
1452
-204
1224
-20
-896
-284
-468
-548
588
284
-52
768
-496
-348
192
-532
184
-120
240
-424
332
2360
-764
-936
-124
-1508
864
464
-884
636
-740
88
1208
916
688
-188
-1564
-2040
136
476
1056
-1928
1032
4516
-636
-712
-1672
-1360
-1236
-432
1748
1284
476
-716
-396
-248
940
512
-528
172
-912
344
-712
-1208
1984
164
-408
828
84
-824
-724
-372
380
944
956
-192
-704
-484
-388
20
1024
-40
-1076
336
-1384
1812
1872
-1348
-144
-1412
-1264
3248
5380
-12164
-5764
17080
2996
-6012
-1776
-2260
-1892
-996
1780
2608
2916
-720
-748
-256
-2800
-744
1084
2076
1012
36
-1416
-2184
-416
576
1328
1372
-376
-24
-564
-972
552
180
448
-624
1228
240
-2620
160
-164
960
1208
-356
116
368
-1332
1080
3824
-8212
-6044
12480
-924
-3784
6680
732
-3360
-4504
1504
-4384
1612
2460
1404
3428
-736
-220
-2696
-1428
-1228
1048
2476
920
-300
-1692
-1452
192
1020
1428
-1156
912
788
-2076
312
-420
-220
1044
408
216
-396
-288
-516
192
-600
1632
-140
-1152
-1560
1316
8320
-13244
-11140
24924
13548
-26000
-4420
14248
-6228
-4236
3980
468
-3492
4076
1612
524
332
-664
-464
-1516
168
-2388
-552
508
2832
1192
-1188
284
-928
604
412
-836
240
-1160
-60
-104
128
1404
528
824
920
-904
-4520
852
2056
-816
-1524
-1332
736
2656
860
7432
5928
-21572
-32
14576
-10444
-2820
4464
-176
568
1344
1280
1324
2068
-488
-3224
-1784
-2916
-384
1656
896
2384
992
-28
-300
-1084
-756
-580
772
340
-636
-744
-368
652
1800
1960
-616
16
-404
-4000
-1652
-1664
712
940
6560
13664
-23060
-208
26040
-16408
-10284
5320
-2528
-2540
3852
3356
1356
1744
652
1112
-1912
-1560
-1608
-3084
-968
804
2256
1272
608
1112
-72
-632
164
-196
-1292
-1024
-508
-200
844
332
3540
932
-860
-1316
-2740
-2192
-1652
-28
2328
18056
-20876
-10572
32764
-11832
-9600
3584
-8400
908
-540
1216
-96
3824
5344
1308
-1612
-3500
2016
1128
-8032
-3684
3544
2100
1996
524
816
356
120
216
-996
-1524
-1684
-1164
808
8924
-5704
-10292
11884
6844
-6916
-3324
-2648
-2516
-496
2492
4056
6784
14616
-21664
-10344
18044
-9612
-3136
2768
-2560
1572
2256
1860
1072
3184
2808
-828
-4096
-5480
-2928
-1344
1664
4376
3440
956
-840
-1028
-828
380
64
-1812
-752
-324
-856
1168
3248
2196
852
-2952
-3768
-4440
500
256
8968
8340
-21184
10616
14520
-14304
-544
-2180
-4788
-2860
2956
3700
2420
4396
1844
4300
-6976
-9568
4764
-32
-2524
3228
1020
-2192
-2520
2880
3668
172
3364
-1220
-6136
-176
-2744
-212
4564
-60
4584
320
-4120
-824
-4488
-2972
7060
13176
-21000
-8432
32052
-160
-13176
-1272
-232
-7696
-2280
6040
-2624
8308
3288
-3952
3904
-4796
2604
5316
-11216
-2224
1412
-4044
7352
-800
-812
7376
-4744
3984
-860
-9864
7832
-4128
3576
5900
-20000
8756
14064
-9752
3416
-6500
-6884
8828
-4536
7300
7576
-5104
2352
-6980
-1548
5268
-11456
972
4420
-5612
12688
-1396
-5512
10876
-5104
1200
1924
-10736
-1232
852
-3240
10316
-2272
-2840
9624
-9124
7116
-440
-10312
9176
-6680
-384
9004
-8088
3924
2932
-9324
7484
-6364
-4704
9136
1028
11220
-11912
-4072
13416
-10376
-3100
5096
-10116
756
6696
-5196
10928
1796
-5804
8592
-7468
-544
2100
-13052
5444
1044
-1112
10528
-7640
-968
8240
-8624
6784
2424
-12620
8604
-6744
488
11172
-8696
2788
72
-9984
8216
-4004
96
20592
-27424
7956
23160
-20788
5420
-6840
-6700
5888
-6248
5460
5448
-4576
9856
476
-7276
7940
-8656
-1292
2156
-10784
11360
-3152
-5784
15288
-6652
-1776
7464
-8448
4556
912
-8432
6812
-4280
-736
10224
-11284
3096
128
3752
10880
-32768
8196
32764
-16516
-2784
2548
-19924
7736
-14540
1592
32764
-25776
-11564
19216
-10352
8228
576
-6768
9048
-7680
-1604
2624
-13492
6472
5148
-888
13232
-6048
-5936
3212
-10596
6044
6152
-7208
8652
-3692
-2940
6688
-17436
888
8432
-544
12012
432
516
-13580
-7528
20432
-5356
-9724
2940
-7016
9160
4392
-13192
8384
9840
-5084
6372
-3156
-13412
4636
-5084
240
9808
-8048
5704
2760
-6432
10056
-5212
-4156
6728
-10404
4588
5652
-10596
10164
-3608
-3508
21100
-23984
-23388
22904
16360
4588
-5276
-3176
-1276
-8456
-11704
-1276
32764
-6140
-32492
13608
13740
-7328
2416
4212
-8368
11652
-1572
-16412
3604
-5248
788
21688
-3112
-20584
4736
12980
2560
-9916
-2540
7460
-8696
5868
5164
-12508
6532
-1856
-4608
8600
-9272
1660
10360
-3144
11500
-3892
-11428
4648
-11752
-1416
7440
-6412
7880
2556
-2136
12124
-5648
-3632
5508
-10624
2920
452
-11972
8008
-448
1412
12156
-8652
576
3380
-9472
8984
-1508
-8584
6564
-5152
5772
7464
-13668
4464
-4496
5952
10840
-32768
17056
32764
-25372
144
1316
-12256
-7400
-17224
32764
-64
-32768
22932
5088
-6728
10472
-2396
-3724
5148
-7912
-1432
-672
-12860
11732
3684
1648
20468
-24668
-12600
22924
-9016
3000
4368
-10376
8316
-3728
-2276
6048
-11420
3400
2636
-6524
21516
-12836
-17792
30860
-2728
-2904
4984
-18792
-4716
-6364
2488
15840
-2472
4820
6180
-6604
9256
-5588
-12208
5656
-8436
692
7996
-8720
7644
2980
-4360
11516
-6932
-5336
5848
-8428
4416
4076
-9480
9492
-948
-4508
8692
-14952
9664
2336
-28332
10248
32764
-7680
-32768
20904
29460
-22320
-32752
32764
18772
-32768
12732
13852
-308
15568
-1712
5140
-7072
-14904
-2128
-4852
10772
14520
-14268
488
608
-7104
14092
-1488
-4008
10188
-11384
-1412
392
-9736
13300
7256
4876
-10252
-19700
9016
1164
-2960
17288
-5972
-3460
20312
-9172
-4960
192
-17704
1360
2892
-3900
11240
-876
-6648
30016
-740
-20552
6728
-11552
-3204
776
-436
13868
-10568
716
7132
-11764
14740
1408
-7456
6148
-10140
-2000
4804
-7100
9544
5300
-5080
6252
-9952
-10848
13568
-9196
2304
17128
-28144
20612
24708
-22896
4888
-7248
-32768
22556
24228
-32768
6956
6912
16600
19104
-25312
-680
-6352
-1656
-40
-4988
11760
-6712
5792
4692
-22264
14080
16220
-11628
4212
-6752
-6756
9424
-9964
2736
8048
-5156
13088
-4636
-12064
1516
-7836
14736
-5128
-28672
31976
29668
-14728
3544
-10152
-20588
-4360
-14420
17532
3396
-12532
32764
-14620
-32768
27424
-15964
-4880
9952
-3572
9728
-7712
-7392
4448
-6556
9844
17880
-2400
-12784
-12272
3916
9364
-10048
5856
9764
-10248
5972
352
-8752
9048
-5056
-5656
12812
-12500
-18444
1744
29048
32764
-16316
-22096
5660
-32768
10064
32764
-32768
-16784
32764
56
4268
12200
-15972
-32768
32764
22480
-30232
-12092
4600
632
6616
14196
-7300
148
792
-6968
9352
-8524
-4972
7248
-6156
7420
-2296
-3696
13808
-4080
-3128
6936
-15444
-8260
4092
-7472
15304
13456
5004
15108
-25316
-12872
5872
-16836
5936
6520
-2980
12528
-1408
-1936
9740
-4208
-620
1856
-8108
-1212
-4908
-5604
11804
-2804
836
9940
-6932
6420
-1696
-9996
7192
-6848
408
7980
-8812
4916
3832
-5792
9900
-4196
-6608
9272
-12732
2480
-2892
-8320
4964
21360
13560
-32768
29356
4268
-28972
13528
-14844
-32768
32764
32764
-32768
12500
25112
-11092
11968
2424
-2912
-6120
-22152
2028
13000
-7520
12360
6980
-11204
6544
-4112
-5120
9372
-7936
1460
4928
-9736
7696
-1776
-6160
11600
-3876
1820
2748
-11420
4604
912
-8492
11112
-11932
5904
9080
-9208
12280
-13140
27904
-2160
-32768
22508
-5764
-30968
32764
-5720
-32768
32764
5156
-2544
6008
-12328
2000
5224
-18348
-548
4624
-4328
16332
624
-2848
5508
-12376
2784
2660
-8444
10584
-2696
-5408
8228
-7964
1688
6308
-7108
8620
-2824
-8220
8312
-5244
760
7124
-14624
3404
1612
148
29996
-32768
2804
32764
-32768
-9816
13472
-32768
32764
4496
-32768
32764
11416
-3356
32764
-32768
-32768
32764
5420
-27512
2184
232
5668
-336
8392
2316
-9732
9008
-7696
-5768
8364
-7296
7220
352
-10148
11296
-1988
-2536
9480
-11648
-1692
4648
-6616
11160
2776
-9676
5636
-12732
7964
336
-5320
32764
-32768
12620
32764
-32768
-1132
-28800
-9768
32764
-32768
-32768
32764
6672
6416
11920
-32768
-5424
32764
-10040
-4768
-4524
-10512
8676
-5308
7520
11904
-8060
4396
-5012
-12180
13604
-5756
-7348
12584
-1652
7748
-7364
-13580
15876
-8744
-3472
24232
-17008
-3532
9544
-10136
5428
-5388
-2808
3284
32764
-32768
-13468
32764
-32768
31616
11608
-32768
32764
4100
-32768
10580
26252
32764
-10104
-32768
32764
32764
-32768
-6144
-28288
3496
32764
-32252
-32768
27468
14560
-9712
8712
4240
-7192
7864
-24584
-15840
32764
2536
-7760
10232
-9324
1108
392
-12672
8800
212
276
11716
-8080
-2492
2732
-12252
6816
18532
-26440
-24028
24372
32764
7584
-13572
-3512
-13636
-24360
-4100
8088
-5236
25808
32764
-28012
-29828
5800
-4864
-3664
9500
12824
-13448
-3708
-548
-10240
14012
11720
-964
-1428
-7544
1460
-2408
-13860
9160
5540
-3436
14080
-6156
-5736
7476
-9276
4240
-168
-10952
6652
-1292
1972
15316
-9868
-2832
-2812
-5708
32764
-32768
-32768
32764
-15272
-16492
5400
-32768
32764
-1156
-32768
32764
24680
32764
-28136
-32768
32764
32764
-32768
4932
-30548
2432
32764
-32768
-28080
32764
-3992
9044
-8220
-4176
2244
-32768
11468
32688
-13448
-3584
3200
-6012
10892
-4792
-5900
4068
-2280
5368
-4448
-7892
11868
1192
-1096
9036
-15572
-5340
-4112
-7368
12796
32764
13148
-32768
8604
32764
-32768
-32112
14980
-3276
7924
-16096
14440
32764
-32768
4252
13068
-21408
-11472
4636
1176
3920
15664
-9512
-3280
128
-5688
14832
1496
-8232
5032
-14128
1312
14908
-30424
12952
30084
-14476
6496
-8420
-12564
2676
-8528
10436
7668
-3468
10232
-2584
-9640
3460
-16824
12868
26896
-32768
-12784
32764
-5440
-22692
-28808
-16760
32764
-32768
-32768
32764
25252
32764
-32768
-32768
32764
-26016
-18940
-6388
-32420
32764
-15172
-32768
32764
15732
-19592
-3028
16656
20872
-32768
-26548
27600
11052
-1516
9152
-14568
-328
7936
-9760
13288
-10376
-5972
14524
-14676
3016
9612
-3416
12096
-6876
-10592
2316
-18044
7828
7368
13772
2468
-3940
4468
-1612
-456
-17968
-19948
-6880
32764
-15432
-18348
26780
-12268
12912
-13680
-15064
27964
-7820
-22084
14388
-4664
-172
10876
-9308
9588
4264
-13424
280
24788
-18508
-21404
11244
3540
7284
-3116
9080
-1088
-7476
6352
-15028
-2896
6560
-3336
14304
4952
-7976
6652
-10652
-11696
9224
-18688
32764
3348
-32768
32764
32764
-15600
15376
-32768
26212
32764
-32768
-10928
11504
22744
32588
-32768
21536
32764
-32768
-4084
-15108
-24228
32764
17444
-32768
6220
10768
17312
25944
-32768
8712
12304
-19524
1120
-1668
22592
268
-32768
17848
17088
-8140
9000
-10596
-5384
1516
-6868
12492
4652
-1408
11220
-12364
-12996
-1648
-16808
7744
10368
32764
21248
-19580
-1868
-32768
-32768
14636
23888
17276
13632
-6404
-13464
3272
-10688
4736
19304
-7536
1520
-32768
-2492
32764
-15892
8896
15732
-19240
-4312
-1848
-5588
8812
-2380
72
12480
-10188
-2436
6572
-7432
5680
3048
1268
1348
-18884
-1536
6840
-3720
17560
5644
-5168
2848
-9588
-14536
21120
-11120
-32768
32764
-17560
-19668
32764
-11784
-32768
32764
32764
-32768
-32768
26280
32764
32764
-32768
11368
32764
-32768
-28188
-19436
32764
32764
-32768
-32768
32764
28852
-752
32764
-32768
-9688
32764
-32768
-24048
25224
4424
21400
2880
-18900
-2880
-5864
2568
17808
-14964
1688
15120
-26812
-3024
13236
8120
12216
-4556
-8928
-9000
-26496
10952
32764
-32768
-19332
32764
-6128
-32768
-32768
32764
32764
-32768
22300
32764
32764
-32768
-32768
32764
4648
-32768
-20024
-12612
32764
-32768
-32768
32764
32312
-12600
20684
-3944
-32768
23764
32764
-14896
1044
-8932
5840
348
-7968
15172
728
-7984
1620
-4560
-1284
-132
-5140
10648
280
-2432
12456
-6720
6796
-968
-26688
-6608
2784
-6252
32764
32764
-32768
-28964
32764
19008
-32768
-32768
32764
32764
-32768
15192
1976
15452
32764
-32768
-16384
32764
-6240
-23904
-2516
16448
7744
-4576
3812
-8780
-3720
12228
-1796
304
2604
-14904
3136
9560
-8636
2352
4180
4104
1540
-14360
2168
2832
-5728
9700
-864
-4872
11112
-6788
6024
652
-11644
-8
-2304
28344
-32768
-32768
32764
-9088
16708
11936
-32768
32764
21668
-32768
-24472
22624
32764
32764
-32768
19552
32764
-32768
-32768
32764
32764
-24312
-32768
15844
32764
-17328
21452
-32768
-2748
32764
-32768
-32768
7256
8844
18216
4292
-11492
-8036
-5832
8068
20120
-9012
-8692
12408
-17220
-12200
9624
224
17164
8956
-7908
2312
-12248
-18344
11232
-17268
27368
32764
-32768
-816
32764
-19788
-32768
27248
32764
-32768
-32768
15728
32764
25204
-32768
32764
32764
-32768
-24452
-32768
32764
32764
-32768
-4592
32764
-4148
14372
272
-32768
15980
32764
-25624
-20644
11672
-15000
12792
9800
-26192
15204
14688
-14836
7340
316
-6324
-6840
-10284
15476
5548
-3260
9812
-3008
-2164
3436
-19808
916
-4312
-1672
32764
-32768
-32768
32764
32764
-32768
-20632
32764
-27424
-32768
9324
32764
32764
-32768
-32768
32764
1120
-30944
-32768
-14672
32764
-32768
-32768
11804
12824
29184
19180
-11676
-32768
26524
32764
-32768
-3612
11876
-7228
15776
-356
-4552
4880
-9588
-612
1568
408
12552
-14532
-14424
16096
-2316
7712
12604
-10008
-1788
2416
-15204
-728
-12940
7608
32764
-32768
-32768
32764
32764
-32768
-26164
32764
-21520
-32768
1904
32764
912
6008
-18972
7656
32764
-25820
-32768
14876
32764
-32768
-32768
32764
30216
-27928
32764
-32768
-32768
32764
3656
-32768
32764
15660
-29952
22404
-12448
-10108
7000
-704
18436
-1524
-16488
-1328
-1700
2528
512
212
14764
-1768
-3968
3756
-17488
1332
5424
-5440
-6712
23848
30476
-32768
10760
32764
-32768
-32768
23936
32764
-32768
-32768
14096
28780
24872
212
-16644
32764
480
-32768
-32768
32764
32764
-32768
-32768
32764
-12544
288
32764
-32768
-2656
32764
-25144
-20420
32764
-14264
-9684
14272
-3416
-11512
-1672
18560
-2456
7316
-8520
-18236
14888
-9196
-6344
21572
4296
1016
-7408
-14916
7924
6748
-6640
4864
-18900
1168
32764
-32768
-32768
32764
28220
-32768
-32288
32764
30552
-32768
-32768
32764
16500
-32768
17256
32764
13092
-20040
-32768
-5060
32764
-26524
-31176
-25772
-15240
32764
14376
-3136
-32768
14104
32764
-32768
-13468
-1928
7048
20308
-5848
3248
-8760
-14708
7616
3864
13236
5508
-24632
-5488
13176
-4076
4612
5636
612
2116
-11920
2584
8200
-15488
1780
-6028
-3428
32764
-32768
-29640
32764
-32768
-13876
-13180
32764
32764
-32768
-1616
-6432
32764
32764
-32768
32764
16116
-32768
-32768
32764
32764
-32768
32764
32764
-32768
32764
-11280
-32768
20648
32764
-24516
22472
22376
-32768
3404
13532
-18492
8588
15576
-13680
15064
17188
-27248
-11292
-3200
3952
19296
-5460
2692
8884
-16176
-6788
1512
6368
17396
-10848
-11952
-6040
-15104
32764
-32768
-32768
32764
-32768
-14604
-20552
19940
32764
-32768
-32768
5092
25264
32764
-32768
32764
32764
-32768
-32768
17424
32764
-32768
-32768
32764
-24440
8388
30924
-32768
-21068
32764
13992
-32768
32764
-1548
-32768
28844
-9916
-10196
12616
-1144
-3916
17092
6924
-15516
-18084
-4656
15392
11728
4472
-3268
-14136
1776
2192
-3356
11936
592
-10428
3004
-25684
19712
32764
-32768
-5484
32764
2920
-32768
-32768
32764
32764
-32768
2672
32764
2704
-32768
32764
32764
-28912
-7628
-32768
32764
32764
-32768
-32768
32764
13384
-3084
6692
-18332
-31988
31184
32764
-28692
-1012
-1528
-5072
2956
-5268
14936
-1160
-5464
7584
-10244
-9948
8820
6928
4104
-8096
-4848
14916
-8060
-4628
6468
-19460
15728
28816
-21440
-17508
-100
-18792
32764
11980
-32768
31924
32764
-30540
-32768
27488
32764
-32768
-32768
32764
28428
-32768
-14948
32764
21780
-16964
-30636
-32768
32764
15136
-32768
-7684
-31544
32764
17980
3840
-32768
-17376
32764
-7620
-13192
-8232
-744
15044
3428
2540
-6444
-16712
-2720
15248
12672
-5376
-1484
-560
-14680
-10604
17632
16404
-5008
-580
-10920
-2356
9516
-11668
14088
-5264
-12308
-9424
32764
-7900
-32768
32764
-15148
-15312
-19460
-3816
32764
-32768
-32768
-20132
32764
26172
-32768
32764
22272
-32768
-1168
11404
4560
-28340
24396
-3328
-10736
20656
32764
-32768
-32768
32764
32764
-32768
-16180
4256
-10320
-11164
13800
9056
-10116
32764
860
-32768
1892
7056
-1140
18412
-1996
4468
-5736
-9248
6848
-14104
1368
23492
-3024
-352
-4032
-8800
6224
-18784
-22988
32764
13672
-32040
32764
6004
-32768
-7168
32764
-1536
-32768
-7964
32764
22188
-32768
32764
32764
-32768
-26308
30896
28828
-32768
32764
-10216
-24292
32764
1460
23868
-32768
-32768
32764
32764
-32768
1584
-2124
-30064
19588
1428
-11580
10992
32764
8472
-32768
-19148
6428
-5772
17584
22832
-14956
-5008
-6076
-18092
25164
7812
-15700
13476
112
-2508
-18204
9048
7596
-32768
32764
32764
-29444
1868
-32768
25152
32764
-32768
-32768
-29272
32764
32764
-32768
32764
32764
-24712
-32768
13948
32764
-32768
32764
9736
-16868
20832
10492
11024
-32768
2624
32764
-32768
-30436
32764
-32768
-12568
9160
8752
17700
-16220
15952
20636
-32768
-84
19740
-24100
14008
12044
1248
4916
-25680
308
20684
-7912
1084
-1420
-248
11320
-25100
11968
26380
-32768
1420
32764
-24072
-956
-32540
-27888
32764
-32768
-32768
21580
32764
19020
-32768
31688
32764
-29440
-1032
-32768
32764
32764
-32768
7208
15788
-22612
32764
1824
-32768
30312
-16960
-4540
32764
-24140
-3212
3352
-9312
13692
8596
-10960
-5464
264
7716
8484
-16992
180
5900
-5104
164
-7272
24972
13668
-32768
-732
13216
-6716
12988
-9044
-5928
-8676
32764
12880
-32768
11252
32764
13496
-32768
-25384
32764
1072
-32768
-11828
32764
26080
-32768
20984
32764
-32768
-2980
-32768
-12996
32764
-32768
-32768
26260
-7816
5972
23412
1804
-29992
-21412
32764
18148
-30152
5376
396
5592
2796
-13132
9232
-4604
2500
11208
-11044
-4832
9424
-14160
-3052
15344
3440
6680
-11528
-6756
4016
-3936
13012
1720
-11312
-2372
-10016
-9528
32764
-6092
-32768
32764
32764
-25076
-32768
-20432
32764
-32768
-32768
32764
32764
-32768
-32768
32764
32764
-32768
-21980
-32768
32764
-704
-32768
11824
32764
3320
-25556
29552
-15832
-26844
18972
24256
-9984
-18292
5180
2632
-3556
7000
3664
-6732
6436
-5220
-1972
-1044
-6980
13068
1452
-9740
7284
-1332
-2600
7896
-7308
240
7172
-9832
8000
-10036
-4852
-4936
17100
32764
-32768
-5672
32764
-2860
-32768
-12472
32764
-32768
-32768
25992
32764
-7736
-32768
32764
32764
-31892
-10324
-32768
32764
32764
-32768
4320
20096
3100
16364
-15808
8256
-29668
3184
32764
-27520
-8348
8868
-8224
4608
2220
-4676
3964
-4268
-2116
21672
-5832
-15340
-4296
512
12844
-388
-5876
4956
-3552
3424
5132
-6332
788
-380
-9832
3256
-11956
3848
32764
-32768
-32768
32764
7872
-32768
-32768
32764
11760
-32768
15360
32764
7164
-32768
32764
32764
-32768
4944
-32768
32764
32764
-32768
-18532
29212
1268
6680
3988
-2188
-28244
-4736
32764
-11380
-18788
10476
1580
2788
-8056
-2168
1184
-5292
7628
11124
-868
-9048
-12772
6240
9384
-2476
5268
-5228
-3928
7332
-6508
2072
4100
4440
-6668
-15972
-13740
30416
32764
-32768
-5692
32764
-872
-32768
-32768
32764
-9704
-32768
32764
32764
-15320
-32768
32764
32764
-32768
14100
-32552
-6304
32764
-32768
-20152
32764
-1800
-14744
-10612
32764
-6008
-32768
6772
26968
-1544
-23676
5528
-3404
7248
8900
-6308
4644
-6868
-2240
7232
-6860
-2508
1844
-4108
10292
9240
-12008
-3296
7728
320
-6812
-84
1120
1292
-21372
26068
32764
-32768
-2700
32764
12384
-32768
-32768
32764
12668
-32768
-3368
32764
23124
-32768
18768
32764
-32768
11140
-12712
-32768
32764
-7812
-32768
-4468
32764
6172
-8436
32764
-9104
-32768
-1112
14640
-1488
4904
18092
-27500
4120
14136
-14424
2496
2268
32
7140
-2240
-12476
8884
-5592
-15128
22980
5284
616
3580
-14224
-4672
956
10128
-7276
-8900
-10336
32764
-18276
-32768
32764
20244
-14120
-32768
5344
32764
-32768
-32768
32764
19180
-32768
32764
32764
-32768
15144
-32768
10648
32764
-32768
484
-32768
6724
32764
-31048
32764
-29028
-21968
25980
14564
-27680
-16908
32764
-5964
-2552
3716
-18368
2624
-5120
10932
9068
-9720
5284
5272
-12932
-19228
19572
5412
10640
-5072
-13952
22772
-23224
-4824
10356
-10868
-5560
32764
-11276
-32768
32764
32764
-29684
-32768
6844
32764
-32768
-32768
32764
32764
-32768
-31200
32764
-25236
-32768
8640
-30956
32764
6320
-32768
32764
-9912
-32768
32764
6540
-20160
-1648
-1704
6056
-6204
-4744
14996
-244
-6196
6324
-16604
8152
12800
-11804
2028
-7276
-4064
10060
6788
-2960
-2188
-4168
4004
12504
-23312
2052
25748
-19656
-8304
-17012
30096
32764
-32768
5992
32764
-31184
-32768
31444
32764
-32768
-32768
32764
32764
-32768
13292
32764
-11312
-2172
-32768
-992
32764
10600
-32768
-32768
32764
26364
-16028
32764
-32768
-29116
31100
1384
-21968
32764
-9252
-10480
16492
-28024
-5008
-256
24496
25316
-26376
-36
-20492
-15444
32764
1296
2624
4232
-1396
-12296
-5280
7892
-2000
-1084
-13268
32764
-16360
-32768
32764
32764
9564
-32768
-32768
32764
-14736
-32768
32764
15308
-18428
14748
4360
6236
-368
-32768
-8736
32764
5580
-32768
-3304
32764
-15832
25616
-27768
-32768
32764
22796
-32768
6756
20176
-20472
-964
10256
-14808
-17348
23456
29544
-18260
-21108
17220
-8448
-9548
15128
-15496
14452
12648
-10572
2576
-3784
-3780
-11928
-10716
32764
24480
-32768
-1904
32764
11660
-32768
-32768
32764
32764
-32768
-19564
32764
-8056
20376
22712
-13576
-1964
-32768
1736
32764
13424
-32768
-32768
32764
8304
-1900
17216
-32768
3756
32764
-32768
8396
32764
-32768
26192
7664
-24960
-4184
-14588
15600
32764
-820
-30564
-8788
2476
-6252
16676
800
11260
9532
-22240
-3924
-18116
8592
6316
32764
-8424
-32768
32764
32764
-32768
-32768
32764
32764
-32768
-32768
32764
32764
-32768
18012
32764
-21132
13680
-32768
-6932
32764
-32768
-13508
6544
-32768
32764
3420
-11084
-15472
-12812
30892
7424
-28424
-12848
32764
-18684
-15924
24408
-5424
144
-18856
7864
9480
-8936
16324
-592
-5608
-15752
1504
19436
-18804
-5228
-4188
32764
-2496
-32768
32764
32764
-32768
-32768
32764
32764
-32768
80
32764
32764
-32768
-32768
32764
-15716
-25008
-2232
-32696
32764
20364
-32768
-10504
32764
6772
7464
-3220
-9872
9976
-21896
-6376
18864
1888
4796
-5252
2764
-4824
-9428
13528
-3600
-8048
10908
-6568
-32768
32764
32764
-32532
-4852
-32768
18692
32764
-32768
-528
32764
28876
16848
-32768
14252
32764
-15460
3976
-20980
-32768
32764
32764
-32768
-2864
21388
3292
1096
3272
25508
-32768
-24140
32764
3580
-7312
-8592
4604
-1816
-8848
11024
-13484
-3300
18624
25776
-15684
-32768
5276
9180
2752
4212
18192
2112
-17560
-10480
-5540
12724
-92
-4756
17928
-18608
-11476
28204
-4652
-1496
4688
-5056
-10732
-2800
8444
2248
-1808
-856
12132
-18492
616
14816
-6556
8968
-5440
-3720
-18024
-3664
29920
1324
-4504
20
-2808
-4792
-4968
4716
4600
-1776
-7256
8904
-824
-15256
16852
2496
4740
-1028
-25304
17856
-6176
-1000
18012
-14152
-784
880
552
-2252
8
4972
1108
-5548
520
12808
-15044
-412
15836
-10320
-9248
-1456
13396
2024
-13676
13700
-2256
-10660
6924
2128
4568
-6296
-1472
4192
-3384
-7424
9680
3252
-12912
13052
-14168
3732
16060
-10368
11916
-16552
-3640
15952
-10788
728
1308
320
-2436
-5436
9068
4852
-4664
624
12688
-12420
-21416
15616
8116
4480
-6696
-2980
1024
-19308
19716
7528
-6744
5300
-5324
1432
-7960
172
9360
-760
-3432
8876
-15664
-17772
25252
4532
3380
2380
-14104
8984
-12608
-3816
20972
-10144
-1584
280
-1724
324
-6748
10692
9152
-2036
-17288
7124
4940
-9668
14164
-6284
752
-7516
-364
9268
-17196
16220
5212
-11172
6056
-2052
4104
-5216
-1564
12076
-16380
-10940
21168
3936
-15288
6332
2600
-1708
4688
-8424
13204
-9176
-10392
19100
-11396
-1152
2124
1464
4380
-6392
-5436
-144
10528
2180
10032
-10416
-15100
8784
-2220
6648
-3672
-1092
7644
-20104
11124
11068
-10708
9152
-956
7044
-17512
-16028
25220
980
-4876
4896
-656
-16936
3604
9684
2296
8040
-12848
8832
-9304
-11676
21988
-6416
-264
6148
-12312
-8824
3680
12196
7752
-4504
-4616
5560
-7832
-8844
11972
208
2112
-4804
-4888
9580
-18652
11760
14972
-5888
-1944
-18116
16804
1136
-7768
12716
-6676
-8540
3336
6376
-12728
4216
7360
-884
6552
-11824
8952
-2084
-13528
25328
-11920
-19952
14984
3840
3012
-9128
308
8152
-5864
428
9332
-2536
-13144
7396
-356
3208
-2504
-3756
12204
-13588
784
-2508
-588
14096
-2992
6536
-7880
-10660
9884
600
-4348
3996
2412
-14492
-216
11244
2220
7164
-9620
9020
-7224
-32768
29304
9432
-3400
8456
-8484
1152
-16836
1320
12128
-4988
1240
8444
-4288
-11872
8972
3568
4668
724
-7592
-5792
-12448
15152
13600
-8872
1108
-5512
1096
-2192
-7436
13756
1304
-4908
3484
7000
-11196
-5464
7624
-2044
3992
-23904
11448
19044
-10256
21320
-8224
-12776
-1760
-5636
2788
-8828
5988
10704
-792
104
5084
668
-11804
8316
6288
-20960
-1844
11904
9848
-13604
-3320
12552
-15036
3928
2932
11212
1024
-8104
11308
-8820
-6280
-4148
2864
-4056
-1708
888
992
18432
-2876
5612
-3276
-18904
8972
-100
-3340
760
-1244
680
-11432
14652
14432
-4844
-4016
-7676
384
-27352
5280
32764
11224
3956
-17096
-3912
-20376
-8272
15480
3260
5808
-2652
7932
-6716
-7396
16532
1804
732
588
-17112
-15164
1596
13464
7592
4652
2860
2168
-7788
-20244
5548
4372
1344
7084
9308
6772
-19848
-368
3744
-2356
-13272
-4468
23500
-10944
4944
9832
-7220
2040
-1376
8888
-11700
-6928
6972
-8276
-1064
768
14412
-1144
-3660
18852
-18144
-11876
6072
176
-5476
-5720
10416
26920
-5208
-24064
28404
-10760
-30800
4688
1160
6404
3524
9872
9960
-10560
-7776
1912
9900
-3000
-2092
-204
-23460
5336
16232
-5520
3484
4460
8496
-10312
-6780
9260
-4452
460
-1084
4720
-20928
-16672
32764
8924
-32768
30044
32764
-32768
-24860
-32768
32764
32764
-32768
-17772
32384
12580
32764
-32768
-8532
32764
-32768
-20536
-15628
-20564
32764
12680
-32768
1020
28116
-11836
5296
10076
-8736
6836
860
-10744
-16892
4656
20028
1592
-17120
-12340
32764
13172
-24416
10300
-32768
-23044
32764
-19176
-32768
16548
32764
28264
-32768
-8316
32764
-15208
-32768
-27744
584
32764
-21988
-32768
31856
600
4136
10160
-4220
2380
-18080
-1440
-32
5292
6376
792
5092
-300
6272
-16696
-26076
4452
32764
-6644
-30936
32764
96
-32768
-28580
-29116
32764
-18484
-32768
21696
32764
25840
-32768
13860
32764
-19532
-32768
-32768
32764
32764
-32768
-32768
29080
11516
-12448
11592
5148
2524
-8444
-19288
8104
-916
1892
11032
1620
5012
-14704
4556
2188
-9584
9084
-16988
-864
-5592
32764
5472
-32768
32764
-11640
-23004
-32004
-16632
32764
-31808
-32768
32764
-9660
14232
23804
-32768
3564
32764
-20844
-16992
-2716
1624
8796
-12900
2504
19880
5660
-13004
-3640
10300
-12308
3012
-7468
-7012
15428
-1004
9532
-11764
-2748
17112
-4912
-3776
-10576
-4752
-6240
-4996
32764
-30780
-32768
32764
-8160
-32768
-32768
32764
32764
-32768
-4992
31320
32764
-26152
-32768
32764
32764
-32768
-12188
-32356
-1540
32764
-23964
-32768
23672
11728
-10580
-15344
14508
6972
-2340
2812
-8992
-9288
-12408
14408
19184
-2792
2896
-4096
348
-13732
-13428
8232
4724
2668
22328
-20780
-12860
32764
-1692
-32712
-32768
32764
32764
-32768
-16720
32764
32764
-32768
-32768
32764
24268
-32768
-8316
-28856
32764
31284
-32768
640
9288
3784
9056
-6260
600
7916
-9296
-26272
17448
13972
-8908
3596
-1456
9096
-1900
-6932
-11808
-1564
5768
-1220
10752
13016
-16672
-3312
29272
-11420
-17552
-1996
-32768
24076
32764
-32768
3692
17684
3892
-4328
-28132
23000
2652
-7632
76
-9200
1592
-10984
13056
13904
316
-32
-4048
904
-14844
2792
9444
-3956
1208
-12944
14236
-13532
-16448
32764
5348
-27204
-9352
-32768
32764
32764
-32768
-22480
30800
32764
19732
-32768
8440
32764
-23268
-31328
-32768
29952
32764
-32768
-32768
27612
8332
4404
4560
13092
-15568
-28144
-3544
5592
11328
8380
13852
3252
3596
-23740
-228
-16824
-30384
32764
-6592
-32768
29892
9928
28412
15640
-32768
7880
32764
-13740
-24440
2360
-24212
19284
32764
-31224
-11744
10544
4908
-5484
1716
-5264
15312
-3984
-32768
32764
7352
-21704
-480
-20072
11604
704
11884
18340
-25076
-7052
5244
9428
8428
-5372
-5076
-4396
-3580
-17592
5368
14952
5612
10040
14976
-18604
-24272
18472
1724
-8672
-15480
468
21912
-5896
1044
11816
-2812
460
-2704
220
-9676
-12164
9940
716
4804
1472
8376
5164
-12960
-2848
-21632
5604
13720
11112
16176
-13048
232
-8196
-11060
-2616
-312
7584
-8532
8384
9744
-1612
2264
2584
10544
-26872
-8996
22032
-4728
-2060
-2240
3292
-11664
-1592
16556
1092
3776
-1496
5568
-10704
-11508
6936
-1324
5076
2716
-5908
-9524
2484
15572
2616
-1224
-3844
692
-2076
-13896
8320
1096
-3996
-380
5864
8380
-6480
10916
1984
-7356
-21760
-1800
15904
-11212
11696
6828
-1936
-464
-476
6556
-14684
-228
6652
-6096
1488
-620
8472
-7124
4808
10196
-24548
780
1756
9048
68
6460
14956
-17792
2768
-8420
-3260
-5824
-9596
17068
4940
1960
524
6444
2960
-22412
992
14908
-1528
-2936
-1052
-2804
-17268
9532
21744
-5644
-10128
-1580
556
-8180
16500
16272
-2864
-6436
-7176
-16984
-19976
17444
17576
5804
4220
-5188
6168
-20556
-16724
29144
9936
-3872
-5388
-1876
-14360
-8736
14296
7920
3088
-19052
11532
10288
-5728
17388
-8224
-9760
-11548
-11584
20968
868
-13440
7708
7464
832
6600
592
-13348
13828
-11524
-12224
11300
-716
8084
-19968
-3804
12804
19192
4316
-6784
1872
-21828
-3664
-22208
30288
32764
-32768
5148
1076
-19524
21488
6688
-156
-1064
7348
-25828
-22076
26968
16652
3152
-5972
652
-13412
-12156
13660
3560
7916
5188
-11132
-11748
-2420
14016
944
-5468
944
7912
896
-10632
9404
-2776
-3112
-5184
-1072
4116
-7676
13284
4432
-6768
-11708
13928
13484
-16736
6496
-3620
-8244
-5372
-2492
10800
-7136
10016
14424
-1936
-3824
-5304
496
-12580
-1928
-5720
5500
15496
-1160
11160
-12436
-6188
10500
-5216
-1832
-4916
2832
-8432
-3756
21060
2472
420
-1656
5624
-22300
-20420
28472
4092
5324
-1276
-7760
-4160
-10320
17232
6764
-404
-5424
-4564
168
-16012
14608
7940
3612
-4964
-15956
13416
-7860
7184
9352
-6868
-1528
-1240
3552
-16844
3148
7044
-4156
6600
6156
12748
-10208
-4372
3948
-26108
-1260
13300
9244
-3620
-3940
10708
-3380
1084
84
8540
-11000
-15392
8504
-2308
2364
5204
11340
520
-16144
-3824
4864
-4224
1368
4180
14064
-4692
-18096
27360
2016
-25372
-2364
-4788
-20836
32764
23556
-27428
5868
6064
-17276
-4728
18572
2260
-3640
-5684
-6156
720
-10100
12672
16044
-2172
-9536
-9632
-1188
-8584
14188
29816
7508
-32768
-9940
15780
-22724
7180
17852
-3196
-160
-2480
6908
-9716
-1324
13584
-2812
-508
-7124
4944
-11072
-1016
7168
-11452
22368
2728
4228
-14780
-27020
11368
3776
12640
14268
12652
-10892
-26896
-112
-6444
-424
7016
16968
2492
-28196
16068
14344
1500
-9604
-6488
7368
-20136
7164
8400
-2828
-784
2948
8880
-12680
3668
1804
-7144
3876
-9872
6072
10532
9252
4584
-14980
-13072
-7036
6336
-2804
11848
10344
-6680
-1148
-4384
6492
-6664
1576
16548
-9316
-19240
4284
13556
-11732
-3328
8424
-3656
2440
5084
18288
-4704
-14304
4872
-15052
-8868
1268
13592
6336
-3876
1000
464
9040
-6940
3688
-2296
-16808
9144
760
-2804
-624
5808
5568
-8796
10204
1452
-5236
-7748
844
-8772
-20816
31984
19068
6780
-820
-15724
-10052
-22732
2684
10952
8688
8280
-352
1992
-13940
4624
11676
2760
-184
-24636
2560
-1688
-1192
15340
-2060
5300
3680
3344
-17196
-7908
5912
-6892
5848
7372
15932
-1988
-7656
7476
-23296
-15672
11916
14512
432
-5060
9944
-3912
-3712
860
8748
-4492
-11316
7552
-3424
-5352
1088
13344
3572
-6356
-5544
-3088
-856
-6772
8832
2240
2224
20496
-2304
-10288
-10476
-7464
-6060
-10628
19924
11552
3736
984
2936
-11336
-24696
25452
9312
-4324
-3712
-8496
-2208
-14620
12160
16024
6748
648
-5340
-2764
-23292
1784
8452
4340
6852
-9808
20216
-428
-3960
420
-20484
-6724
-1352
13976
60
5360
8748
-3648
-508
-4896
6428
-10748
-2952
14948
-17332
-9116
12012
12988
-936
-4336
9924
-4792
-7592
-8304
-1780
-7944
2172
23532
7856
7744
-5024
-7552
-10756
-20544
-9468
11188
21500
6984
8096
-10376
-14016
9504
660
3944
196
-2200
-13080
-17512
14136
7156
8908
12996
8092
-19060
-27000
15504
-2432
-4100
6148
4720
9476
-2676
6744
-1068
-9156
-9196
-5664
1748
-7172
15140
10408
3664
-3588
-16184
13252
-6136
2844
6464
-9564
-4064
-6004
8000
-4520
9380
9476
-3308
-340
-4768
-4680
-20848
6884
21384
-7700
5872
19424
424
-21488
-9716
-4108
-9600
5712
12464
18564
-10860
-5092
10260
-7424
-4668
7356
9084
-13672
-11376
-10376
8112
15052
2508
14520
-10316
-10048
7112
-6396
-2588
-4868
2816
-6044
-3460
19680
8292
7212
-2056
-820
-29840
-21708
22424
3072
10436
6876
4856
-10228
-13920
15164
960
2444
-3416
-5040
-7200
-12308
13680
7000
14164
-4748
-12080
9520
-9288
2328
-8616
-7368
1964
10784
14852
5340
3104
-12212
-6368
-14916
-5548
3624
-2744
24632
11720
-18972
-1436
12008
-2328
-10400
7352
-1776
-11244
-3912
1576
9688
-5716
15120
12844
-11692
-12856
-7332
1592
-4964
6360
6528
15816
5472
-8024
-5520
-23196
-2540
8164
6444
8936
1220
4912
-15804
-1632
10144
-104
2384
2460
2688
-32768
5732
29360
-5032
-7152
-7240
2916
-8860
5888
24220
12516
-20636
-9032
7304
-27144
-5380
15924
9544
15940
-10012
-3344
-2664
-7572
15564
-396
-912
-6688
-404
-10288
-7336
17340
3988
8128
356
324
-12156
-18040
13896
-7696
-7176
23852
19092
584
-14148
-6904
-11968
-7184
-2224
11692
7368
-4440
13072
-2112
-3496
-900
4792
2852
-15032
-10320
2400
9548
1092
12632
4268
-15512
24
-7800
-4352
768
9084
12044
-1392
10596
-5856
-11356
-8720
1740
-12604
-11752
32764
9976
844
-4988
-5872
-1384
-13688
11292
6676
-4792
-4984
-1580
4040
-7576
13636
8316
-556
-15048
-20860
12188
-1844
15844
17432
988
-5664
-15056
-3832
-18884
2636
12420
4756
10820
2760
384
-20112
6056
11400
-16768
9844
7480
-5248
-15940
-628
11260
3376
5872
-3296
-1032
-17168
-1868
12848
7300
10244
340
972
-18424
-22616
3160
14144
9432
6412
7952
-17260
-7104
9612
-1812
4864
84
1728
-16588
-6524
11136
1376
9072
12984
-2100
-29432
4248
10904
-5584
5472
-3196
5540
-7836
-3520
13880
-2456
-1376
-3260
3632
-8776
-5100
12924
4264
1380
-18276
12144
1968
-10244
13028
-7728
-252
-1376
5704
-1492
-5600
10908
-3968
-3524
-6596
3692
-2400
-2236
25772
-11012
-3196
8072
-8480
-9820
-13028
9840
6864
9664
132
3116
-4744
-13768
10040
-220
2656
-3384
5352
2428
-18856
-4924
9600
4844
-2364
11420
824
-6384
11652
-3448
-8396
-8436
-3084
-2604
-8252
17144
9836
3392
6760
-1932
-22156
-7724
17664
-236
-184
-4464
928
1656
-6400
9564
-1308
-3952
-3796
-192
3996
-344
19268
4012
-4952
-28200
-10308
13600
-10880
20464
10136
-2168
-2176
-2376
-1748
-12124
10496
4156
-3852
-4012
-124
5192
-7100
15112
-9424
-19648
10460
5180
9636
-2020
11504
3096
-14508
-8576
-6940
-316
-10028
12524
13868
2292
3908
-1412
4504
-16988
-13516
10712
7152
-536
1964
3296
-11068
2512
2552
-5436
-1860
304
9192
-5060
14100
10032
-12152
-6928
-4540
-14936
-18652
26308
17816
4384
3236
-9668
-1676
-16904
5120
12052
-1708
-1236
-4648
4320
-10616
6828
5852
-2508
-2620
-20040
17884
8456
10288
14324
-18832
-16532
-11536
1884
-6348
13504
18140
356
1008
-6068
204
-13028
1976
16644
-12512
-10368
12248
6060
-8460
520
12
-5544
124
2092
13844
-2276
2196
6060
-12348
-8288
-7656
4228
-1900
6908
1856
5468
12012
-8976
3544
-14660
-6796
14192
-588
2184
-2880
-2148
-10808
-3872
11756
3820
8036
1576
14460
-18316
-23980
19264
-4124
-4144
-1304
5800
-3900
1796
17108
-2676
-1728
-6140
2352
-8400
-5212
9452
-2828
1152
2432
-8720
-6844
14988
15480
2180
-4456
-12536
-1964
-13804
-6928
17092
2692
5060
1280
7072
-7436
-6868
11596
2784
-6632
-24396
9416
-1904
-3172
21272
1908
5880
-1460
1080
-11468
-13396
3248
-4312
3228
2904
11888
-452
-4464
17956
-15784
-7648
10168
-764
-11684
-11736
9932
2244
8420
8092
10264
-7588
-17496
3896
-8192
-2176
4132
10108
3968
-7388
-4704
5388
9964
-5584
4256
-10780
-13452
12620
-960
2772
5224
5016
-5768
-10628
7776
-3612
2996
1124
10420
-13776
-18808
27540
52
-2588
-3244
-1648
-5908
-6920
18552
4752
2824
-6528
-3444
-8800
-14240
14828
6352
7544
1724
-13276
-1476
1900
11304
3056
-4748
-10928
-2556
-2804
-6740
15916
2372
6540
3024
2280
-6160
-16804
3768
2324
-4004
-10752
20544
6616
-12064
12684
-2732
-3152
-484
3764
-8804
-15264
7844
-568
2736
4936
13324
5196
-7136
10336
-24320
-11396
6696
1328
3428
-6844
14576
1804
2528
-28
2288
-2340
-17408
8532
-2848
-4852
1544
9636
12628
-12244
-7412
2612
-3144
-3488
9096
4168
0
13048
-6296
-11140
-7432
-2012
-3216
-5464
19124
5240
2880
100
3896
-14004
-19188
26144
1444
-3480
-5728
-6216
-824
-8344
22444
12744
-2696
-9396
-10056
-10100
-13636
19476
15384
14768
5632
-20968
-9296
-13532
3500
4196
1340
8168
6600
-48
-13188
9600
1464
-732
828
-2012
-6732
-13340
9912
10352
-2716
-3236
15928
-1744
-18808
1032
-6596
-688
8832
16016
10136
-11396
-944
-11780
-9304
-3548
4416
8204
-1800
18344
-13452
-5532
10448
2628
3284
-15288
4988
-700
-7132
-6156
5828
9712
-2448
13760
-2480
-13736
-8752
892
9492
-5256
8116
16632
-2836
-12348
-6728
-8560
-11004
13248
11616
6104
1768
-2836
-4096
-14164
10148
6472
-1592
-2060
2500
-14668
-13792
29696
6616
1048
-5316
-10160
-11592
-13588
19592
12816
10836
7152
-2380
-12736
-25760
44
1244
8196
9280
-124
7552
-7716
5520
1068
-4124
-216
1476
-1160
-18324
5436
2864
604
7092
13104
1916
-16204
3448
-2344
-17840
-8668
25136
12392
-2052
10536
-11436
-11260
-7576
1016
964
-6808
17276
4780
-3248
-2492
2408
820
-6904
13448
-14864
-6600
5520
2856
6560
-10196
12816
180
-11324
-6296
2444
1444
-560
21000
5596
-5060
-12036
-5896
-1896
-19728
-552
22640
15824
-204
1636
-9952
-18200
11352
6800
1708
-2252
-4004
-7148
-15036
15176
12628
7468
4336
1256
-28876
-25244
23840
6396
12568
8884
5304
-7304
-22860
1656
-5884
448
3080
11400
7560
-13440
8184
1088
2224
-3036
-11212
5020
-6956
6268
5384
-2476
488
5364
-3224
-12588
4532
-4296
184
5488
14180
7164
-7120
1308
-6588
-20108
-16136
20528
7388
1536
16384
-6480
-5180
-6756
5508
2012
-9752
10856
-4896
-6512
-1592
4592
2548
476
15916
-19376
-4188
4296
-1880
4676
-3216
17824
368
-7872
-9500
-2824
-5704
-9496
17312
9860
3760
-3768
320
-900
-18040
1008
17620
3140
-4884
5116
-13356
-16292
9408
2868
6328
5388
11204
-464
-11728
5080
-9920
-6176
-3580
9800
-13972
-5848
32764
3420
-12
-12120
-3972
-7432
-8152
16616
-516
-2236
-468
9332
-6708
-12216
9480
-3176
4760
-160
-3936
11368
3904
3592
-9872
-12576
-8828
4024
1896
2472
20572
-1496
-3624
-7736
2268
-3800
-5624
15120
836
-14872
-14320
24408
1844
-7140
10732
-12412
-5628
-1112
11760
1976
3068
12788
-13192
-8864
-8668
-424
-3248
6876
19988
-13140
4900
3492
-620
-4924
-9712
11044
-2280
-2544
-3796
8776
-3060
-7128
8416
-6040
-1924
736
12060
6244
-8728
1020
3520
-7140
-9572
1352
-10940
1364
21140
5672
1884
-6632
-240
-10148
-2184
13868
-6084
-1736
656
4192
-20636
1380
21704
-4396
3200
-2992
7680
-6496
-4220
9104
-8064
-5336
-9256
7508
-5732
4524
23212
-2384
4908
-18448
-7712
5188
-488
8636
-5772
-5096
-4044
8328
-2312
5028
15204
-4692
-6372
-8676
88
-10212
768
19940
-460
-15400
6612
16856
-12192
-2232
1928
-6992
252
616
10408
-8596
-3092
9132
-4692
1372
-1796
7436
-7804
3152
1060
-12664
12788
-572
3212
-14280
-4056
13424
-692
8800
4064
3628
-19544
-6960
4792
-7716
5856
5280
15964
-10436
-16176
14944
5428
-124
436
612
-17524
-3712
7968
172
3856
-4100
4720
-6184
7692
13956
448
-5184
-3100
-13688
-27216
17244
13752
4352
5512
572
5380
-16176
3284
6420
-7064
-2992
-5680
2556
-8740
10500
13348
5556
-140
-20704
6552
-6440
300
8944
-5468
-132
940
5384
-10948
7144
7484
-3076
416
-1892
-2848
-15992
9536
14836
-11360
-4784
14520
1772
-13248
7656
2584
-4044
-1828
-2104
-140
-14408
7796
9176
4104
6528
5720
100
-17164
-2236
-17820
3392
12720
4800
9588
-12448
6376
2084
-2360
1420
1972
-616
-16608
3416
1308
-1436
2924
5260
8320
-22680
6940
24092
-260
-5988
-7492
-9368
-18284
9756
9164
2276
4728
6936
632
-13416
9444
1856
-3404
856
-5948
-21220
-2592
24076
5092
6744
-812
912
-4268
-16584
6908
-720
-2280
-656
5072
2476
-8892
13372
3608
2676
-15444
-6128
11228
-11284
11580
884
-3416
-812
5068
-1544
-10716
13472
-3704
-5552
2384
5840
-868
-5780
12864
-8776
-20672
6940
16152
-196
-696
10832
-4464
-6476
-6732
1024
-5812
-9764
15160
3932
4116
960
5676
-5868
-5904
-956
-8904
13744
-2852
5428
-8016
-10824
10668
-4320
3044
2676
10780
-2220
-4740
10444
-7156
-7324
-11964
7768
-10548
-13556
32764
10776
-24
-4972
-3420
-12280
-8600
15884
-1276
-1956
-1956
1104
-6968
-3448
12644
68
6812
2844
-9464
-1988
4768
3948
-6708
-8100
-6160
4984
-4040
5440
19560
-808
-3712
-5840
2532
-10448
-468
13448
-2604
-18368
-6252
22780
-6536
1408
11556
-2036
508
-2388
5000
-16276
-7312
7704
-4344
2160
3888
11456
-5836
7176
272
-17220
13308
-500
732
-14304
-7428
8120
-2064
7404
8776
11300
-11532
-1924
3604
-10096
-3248
-3320
10516
-13668
-9512
22936
8528
1316
1992
-1712
-17476
956
5708
-1600
-1692
-7136
2604
-9040
8808
17432
5236
3404
-88
-18424
-19436
11360
1816
-376
136
2220
7960
-8304
11212
6312
-5768
-3620
-2888
-232
-17932
8980
10736
5580
-8088
-8764
12712
-13964
7028
7276
1132
4216
2200
-252
-21072
492
-652
-3488
5568
8388
11016
-8952
7660
-5952
-18128
11244
12444
928
-18468
1020
1448
-3332
9240
10992
-1776
-18904
804
-2624
752
9688
15804
11728
-14252
-19400
-8508
4320
-2604
11036
1068
-5048
13948
-2192
776
-4376
4996
-3464
-12772
9376
-5712
-688
1024
15304
-8268
-12976
24376
-9560
-10640
-7300
5740
7460
5576
20820
-8224
-13124
-13456
-2840
-4560
-4784
22652
8536
7960
-12468
-12032
5364
-2784
14076
-920
-6252
-9304
-552
-3868
3512
19960
-5860
-3352
-8644
-3252
-2896
3868
28420
2664
-18932
-6216
2588
-14364
-5868
13372
2812
6952
3552
5784
-10252
-8248
9168
-5260
1228
-1168
4300
-6944
3456
-768
-5188
15236
-6852
-336
-14280
-3324
17192
8548
10756
-3304
-3972
-23396
-11660
7556
-108
12432
10492
15796
-24080
-18016
21128
1240
4812
-48
-1768
-20364
-5304
11832
4164
12544
224
408
-19572
-7728
8192
1580
16340
9236
-6400
-11976
-3272
-2372
-4720
-1632
5100
11252
-6936
5156
5800
-7328
-1752
1028
5296
-11268
2200
5760
60
-11144
1952
16164
-16476
2788
1696
-4980
3508
11020
13156
-12692
-1312
-6568
-12900
-3804
4200
10976
-2420
19420
-6436
-17996
10452
3336
3416
-10532
3936
-700
-7696
-4004
7548
10640
-10804
8220
-1736
-10568
-3048
7448
13736
-1280
-4816
1688
-1228
-12020
320
-3752
-9024
17804
11264
-104
-3320
-1160
-4764
-12160
13808
3492
-3652
-1564
8412
-13764
-19272
24596
996
-892
-748
2640
3072
-3908
13068
-5336
-8216
-8088
-2568
-5160
-7660
24116
10016
6132
-5764
-18340
640
-836
13448
1136
-6528
-5784
1816
-3092
-6852
14096
-1392
-1044
-1380
7620
700
-3212
13824
-4896
-24068
-9032
15464
-6100
3680
20260
-1960
-3312
-5736
2968
-6388
-1400
10316
-6040
-4736
-7152
6652
-4544
10620
10344
-11100
11068
-6740
644
-12984
-7968
13532
-2188
1952
3200
9556
-11736
-2476
9744
-6408
-124
-1836
8372
-9328
-15640
17088
9992
-2316
-48
72
-15692
384
11672
-660
1524
-1972
1708
-13784
1632
10336
1264
4224
7132
-8360
-23292
15040
5376
-3540
-376
-2604
7288
-10268
8704
6312
-7616
-796
-1232
3708
-10128
6108
5504
2752
-2140
-16196
11924
-4408
4380
6952
-7384
-936
1584
4524
-10988
8324
1304
-6768
-1224
560
4516
-7708
14800
10356
-18480
-6792
10228
-3708
-12108
8424
4248
1504
1460
4072
52
-13904
6912
1080
-2684
-952
5532
804
-6476
1068
-11116
13512
5132
4532
-3220
-19340
10848
444
1972
1864
2260
-6780
-13140
12040
1724
3988
3416
8972
-4452
-29596
10412
7372
-1708
2688
4932
-6844
-6544
14888
-2420
2192
-5580
2168
-8708
-9072
14168
1992
4260
5920
-6872
-19236
8248
12620
-1784
-3396
-7132
7508
-6136
136
14316
-5552
-4836
-3040
5028
-7996
548
13384
2192
-2072
-19676
10204
-1268
-3880
13040
-4796
532
-564
6460
-8936
-1708
6604
-7496
-2252
752
7216
-5872
7732
17788
-20192
-9440
10608
-2072
-11592
1440
10544
-880
2612
4788
6332
-12112
-3604
1248
-7384
-176
4540
9656
-4536
1036
-5260
7052
4336
-4316
960
-19312
4924
7220
1956
5052
2224
1760
-16452
3852
3676
-2468
2036
5104
8140
-26884
5784
17040
-5344
-140
-1816
-2624
-14024
11792
9040
608
896
756
-4892
-16716
6876
2692
1356
9756
3636
-14164
-3172
15424
-2748
-2648
-6712
-984
-2864
-6344
15972
3852
44
-2292
1828
-1684
-8932
9388
-736
-1232
-20416
-1536
14432
360
21408
1928
-5544
-7636
-1300
-10404
-12700
10456
704
2720
4344
10308
-2500
-7136
15480
-7732
-18696
5704
8144
-7288
-4424
9028
1952
1320
488
1828
-11312
-9616
9052
4540
12372
5828
3088
-14860
-10568
-11220
-10208
19628
8100
14244
-7924
-7252
5580
-5696
2932
1984
5212
-14120
-7584
5672
-3356
5436
8788
16868
-13488
-17144
10520
-5816
-4632
2788
6452
-3640
10624
9984
-7700
-4256
-6792
-1248
-19172
3696
15800
5792
8752
6516
-13196
-23252
19680
6652
-1128
-4644
-8928
-324
-12144
17132
12244
1480
-2856
-10032
-7056
-15848
15124
14484
13768
4100
-22316
-2104
-10084
1748
2812
-2420
3584
8860
5440
-11940
7292
-752
-1724
608
3952
-3068
-15092
5144
4036
-4580
-2072
24300
1816
-19104
340
-10336
-2000
6152
17488
9356
-9820
744
-11828
-7920
-4276
6680
1752
2408
18140
-18240
2316
6632
784
-468
-9372
6232
-6600
-2908
-460
10140
-3700
-3272
15196
-3112
-6324
-8400
-1728
-680
-5148
11704
23176
2296
-8708
-3600
-24360
-13104
9284
5044
16132
10220
2700
-14656
-8900
7008
1324
6224
924
716
-32212
-1652
25616
3448
9420
-592
-2080
-21948
-6480
8964
2000
9288
8076
7620
-15552
-5704
2436
-7280
6192
-7772
-3440
9936
7736
5100
-4708
-5768
1420
4308
-9328
2500
2132
-2808
-1552
3472
4308
-14808
4360
7316
1504
-12432
13032
21572
-16616
1984
-11776
-14040
-2384
3144
12776
1940
11684
344
-7008
-5800
1684
4456
-11324
13148
-8844
-18668
13988
9712
3628
-3220
8476
-5400
-10572
-4292
-3480
1308
-1180
19944
8660
-1588
-6192
-3016
-7672
-13040
-10228
3692
25616
3880
10368
-9040
-18100
8360
1404
800
-612
3688
-12708
-7656
15456
1236
3312
-2072
6552
-19396
-18552
28640
10884
7280
724
-6012
-23216
-11772
9984
-144
9536
9152
8112
-13548
-4860
7100
-4020
7184
400
-12268
-10460
14168
6580
-420
1100
-5732
-452
-16336
2444
12984
6264
11300
4296
-3512
-24192
-6308
5036
-872
-7752
8088
24792
-11600
3580
1824
-10400
912
1656
1204
-12972
4376
4500
-824
3776
2828
2484
-15248
8576
-3080
-17328
17732
19044
4764
-12928
-5624
-10812
-6344
-1464
6260
14020
-4884
8796
212
-5788
-5428
3360
3504
-6716
-2884
440
9888
-4292
4008
-7888
-13076
11636
1744
4472
6056
8940
-4972
-13764
484
-7256
-2052
-1972
19324
-5820
-17040
25920
1040
-3940
-2208
336
-7976
-4652
10460
-3140
-3588
-4976
4964
-3876
3700
16216
-1000
4316
-2176
-18444
-12564
5368
7132
1896
5512
3524
2700
-10168
1616
7456
-5104
-2700
-3140
2752
-11060
4724
13200
5964
-11156
-7876
18304
-13756
1064
5200
-7744
-540
700
6352
-9024
6900
6676
-3412
-548
-892
3376
-14692
9464
1716
-18464
12020
11180
3044
-7156
2360
-3332
-6832
-276
1392
2952
-7692
10048
5896
1016
-728
-832
-4484
-11632
-5536
2496
16356
784
5624
-4236
-14484
9052
988
1232
-176
1352
-6524
-11420
11536
2572
3620
1320
8944
-15680
-21956
25196
5052
1536
-1592
-3512
-12232
-8988
14020
2728
9188
5332
1876
-13464
-11192
5212
-4176
9600
2456
-10720
-1028
9304
8128
-20
-3676
-5208
2840
-11140
-1284
9552
-2188
1620
1668
7524
-11492
-252
8476
1204
-11888
-7104
21076
-11156
2816
4508
-10420
-688
2424
9344
-4484
6676
1108
-8992
-5596
-2128
6424
-8148
14264
5428
-18368
6788
5996
756
-8424
3348
3916
-6116
-2396
4440
2580
-11000
8968
3696
-3876
-1448
3300
2576
-6716
-3472
1776
9696
-4620
-228
-7212
-7708
14076
4376
5012
688
-2804
-10216
-13472
8200
2888
4744
2596
11896
-11940
-22232
23940
2652
-868
-1320
-3080
-8156
-6612
11812
700
4800
-556
3504
-7264
-8076
8652
472
5380
3012
-13156
-10676
9616
5340
-588
1672
856
5840
-5552
-48
1996
-8348
-3548
960
7216
-8860
5324
11692
1112
-3200
-17188
11264
-3724
276
7836
-6900
-1572
-348
7208
-6672
6460
292
-2828
-3776
-228
6900
-11172
9548
9632
-16080
-9236
16072
-1548
-4912
10216
-3596
-112
-1284
-344
-1628
-7896
7168
-476
384
1444
4996
-604
-7716
14284
-17712
-1984
11948
-6184
1932
-1156
5800
-1200
964
-1976
1368
-4180
-7240
6176
360
1936
2792
5388
-4168
-6840
-5412
5988
5084
-2504
3920
-6360
1992
396
84
1620
-988
1300
-8128
576
5512
-216
3456
1740
4036
-14348
468
9512
-13376
1652
2644
2608
7224
5884
-2500
-5628
-3764
-4404
-1488
-5136
6184
8604
-2360
3272
2736
-12832
6868
11596
-7952
-500
-7344
-7728
-404
-424
5568
9024
8068
2512
-1928
-3840
-8216
-3628
-5840
1180
-1956
2220
15764
-4040
3948
1232
-4856
-708
-3972
-2024
-780
3740
1488
424
-2820
-5056
-1540
3416
4632
2976
5932
2424
-1752
-7724
-7048
-6828
3636
7396
-7444
9688
1064
-2036
4924
-736
1508
-4344
-2748
-3268
-3664
3996
4408
120
3208
1796
-2452
-1088
-4900
-4188
548
-3104
2464
8672
13380
3172
-7744
-12840
-4544
8292
-18396
4092
13112
-2188
5644
956
1856
-944
-1944
-2916
-3300
-728
2232
-604
292
3468
-96
-4224
3572
2292
-11924
-1628
6100
5536
6932
3796
200
-14468
2564
-1760
-15384
7848
4428
1984
5820
3768
-5448
-1052
2524
-2432
-16
-64
1664
-2212
-3240
-2944
1144
-6152
9228
28204
-9148
-29104
-5532
-2500
9324
11860
26272
25500
-32768
14728
32764
-32768
11196
21604
-3612
4436
-22808
-4800
32764
-26956
-16828
25932
-19340
-8928
872
2080
5476
7112
3080
-4428
-1396
-4336
-3500
2228
32
-520
1132
8324
4400
-908
-3456
-4864
-4952
-5736
236
2720
5964
4492
832
-500
-2196
604
-428
672
-4664
-576
16084
-10268
-16336
4656
8724
-3588
-3448
180
7412
32764
-32768
-27020
32764
-32404
-29920
-6996
-29968
32764
1680
-32768
22880
15436
-7484
7356
-788
-4700
640
-4040
-180
-692
544
1108
80
-3556
-17908
32764
19216
-32768
-8656
17164
11660
-9924
-28420
32764
32764
-32768
7712
-7116
2936
32764
-32768
-22688
32764
-18232
10376
32764
-32768
-12576
32764
-7216
3732
-24532
-6092
30524
-9724
-11080
13556
5520
-10872
-5748
-8008
-204
17968
13356
26104
-23296
-32768
32764
7344
-9196
27488
-20988
3896
4424
-6880
-756
3092
6608
3736
-5976
-15912
12456
9516
-12112
-5060
8720
1652
-8384
-7124
6532
26188
-32768
-1040
32764
-21304
-24236
16068
-32768
-14536
32764
-14724
-32768
27612
4688
-5536
5160
-1596
1676
1876
968
-3976
-6476
-3156
-5632
-7100
16320
32764
-28708
-32768
32764
32764
-32768
8792
-32768
-11088
32764
-32768
-32768
32764
15944
10788
31460
-32768
-20
32764
-29784
-13072
7672
-2992
-24064
32764
26536
-32768
7296
13268
880
4584
26128
-11356
-32768
32764
-4092
-23432
1132
-1504
5564
1792
5760
-1344
3092
-608
4904
-5836
-23048
32764
12196
-32768
-10560
22260
-2852
29880
29148
-32768
15596
32764
-32768
-19708
5832
-28720
22468
32764
-32768
-18604
30844
-252
2220
-3176
-7476
-6748
-1848
892
2916
6512
5072
1788
-1408
-3016
-3344
-3704
-2316
2732
1072
436
1976
-32
-80
576
1124
1080
-640
-680
-2492
-3316
-256
176
2296
3080
2768
1580
-692
-860
-3384
-5512
-5104
3212
2068
-312
6872
7484
3496
-3488
-4724
-6084
-5912
-2716
840
4712
3612
2992
1948
1880
-928
-1816
-1208
-3540
-2044
-692
-440
2104
4732
1896
-1288
-1656
-388
-1992
-1620
3344
804
-1100
500
-664
-1940
-644
1592
568
2736
2008
-1372
-1780
-2924
-1356
120
972
1852
1016
316
776
1364
536
-1536
-3816
-4384
-20
-1296
2544
8188
4604
3432
-3580
-6572
-3884
-4324
-2236
2712
4500
2052
2236
2412
-464
-1164
-672
-1688
-2260
-1588
-1320
144
1240
4376
2772
-1668
536
-1788
-2384
-664
-584
2268
1200
-224
-324
-2896
-1348
2056
1764
2756
1620
-1576
-2628
-2340
-548
184
1632
584
-476
532
60
864
2364
-228
1240
748
-10068
-6896
2648
4828
5908
5284
4644
-1244
-4332
-4500
-6728
-5220
1172
5236
3288
3260
1272
-2616
1224
1372
200
1296
-2320
680
-13644
7548
4520
-11576
10856
-10928
4144
10824
-2368
21000
-22980
-8724
27208
-19384
-11260
-1732
1248
7468
5968
3640
-460
-564
-120
276
-1464
-1620
-20896
23556
27320
-32768
-21344
6580
14760
-304
32764
-13184
-32768
32764
32764
-32768
4324
-32768
8964
32764
-32768
-32768
32764
1200
-956
12180
-2780
-896
-5412
-3912
-8704
-2340
20412
-6176
-24372
16016
28080
-13148
-3688
-900
616
-21624
-17912
32764
-10172
-32768
29404
14812
-6860
3956
-1200
-1684
-1476
6792
-7668
-14824
6684
14932
1180
-2688
-316
-5480
-3444
-1560
3632
5092
2596
348
1124
-9464
-7420
20300
-13196
-13632
13668
2452
4772
4384
3508
-5116
-5688
-1768
-6352
448
-404
1784
4896
-5928
8212
13224
-8132
-7896
3128
-2544
-2380
868
-624
2440
-1220
-668
1768
-1376
-928
2168
1076
-3928
-1600
7092
9392
1760
-5960
-8856
-7048
-5452
1840
7980
6156
2884
176
-3508
-3868
2000
1968
2680
840
-2540
-3132
-4900
140
5564
-1960
-2480
2560
-4336
756
5392
5608
4340
-608
-1724
-10296
-2532
-3212
-876
4524
1580
4732
-4
940
436
-4496
-520
11408
5220
-22880

vt# 
