
[2019-09-24 13:53:28.117] uart_init
[2019-09-24 13:53:28.127] SW Version : V1.0 03e02962@(2019/06/08 10:29:59)
[2019-09-24 13:53:28.127] Start Time : 0.0 sec
[2019-09-24 13:53:28.127] dcu_restore_nvram
[2019-09-24 13:53:28.137] nv1(1) 0xbe125885 0xbe125885
[2019-09-24 13:53:28.137] nv2(1) 0xbe125885 0xbe125885
[2019-09-24 13:53:28.137] load nvram from 0x08008000 to 0x2004c000 (0x3034)
[2019-09-24 13:53:28.147] SPI1 HAL_SPI_MspInit
[2019-09-24 13:53:28.147] 
[2019-09-24 13:53:28.147] vt# 
[2019-09-24 13:53:28.147] task_init: system init
[2019-09-24 13:53:28.157] task_init WHITE LIST: ON
[2019-09-24 13:53:28.157] task_init BLACK LIST: OFF
[2019-09-24 13:53:28.157] uart_init
[2019-09-24 13:53:28.157] SW Version : V1.0 03e02962@(2019/06/08 10:29:59)
[2019-09-24 13:53:28.167] Start Time : 0.8 sec
[2019-09-24 13:53:28.167] vtsdk_calloc 0x10003158(35840)
[2019-09-24 13:53:28.197] cs:0xbe125885 nv1:0x08008000 nv2:0x0800c000 (0x3034)
[2019-09-24 13:53:29.007] vtsdk_calloc 0x1000beb0(300)
[2019-09-24 13:53:29.007] vtsdk_calloc 0x1000bfe8(6)
[2019-09-24 13:53:29.017] vtsdk_calloc 0x1000bff8(4)
[2019-09-24 13:53:29.017] vtsdk_calloc 0x1000c008(20)
[2019-09-24 13:53:29.017] vtsdk_calloc 0x1000c028(300)
[2019-09-24 13:53:29.017] vtsdk_calloc 0x1000c240(255)
[2019-09-24 13:53:29.027] vtsdk_calloc 0x1000c348(25)
[2019-09-24 13:53:29.027] 
[2019-09-24 13:53:29.027] task_init: 1376.2 rule 2013
[2019-09-24 13:53:31.597] spi 0 start
[2019-09-24 13:53:31.797] ack 0
[2019-09-24 13:53:33.547] fn_set_magpie_dcu_panid (39f7):
[2019-09-24 13:53:33.547] assign_magpie_panid 0 38 f7
[2019-09-24 13:53:33.547] first task Tmr Svc (priority 2) size 28
[2019-09-24 13:53:33.567] vtsdk_calloc 0x1000d250(56)
[2019-09-24 13:53:33.567] FnLocalModuleMode [03H-F10]
[2019-09-24 13:53:33.567] 68 38 00 c1 00 00 00 00 00 00 03 02 01 d1 3f 01 
[2019-09-24 13:53:33.577]       01 ee e6 3c b0 04 2c 01 c8 00 ff 36 10 00 35 00 
[2019-09-24 13:53:33.577]       00 00 04 7b 00 13 01 01 13 09 18 54 56 31 52 08 
[2019-09-24 13:53:33.577]       06 19 11 55 80 25 33 16 
[2019-09-24 13:53:33.577] _vtsdk_send: UART pbuf=0x1000d250, len=56
[2019-09-24 13:53:33.637] FnLocalModuleMode (0) send(56):
[2019-09-24 13:53:33.647] 68 38 00 c1 00 00 00 00 00 00 03 02 01 d1 3f 01 
[2019-09-24 13:53:33.647]       01 ee e6 3c b0 04 2c 01 c8 00 ff 36 10 00 35 00 
[2019-09-24 13:53:33.657]       00 00 04 7b 00 13 01 01 13 09 18 54 56 31 52 08 
[2019-09-24 13:53:33.657]       06 19 11 55 80 25 33 16 
[2019-09-24 13:53:33.667] vtsdk_free 0x1000d250
[2019-09-24 13:53:39.017] holleyTimer_cb Allow msgupload!!!
[2019-09-24 13:54:29.650] add task spi5r (priority 3) size 28
[2019-09-24 13:54:29.870] vtmsg: slow down... level is 1 (busy_index=12)
[2019-09-24 13:55:03.883] vtmsg: slow down... level is 1 (busy_index=6)
[2019-09-24 13:55:35.497] vtmsg: slow down... level is 1 (busy_index=6)
[2019-09-24 13:56:30.147] check white list from spi 0
[2019-09-24 13:57:10.699] vtmsg: slow down... level is 1 (busy_index=6)
[2019-09-24 13:57:13.499] vtmsg: slow down... level is 1 (busy_index=6)
[2019-09-24 13:57:13.909] vtmsg: slow down... level is 2 (busy_index=6)
[2019-09-24 13:57:17.119] vtmsg: slow down... level is 3 (busy_index=8)
[2019-09-24 13:58:07.029] 
[2019-09-24 13:58:07.029] vt# 
[2019-09-24 13:58:07.319] vt# vtmsg: slow down... level is 1 (busy_index=6)
[2019-09-24 13:58:52.721] vtmsg: slow down... level is 1 (busy_index=6)
[2019-09-24 13:59:25.112] vtmsg: slow down... level is 1 (busy_index=6)
[2019-09-24 14:00:30.320] vtmsg: slow down... level is 1 (busy_index=6)
[2019-09-24 14:01:02.322] vtmsg: slow down... level is 1 (busy_index=6)
[2019-09-24 14:02:40.722] vtmsg: slow down... level is 1 (busy_index=6)
[2019-09-24 14:05:21.938] vtmsg: slow down... level is 1 (busy_index=6)
[2019-09-24 14:06:05.159] 
[2019-09-24 14:06:05.159] vt# 
[2019-09-24 14:06:05.377] vt# check white list from spi 0
[2019-09-24 14:09:02.330] vtmsg: slow down... level is 1 (busy_index=6)
[2019-09-24 14:09:20.650] s2e
[2019-09-24 14:09:21.970] 
[2019-09-24 14:09:21.970] black list OFF
[2019-09-24 14:09:21.980] white list ON
[2019-09-24 14:09:21.980]                   EUI64                       | Joined | spi_id/pdc | short addr
[2019-09-24 14:09:21.980] ===========================================================================
[2019-09-24 14:09:21.990] [000]:0x10 0x48 0x09 0xFF 0xFE 0x02 0x00 0x00 |    X                          (         0,          0,          0)
[2019-09-24 14:09:22.000] [001]:0x12 0x48 0x09 0xFF 0xFE 0x02 0x00 0x00 |    X                          (         0,          0,          0)
[2019-09-24 14:09:22.010] [002]:0x23 0x26 0x12 0xFF 0xFE 0x02 0x00 0x00 |    X                          (         0,          0,          0)
[2019-09-24 14:09:22.020] [003]:0x61 0x26 0x12 0xFF 0xFE 0x02 0x00 0x00 |    X                          (         0,          0,          0)
[2019-09-24 14:09:22.030] [004]:0x62 0x26 0x12 0xFF 0xFE 0x02 0x00 0x00 |    X                          (         0,          0,          0)
[2019-09-24 14:09:22.040] [005]:0x63 0x26 0x12 0xFF 0xFE 0x02 0x00 0x00 |    X                          (         0,          0,          0)
[2019-09-24 14:09:22.050] [006]:0x64 0x26 0x12 0xFF 0xFE 0x02 0x00 0x00 |    X                          (         0,          0,          0)
[2019-09-24 14:09:22.060] [007]:0x66 0x26 0x12 0xFF 0xFE 0x02 0x00 0x00 |    X                          (         0,          0,          0)
[2019-09-24 14:09:22.070] [008]:0x67 0x26 0x12 0xFF 0xFE 0x02 0x00 0x00 |    X                          (         0,          0,          0)
[2019-09-24 14:09:22.080] [009]:0x68 0x26 0x12 0xFF 0xFE 0x02 0x00 0x00 |    X                          (         0,          0,          0)
[2019-09-24 14:09:22.090] [010]:0x70 0x26 0x12 0xFF 0xFE 0x02 0x00 0x00 |    X                          (         0,          0,          0)
[2019-09-24 14:09:22.100] [011]:0x72 0x26 0x12 0xFF 0xFE 0x02 0x00 0x00 |    X                          (         0,          0,          0)
[2019-09-24 14:09:22.110] [012]:0x74 0x26 0x12 0xFF 0xFE 0x02 0x00 0x00 |    X                          (         0,          0,          0)
[2019-09-24 14:09:22.120] [013]:0x75 0x26 0x12 0xFF 0xFE 0x02 0x00 0x00 |    X                          (         0,          0,          0)
[2019-09-24 14:09:22.130] [014]:0x76 0x26 0x12 0xFF 0xFE 0x02 0x00 0x00 |    X                          (         0,          0,          0)
[2019-09-24 14:09:22.140] [015]:0x23 0x27 0x12 0xFF 0xFE 0x02 0x00 0x00 |    X                          (         0,          0,          0)
[2019-09-24 14:09:22.150] [016]:0x24 0x27 0x12 0xFF 0xFE 0x02 0x00 0x00 |    X                          (         0,          0,          0)
[2019-09-24 14:09:22.160] [017]:0x25 0x27 0x12 0xFF 0xFE 0x02 0x00 0x00 |    X                          (         0,          0,          0)
[2019-09-24 14:09:22.170] [018]:0x26 0x27 0x12 0xFF 0xFE 0x02 0x00 0x00 |    X                          (         0,          0,          0)
[2019-09-24 14:09:22.180] [019]:0x27 0x27 0x12 0xFF 0xFE 0x02 0x00 0x00 |    X                          (         0,          0,          0)
[2019-09-24 14:09:22.190] [020]:0x28 0x27 0x12 0xFF 0xFE 0x02 0x00 0x00 |    X                          (         0,          0,          0)
[2019-09-24 14:09:22.200] [021]:0x29 0x27 0x12 0xFF 0xFE 0x02 0x00 0x00 |    X                          (         0,          0,          0)
[2019-09-24 14:09:22.210] [022]:0x30 0x27 0x12 0xFF 0xFE 0x02 0x00 0x00 |    X                          (         0,          0,          0)
[2019-09-24 14:09:22.220] [023]:0x31 0x27 0x12 0xFF 0xFE 0x02 0x00 0x00 |    X                          (         0,          0,          0)
[2019-09-24 14:09:22.230] [024]:0x32 0x27 0x12 0xFF 0xFE 0x02 0x00 0x00 |    X                          (         0,          0,          0)
[2019-09-24 14:09:22.240] [025]:0x34 0x27 0x12 0xFF 0xFE 0x02 0x00 0x00 |    X                          (         0,          0,          0)
[2019-09-24 14:09:22.250] [026]:0x35 0x27 0x12 0xFF 0xFE 0x02 0x00 0x00 |    X                          (         0,          0,          0)
[2019-09-24 14:09:22.260] [027]:0x83 0x32 0x12 0xFF 0xFE 0x02 0x00 0x00 |    X                          (         0,          0,          0)
[2019-09-24 14:09:22.270] [028]:0x84 0x32 0x12 0xFF 0xFE 0x02 0x00 0x00 |    X                          (         0,          0,          0)
[2019-09-24 14:09:22.280] [029]:0x02 0x92 0x12 0xFF 0xFE 0x02 0x00 0x00 |    X                          (         0,          0,          0)
[2019-09-24 14:09:22.290] [030]:0x04 0x92 0x12 0xFF 0xFE 0x02 0x00 0x00 |    X                          (         0,          0,          0)
[2019-09-24 14:09:22.300] [031]:0x16 0x96 0x12 0xFF 0xFE 0x02 0x00 0x00 |    X                          (         0,          0,          0)
[2019-09-24 14:09:22.310] [032]:0x17 0x96 0x12 0xFF 0xFE 0x02 0x00 0x00 |    X                          (         0,          0,          0)
[2019-09-24 14:09:22.320] [033]:0x69 0x45 0x19 0xFF 0xFE 0x02 0x00 0x00 |    X                          (         0,          0,          0)
[2019-09-24 14:09:22.330] [034]:0x70 0x45 0x19 0xFF 0xFE 0x02 0x00 0x00 |    X                          (         0,          0,          0)
[2019-09-24 14:09:22.340] [035]:0x71 0x45 0x19 0xFF 0xFE 0x02 0x00 0x00 |    X                          (         0,          0,          0)
[2019-09-24 14:09:22.350] [036]:0x01 0x93 0x19 0xFF 0xFE 0x02 0x00 0x00 |    X                          (         0,          0,          0)
[2019-09-24 14:09:22.360] [037]:0x02 0x93 0x19 0xFF 0xFE 0x02 0x00 0x00 |    X                          (         0,          0,          0)
[2019-09-24 14:09:22.370] [038]:0x04 0x93 0x19 0xFF 0xFE 0x02 0x00 0x00 |    X                          (         0,          0,          0)
[2019-09-24 14:09:22.380] [039]:0x05 0x93 0x19 0xFF 0xFE 0x02 0x00 0x00 |    X                          (         0,          0,          0)
[2019-09-24 14:09:22.390] [040]:0x06 0x93 0x19 0xFF 0xFE 0x02 0x00 0x00 |    X                          (         0,          0,          0)
[2019-09-24 14:09:22.400] [041]:0x07 0x93 0x19 0xFF 0xFE 0x02 0x00 0x00 |    X                          (         0,          0,          0)
[2019-09-24 14:09:22.410] [042]:0x08 0x93 0x19 0xFF 0xFE 0x02 0x00 0x00 |    X                          (         0,          0,          0)
[2019-09-24 14:09:22.420] [043]:0x11 0x93 0x19 0xFF 0xFE 0x02 0x00 0x00 |    X                          (         0,          0,          0)
[2019-09-24 14:09:22.430] [044]:0x21 0x66 0x09 0xFF 0xFE 0x02 0x00 0x00 |    X                          (         0,          0,          0)
[2019-09-24 14:09:22.440] [045]:0x13 0x99 0x09 0xFF 0xFE 0x02 0x00 0x00 |    X                          (         0,          0,          0)
[2019-09-24 14:09:22.450] [046]:0x14 0x99 0x09 0xFF 0xFE 0x02 0x00 0x00 |    X                          (         0,          0,          0)
[2019-09-24 14:09:22.460] [047]:0x15 0x99 0x09 0xFF 0xFE 0x02 0x00 0x00 |    X                          (         0,          0,          0)
[2019-09-24 14:09:22.470] [048]:0x16 0x99 0x09 0xFF 0xFE 0x02 0x00 0x00 |    X                          (         0,          0,          0)
[2019-09-24 14:09:22.480] [049]:0x17 0x99 0x09 0xFF 0xFE 0x02 0x00 0x00 |    X                          (         0,          0,          0)
[2019-09-24 14:09:22.490] [050]:0x18 0x99 0x09 0xFF 0xFE 0x02 0x00 0x00 |    X                          (         0,          0,          0)
[2019-09-24 14:09:22.500] [051]:0x19 0x99 0x09 0xFF 0xFE 0x02 0x00 0x00 |    X                          (         0,          0,          0)
[2019-09-24 14:09:22.520] [052]:0x20 0x99 0x09 0xFF 0xFE 0x02 0x00 0x00 |    X                          (         0,          0,          0)
[2019-09-24 14:09:22.530] [053]:0x21 0x99 0x09 0xFF 0xFE 0x02 0x00 0x00 |    X                          (         0,          0,          0)
[2019-09-24 14:09:22.540] [054]:0x22 0x99 0x09 0xFF 0xFE 0x02 0x00 0x00 |    X                          (         0,          0,          0)
[2019-09-24 14:09:22.550] [055]:0x23 0x99 0x09 0xFF 0xFE 0x02 0x00 0x00 |    X                          (         0,          0,          0)
[2019-09-24 14:09:22.560] [056]:0x24 0x99 0x09 0xFF 0xFE 0x02 0x00 0x00 |    X                          (         0,          0,          0)
[2019-09-24 14:09:22.570] [057]:0x37 0x99 0x09 0xFF 0xFE 0x02 0x00 0x00 |    X                          (         0,          0,          0)
[2019-09-24 14:09:22.580] [058]:0x38 0x99 0x09 0xFF 0xFE 0x02 0x00 0x00 |    X                          (         0,          0,          0)
[2019-09-24 14:09:22.590] [059]:0x39 0x99 0x09 0xFF 0xFE 0x02 0x00 0x00 |    X                          (         0,          0,          0)
[2019-09-24 14:09:22.600] [060]:0x40 0x99 0x09 0xFF 0xFE 0x02 0x00 0x00 |    X                          (         0,          0,          0)
[2019-09-24 14:09:22.610] [061]:0x41 0x99 0x09 0xFF 0xFE 0x02 0x00 0x00 |    X                          (         0,          0,          0)
[2019-09-24 14:09:22.620] [062]:0x42 0x99 0x09 0xFF 0xFE 0x02 0x00 0x00 |    X                          (         0,          0,          0)
[2019-09-24 14:09:22.630] [063]:0x43 0x99 0x09 0xFF 0xFE 0x02 0x00 0x00 |    X                          (         0,          0,          0)
[2019-09-24 14:09:22.640] [064]:0x44 0x99 0x09 0xFF 0xFE 0x02 0x00 0x00 |    X                          (         0,          0,          0)
[2019-09-24 14:09:22.650] [065]:0x45 0x99 0x09 0xFF 0xFE 0x02 0x00 0x00 |    X                          (         0,          0,          0)
[2019-09-24 14:09:22.660] [066]:0x46 0x99 0x09 0xFF 0xFE 0x02 0x00 0x00 |    X                          (         0,          0,          0)
[2019-09-24 14:09:22.670] [067]:0x47 0x99 0x09 0xFF 0xFE 0x02 0x00 0x00 |    X                          (         0,          0,          0)
[2019-09-24 14:09:22.680] [068]:0x48 0x99 0x09 0xFF 0xFE 0x02 0x00 0x00 |    X                          (         0,          0,          0)
[2019-09-24 14:09:22.690] [069]:0x15 0x08 0x10 0xFF 0xFE 0x02 0x00 0x00 |    X                          (         0,          0,          0)
[2019-09-24 14:09:22.700] [070]:0x16 0x08 0x10 0xFF 0xFE 0x02 0x00 0x00 |    X                          (         0,          0,          0)
[2019-09-24 14:09:22.710] [071]:0x17 0x08 0x10 0xFF 0xFE 0x02 0x00 0x00 |    X                          (         0,          0,          0)
[2019-09-24 14:09:22.720] [072]:0x18 0x08 0x10 0xFF 0xFE 0x02 0x00 0x00 |    X                          (         0,          0,          0)
[2019-09-24 14:09:22.730] [073]:0x19 0x08 0x10 0xFF 0xFE 0x02 0x00 0x00 |    X                          (         0,          0,          0)
[2019-09-24 14:09:22.740] [074]:0x20 0x08 0x10 0xFF 0xFE 0x02 0x00 0x00 |    X                          (         0,          0,          0)
[2019-09-24 14:09:22.750] [075]:0x21 0x08 0x10 0xFF 0xFE 0x02 0x00 0x00 |    X                          (         0,          0,          0)
[2019-09-24 14:09:22.760] [076]:0x22 0x08 0x10 0xFF 0xFE 0x02 0x00 0x00 |    X                          (         0,          0,          0)
[2019-09-24 14:09:22.770] [077]:0x23 0x08 0x10 0xFF 0xFE 0x02 0x00 0x00 |    X                          (         0,          0,          0)
[2019-09-24 14:09:22.780] [078]:0x24 0x08 0x10 0xFF 0xFE 0x02 0x00 0x00 |    X                          (         0,          0,          0)
[2019-09-24 14:09:22.790] [079]:0x25 0x08 0x10 0xFF 0xFE 0x02 0x00 0x00 |    X                          (         0,          0,          0)
[2019-09-24 14:09:22.800] [080]:0x26 0x08 0x10 0xFF 0xFE 0x02 0x00 0x00 |    X                          (         0,          0,          0)
[2019-09-24 14:09:22.810] [081]:0x35 0x09 0x10 0xFF 0xFE 0x02 0x00 0x00 |    X                          (         0,          0,          0)
[2019-09-24 14:09:22.820] [082]:0x36 0x09 0x10 0xFF 0xFE 0x02 0x00 0x00 |    X                          (         0,          0,          0)
[2019-09-24 14:09:22.830] [083]:0x37 0x09 0x10 0xFF 0xFE 0x02 0x00 0x00 |    X                          (         0,          0,          0)
[2019-09-24 14:09:22.850] [084]:0x38 0x09 0x10 0xFF 0xFE 0x02 0x00 0x00 |    X                          (         0,          0,          0)
[2019-09-24 14:09:22.850] [085]:0x39 0x09 0x10 0xFF 0xFE 0x02 0x00 0x00 |    X                          (         0,          0,          0)
[2019-09-24 14:09:22.860] [086]:0x40 0x09 0x10 0xFF 0xFE 0x02 0x00 0x00 |    X                          (         0,          0,          0)
[2019-09-24 14:09:22.870] [087]:0x41 0x09 0x10 0xFF 0xFE 0x02 0x00 0x00 |    X                          (         0,          0,          0)
[2019-09-24 14:09:22.880] [088]:0x42 0x09 0x10 0xFF 0xFE 0x02 0x00 0x00 |    X                          (         0,          0,          0)
[2019-09-24 14:09:22.890] [089]:0x44 0x09 0x10 0xFF 0xFE 0x02 0x00 0x00 |    X                          (         0,          0,          0)
[2019-09-24 14:09:22.900] [090]:0x45 0x09 0x10 0xFF 0xFE 0x02 0x00 0x00 |    X                          (         0,          0,          0)
[2019-09-24 14:09:22.910] [091]:0x54 0x10 0x10 0xFF 0xFE 0x02 0x00 0x00 |    X                          (         0,          0,          0)
[2019-09-24 14:09:22.920] [092]:0x55 0x10 0x10 0xFF 0xFE 0x02 0x00 0x00 |    X                          (         0,          0,          0)
[2019-09-24 14:09:22.930] [093]:0x57 0x10 0x10 0xFF 0xFE 0x02 0x00 0x00 |    X                          (         0,          0,          0)
[2019-09-24 14:09:22.950] [094]:0x58 0x10 0x10 0xFF 0xFE 0x02 0x00 0x00 |    X                          (         0,          0,          0)
[2019-09-24 14:09:22.960] [095]:0x32 0x30 0x11 0xFF 0xFE 0x02 0x00 0x00 |    X                          (         0,          0,          0)
[2019-09-24 14:09:22.970] [096]:0x36 0x30 0x11 0xFF 0xFE 0x02 0x00 0x00 |    X                          (         0,          0,          0)
[2019-09-24 14:09:22.980] [097]:0x37 0x30 0x11 0xFF 0xFE 0x02 0x00 0x00 |    X                          (         0,          0,          0)
[2019-09-24 14:09:22.990] [098]:0x41 0x30 0x11 0xFF 0xFE 0x02 0x00 0x00 |    X                          (         0,          0,          0)
[2019-09-24 14:09:22.990] [099]:0x33 0x21 0x12 0xFF 0xFE 0x02 0x00 0x00 |    X                          (         0,          0,          0)
[2019-09-24 14:09:23.010] [100]:0x34 0x21 0x12 0xFF 0xFE 0x02 0x00 0x00 |    X                          (         0,          0,          0)
[2019-09-24 14:09:23.020] [101]:0x35 0x21 0x12 0xFF 0xFE 0x02 0x00 0x00 |    X                          (         0,          0,          0)
[2019-09-24 14:09:23.030] [102]:0x37 0x21 0x12 0xFF 0xFE 0x02 0x00 0x00 |    X                          (         0,          0,          0)
[2019-09-24 14:09:23.040] [103]:0x39 0x21 0x12 0xFF 0xFE 0x02 0x00 0x00 |    X                          (         0,          0,          0)
[2019-09-24 14:09:23.050] [104]:0x40 0x21 0x12 0xFF 0xFE 0x02 0x00 0x00 |    X                          (         0,          0,          0)
[2019-09-24 14:09:23.060] [105]:0x41 0x21 0x12 0xFF 0xFE 0x02 0x00 0x00 |    X                          (         0,          0,          0)
[2019-09-24 14:09:23.070] [106]:0x45 0x21 0x12 0xFF 0xFE 0x02 0x00 0x00 |    X                          (         0,          0,          0)
[2019-09-24 14:09:23.080] [107]:0x46 0x21 0x12 0xFF 0xFE 0x02 0x00 0x00 |    X                          (         0,          0,          0)
[2019-09-24 14:09:23.090] [108]:0x47 0x21 0x12 0xFF 0xFE 0x02 0x00 0x00 |    X                          (         0,          0,          0)
[2019-09-24 14:09:23.100] [109]:0x48 0x21 0x12 0xFF 0xFE 0x02 0x00 0x00 |    X                          (         0,          0,          0)
[2019-09-24 14:09:23.110] [110]:0x50 0x21 0x12 0xFF 0xFE 0x02 0x00 0x00 |    X                          (         0,          0,          0)
[2019-09-24 14:09:23.120] [111]:0x45 0x23 0x12 0xFF 0xFE 0x02 0x00 0x00 |    X                          (         0,          0,          0)
[2019-09-24 14:09:23.130] [112]:0x46 0x23 0x12 0xFF 0xFE 0x02 0x00 0x00 |    X                          (         0,          0,          0)
[2019-09-24 14:09:23.140] [113]:0x11 0x26 0x12 0xFF 0xFE 0x02 0x00 0x00 |    X                          (         0,          0,          0)
[2019-09-24 14:09:23.150] [114]:0x13 0x26 0x12 0xFF 0xFE 0x02 0x00 0x00 |    X                          (         0,          0,          0)
[2019-09-24 14:09:23.160] [115]:0x14 0x26 0x12 0xFF 0xFE 0x02 0x00 0x00 |    X                          (         0,          0,          0)
[2019-09-24 14:09:23.170] [116]:0x15 0x26 0x12 0xFF 0xFE 0x02 0x00 0x00 |    X                          (         0,          0,          0)
[2019-09-24 14:09:23.180] [117]:0x16 0x26 0x12 0xFF 0xFE 0x02 0x00 0x00 |    X                          (         0,          0,          0)
[2019-09-24 14:09:23.190] [118]:0x18 0x26 0x12 0xFF 0xFE 0x02 0x00 0x00 |    X                          (         0,          0,          0)
[2019-09-24 14:09:23.200] [119]:0x19 0x26 0x12 0xFF 0xFE 0x02 0x00 0x00 |    X                          (         0,          0,          0)
[2019-09-24 14:09:23.210] [120]:0x20 0x26 0x12 0xFF 0xFE 0x02 0x00 0x00 |    X                          (         0,          0,          0)
[2019-09-24 14:09:23.220] [121]:0x21 0x26 0x12 0xFF 0xFE 0x02 0x00 0x00 |    X                          (         0,          0,          0)
[2019-09-24 14:09:23.230] [122]:0x54 0x00 0x00 0xFF 0xFE 0x43 0x43 0x43 |    X                          (         0,          0,          0)
[2019-09-24 14:09:23.240] Total 123 (Msg1 123, Msg3 0, Accept 0, ReJoin 0)
[2019-09-24 14:09:23.250] 
[2019-09-24 14:09:23.250] vt# s2e
[2019-09-24 14:09:26.810] 
[2019-09-24 14:09:26.810] black list OFF
[2019-09-24 14:09:26.810] white list ON
[2019-09-24 14:09:26.810]                   EUI64                       | Joined | spi_id/pdc | short addr
[2019-09-24 14:09:26.820] ===========================================================================
[2019-09-24 14:09:26.820] [000]:0x10 0x48 0x09 0xFF 0xFE 0x02 0x00 0x00 |    X                          (         0,          0,          0)
[2019-09-24 14:09:26.830] [001]:0x12 0x48 0x09 0xFF 0xFE 0x02 0x00 0x00 |    X                          (         0,          0,          0)
[2019-09-24 14:09:26.840] [002]:0x23 0x26 0x12 0xFF 0xFE 0x02 0x00 0x00 |    X                          (         0,          0,          0)
[2019-09-24 14:09:26.850] [003]:0x61 0x26 0x12 0xFF 0xFE 0x02 0x00 0x00 |    X                          (         0,          0,          0)
[2019-09-24 14:09:26.860] [004]:0x62 0x26 0x12 0xFF 0xFE 0x02 0x00 0x00 |    X                          (         0,          0,          0)
[2019-09-24 14:09:26.870] [005]:0x63 0x26 0x12 0xFF 0xFE 0x02 0x00 0x00 |    X                          (         0,          0,          0)
[2019-09-24 14:09:26.880] [006]:0x64 0x26 0x12 0xFF 0xFE 0x02 0x00 0x00 |    X                          (         0,          0,          0)
[2019-09-24 14:09:26.890] [007]:0x66 0x26 0x12 0xFF 0xFE 0x02 0x00 0x00 |    X                          (         0,          0,          0)
[2019-09-24 14:09:26.900] [008]:0x67 0x26 0x12 0xFF 0xFE 0x02 0x00 0x00 |    X                          (         0,          0,          0)
[2019-09-24 14:09:26.920] [009]:0x68 0x26 0x12 0xFF 0xFE 0x02 0x00 0x00 |    X                          (         0,          0,          0)
[2019-09-24 14:09:26.920] [010]:0x70 0x26 0x12 0xFF 0xFE 0x02 0x00 0x00 |    X                          (         0,          0,          0)
[2019-09-24 14:09:26.930] [011]:0x72 0x26 0x12 0xFF 0xFE 0x02 0x00 0x00 |    X                          (         0,          0,          0)
[2019-09-24 14:09:26.940] [012]:0x74 0x26 0x12 0xFF 0xFE 0x02 0x00 0x00 |    X                          (         0,          0,          0)
[2019-09-24 14:09:26.960] [013]:0x75 0x26 0x12 0xFF 0xFE 0x02 0x00 0x00 |    X                          (         0,          0,          0)
[2019-09-24 14:09:26.970] [014]:0x76 0x26 0x12 0xFF 0xFE 0x02 0x00 0x00 |    X                          (         0,          0,          0)
[2019-09-24 14:09:26.980] [015]:0x23 0x27 0x12 0xFF 0xFE 0x02 0x00 0x00 |    X                          (         0,          0,          0)
[2019-09-24 14:09:26.990] [016]:0x24 0x27 0x12 0xFF 0xFE 0x02 0x00 0x00 |    X                          (         0,          0,          0)
[2019-09-24 14:09:27.030] [017]:0x25 0x27 0x12 0xFF 0xFE 0x02 0x00 0x00 |    X                          (         0,          0,          0)
[2019-09-24 14:09:27.030] [018]:0x26 0x27 0x12 0xFF 0xFE 0x02 0x00 0x00 |    X                          (         0,          0,          0)
[2019-09-24 14:09:27.030] [019]:0x27 0x27 0x12 0xFF 0xFE 0x02 0x00 0x00 |    X                          (         0,          0,          0)
[2019-09-24 14:09:27.030] [020]:0x28 0x27 0x12 0xFF 0xFE 0x02 0x00 0x00 |    X                          (         0,          0,          0)
[2019-09-24 14:09:27.040] [021]:0x29 0x27 0x12 0xFF 0xFE 0x02 0x00 0x00 |    X                          (         0,          0,          0)
[2019-09-24 14:09:27.050] [022]:0x30 0x27 0x12 0xFF 0xFE 0x02 0x00 0x00 |    X                          (         0,          0,          0)
[2019-09-24 14:09:27.060] [023]:0x31 0x27 0x12 0xFF 0xFE 0x02 0x00 0x00 |    X                          (         0,          0,          0)
[2019-09-24 14:09:27.070] [024]:0x32 0x27 0x12 0xFF 0xFE 0x02 0x00 0x00 |    X                          (         0,          0,          0)
[2019-09-24 14:09:27.080] [025]:0x34 0x27 0x12 0xFF 0xFE 0x02 0x00 0x00 |    X                          (         0,          0,          0)
[2019-09-24 14:09:27.090] [026]:0x35 0x27 0x12 0xFF 0xFE 0x02 0x00 0x00 |    X                          (         0,          0,          0)
[2019-09-24 14:09:27.100] [027]:0x83 0x32 0x12 0xFF 0xFE 0x02 0x00 0x00 |    X                          (         0,          0,          0)
[2019-09-24 14:09:27.110] [028]:0x84 0x32 0x12 0xFF 0xFE 0x02 0x00 0x00 |    X                          (         0,          0,          0)
[2019-09-24 14:09:27.120] [029]:0x02 0x92 0x12 0xFF 0xFE 0x02 0x00 0x00 |    X                          (         0,          0,          0)
[2019-09-24 14:09:27.130] [030]:0x04 0x92 0x12 0xFF 0xFE 0x02 0x00 0x00 |    X                          (         0,          0,          0)
[2019-09-24 14:09:27.140] [031]:0x16 0x96 0x12 0xFF 0xFE 0x02 0x00 0x00 |    X                          (         0,          0,          0)
[2019-09-24 14:09:27.150] [032]:0x17 0x96 0x12 0xFF 0xFE 0x02 0x00 0x00 |    X                          (         0,          0,          0)
[2019-09-24 14:09:27.160] [033]:0x69 0x45 0x19 0xFF 0xFE 0x02 0x00 0x00 |    X                          (         0,          0,          0)
[2019-09-24 14:09:27.170] [034]:0x70 0x45 0x19 0xFF 0xFE 0x02 0x00 0x00 |    X                          (         0,          0,          0)
[2019-09-24 14:09:27.180] [035]:0x71 0x45 0x19 0xFF 0xFE 0x02 0x00 0x00 |    X                          (         0,          0,          0)
[2019-09-24 14:09:27.190] [036]:0x01 0x93 0x19 0xFF 0xFE 0x02 0x00 0x00 |    X                          (         0,          0,          0)
[2019-09-24 14:09:27.200] [037]:0x02 0x93 0x19 0xFF 0xFE 0x02 0x00 0x00 |    X                          (         0,          0,          0)
[2019-09-24 14:09:27.210] [038]:0x04 0x93 0x19 0xFF 0xFE 0x02 0x00 0x00 |    X                          (         0,          0,          0)
[2019-09-24 14:09:27.220] [039]:0x05 0x93 0x19 0xFF 0xFE 0x02 0x00 0x00 |    X                          (         0,          0,          0)
[2019-09-24 14:09:27.230] [040]:0x06 0x93 0x19 0xFF 0xFE 0x02 0x00 0x00 |    X                          (         0,          0,          0)
[2019-09-24 14:09:27.240] [041]:0x07 0x93 0x19 0xFF 0xFE 0x02 0x00 0x00 |    X                          (         0,          0,          0)
[2019-09-24 14:09:27.250] [042]:0x08 0x93 0x19 0xFF 0xFE 0x02 0x00 0x00 |    X                          (         0,          0,          0)
[2019-09-24 14:09:27.260] [043]:0x11 0x93 0x19 0xFF 0xFE 0x02 0x00 0x00 |    X                          (         0,          0,          0)
[2019-09-24 14:09:27.270] [044]:0x21 0x66 0x09 0xFF 0xFE 0x02 0x00 0x00 |    X                          (         0,          0,          0)
[2019-09-24 14:09:27.280] [045]:0x13 0x99 0x09 0xFF 0xFE 0x02 0x00 0x00 |    X                          (         0,          0,          0)
[2019-09-24 14:09:27.290] [046]:0x14 0x99 0x09 0xFF 0xFE 0x02 0x00 0x00 |    X                          (         0,          0,          0)
[2019-09-24 14:09:27.300] [047]:0x15 0x99 0x09 0xFF 0xFE 0x02 0x00 0x00 |    X                          (         0,          0,          0)
[2019-09-24 14:09:27.310] [048]:0x16 0x99 0x09 0xFF 0xFE 0x02 0x00 0x00 |    X                          (         0,          0,          0)
[2019-09-24 14:09:27.320] [049]:0x17 0x99 0x09 0xFF 0xFE 0x02 0x00 0x00 |    X                          (         0,          0,          0)
[2019-09-24 14:09:27.330] [050]:0x18 0x99 0x09 0xFF 0xFE 0x02 0x00 0x00 |    X                          (         0,          0,          0)
[2019-09-24 14:09:27.340] [051]:0x19 0x99 0x09 0xFF 0xFE 0x02 0x00 0x00 |    X                          (         0,          0,          0)
[2019-09-24 14:09:27.350] [052]:0x20 0x99 0x09 0xFF 0xFE 0x02 0x00 0x00 |    X                          (         0,          0,          0)
[2019-09-24 14:09:27.360] [053]:0x21 0x99 0x09 0xFF 0xFE 0x02 0x00 0x00 |    X                          (         0,          0,          0)
[2019-09-24 14:09:27.370] [054]:0x22 0x99 0x09 0xFF 0xFE 0x02 0x00 0x00 |    X                          (         0,          0,          0)
[2019-09-24 14:09:27.380] [055]:0x23 0x99 0x09 0xFF 0xFE 0x02 0x00 0x00 |    X                          (         0,          0,          0)
[2019-09-24 14:09:27.390] [056]:0x24 0x99 0x09 0xFF 0xFE 0x02 0x00 0x00 |    X                          (         0,          0,          0)
[2019-09-24 14:09:27.410] [057]:0x37 0x99 0x09 0xFF 0xFE 0x02 0x00 0x00 |    X                          (         0,          0,          0)
[2019-09-24 14:09:27.420] [058]:0x38 0x99 0x09 0xFF 0xFE 0x02 0x00 0x00 |    X                          (         0,          0,          0)
[2019-09-24 14:09:27.420] [059]:0x39 0x99 0x09 0xFF 0xFE 0x02 0x00 0x00 |    X                          (         0,          0,          0)
[2019-09-24 14:09:27.430] [060]:0x40 0x99 0x09 0xFF 0xFE 0x02 0x00 0x00 |    X                          (         0,          0,          0)
[2019-09-24 14:09:27.440] [061]:0x41 0x99 0x09 0xFF 0xFE 0x02 0x00 0x00 |    X                          (         0,          0,          0)
[2019-09-24 14:09:27.450] [062]:0x42 0x99 0x09 0xFF 0xFE 0x02 0x00 0x00 |    X                          (         0,          0,          0)
[2019-09-24 14:09:27.460] [063]:0x43 0x99 0x09 0xFF 0xFE 0x02 0x00 0x00 |    X                          (         0,          0,          0)
[2019-09-24 14:09:27.470] [064]:0x44 0x99 0x09 0xFF 0xFE 0x02 0x00 0x00 |    X                          (         0,          0,          0)
[2019-09-24 14:09:27.480] [065]:0x45 0x99 0x09 0xFF 0xFE 0x02 0x00 0x00 |    X                          (         0,          0,          0)
[2019-09-24 14:09:27.490] [066]:0x46 0x99 0x09 0xFF 0xFE 0x02 0x00 0x00 |    X                          (         0,          0,          0)
[2019-09-24 14:09:27.500] [067]:0x47 0x99 0x09 0xFF 0xFE 0x02 0x00 0x00 |    X                          (         0,          0,          0)
[2019-09-24 14:09:27.510] [068]:0x48 0x99 0x09 0xFF 0xFE 0x02 0x00 0x00 |    X                          (         0,          0,          0)
[2019-09-24 14:09:27.520] [069]:0x15 0x08 0x10 0xFF 0xFE 0x02 0x00 0x00 |    X                          (         0,          0,          0)
[2019-09-24 14:09:27.530] [070]:0x16 0x08 0x10 0xFF 0xFE 0x02 0x00 0x00 |    X                          (         0,          0,          0)
[2019-09-24 14:09:27.540] [071]:0x17 0x08 0x10 0xFF 0xFE 0x02 0x00 0x00 |    X                          (         0,          0,          0)
[2019-09-24 14:09:27.550] [072]:0x18 0x08 0x10 0xFF 0xFE 0x02 0x00 0x00 |    X                          (         0,          0,          0)
[2019-09-24 14:09:27.560] [073]:0x19 0x08 0x10 0xFF 0xFE 0x02 0x00 0x00 |    X                          (         0,          0,          0)
[2019-09-24 14:09:27.570] [074]:0x20 0x08 0x10 0xFF 0xFE 0x02 0x00 0x00 |    X                          (         0,          0,          0)
[2019-09-24 14:09:27.580] [075]:0x21 0x08 0x10 0xFF 0xFE 0x02 0x00 0x00 |    X                          (         0,          0,          0)
[2019-09-24 14:09:27.590] [076]:0x22 0x08 0x10 0xFF 0xFE 0x02 0x00 0x00 |    X                          (         0,          0,          0)
[2019-09-24 14:09:27.600] [077]:0x23 0x08 0x10 0xFF 0xFE 0x02 0x00 0x00 |    X                          (         0,          0,          0)
[2019-09-24 14:09:27.610] [078]:0x24 0x08 0x10 0xFF 0xFE 0x02 0x00 0x00 |    X                          (         0,          0,          0)
[2019-09-24 14:09:27.620] [079]:0x25 0x08 0x10 0xFF 0xFE 0x02 0x00 0x00 |    X                          (         0,          0,          0)
[2019-09-24 14:09:27.630] [080]:0x26 0x08 0x10 0xFF 0xFE 0x02 0x00 0x00 |    X                          (         0,          0,          0)
[2019-09-24 14:09:27.640] [081]:0x35 0x09 0x10 0xFF 0xFE 0x02 0x00 0x00 |    X                          (         0,          0,          0)
[2019-09-24 14:09:27.650] [082]:0x36 0x09 0x10 0xFF 0xFE 0x02 0x00 0x00 |    X                          (         0,          0,          0)
[2019-09-24 14:09:27.660] [083]:0x37 0x09 0x10 0xFF 0xFE 0x02 0x00 0x00 |    X                          (         0,          0,          0)
[2019-09-24 14:09:27.670] [084]:0x38 0x09 0x10 0xFF 0xFE 0x02 0x00 0x00 |    X                          (         0,          0,          0)
[2019-09-24 14:09:27.680] [085]:0x39 0x09 0x10 0xFF 0xFE 0x02 0x00 0x00 |    X                          (         0,          0,          0)
[2019-09-24 14:09:27.690] [086]:0x40 0x09 0x10 0xFF 0xFE 0x02 0x00 0x00 |    X                          (         0,          0,          0)
[2019-09-24 14:09:27.700] [087]:0x41 0x09 0x10 0xFF 0xFE 0x02 0x00 0x00 |    X                          (         0,          0,          0)
[2019-09-24 14:09:27.710] [088]:0x42 0x09 0x10 0xFF 0xFE 0x02 0x00 0x00 |    X                          (         0,          0,          0)
[2019-09-24 14:09:27.720] [089]:0x44 0x09 0x10 0xFF 0xFE 0x02 0x00 0x00 |    X                          (         0,          0,          0)
[2019-09-24 14:09:27.730] [090]:0x45 0x09 0x10 0xFF 0xFE 0x02 0x00 0x00 |    X                          (         0,          0,          0)
[2019-09-24 14:09:27.740] [091]:0x54 0x10 0x10 0xFF 0xFE 0x02 0x00 0x00 |    X                          (         0,          0,          0)
[2019-09-24 14:09:27.750] [092]:0x55 0x10 0x10 0xFF 0xFE 0x02 0x00 0x00 |    X                          (         0,          0,          0)
[2019-09-24 14:09:27.760] [093]:0x57 0x10 0x10 0xFF 0xFE 0x02 0x00 0x00 |    X                          (         0,          0,          0)
[2019-09-24 14:09:27.770] [094]:0x58 0x10 0x10 0xFF 0xFE 0x02 0x00 0x00 |    X                          (         0,          0,          0)
[2019-09-24 14:09:27.780] [095]:0x32 0x30 0x11 0xFF 0xFE 0x02 0x00 0x00 |    X                          (         0,          0,          0)
[2019-09-24 14:09:27.790] [096]:0x36 0x30 0x11 0xFF 0xFE 0x02 0x00 0x00 |    X                          (         0,          0,          0)
[2019-09-24 14:09:27.800] [097]:0x37 0x30 0x11 0xFF 0xFE 0x02 0x00 0x00 |    X                          (         0,          0,          0)
[2019-09-24 14:09:27.820] [098]:0x41 0x30 0x11 0xFF 0xFE 0x02 0x00 0x00 |    X                          (         0,          0,          0)
[2019-09-24 14:09:27.820] [099]:0x33 0x21 0x12 0xFF 0xFE 0x02 0x00 0x00 |    X                          (         0,          0,          0)
[2019-09-24 14:09:27.821] [100]:0x34 0x21 0x12 0xFF 0xFE 0x02 0x00 0x00 |    X                          (         0,          0,          0)
[2019-09-24 14:09:27.831] [101]:0x35 0x21 0x12 0xFF 0xFE 0x02 0x00 0x00 |    X                          (         0,          0,          0)
[2019-09-24 14:09:27.841] [102]:0x37 0x21 0x12 0xFF 0xFE 0x02 0x00 0x00 |    X                          (         0,          0,          0)
[2019-09-24 14:09:27.852] [103]:0x39 0x21 0x12 0xFF 0xFE 0x02 0x00 0x00 |    X                          (         0,          0,          0)
[2019-09-24 14:09:27.861] [104]:0x40 0x21 0x12 0xFF 0xFE 0x02 0x00 0x00 |    X                          (         0,          0,          0)
[2019-09-24 14:09:27.871] [105]:0x41 0x21 0x12 0xFF 0xFE 0x02 0x00 0x00 |    X                          (         0,          0,          0)
[2019-09-24 14:09:27.881] [106]:0x45 0x21 0x12 0xFF 0xFE 0x02 0x00 0x00 |    X                          (         0,          0,          0)
[2019-09-24 14:09:27.892] [107]:0x46 0x21 0x12 0xFF 0xFE 0x02 0x00 0x00 |    X                          (         0,          0,          0)
[2019-09-24 14:09:27.902] [108]:0x47 0x21 0x12 0xFF 0xFE 0x02 0x00 0x00 |    X                          (         0,          0,          0)
[2019-09-24 14:09:27.913] [109]:0x48 0x21 0x12 0xFF 0xFE 0x02 0x00 0x00 |    X                          (         0,          0,          0)
[2019-09-24 14:09:27.922] [110]:0x50 0x21 0x12 0xFF 0xFE 0x02 0x00 0x00 |    X                          (         0,          0,          0)
[2019-09-24 14:09:27.933] [111]:0x45 0x23 0x12 0xFF 0xFE 0x02 0x00 0x00 |    X                          (         0,          0,          0)
[2019-09-24 14:09:27.943] [112]:0x46 0x23 0x12 0xFF 0xFE 0x02 0x00 0x00 |    X                          (         0,          0,          0)
[2019-09-24 14:09:27.953] [113]:0x11 0x26 0x12 0xFF 0xFE 0x02 0x00 0x00 |    X                          (         0,          0,          0)
[2019-09-24 14:09:27.962] [114]:0x13 0x26 0x12 0xFF 0xFE 0x02 0x00 0x00 |    X                          (         0,          0,          0)
[2019-09-24 14:09:27.972] [115]:0x14 0x26 0x12 0xFF 0xFE 0x02 0x00 0x00 |    X                          (         0,          0,          0)
[2019-09-24 14:09:27.982] [116]:0x15 0x26 0x12 0xFF 0xFE 0x02 0x00 0x00 |    X                          (         0,          0,          0)
[2019-09-24 14:09:27.993] [117]:0x16 0x26 0x12 0xFF 0xFE 0x02 0x00 0x00 |    X                          (         0,          0,          0)
[2019-09-24 14:09:28.003] [118]:0x18 0x26 0x12 0xFF 0xFE 0x02 0x00 0x00 |    X                          (         0,          0,          0)
[2019-09-24 14:09:28.013] [119]:0x19 0x26 0x12 0xFF 0xFE 0x02 0x00 0x00 |    X                          (         0,          0,          0)
[2019-09-24 14:09:28.023] [120]:0x20 0x26 0x12 0xFF 0xFE 0x02 0x00 0x00 |    X                          (         0,          0,          0)
[2019-09-24 14:09:28.033] [121]:0x21 0x26 0x12 0xFF 0xFE 0x02 0x00 0x00 |    X                          (         0,          0,          0)
[2019-09-24 14:09:28.043] [122]:0x54 0x00 0x00 0xFF 0xFE 0x43 0x43 0x43 |    X                          (         0,          0,          0)
[2019-09-24 14:09:28.056] Total 123 (Msg1 123, Msg3 0, Accept 0, ReJoin 0)
[2019-09-24 14:09:28.062] 
[2019-09-24 14:09:28.062] vt# vtmsg: slow down... level is 1 (busy_index=6)
[2019-09-24 14:10:46.047] vtmsg: slow down... level is 1 (busy_index=6)
[2019-09-24 14:14:23.061] check white list from spi 0
[2019-09-24 14:14:33.240] vtmsg: slow down... level is 1 (busy_index=6)
[2019-09-24 14:14:35.132] 
[2019-09-24 14:14:35.132] vt# 
[2019-09-24 14:14:35.277] vt# 
[2019-09-24 14:14:35.402] vt# 
[2019-09-24 14:14:35.555] vt# S2Ecommand not found !
[2019-09-24 14:14:36.197] 
[2019-09-24 14:14:36.198] vt# s2e
[2019-09-24 14:14:37.750] 
[2019-09-24 14:14:37.750] black list OFF
[2019-09-24 14:14:37.751] white list ON
[2019-09-24 14:14:37.753]                   EUI64                       | Joined | spi_id/pdc | short addr
[2019-09-24 14:14:37.760] ===========================================================================
[2019-09-24 14:14:37.766] [000]:0x10 0x48 0x09 0xFF 0xFE 0x02 0x00 0x00 |    X                          (         0,          0,          0)
[2019-09-24 14:14:37.778] [001]:0x12 0x48 0x09 0xFF 0xFE 0x02 0x00 0x00 |    X                          (         0,          0,          0)
[2019-09-24 14:14:37.791] [002]:0x23 0x26 0x12 0xFF 0xFE 0x02 0x00 0x00 |    X                          (         0,          0,          0)
[2019-09-24 14:14:37.796] [003]:0x61 0x26 0x12 0xFF 0xFE 0x02 0x00 0x00 |    X                          (         0,          0,          0)
[2019-09-24 14:14:37.807] [004]:0x62 0x26 0x12 0xFF 0xFE 0x02 0x00 0x00 |    X                          (         0,          0,          0)
[2019-09-24 14:14:37.823] [005]:0x63 0x26 0x12 0xFF 0xFE 0x02 0x00 0x00 |    X                          (         0,          0,          0)
[2019-09-24 14:14:37.833] [006]:0x64 0x26 0x12 0xFF 0xFE 0x02 0x00 0x00 |    X                          (         0,          0,          0)
[2019-09-24 14:14:37.844] [007]:0x66 0x26 0x12 0xFF 0xFE 0x02 0x00 0x00 |    X                          (         0,          0,          0)
[2019-09-24 14:14:37.851] [008]:0x67 0x26 0x12 0xFF 0xFE 0x02 0x00 0x00 |    X                          (         0,          0,          0)
[2019-09-24 14:14:37.864] [009]:0x68 0x26 0x12 0xFF 0xFE 0x02 0x00 0x00 |    X                          (         0,          0,          0)
[2019-09-24 14:14:37.875] [010]:0x70 0x26 0x12 0xFF 0xFE 0x02 0x00 0x00 |    X                          (         0,          0,          0)
[2019-09-24 14:14:37.880] [011]:0x72 0x26 0x12 0xFF 0xFE 0x02 0x00 0x00 |    X                          (         0,          0,          0)
[2019-09-24 14:14:37.894] [012]:0x74 0x26 0x12 0xFF 0xFE 0x02 0x00 0x00 |    X                          (         0,          0,          0)
[2019-09-24 14:14:37.903] [013]:0x75 0x26 0x12 0xFF 0xFE 0x02 0x00 0x00 |    X                          (         0,          0,          0)
[2019-09-24 14:14:37.914] [014]:0x76 0x26 0x12 0xFF 0xFE 0x02 0x00 0x00 |    X                          (         0,          0,          0)
[2019-09-24 14:14:37.927] [015]:0x23 0x27 0x12 0xFF 0xFE 0x02 0x00 0x00 |    X                          (         0,          0,          0)
[2019-09-24 14:14:37.932] [016]:0x24 0x27 0x12 0xFF 0xFE 0x02 0x00 0x00 |    X                          (         0,          0,          0)
[2019-09-24 14:14:37.946] [017]:0x25 0x27 0x12 0xFF 0xFE 0x02 0x00 0x00 |    X                          (         0,          0,          0)
[2019-09-24 14:14:37.950] [018]:0x26 0x27 0x12 0xFF 0xFE 0x02 0x00 0x00 |    X                          (         0,          0,          0)
[2019-09-24 14:14:37.964] [019]:0x27 0x27 0x12 0xFF 0xFE 0x02 0x00 0x00 |    X                          (         0,          0,          0)
[2019-09-24 14:14:37.974] [020]:0x28 0x27 0x12 0xFF 0xFE 0x02 0x00 0x00 |    X                          (         0,          0,          0)
[2019-09-24 14:14:37.983] [021]:0x29 0x27 0x12 0xFF 0xFE 0x02 0x00 0x00 |    X                          (         0,          0,          0)
[2019-09-24 14:14:37.995] [022]:0x30 0x27 0x12 0xFF 0xFE 0x02 0x00 0x00 |    X                          (         0,          0,          0)
[2019-09-24 14:14:38.006] [023]:0x31 0x27 0x12 0xFF 0xFE 0x02 0x00 0x00 |    X                          (         0,          0,          0)
[2019-09-24 14:14:38.011] [024]:0x32 0x27 0x12 0xFF 0xFE 0x02 0x00 0x00 |    X                          (         0,          0,          0)
[2019-09-24 14:14:38.025] [025]:0x34 0x27 0x12 0xFF 0xFE 0x02 0x00 0x00 |    X                          (         0,          0,          0)
[2019-09-24 14:14:38.035] [026]:0x35 0x27 0x12 0xFF 0xFE 0x02 0x00 0x00 |    X                          (         0,          0,          0)
[2019-09-24 14:14:38.044] [027]:0x83 0x32 0x12 0xFF 0xFE 0x02 0x00 0x00 |    X                          (         0,          0,          0)
[2019-09-24 14:14:38.054] [028]:0x84 0x32 0x12 0xFF 0xFE 0x02 0x00 0x00 |    X                          (         0,          0,          0)
[2019-09-24 14:14:38.064] [029]:0x02 0x92 0x12 0xFF 0xFE 0x02 0x00 0x00 |    X                          (         0,          0,          0)
[2019-09-24 14:14:38.074] [030]:0x04 0x92 0x12 0xFF 0xFE 0x02 0x00 0x00 |    X                          (         0,          0,          0)
[2019-09-24 14:14:38.081] [031]:0x16 0x96 0x12 0xFF 0xFE 0x02 0x00 0x00 |    X                          (         0,          0,          0)
[2019-09-24 14:14:38.102] [032]:0x17 0x96 0x12 0xFF 0xFE 0x02 0x00 0x00 |    X                          (         0,          0,          0)
[2019-09-24 14:14:38.113] [033]:0x69 0x45 0x19 0xFF 0xFE 0x02 0x00 0x00 |    X                          (         0,          0,          0)
[2019-09-24 14:14:38.120] [034]:0x70 0x45 0x19 0xFF 0xFE 0x02 0x00 0x00 |    X                          (         0,          0,          0)
[2019-09-24 14:14:38.130] [035]:0x71 0x45 0x19 0xFF 0xFE 0x02 0x00 0x00 |    X                          (         0,          0,          0)
[2019-09-24 14:14:38.137] [036]:0x01 0x93 0x19 0xFF 0xFE 0x02 0x00 0x00 |    X                          (         0,          0,          0)
[2019-09-24 14:14:38.149] [037]:0x02 0x93 0x19 0xFF 0xFE 0x02 0x00 0x00 |    X                          (         0,          0,          0)
[2019-09-24 14:14:38.160] [038]:0x04 0x93 0x19 0xFF 0xFE 0x02 0x00 0x00 |    X                          (         0,          0,          0)
[2019-09-24 14:14:38.166] [039]:0x05 0x93 0x19 0xFF 0xFE 0x02 0x00 0x00 |    X                          (         0,          0,          0)
[2019-09-24 14:14:38.177] [040]:0x06 0x93 0x19 0xFF 0xFE 0x02 0x00 0x00 |    X                          (         0,          0,          0)
[2019-09-24 14:14:38.185] [041]:0x07 0x93 0x19 0xFF 0xFE 0x02 0x00 0x00 |    X                          (         0,          0,          0)
[2019-09-24 14:14:38.194] [042]:0x08 0x93 0x19 0xFF 0xFE 0x02 0x00 0x00 |    X                          (         0,          0,          0)
[2019-09-24 14:14:38.204] [043]:0x11 0x93 0x19 0xFF 0xFE 0x02 0x00 0x00 |    X                          (         0,          0,          0)
[2019-09-24 14:14:38.215] [044]:0x21 0x66 0x09 0xFF 0xFE 0x02 0x00 0x00 |    X                          (         0,          0,          0)
[2019-09-24 14:14:38.225] [045]:0x13 0x99 0x09 0xFF 0xFE 0x02 0x00 0x00 |    X                          (         0,          0,          0)
[2019-09-24 14:14:38.236] [046]:0x14 0x99 0x09 0xFF 0xFE 0x02 0x00 0x00 |    X                          (         0,          0,          0)
[2019-09-24 14:14:38.246] [047]:0x15 0x99 0x09 0xFF 0xFE 0x02 0x00 0x00 |    X                          (         0,          0,          0)
[2019-09-24 14:14:38.255] [048]:0x16 0x99 0x09 0xFF 0xFE 0x02 0x00 0x00 |    X                          (         0,          0,          0)
[2019-09-24 14:14:38.266] [049]:0x17 0x99 0x09 0xFF 0xFE 0x02 0x00 0x00 |    X                          (         0,          0,          0)
[2019-09-24 14:14:38.276] [050]:0x18 0x99 0x09 0xFF 0xFE 0x02 0x00 0x00 |    X                          (         0,          0,          0)
[2019-09-24 14:14:38.286] [051]:0x19 0x99 0x09 0xFF 0xFE 0x02 0x00 0x00 |    X                          (         0,          0,          0)
[2019-09-24 14:14:38.296] [052]:0x20 0x99 0x09 0xFF 0xFE 0x02 0x00 0x00 |    X                          (         0,          0,          0)
[2019-09-24 14:14:38.305] [053]:0x21 0x99 0x09 0xFF 0xFE 0x02 0x00 0x00 |    X                          (         0,          0,          0)
[2019-09-24 14:14:38.316] [054]:0x22 0x99 0x09 0xFF 0xFE 0x02 0x00 0x00 |    X                          (         0,          0,          0)
[2019-09-24 14:14:38.326] [055]:0x23 0x99 0x09 0xFF 0xFE 0x02 0x00 0x00 |    X                          (         0,          0,          0)
[2019-09-24 14:14:38.336] [056]:0x24 0x99 0x09 0xFF 0xFE 0x02 0x00 0x00 |    X                          (         0,          0,          0)
[2019-09-24 14:14:38.346] [057]:0x37 0x99 0x09 0xFF 0xFE 0x02 0x00 0x00 |    X                          (         0,          0,          0)
[2019-09-24 14:14:38.356] [058]:0x38 0x99 0x09 0xFF 0xFE 0x02 0x00 0x00 |    X                          (         0,          0,          0)
[2019-09-24 14:14:38.366] [059]:0x39 0x99 0x09 0xFF 0xFE 0x02 0x00 0x00 |    X                          (         0,          0,          0)
[2019-09-24 14:14:38.376] [060]:0x40 0x99 0x09 0xFF 0xFE 0x02 0x00 0x00 |    X                          (         0,          0,          0)
[2019-09-24 14:14:38.386] [061]:0x41 0x99 0x09 0xFF 0xFE 0x02 0x00 0x00 |    X                          (         0,          0,          0)
[2019-09-24 14:14:38.397] [062]:0x42 0x99 0x09 0xFF 0xFE 0x02 0x00 0x00 |    X                          (         0,          0,          0)
[2019-09-24 14:14:38.406] [063]:0x43 0x99 0x09 0xFF 0xFE 0x02 0x00 0x00 |    X                          (         0,          0,          0)
[2019-09-24 14:14:38.417] [064]:0x44 0x99 0x09 0xFF 0xFE 0x02 0x00 0x00 |    X                          (         0,          0,          0)
[2019-09-24 14:14:38.427] [065]:0x45 0x99 0x09 0xFF 0xFE 0x02 0x00 0x00 |    X                          (         0,          0,          0)
[2019-09-24 14:14:38.437] [066]:0x46 0x99 0x09 0xFF 0xFE 0x02 0x00 0x00 |    X                          (         0,          0,          0)
[2019-09-24 14:14:38.448] [067]:0x47 0x99 0x09 0xFF 0xFE 0x02 0x00 0x00 |    X                          (         0,          0,          0)
[2019-09-24 14:14:38.457] [068]:0x48 0x99 0x09 0xFF 0xFE 0x02 0x00 0x00 |    X                          (         0,          0,          0)
[2019-09-24 14:14:38.472] [069]:0x15 0x08 0x10 0xFF 0xFE 0x02 0x00 0x00 |    X                          (         0,          0,          0)
[2019-09-24 14:14:38.477] [070]:0x16 0x08 0x10 0xFF 0xFE 0x02 0x00 0x00 |    X                          (         0,          0,          0)
[2019-09-24 14:14:38.488] [071]:0x17 0x08 0x10 0xFF 0xFE 0x02 0x00 0x00 |    X                          (         0,          0,          0)
[2019-09-24 14:14:38.503] [072]:0x18 0x08 0x10 0xFF 0xFE 0x02 0x00 0x00 |    X                          (         0,          0,          0)
[2019-09-24 14:14:38.515] [073]:0x19 0x08 0x10 0xFF 0xFE 0x02 0x00 0x00 |    X                          (         0,          0,          0)
[2019-09-24 14:14:38.525] [074]:0x20 0x08 0x10 0xFF 0xFE 0x02 0x00 0x00 |    X                          (         0,          0,          0)
[2019-09-24 14:14:38.536] [075]:0x21 0x08 0x10 0xFF 0xFE 0x02 0x00 0x00 |    X                          (         0,          0,          0)
[2019-09-24 14:14:38.546] [076]:0x22 0x08 0x10 0xFF 0xFE 0x02 0x00 0x00 |    X                          (         0,          0,          0)
[2019-09-24 14:14:38.555] [077]:0x23 0x08 0x10 0xFF 0xFE 0x02 0x00 0x00 |    X                          (         0,          0,          0)
[2019-09-24 14:14:38.565] [078]:0x24 0x08 0x10 0xFF 0xFE 0x02 0x00 0x00 |    X                          (         0,          0,          0)
[2019-09-24 14:14:38.576] [079]:0x25 0x08 0x10 0xFF 0xFE 0x02 0x00 0x00 |    X                          (         0,          0,          0)
[2019-09-24 14:14:38.585] [080]:0x26 0x08 0x10 0xFF 0xFE 0x02 0x00 0x00 |    X                          (         0,          0,          0)
[2019-09-24 14:14:38.596] [081]:0x35 0x09 0x10 0xFF 0xFE 0x02 0x00 0x00 |    X                          (         0,          0,          0)
[2019-09-24 14:14:38.606] [082]:0x36 0x09 0x10 0xFF 0xFE 0x02 0x00 0x00 |    X                          (         0,          0,          0)
[2019-09-24 14:14:38.616] [083]:0x37 0x09 0x10 0xFF 0xFE 0x02 0x00 0x00 |    X                          (         0,          0,          0)
[2019-09-24 14:14:38.626] [084]:0x38 0x09 0x10 0xFF 0xFE 0x02 0x00 0x00 |    X                          (         0,          0,          0)
[2019-09-24 14:14:38.636] [085]:0x39 0x09 0x10 0xFF 0xFE 0x02 0x00 0x00 |    X                          (         0,          0,          0)
[2019-09-24 14:14:38.647] [086]:0x40 0x09 0x10 0xFF 0xFE 0x02 0x00 0x00 |    X                          (         0,          0,          0)
[2019-09-24 14:14:38.656] [087]:0x41 0x09 0x10 0xFF 0xFE 0x02 0x00 0x00 |    X                          (         0,          0,          0)
[2019-09-24 14:14:38.667] [088]:0x42 0x09 0x10 0xFF 0xFE 0x02 0x00 0x00 |    X                          (         0,          0,          0)
[2019-09-24 14:14:38.677] [089]:0x44 0x09 0x10 0xFF 0xFE 0x02 0x00 0x00 |    X                          (         0,          0,          0)
[2019-09-24 14:14:38.686] [090]:0x45 0x09 0x10 0xFF 0xFE 0x02 0x00 0x00 |    X                          (         0,          0,          0)
[2019-09-24 14:14:38.697] [091]:0x54 0x10 0x10 0xFF 0xFE 0x02 0x00 0x00 |    X                          (         0,          0,          0)
[2019-09-24 14:14:38.706] [092]:0x55 0x10 0x10 0xFF 0xFE 0x02 0x00 0x00 |    X                          (         0,          0,          0)
[2019-09-24 14:14:38.717] [093]:0x57 0x10 0x10 0xFF 0xFE 0x02 0x00 0x00 |    X                          (         0,          0,          0)
[2019-09-24 14:14:38.726] [094]:0x58 0x10 0x10 0xFF 0xFE 0x02 0x00 0x00 |    X                          (         0,          0,          0)
[2019-09-24 14:14:38.737] [095]:0x32 0x30 0x11 0xFF 0xFE 0x02 0x00 0x00 |    X                          (         0,          0,          0)
[2019-09-24 14:14:38.748] [096]:0x36 0x30 0x11 0xFF 0xFE 0x02 0x00 0x00 |    X                          (         0,          0,          0)
[2019-09-24 14:14:38.758] [097]:0x37 0x30 0x11 0xFF 0xFE 0x02 0x00 0x00 |    X                          (         0,          0,          0)
[2019-09-24 14:14:38.768] [098]:0x41 0x30 0x11 0xFF 0xFE 0x02 0x00 0x00 |    X                          (         0,          0,          0)
[2019-09-24 14:14:38.777] [099]:0x33 0x21 0x12 0xFF 0xFE 0x02 0x00 0x00 |    X                          (         0,          0,          0)
[2019-09-24 14:14:38.787] [100]:0x34 0x21 0x12 0xFF 0xFE 0x02 0x00 0x00 |    X                          (         0,          0,          0)
[2019-09-24 14:14:38.798] [101]:0x35 0x21 0x12 0xFF 0xFE 0x02 0x00 0x00 |    X                          (         0,          0,          0)
[2019-09-24 14:14:38.808] [102]:0x37 0x21 0x12 0xFF 0xFE 0x02 0x00 0x00 |    X                          (         0,          0,          0)
[2019-09-24 14:14:38.817] [103]:0x39 0x21 0x12 0xFF 0xFE 0x02 0x00 0x00 |    X                          (         0,          0,          0)
[2019-09-24 14:14:38.827] [104]:0x40 0x21 0x12 0xFF 0xFE 0x02 0x00 0x00 |    X                          (         0,          0,          0)
[2019-09-24 14:14:38.838] [105]:0x41 0x21 0x12 0xFF 0xFE 0x02 0x00 0x00 |    X                          (         0,          0,          0)
[2019-09-24 14:14:38.849] [106]:0x45 0x21 0x12 0xFF 0xFE 0x02 0x00 0x00 |    X                          (         0,          0,          0)
[2019-09-24 14:14:38.859] [107]:0x46 0x21 0x12 0xFF 0xFE 0x02 0x00 0x00 |    X                          (         0,          0,          0)
[2019-09-24 14:14:38.868] [108]:0x47 0x21 0x12 0xFF 0xFE 0x02 0x00 0x00 |    X                          (         0,          0,          0)
[2019-09-24 14:14:38.878] [109]:0x48 0x21 0x12 0xFF 0xFE 0x02 0x00 0x00 |    X                          (         0,          0,          0)
[2019-09-24 14:14:38.889] [110]:0x50 0x21 0x12 0xFF 0xFE 0x02 0x00 0x00 |    X                          (         0,          0,          0)
[2019-09-24 14:14:38.899] [111]:0x45 0x23 0x12 0xFF 0xFE 0x02 0x00 0x00 |    X                          (         0,          0,          0)
[2019-09-24 14:14:38.909] [112]:0x46 0x23 0x12 0xFF 0xFE 0x02 0x00 0x00 |    X                          (         0,          0,          0)
[2019-09-24 14:14:38.918] [113]:0x11 0x26 0x12 0xFF 0xFE 0x02 0x00 0x00 |    X                          (         0,          0,          0)
[2019-09-24 14:14:38.928] [114]:0x13 0x26 0x12 0xFF 0xFE 0x02 0x00 0x00 |    X                          (         0,          0,          0)
[2019-09-24 14:14:38.939] [115]:0x14 0x26 0x12 0xFF 0xFE 0x02 0x00 0x00 |    X                          (         0,          0,          0)
[2019-09-24 14:14:38.950] [116]:0x15 0x26 0x12 0xFF 0xFE 0x02 0x00 0x00 |    X                          (         0,          0,          0)
[2019-09-24 14:14:38.960] [117]:0x16 0x26 0x12 0xFF 0xFE 0x02 0x00 0x00 |    X                          (         0,          0,          0)
[2019-09-24 14:14:38.969] [118]:0x18 0x26 0x12 0xFF 0xFE 0x02 0x00 0x00 |    X                          (         0,          0,          0)
[2019-09-24 14:14:38.979] [119]:0x19 0x26 0x12 0xFF 0xFE 0x02 0x00 0x00 |    X                          (         0,          0,          0)
[2019-09-24 14:14:38.989] [120]:0x20 0x26 0x12 0xFF 0xFE 0x02 0x00 0x00 |    X                          (         0,          0,          0)
[2019-09-24 14:14:39.000] [121]:0x21 0x26 0x12 0xFF 0xFE 0x02 0x00 0x00 |    X                          (         0,          0,          0)
[2019-09-24 14:14:39.010] [122]:0x54 0x00 0x00 0xFF 0xFE 0x43 0x43 0x43 |    X                          (         0,          0,          0)
[2019-09-24 14:14:39.022] Total 123 (Msg1 123, Msg3 0, Accept 0, ReJoin 0)
[2019-09-24 14:14:39.029] 
[2019-09-24 14:14:39.029] vt# reboot
[2019-09-24 14:15:02.234] uart_init
[2019-09-24 14:15:02.240] SW Version : V1.0 03e02962@(2019/06/08 10:29:59)
[2019-09-24 14:15:02.241] Start Time : 0.0 sec
[2019-09-24 14:15:02.243] dcu_restore_nvram
[2019-09-24 14:15:02.246] nv1(1) 0xbe125885 0xbe125885
[2019-09-24 14:15:02.250] nv2(1) 0xbe125885 0xbe125885
[2019-09-24 14:15:02.253] load nvram from 0x08008000 to 0x2004c000 (0x3034)
[2019-09-24 14:15:02.259] SPI1 HAL_SPI_MspInit
[2019-09-24 14:15:02.264] 
[2019-09-24 14:15:02.265] vt# 
[2019-09-24 14:15:02.265] task_init: system init
[2019-09-24 14:15:02.267] task_init WHITE LIST: ON
[2019-09-24 14:15:02.273] task_init BLACK LIST: OFF
[2019-09-24 14:15:02.274] uart_init
[2019-09-24 14:15:02.274] SW Version : V1.0 03e02962@(2019/06/08 10:29:59)
[2019-09-24 14:15:02.277] Start Time : 0.8 sec
[2019-09-24 14:15:02.279] vtsdk_calloc 0x10003158(35840)
[2019-09-24 14:15:02.311] cs:0xbe125885 nv1:0x08008000 nv2:0x0800c000 (0x3034)
[2019-09-24 14:15:03.096] vtsdk_calloc 0x1000beb0(300)
[2019-09-24 14:15:03.100] vtsdk_calloc 0x1000bfe8(6)
[2019-09-24 14:15:03.109] vtsdk_calloc 0x1000bff8(4)
[2019-09-24 14:15:03.109] vtsdk_calloc 0x1000c008(20)
[2019-09-24 14:15:03.111] vtsdk_calloc 0x1000c028(300)
[2019-09-24 14:15:03.115] vtsdk_calloc 0x1000c240(255)
[2019-09-24 14:15:03.120] vtsdk_calloc 0x1000c348(25)
[2019-09-24 14:15:03.127] 
[2019-09-24 14:15:03.127] task_init: 1376.2 rule 2013
[2019-09-24 14:15:05.697] spi 0 start
[2019-09-24 14:15:05.892] ack 0
[2019-09-24 14:15:07.637] fn_set_magpie_dcu_panid (39f7):
[2019-09-24 14:15:07.641] assign_magpie_panid 0 38 f7
[2019-09-24 14:15:07.644] first task Tmr Svc (priority 2) size 28
[2019-09-24 14:15:07.647] vtsdk_calloc 0x1000d250(56)
[2019-09-24 14:15:07.650] FnLocalModuleMode [03H-F10]
[2019-09-24 14:15:07.661] 68 38 00 c1 00 00 00 00 00 00 03 02 01 d1 3f 01 
[2019-09-24 14:15:07.668]       01 00 00 3c b0 04 2c 01 c8 00 ff 36 10 00 35 00 
[2019-09-24 14:15:07.668]       00 00 04 7b 00 13 01 01 13 09 18 54 56 31 52 08 
[2019-09-24 14:15:07.676]       06 19 11 55 80 25 5f 16 
[2019-09-24 14:15:07.676] _vtsdk_send: UART pbuf=0x1000d250, len=56
[2019-09-24 14:15:07.735] FnLocalModuleMode (0) send(56):
[2019-09-24 14:15:07.753] 68 38 00 c1 00 00 00 00 00 00 03 02 01 d1 3f 01 
[2019-09-24 14:15:07.753]       01 00 00 3c b0 04 2c 01 c8 00 ff 36 10 00 35 00 
[2019-09-24 14:15:07.758]       00 00 04 7b 00 13 01 01 13 09 18 54 56 31 52 08 
[2019-09-24 14:15:07.758]       06 19 11 55 80 25 5f 16 
[2019-09-24 14:15:07.768] vtsdk_free 0x1000d250
[2019-09-24 14:15:13.109] holleyTimer_cb Allow msgupload!!!
[2019-09-24 14:15:18.157] add task spi5r (priority 3) size 28
[2019-09-24 14:15:59.431] SPI-0 TimeOut, resend ping
[2019-09-24 14:15:59.633] ack 0
[2019-09-24 14:15:59.978] vtmsg: slow down... level is 1 (busy_index=8)
[2019-09-24 14:16:08.891] reboot
[2019-09-24 14:16:10.357] uart_init
[2019-09-24 14:16:10.360] SW Version : V1.0 03e02962@(2019/06/08 10:29:59)
[2019-09-24 14:16:10.368] Start Time : 0.0 sec
[2019-09-24 14:16:10.373] dcu_restore_nvram
[2019-09-24 14:16:10.373] nv1(1) 0xbe125885 0xbe125885
[2019-09-24 14:16:10.379] nv2(1) 0xbe125885 0xbe125885
[2019-09-24 14:16:10.379] load nvram from 0x08008000 to 0x2004c000 (0x3034)
[2019-09-24 14:16:10.386] SPI1 HAL_SPI_MspInit
[2019-09-24 14:16:10.400] 
[2019-09-24 14:16:10.404] vt# 
[2019-09-24 14:16:10.404] task_init: system init
[2019-09-24 14:16:10.404] task_init WHITE LIST: ON
[2019-09-24 14:16:10.404] task_init BLACK LIST: OFF
[2019-09-24 14:16:10.404] uart_init
[2019-09-24 14:16:10.404] SW Version : V1.0 03e02962@(2019/06/08 10:29:59)
[2019-09-24 14:16:10.404] Start Time : 0.8 sec
[2019-09-24 14:16:10.404] vtsdk_calloc 0x10003158(35840)
[2019-09-24 14:16:10.433] cs:0xbe125885 nv1:0x08008000 nv2:0x0800c000 (0x3034)
[2019-09-24 14:16:11.223] vtsdk_calloc 0x1000beb0(300)
[2019-09-24 14:16:11.235] vtsdk_calloc 0x1000bfe8(6)
[2019-09-24 14:16:11.246] vtsdk_calloc 0x1000bff8(4)
[2019-09-24 14:16:11.246] vtsdk_calloc 0x1000c008(20)
[2019-09-24 14:16:11.246] vtsdk_calloc 0x1000c028(300)
[2019-09-24 14:16:11.246] vtsdk_calloc 0x1000c240(255)
[2019-09-24 14:16:11.246] vtsdk_calloc 0x1000c348(25)
[2019-09-24 14:16:11.246] 
[2019-09-24 14:16:11.266] task_init: 1376.2 rule 2013
[2019-09-24 14:16:13.818] spi 0 start
[2019-09-24 14:16:14.017] ack 0
[2019-09-24 14:16:15.761] fn_set_magpie_dcu_panid (39f7):
[2019-09-24 14:16:15.768] assign_magpie_panid 0 38 f7
[2019-09-24 14:16:15.779] first task Tmr Svc (priority 2) size 28
[2019-09-24 14:16:15.804] vtsdk_calloc 0x1000d250(56)
[2019-09-24 14:16:15.804] FnLocalModuleMode [03H-F10]
[2019-09-24 14:16:15.804] 68 38 00 c1 00 00 00 00 00 00 03 02 01 d1 3f 01 
[2019-09-24 14:16:15.804]       01 00 00 3c b0 04 2c 01 c8 00 ff 36 10 00 35 00 
[2019-09-24 14:16:15.821]       00 00 04 7b 00 13 01 01 13 09 18 54 56 31 52 08 
[2019-09-24 14:16:15.821]       06 19 11 55 80 25 5f 16 
[2019-09-24 14:16:15.821] _vtsdk_send: UART pbuf=0x1000d250, len=56
[2019-09-24 14:16:15.867] FnLocalModuleMode (0) send(56):
[2019-09-24 14:16:15.875] 68 38 00 c1 00 00 00 00 00 00 03 02 01 d1 3f 01 
[2019-09-24 14:16:15.875]       01 00 00 3c b0 04 2c 01 c8 00 ff 36 10 00 35 00 
[2019-09-24 14:16:15.882]       00 00 04 7b 00 13 01 01 13 09 18 54 56 31 52 08 
[2019-09-24 14:16:15.882]       06 19 11 55 80 25 5f 16 
[2019-09-24 14:16:15.893] vtsdk_free 0x1000d250
[2019-09-24 14:16:21.233] holleyTimer_cb Allow msgupload!!!
[2019-09-24 14:16:22.369] add task spi5r (priority 3) size 28
[2019-09-24 14:16:55.704] vtmsg: slow down... level is 1 (busy_index=8)
[2019-09-24 14:16:58.519] vtmsg: slow down... level is 1 (busy_index=6)
[2019-09-24 14:17:28.117] vtmsg: slow down... level is 1 (busy_index=9)
[2019-09-24 14:18:07.331] s2e
[2019-09-24 14:18:07.773] 
[2019-09-24 14:18:07.773] black list OFF
[2019-09-24 14:18:07.780] white list ON
[2019-09-24 14:18:07.780]                   EUI64                       | Joined | spi_id/pdc | short addr
[2019-09-24 14:18:07.784] ===========================================================================
[2019-09-24 14:18:07.792] [000]:0x10 0x48 0x09 0xFF 0xFE 0x02 0x00 0x00 |    X                          (         0,          0,          0)
[2019-09-24 14:18:07.806] [001]:0x12 0x48 0x09 0xFF 0xFE 0x02 0x00 0x00 |    X                          (         0,          0,          0)
[2019-09-24 14:18:07.822] [002]:0x23 0x26 0x12 0xFF 0xFE 0x02 0x00 0x00 |    X                          (         0,          0,          0)
[2019-09-24 14:18:07.826] [003]:0x61 0x26 0x12 0xFF 0xFE 0x02 0x00 0x00 |    X                          (         0,          0,          0)
[2019-09-24 14:18:07.839] [004]:0x62 0x26 0x12 0xFF 0xFE 0x02 0x00 0x00 |    X                          (         0,          0,          0)
[2019-09-24 14:18:07.844] [005]:0x63 0x26 0x12 0xFF 0xFE 0x02 0x00 0x00 |    X                          (         0,          0,          0)
[2019-09-24 14:18:07.851] [006]:0x64 0x26 0x12 0xFF 0xFE 0x02 0x00 0x00 |    X                          (         0,          0,          0)
[2019-09-24 14:18:07.861] [007]:0x66 0x26 0x12 0xFF 0xFE 0x02 0x00 0x00 |    X                          (         0,          0,          0)
[2019-09-24 14:18:07.873] [008]:0x67 0x26 0x12 0xFF 0xFE 0x02 0x00 0x00 |    X                          (         0,          0,          0)
[2019-09-24 14:18:07.880] [009]:0x68 0x26 0x12 0xFF 0xFE 0x02 0x00 0x00 |    X                          (         0,          0,          0)
[2019-09-24 14:18:07.891] [010]:0x70 0x26 0x12 0xFF 0xFE 0x02 0x00 0x00 |    X                          (         0,          0,          0)
[2019-09-24 14:18:07.899] [011]:0x72 0x26 0x12 0xFF 0xFE 0x02 0x00 0x00 |    X                          (         0,          0,          0)
[2019-09-24 14:18:07.910] [012]:0x74 0x26 0x12 0xFF 0xFE 0x02 0x00 0x00 |    X                          (         0,          0,          0)
[2019-09-24 14:18:07.923] [013]:0x75 0x26 0x12 0xFF 0xFE 0x02 0x00 0x00 |    X                          (         0,          0,          0)
[2019-09-24 14:18:07.932] [014]:0x76 0x26 0x12 0xFF 0xFE 0x02 0x00 0x00 |    X                          (         0,          0,          0)
[2019-09-24 14:18:07.941] [015]:0x23 0x27 0x12 0xFF 0xFE 0x02 0x00 0x00 |    X                          (         0,          0,          0)
[2019-09-24 14:18:07.955] [016]:0x24 0x27 0x12 0xFF 0xFE 0x02 0x00 0x00 |    X                          (         0,          0,          0)
[2019-09-24 14:18:07.966] [017]:0x25 0x27 0x12 0xFF 0xFE 0x02 0x00 0x00 |    X                          (         0,          0,          0)
[2019-09-24 14:18:07.973] [018]:0x26 0x27 0x12 0xFF 0xFE 0x02 0x00 0x00 |    X                          (         0,          0,          0)
[2019-09-24 14:18:07.981] [019]:0x27 0x27 0x12 0xFF 0xFE 0x02 0x00 0x00 |    X                          (         0,          0,          0)
[2019-09-24 14:18:07.992] [020]:0x28 0x27 0x12 0xFF 0xFE 0x02 0x00 0x00 |    X                          (         0,          0,          0)
[2019-09-24 14:18:08.005] [021]:0x29 0x27 0x12 0xFF 0xFE 0x02 0x00 0x00 |    X                          (         0,          0,          0)
[2019-09-24 14:18:08.012] [022]:0x30 0x27 0x12 0xFF 0xFE 0x02 0x00 0x00 |    X                          (         0,          0,          0)
[2019-09-24 14:18:08.024] [023]:0x31 0x27 0x12 0xFF 0xFE 0x02 0x00 0x00 |    X                          (         0,          0,          0)
[2019-09-24 14:18:08.033] [024]:0x32 0x27 0x12 0xFF 0xFE 0x02 0x00 0x00 |    X                          (         0,          0,          0)
[2019-09-24 14:18:08.043] [025]:0x34 0x27 0x12 0xFF 0xFE 0x02 0x00 0x00 |    X                          (         0,          0,          0)
[2019-09-24 14:18:08.056] [026]:0x35 0x27 0x12 0xFF 0xFE 0x02 0x00 0x00 |    X                          (         0,          0,          0)
[2019-09-24 14:18:08.064] [027]:0x83 0x32 0x12 0xFF 0xFE 0x02 0x00 0x00 |    X                          (         0,          0,          0)
[2019-09-24 14:18:08.073] [028]:0x84 0x32 0x12 0xFF 0xFE 0x02 0x00 0x00 |    X                          (         0,          0,          0)
[2019-09-24 14:18:08.084] [029]:0x02 0x92 0x12 0xFF 0xFE 0x02 0x00 0x00 |    X                          (         0,          0,          0)
[2019-09-24 14:18:08.092] [030]:0x04 0x92 0x12 0xFF 0xFE 0x02 0x00 0x00 |    X                          (         0,          0,          0)
[2019-09-24 14:18:08.105] [031]:0x16 0x96 0x12 0xFF 0xFE 0x02 0x00 0x00 |    X                          (         0,          0,          0)
[2019-09-24 14:18:08.114] [032]:0x17 0x96 0x12 0xFF 0xFE 0x02 0x00 0x00 |    X                          (         0,          0,          0)
[2019-09-24 14:18:08.122] [033]:0x69 0x45 0x19 0xFF 0xFE 0x02 0x00 0x00 |    X                          (         0,          0,          0)
[2019-09-24 14:18:08.134] [034]:0x70 0x45 0x19 0xFF 0xFE 0x02 0x00 0x00 |    X                          (         0,          0,          0)
[2019-09-24 14:18:08.144] [035]:0x71 0x45 0x19 0xFF 0xFE 0x02 0x00 0x00 |    X                          (         0,          0,          0)
[2019-09-24 14:18:08.156] [036]:0x01 0x93 0x19 0xFF 0xFE 0x02 0x00 0x00 |    X                          (         0,          0,          0)
[2019-09-24 14:18:08.163] [037]:0x02 0x93 0x19 0xFF 0xFE 0x02 0x00 0x00 |    X                          (         0,          0,          0)
[2019-09-24 14:18:08.174] [038]:0x04 0x93 0x19 0xFF 0xFE 0x02 0x00 0x00 |    X                          (         0,          0,          0)
[2019-09-24 14:18:08.183] [039]:0x05 0x93 0x19 0xFF 0xFE 0x02 0x00 0x00 |    X                          (         0,          0,          0)
[2019-09-24 14:18:08.194] [040]:0x06 0x93 0x19 0xFF 0xFE 0x02 0x00 0x00 |    X                          (         0,          0,          0)
[2019-09-24 14:18:08.204] [041]:0x07 0x93 0x19 0xFF 0xFE 0x02 0x00 0x00 |    X                          (         0,          0,          0)
[2019-09-24 14:18:08.213] [042]:0x08 0x93 0x19 0xFF 0xFE 0x02 0x00 0x00 |    X                          (         0,          0,          0)
[2019-09-24 14:18:08.224] [043]:0x11 0x93 0x19 0xFF 0xFE 0x02 0x00 0x00 |    X                          (         0,          0,          0)
[2019-09-24 14:18:08.234] [044]:0x21 0x66 0x09 0xFF 0xFE 0x02 0x00 0x00 |    X                          (         0,          0,          0)
[2019-09-24 14:18:08.244] [045]:0x13 0x99 0x09 0xFF 0xFE 0x02 0x00 0x00 |    X                          (         0,          0,          0)
[2019-09-24 14:18:08.257] [046]:0x14 0x99 0x09 0xFF 0xFE 0x02 0x00 0x00 |    X                          (         0,          0,          0)
[2019-09-24 14:18:08.265] [047]:0x15 0x99 0x09 0xFF 0xFE 0x02 0x00 0x00 |    X                          (         0,          0,          0)
[2019-09-24 14:18:08.275] [048]:0x16 0x99 0x09 0xFF 0xFE 0x02 0x00 0x00 |    X                          (         0,          0,          0)
[2019-09-24 14:18:08.285] [049]:0x17 0x99 0x09 0xFF 0xFE 0x02 0x00 0x00 |    X                          (         0,          0,          0)
[2019-09-24 14:18:08.294] [050]:0x18 0x99 0x09 0xFF 0xFE 0x02 0x00 0x00 |    X                          (         0,          0,          0)
[2019-09-24 14:18:08.306] [051]:0x19 0x99 0x09 0xFF 0xFE 0x02 0x00 0x00 |    X                          (         0,          0,          0)
[2019-09-24 14:18:08.316] [052]:0x20 0x99 0x09 0xFF 0xFE 0x02 0x00 0x00 |    X                          (         0,          0,          0)
[2019-09-24 14:18:08.325] [053]:0x21 0x99 0x09 0xFF 0xFE 0x02 0x00 0x00 |    X                          (         0,          0,          0)
[2019-09-24 14:18:08.338] [054]:0x22 0x99 0x09 0xFF 0xFE 0x02 0x00 0x00 |    X                          (         0,          0,          0)
[2019-09-24 14:18:08.344] [055]:0x23 0x99 0x09 0xFF 0xFE 0x02 0x00 0x00 |    X                          (         0,          0,          0)
[2019-09-24 14:18:08.357] [056]:0x24 0x99 0x09 0xFF 0xFE 0x02 0x00 0x00 |    X                          (         0,          0,          0)
[2019-09-24 14:18:08.365] [057]:0x37 0x99 0x09 0xFF 0xFE 0x02 0x00 0x00 |    X                          (         0,          0,          0)
[2019-09-24 14:18:08.374] [058]:0x38 0x99 0x09 0xFF 0xFE 0x02 0x00 0x00 |    X                          (         0,          0,          0)
[2019-09-24 14:18:08.389] [059]:0x39 0x99 0x09 0xFF 0xFE 0x02 0x00 0x00 |    X                          (         0,          0,          0)
[2019-09-24 14:18:08.395] [060]:0x40 0x99 0x09 0xFF 0xFE 0x02 0x00 0x00 |    X                          (         0,          0,          0)
[2019-09-24 14:18:08.406] [061]:0x41 0x99 0x09 0xFF 0xFE 0x02 0x00 0x00 |    X                          (         0,          0,          0)
[2019-09-24 14:18:08.417] [062]:0x42 0x99 0x09 0xFF 0xFE 0x02 0x00 0x00 |    X                          (         0,          0,          0)
[2019-09-24 14:18:08.426] [063]:0x43 0x99 0x09 0xFF 0xFE 0x02 0x00 0x00 |    X                          (         0,          0,          0)
[2019-09-24 14:18:08.439] [064]:0x44 0x99 0x09 0xFF 0xFE 0x02 0x00 0x00 |    X                          (         0,          0,          0)
[2019-09-24 14:18:08.446] [065]:0x45 0x99 0x09 0xFF 0xFE 0x02 0x00 0x00 |    X                          (         0,          0,          0)
[2019-09-24 14:18:08.456] [066]:0x46 0x99 0x09 0xFF 0xFE 0x02 0x00 0x00 |    X                          (         0,          0,          0)
[2019-09-24 14:18:08.468] [067]:0x47 0x99 0x09 0xFF 0xFE 0x02 0x00 0x00 |    X                          (         0,          0,          0)
[2019-09-24 14:18:08.476] [068]:0x48 0x99 0x09 0xFF 0xFE 0x02 0x00 0x00 |    X                          (         0,          0,          0)
[2019-09-24 14:18:08.489] [069]:0x15 0x08 0x10 0xFF 0xFE 0x02 0x00 0x00 |    X                          (         0,          0,          0)
[2019-09-24 14:18:08.496] [070]:0x16 0x08 0x10 0xFF 0xFE 0x02 0x00 0x00 |    X                          (         0,          0,          0)
[2019-09-24 14:18:08.507] [071]:0x17 0x08 0x10 0xFF 0xFE 0x02 0x00 0x00 |    X                          (         0,          0,          0)
[2019-09-24 14:18:08.517] [072]:0x18 0x08 0x10 0xFF 0xFE 0x02 0x00 0x00 |    X                          (         0,          0,          0)
[2019-09-24 14:18:08.526] [073]:0x19 0x08 0x10 0xFF 0xFE 0x02 0x00 0x00 |    X                          (         0,          0,          0)
[2019-09-24 14:18:08.541] [074]:0x20 0x08 0x10 0xFF 0xFE 0x02 0x00 0x00 |    X                          (         0,          0,          0)
[2019-09-24 14:18:08.547] [075]:0x21 0x08 0x10 0xFF 0xFE 0x02 0x00 0x00 |    X                          (         0,          0,          0)
[2019-09-24 14:18:08.559] [076]:0x22 0x08 0x10 0xFF 0xFE 0x02 0x00 0x00 |    X                          (         0,          0,          0)
[2019-09-24 14:18:08.571] [077]:0x23 0x08 0x10 0xFF 0xFE 0x02 0x00 0x00 |    X                          (         0,          0,          0)
[2019-09-24 14:18:08.578] [078]:0x24 0x08 0x10 0xFF 0xFE 0x02 0x00 0x00 |    X                          (         0,          0,          0)
[2019-09-24 14:18:08.590] [079]:0x25 0x08 0x10 0xFF 0xFE 0x02 0x00 0x00 |    X                          (         0,          0,          0)
[2019-09-24 14:18:08.598] [080]:0x26 0x08 0x10 0xFF 0xFE 0x02 0x00 0x00 |    X                          (         0,          0,          0)
[2019-09-24 14:18:08.608] [081]:0x35 0x09 0x10 0xFF 0xFE 0x02 0x00 0x00 |    X                          (         0,          0,          0)
[2019-09-24 14:18:08.621] [082]:0x36 0x09 0x10 0xFF 0xFE 0x02 0x00 0x00 |    X                          (         0,          0,          0)
[2019-09-24 14:18:08.627] [083]:0x37 0x09 0x10 0xFF 0xFE 0x02 0x00 0x00 |    X                          (         0,          0,          0)
[2019-09-24 14:18:08.640] [084]:0x38 0x09 0x10 0xFF 0xFE 0x02 0x00 0x00 |    X                          (         0,          0,          0)
[2019-09-24 14:18:08.648] [085]:0x39 0x09 0x10 0xFF 0xFE 0x02 0x00 0x00 |    X                          (         0,          0,          0)
[2019-09-24 14:18:08.657] [086]:0x40 0x09 0x10 0xFF 0xFE 0x02 0x00 0x00 |    X                          (         0,          0,          0)
[2019-09-24 14:18:08.672] [087]:0x41 0x09 0x10 0xFF 0xFE 0x02 0x00 0x00 |    X                          (         0,          0,          0)
[2019-09-24 14:18:08.679] [088]:0x42 0x09 0x10 0xFF 0xFE 0x02 0x00 0x00 |    X                          (         0,          0,          0)
[2019-09-24 14:18:08.690] [089]:0x44 0x09 0x10 0xFF 0xFE 0x02 0x00 0x00 |    X                          (         0,          0,          0)
[2019-09-24 14:18:08.697] [090]:0x45 0x09 0x10 0xFF 0xFE 0x02 0x00 0x00 |    X                          (         0,          0,          0)
[2019-09-24 14:18:08.708] [091]:0x54 0x10 0x10 0xFF 0xFE 0x02 0x00 0x00 |    X                          (         0,          0,          0)
[2019-09-24 14:18:08.722] [092]:0x55 0x10 0x10 0xFF 0xFE 0x02 0x00 0x00 |    X                          (         0,          0,          0)
[2019-09-24 14:18:08.729] [093]:0x57 0x10 0x10 0xFF 0xFE 0x02 0x00 0x00 |    X                          (         0,          0,          0)
[2019-09-24 14:18:08.740] [094]:0x58 0x10 0x10 0xFF 0xFE 0x02 0x00 0x00 |    X                          (         0,          0,          0)
[2019-09-24 14:18:08.750] [095]:0x32 0x30 0x11 0xFF 0xFE 0x02 0x00 0x00 |    X                          (         0,          0,          0)
[2019-09-24 14:18:08.764] [096]:0x36 0x30 0x11 0xFF 0xFE 0x02 0x00 0x00 |    X                          (         0,          0,          0)
[2019-09-24 14:18:08.778] [097]:0x37 0x30 0x11 0xFF 0xFE 0x02 0x00 0x00 |    X                          (         0,          0,          0)
[2019-09-24 14:18:08.789] [098]:0x41 0x30 0x11 0xFF 0xFE 0x02 0x00 0x00 |    X                          (         0,          0,          0)
[2019-09-24 14:18:08.796] [099]:0x33 0x21 0x12 0xFF 0xFE 0x02 0x00 0x00 |    X                          (         0,          0,          0)
[2019-09-24 14:18:08.807] [100]:0x34 0x21 0x12 0xFF 0xFE 0x02 0x00 0x00 |    X                          (         0,          0,          0)
[2019-09-24 14:18:08.817] [101]:0x35 0x21 0x12 0xFF 0xFE 0x02 0x00 0x00 |    X                          (         0,          0,          0)
[2019-09-24 14:18:08.828] [102]:0x37 0x21 0x12 0xFF 0xFE 0x02 0x00 0x00 |    X                          (         0,          0,          0)
[2019-09-24 14:18:08.837] [103]:0x39 0x21 0x12 0xFF 0xFE 0x02 0x00 0x00 |    X                          (         0,          0,          0)
[2019-09-24 14:18:08.846] [104]:0x40 0x21 0x12 0xFF 0xFE 0x02 0x00 0x00 |    X                          (         0,          0,          0)
[2019-09-24 14:18:08.857] [105]:0x41 0x21 0x12 0xFF 0xFE 0x02 0x00 0x00 |    X                          (         0,          0,          0)
[2019-09-24 14:18:08.871] [106]:0x45 0x21 0x12 0xFF 0xFE 0x02 0x00 0x00 |    X                          (         0,          0,          0)
[2019-09-24 14:18:08.879] [107]:0x46 0x21 0x12 0xFF 0xFE 0x02 0x00 0x00 |    X                          (         0,          0,          0)
[2019-09-24 14:18:08.890] [108]:0x47 0x21 0x12 0xFF 0xFE 0x02 0x00 0x00 |    X                          (         0,          0,          0)
[2019-09-24 14:18:08.898] [109]:0x48 0x21 0x12 0xFF 0xFE 0x02 0x00 0x00 |    X                          (         0,          0,          0)
[2019-09-24 14:18:08.910] [110]:0x50 0x21 0x12 0xFF 0xFE 0x02 0x00 0x00 |    X                          (         0,          0,          0)
[2019-09-24 14:18:08.922] [111]:0x45 0x23 0x12 0xFF 0xFE 0x02 0x00 0x00 |    X                          (         0,          0,          0)
[2019-09-24 14:18:08.929] [112]:0x46 0x23 0x12 0xFF 0xFE 0x02 0x00 0x00 |    X                          (         0,          0,          0)
[2019-09-24 14:18:08.940] [113]:0x11 0x26 0x12 0xFF 0xFE 0x02 0x00 0x00 |    X                          (         0,          0,          0)
[2019-09-24 14:18:08.949] [114]:0x13 0x26 0x12 0xFF 0xFE 0x02 0x00 0x00 |    X                          (         0,          0,          0)
[2019-09-24 14:18:08.957] [115]:0x14 0x26 0x12 0xFF 0xFE 0x02 0x00 0x00 |    X                          (         0,          0,          0)
[2019-09-24 14:18:08.972] [116]:0x15 0x26 0x12 0xFF 0xFE 0x02 0x00 0x00 |    X                          (         0,          0,          0)
[2019-09-24 14:18:08.980] [117]:0x16 0x26 0x12 0xFF 0xFE 0x02 0x00 0x00 |    X                          (         0,          0,          0)
[2019-09-24 14:18:08.991] [118]:0x18 0x26 0x12 0xFF 0xFE 0x02 0x00 0x00 |    X                          (         0,          0,          0)
[2019-09-24 14:18:08.998] [119]:0x19 0x26 0x12 0xFF 0xFE 0x02 0x00 0x00 |    X                          (         0,          0,          0)
[2019-09-24 14:18:09.012] [120]:0x20 0x26 0x12 0xFF 0xFE 0x02 0x00 0x00 |    X                          (         0,          0,          0)
[2019-09-24 14:18:09.022] [121]:0x21 0x26 0x12 0xFF 0xFE 0x02 0x00 0x00 |    X                          (         0,          0,          0)
[2019-09-24 14:18:09.029] [122]:0x54 0x00 0x00 0xFF 0xFE 0x43 0x43 0x43 |    X                          (         0,          0,          0)
[2019-09-24 14:18:09.043] Total 123 (Msg1 123, Msg3 0, Accept 0, ReJoin 0)
[2019-09-24 14:18:09.047] 
[2019-09-24 14:18:09.047] vt# route
[2019-09-24 14:18:10.762] 
[2019-09-24 14:18:10.762] 
[2019-09-24 14:18:10.762] Routing Table : [0000]-[1024]
[2019-09-24 14:18:10.767]                      Dest   Next_Hop  Route_Cost  Hop_Count  Weak_Link_Count
[2019-09-24 14:18:10.774] 
[2019-09-24 14:18:10.774] vt# vtmsg: slow down... level is 1 (busy_index=6)
[2019-09-24 14:19:36.977] vtmsg: slow down... level is 1 (busy_index=6)
[2019-09-24 14:19:49.102] check white list from spi 0
[2019-09-24 14:22:17.376] vtmsg: slow down... level is 1 (busy_index=6)
[2019-09-24 14:24:33.547] check white list from spi 0
[2019-09-24 14:25:25.810] vtmsg: slow down... level is 1 (busy_index=6)
