bandplan FCC
analog_gain 57
digital_gain 6
6352
-7244
4188
12264
-11056
-1984
1772
-3456
-1932
13672
-4316
-3256
-2140
-3696
10524
-10704
6472
8336
-13996
3812
2508
-4076
1044
4488
-364
-1028
-4320
516
4520
-9012
10616
3136
-10880
5068
-2320
-992
-952
5328
4088
-6800
-1956
2304
-800
-6224
11548
2112
-7156
556
-3200
2032
-2208
7356
3400
-9008
-1956
1412
1568
-1884
7144
96
-6312
16
516
772
-4080
8856
1248
-8044
532
496
-416
-1884
8612
-852
-4796
-160
560
-640
-5728
10892
808
-6164
988
-1004
-1792
-2944
11484
1472
-7312
-1432
-1804
592
-1168
11352
-2244
-6948
84
-2172
2724
-1176
9208
-3560
-5428
1692
-1896
1592
-2620
8432
-1260
-5304
-444
-120
836
-1712
9644
-2748
-6700
-300
3448
-204
-4116
8420
-3536
-2508
3068
-588
-3456
-2936
9652
-1680
-1872
-280
-1788
-1252
156
8680
-5248
-3144
612
2404
-1260
-3720
9996
-3636
-4232
1856
760
-4360
60
11020
-5628
-2980
-764
1684
-416
-2548
9916
-5032
-3440
1424
-324
-2156
1188
8536
-6344
-1252
-52
104
-3184
692
11964
-6192
-3404
16
-1656
-2536
4608
9036
-6940
-4228
-360
2512
-2968
3484
8368
-8436
-1812
-252
1636
-2756
2712
7664
-7196
-1568
-1556
2644
-2024
2788
8144
-9364
-1472
1108
1444
-3272
2944
6656
-8888
764
1336
1384
-4080
2668
8096
-9336
-1648
1168
2356
-1728
3144
5052
-9752
-1264
2860
3352
-4224
3836
4844
-8736
-424
1204
2584
-3284
3252
2860
-6732
2504
1616
-880
-5240
5984
4412
-7120
1012
-360
320
-3716
6332
3872
-8092
284
2072
1316
-6820
6344
4544
-6384
1016
-916
-388
-5180
8232
4864
-6880
-892
-2404
2252
-1556
7248
1508
-8648
-324
608
1620
-3000
9188
-120
-7744
860
-1168
1740
-2972
8452
1168
-6632
-1132
-496
772
-2884
10672
-168
-7468
-2304
2056
2832
-5448
9652
-1240
-6676
1932
568
-1192
-3584
9228
-604
-3784
-644
-672
-996
-1964
11692
-3584
-5672
-424
724
1608
-3932
8988
-2464
-4468
84
4364
-2028
-8636
13376
-2792
-1568
-2896
876
1104
-7348
16288
-7708
-2200
-312
-752
1356
-2148
10780
-7212
-3128
564
1800
-1808
-1396
9396
-5264
-2084
888
380
-2660
-836
10516
-5004
-3768
-96
340
-2500
1748
10728
-6620
-3624
-244
1816
-3084
888
8516
-5996
764
-768
-1220
-4996
2336
11228
-5960
2240
-5376
-3424
-844
6196
9228
-9020
44
-6600
5244
-2652
2452
10700
-9804
-2644
504
3668
-5936
3548
7052
-6848
828
-1144
876
-4680
3240
8764
-6212
-2048
-592
752
-3220
6044
4168
-8380
1044
228
896
-4076
4832
5544
-6532
172
-40
-840
-6260
8168
6796
-7500
-464
-2840
2412
-3668
6044
5420
-8508
948
-1548
1324
-3032
5756
3728
-7548
84
296
2164
-5516
6948
4016
-7688
712
-412
-1164
-3740
12076
1780
-9784
-804
-1652
3720
-1720
8076
168
-9528
288
2600
2352
-4824
7508
-884
-5520
952
-656
1268
-4144
9716
264
-6568
252
-188
-400
-2740
10544
-2472
-6660
1536
952
-704
-2360
9816
-3312
-6224
2424
1584
-1468
-3224
7892
-2216
-3016
988
720
-2164
-3728
11648
-1792
-5920
84
208
-1080
-504
9000
-4948
-3948
1652
1368
-476
-2216
7908
-4660
-3216
1844
748
-2872
-1700
10376
-3948
-2404
-292
300
-3824
344
13112
-7232
-3680
-1756
1224
-240
2316
8204
-9088
-1648
608
3192
-3100
464
7228
-7840
2752
-444
-1224
-3856
2008
10796
-6784
-1784
-1516
908
-2776
3872
8048
-8372
-2200
656
2928
-4252
3356
5844
-7172
-772
524
2836
-4832
3364
5376
-5704
904
-1616
-596
-3484
5752
6092
-4804
-1928
-3872
1416
-2528
8980
5320
-10816
-1412
392
2436
-3840
6892
2740
-8452
2228
288
952
-5648
6024
3900
-5204
736
-2088
84
-4164
8152
3712
-5892
-760
-1792
664
-3236
9180
1544
-8012
296
208
828
-3116
9080
-1660
-6088
2128
624
-464
-6424
10936
352
-4968
876
-2924
-1560
-2572
14140
-932
-7100
-808
-2380
224
-28
11200
-4204
-4544
-1696
-800
1884
-568
9924
-5452
-4672
796
1964
-2884
-2208
11464
-4408
-3032
-856
-600
-1492
1196
11260
-5732
-4968
-2296
2088
-164
2628
8444
-9232
-3084
-116
3948
-1736
1672
6276
-8668
264
748
2352
-4612
2588
6964
-6936
-956
100
2620
-6144
5588
6268
-7112
-736
-1848
3308
-3684
4732
5220
-7788
-1760
208
2836
-1312
4036
-1372
-3384
1120
3044
-2080
-6540
9732
-2192
-136
-1372
-360
-336
-5908
10940
1460
-6212
148
20
-1752
-2620
9248
612
-7488
-40
1444
1780
-3844
7880
-512
-7372
1384
904
1288
-5508
8516
1124
-5564
768
-2592
1020
-2388
10824
-620
-7792
-900
-1260
1480
8
10432
-4148
-7064
-1156
5044
384
-5432
10588
-3184
-6336
-372
7252
-7248
-244
10664
-7024
-364
196
2520
-5288
152
8648
-5040
-260
-3620
2368
-2008
2140
9468
-9416
-1096
-860
4032
-3044
476
6372
-6500
592
-396
2836
-5144
2176
6656
-6616
572
616
1852
-6716
3176
7632
-4756
-760
-2312
256
-5648
9104
7892
-8980
-2712
-988
1160
-2856
9004
2404
-8576
-560
844
2724
-5584
6552
2472
-6852
1388
1812
-1268
-4612
7768
1388
-4656
-232
-264
-1888
-2248
9464
692
-3844
-2700
-1164
-324
-1756
11332
-2216
-5612
684
-1456
-816
-68
7372
-2468
-2656
-596
1364
-1184
-4052
11064
-1744
-6624
340
664
-2432
604
11444
-3720
-5476
-1856
-820
-692
3112
11292
-7696
-5752
752
1344
-1352
2616
6580
-9124
1288
1624
824
-2952
-80
6696
-7248
992
1596
528
-5312
3988
8200
-7364
-260
-2660
1576
-5480
6940
8756
-8724
-1520
-2812
2980
-2372
7528
1780
-9464
1128
532
2568
-3056
6116
-1208
-6344
2548
2036
528
-7424
9816
708
-6544
1440
-300
-1020
-4108
11936
-1256
-5872
272
-872
-52
-2256
10580
-3240
-4316
-1940
760
1356
-400
9584
-9160
-3084
2356
2460
-1184
-1144
6260
-5668
648
-1648
2588
-3292
-360
9428
-6320
-964
-564
2024
-5284
3436
8476
-7080
-888
-1792
1608
-3004
5776
4028
-7476
-820
20
3152
-3356
5592
2200
-7760
96
1544
1296
-4492
5432
2500
-4740
500
1492
-1600
-6092
8936
2504
-5764
1704
-2608
-916
-1288
7740
1012
-6224
-528
848
684
-2500
8736
-2968
-6196
1468
980
-108
-2048
8768
-3764
-4908
3224
1580
-4440
-2904
10580
-2188
-3552
640
-244
-5784
2248
11600
-4868
-2708
-2312
132
-2060
3464
8452
-7388
-1652
-2056
196
-316
6184
4508
-9024
512
-864
1620
-3804
5612
5304
-8448
304
520
180
-5580
7592
6604
-7184
-1488
-1828
-400
-2660
11260
1048
-7756
-1196
-3148
4592
-916
8488
-1936
-8248
-588
1908
2768
-2336
8836
-7332
-4060
4340
600
-808
-6472
10456
300
-3736
-2276
1660
-4072
1964
7488
-3108
-1408
-4844
5772
-7544
5308
7768
-6720
-780
-3688
3564
-3188
5964
5904
-9864
-1352
-1316
4436
-2800
5716
2208
-7708
1800
-752
3288
-6908
6072
3324
-6912
2144
736
-64
-6628
10036
572
-5480
1192
-2164
84
-1768
10384
-2320
-6208
-1964
1452
-180
1992
10780
-9944
-3592
1236
3796
-4996
2560
6596
-8860
1660
68
5960
-6952
-304
6264
-4104
1532
-1720
320
-6056
6332
6784
-6284
188
-2828
808
-4240
7124
5660
-6232
-1768
-2424
1444
-3668
10248
1340
-8396
-240
828
3464
-4192
5560
-548
-5464
800
2536
-556
-4440
8944
-972
-4764
640
252
-2844
-364
9392
-3416
-2448
-612
-736
-3308
2096
10212
-4836
-4436
-1108
2020
-1356
2300
5788
-6072
-2620
28
4084
-4208
3100
5328
-7052
1344
560
-1256
-5692
6976
4456
-4096
1424
-3156
-2088
-4104
9364
4312
-5764
-604
-2196
-1924
-1744
11092
1068
-7388
-1608
572
-832
-952
10100
-1732
-6564
-876
1884
-1484
-1072
8996
-2644
-2996
-664
-600
-2764
844
8968
-3944
-1676
-68
-2156
-3344
5716
7976
-7360
-1768
-2252
-1824
956
7948
5908
-10324
-4108
1304
2500
-1788
7672
1376
-11144
544
3220
2292
-3804
5472
-580
-5624
3296
1856
-2416
-5088
8972
-1820
-3172
1832
-1768
-176
-2080
9320
-2368
-3352
-956
-1820
-1744
2820
10196
-6236
-4464
-1588
3056
-1148
2412
6964
-9084
-2012
3392
2924
-6592
3496
5340
-7440
1048
1072
2084
-5652
5948
2900
-7248
2608
-540
-1724
-4328
10176
1072
-5120
496
-2780
-388
-736
11288
-4564
-5632
756
-1208
1760
-580
9212
-5736
-5852
2508
2168
-1416
-52
6968
-7972
-1268
3136
1612
-3800
1608
5840
-7016
1384
-696
1276
-4376
4888
5852
-6456
-4
-3220
940
-2820
10108
1068
-7900
512
-1620
2220
-2560
9412
-3308
-6288
1440
1036
1916
-3808
9488
-5904
-6480
3992
4164
-2140
-3600
8472
-5272
-192
-140
92
-3728
108
9940
-4712
1052
-2144
-2620
-3908
6616
6160
-6792
1276
-3404
1224
-3408
7880
4108
-10096
-60
628
2192
-3452
9416
-1492
-7760
1788
-68
1828
-5192
8780
-1300
-2776
728
-640
-1428
-4916
11192
-2064
-1796
-436
-1952
-4328
3112
11904
-8320
-2700
-644
1604
-2552
5804
5684
-8592
-2484
-2108
4960
-4348
9716
1808
-10384
1472
36
5632
-6924
2136
3360
-4704
4532
-1764
-2548
-620
3840
2972
-4668
1056
-72
-5336
832
9968
-2684
-2756
-1632
-2236
-1944
4304
11428
-7876
-4168
-2364
1632
-620
5280
5356
-10616
736
-20
3676
-2872
3600
1756
-6948
1268
1028
4120
-8116
6704
1196
-6124
2660
1076
-880
-4660
9664
-2572
-3880
2848
-2104
-5760
3116
12864
-5272
-6796
1280
-2052
-2844
10320
4692
-9064
-3852
696
4880
-3500
4740
2652
-8656
1184
596
3608
-6040
6292
2792
-7372
1680
-284
1012
-5208
8412
-76
-3016
572
-2700
-1908
-2184
13332
-2820
-4812
-824
-1664
-836
2196
10228
-8564
-3564
572
2864
-2548
3456
6832
-10320
-516
-320
5716
-3644
2580
2896
-7980
3356
-952
2304
-5740
6368
3464
-6064
2860
-2832
-1360
-4892
11224
944
-5956
44
-764
-284
-1452
12624
-6312
-6408
-368
1528
1284
1100
8132
-8084
-3028
-1328
4276
-604
1520
5884
-9096
300
724
2992
-6588
4280
5096
-6096
4252
-2720
-1140
-4592
8176
3024
-6320
264
-1712
920
-3668
9992
1496
-7812
-2228
920
2328
-40
7900
-7084
-5176
1056
5436
-344
-2980
5924
-7744
2600
2132
1256
-5220
-1204
8364
-6012
2416
92
-632
-6904
5580
7504
-6604
1716
-3584
480
-5196
9260
4372
-7964
528
-2356
848
-3456
11212
524
-6832
-1804
-1908
2568
-2172
11172
-3344
-6804
480
2384
-1872
-1900
10592
-7084
-428
548
-1256
-1936
216
9984
-5272
-1272
-2264
-1100
-1116
4184
7488
-6840
-1888
-2448
2176
-2676
6440
5612
-7836
-2264
-2452
4308
-4588
8520
2980
-9472
1176
136
3096
-4876
7348
-1300
-6996
2328
1576
1688
-5780
8956
-2220
-3808
1964
-680
-3096
-1644
11592
-4640
-1860
-2080
56
-1584
452
12012
-6916
-3748
-1996
3104
-2228
2676
8356
-10184
-1368
596
3080
-1756
3072
3616
-6856
-1452
2528
1920
-6464
7676
376
-6108
3684
-244
248
-7224
8524
3036
-4912
164
-852
-2588
-3484
12420
-1484
-5332
-820
1588
-1608
-2004
10468
-4876
-1064
-2572
-2176
2292
36
10708
-10012
-1832
3220
-2848
2960
-1620
6920
-6968
-1136
3840
-2176
-4732
5636
4324
-4632
2028
-2328
80
-6928
8332
3908
-5212
1412
-1992
-1404
-5264
12584
296
-5208
-1280
-2340
336
-232
11212
-4108
-6116
-1116
2380
-2040
2304
8716
-7828
-2096
-1404
4268
-2852
-468
10716
-7748
-5424
2880
4632
-5212
596
9644
-9880
-568
4364
-2480
-4432
6768
5744
-6992
-1660
-1548
-192
-1740
11960
-1684
-6264
-1552
0
652
-1836
11288
-5244
-5304
1540
1164
-2776
1844
7772
-7636
-1924
2220
3352
-5636
360
6940
-3084
72
-2596
808
-7528
7308
7948
-5120
-720
-4424
240
-3520
10484
2620
-6588
-1796
-2116
736
-1292
11560
-3188
-5460
-1872
960
2704
-2468
9304
-6936
-5068
1836
3696
-1340
-296
6524
-7004
-624
1468
2752
-6400
1680
7444
-5380
880
-952
-212
-5776
6472
6228
-4704
-508
-3320
48
-4648
9968
3364
-6848
-2156
-524
880
1000
11368
-9480
-5792
860
3776
2072
-3468
8740
-8648
-2464
2712
4380
-3916
-1260
7992
-7960
556
1280
3180
-6964
1384
6060
-3308
2924
-2684
-1100
-6592
8720
5040
-5864
-500
-3732
1252
-2352
11836
-652
-8868
-376
368
960
-732
9872
-5288
-4800
-1240
4560
-1468
-3044
10328
-6928
-720
108
1516
-2532
296
5592
-5964
2828
-1300
1764
-6168
5992
5000
-9328
3184
-252
-1680
-4916
12412
528
-6088
-2152
-692
2092
-4932
12528
-2212
-6396
-1508
1844
-196
-372
9488
-7104
-1972
-1124
3312
-1336
-800
6272
-6836
376
1240
2724
-5812
3956
4556
-6916
1752
-184
1752
-8836
8300
5056
-6592
1840
-2684
-52
-4620
10676
492
-3920
-2216
-1724
136
-2840
13684
-5152
-4060
-512
-932
-412
2840
10432
-10476
-4256
824
3964
-3724
4204
7332
-9440
-1028
60
3296
-5144
7360
1072
-7084
1436
760
1500
-6760
8932
-516
-2328
600
-2016
-1356
-2528
12092
-5176
-3204
-1196
956
-564
524
10028
-9328
28
-1272
580
-2740
6104
9012
-15004
488
8
5700
-4740
4252
6348
-14576
8056
-1908
1184
-4652
4148
2864
-4464
3836
-3592
-252
-4008
10380
-2948
-2488
1364
-1248
-3456
-1728
13336
-5924
-1564
-1984
-504
-2648
2964
11660
-7920
-2424
-3404
1500
-2804
8060
6144
-10948
-488
-36
2904
-4068
8012
-16
-7248
964
-832
6408
-6584
5156
-1396
-2348
2140
-632
1044
-8580
13480
-5104
-656
1820
-4740
-2108
1704
11972
-6904
-2800
-1364
76
-3448
7672
6604
-9240
-1116
-1364
940
-1428
10416
-1228
-9684
-568
2184
4536
-4212
8568
-4936
-5576
2648
1688
-300
-2500
7036
-5780
52
1300
532
-3772
1316
8412
-7728
888
316
-336
-5276
4476
7980
-6940
-500
-1020
232
-3720
9260
1408
-7496
192
4
-368
-412
9268
-5368
-4272
-28
2472
-300
472
7340
-9348
-1332
3764
708
-4632
3412
4728
-5632
1152
1116
-1056
-6216
7372
2480
-4072
2692
-3000
-2564
-3184
10292
1824
-6184
120
-868
-2828
320
10592
-3284
-4024
-1816
-112
-2424
3268
10836
-6576
-4812
-1716
1988
-2024
5900
6000
-9172
-900
-368
1428
-1952
4232
3844
-6188
-520
1656
-480
-4124
7804
-924
-4300
2872
-16
-4652
-1272
10036
-2412
-2492
-480
-572
-5024
3868
9452
-4688
-3104
-2244
-4
-4252
10064
5916
-8816
-3496
-1404
3848
-1964
8516
-672
-8032
-1412
2104
2504
-884
7036
-5900
-4552
1472
3520
-1980
204
5440
-5564
-328
440
2484
-6560
3056
7152
-5424
568
-604
-424
-6688
9384
3816
-5848
-324
-2308
148
-3668
10836
760
-5176
-2900
288
-448
24
11084
-6520
-4748
-1940
3184
-268
3348
6956
-9356
-2348
-584
4284
-2780
4756
2920
-8436
500
2540
1772
-7492
7808
1296
-4520
1472
740
-1320
-6720
10220
-804
-2052
-1084
-464
-3336
700
12992
-5784
-3764
-3856
1116
-2508
8376
6800
-11360
-1092
-356
3628
-4620
7812
1968
-7996
876
28
2320
-4916
8876
-3532
-5264
3724
1976
-1796
-4064
8452
-5696
2380
264
-1256
-4004
-428
10576
-4956
-604
-1776
632
-6296
6348
9200
-7576
-752
-3180
-588
-3140
11748
1000
-6548
-1616
-2756
4364
-1864
9620
-5308
-5880
1564
1584
-60
248
6620
-8584
-1056
1780
3548
-2724
1044
5000
-8204
1252
1952
1668
-7028
4432
5116
-5200
1140
100
-976
-5316
8868
-376
-3492
3572
-3128
-6188
2612
10340
-1632
-7440
1200
2032
-7724
8980
5780
-6628
-4688
1316
2336
-4420
8208
2184
-8480
-208
3208
-496
-3088
6420
-2220
-3040
2124
1232
-2020
-3832
7916
-2128
-2660
1868
-200
-3216
768
6252
-3844
-92
160
-72
-6436
4812
7952
-5504
-1392
-972
-1164
-4072
9756
4784
-5896
-6492
664
236
1660
7848
-228
-7012
-5352
7216
-5116
4860
7292
-7516
-1628
-1468
2548
-3744
6112
3168
-6140
-940
-720
3944
-5024
6728
1560
-6188
0
1576
-1600
-4396
9080
156
-1168
-2508
-240
-3508
-76
11556
-5092
-2704
-1932
724
-3536
5920
6796
-6848
-1984
-2172
2396
-3184
10712
-108
-9704
-920
1632
2972
-3092
9824
-5216
-5336
1296
3416
-1144
-2492
8116
-7428
28
-8
2732
-3380
1648
5432
-6508
2816
-2020
2292
-6452
5136
5240
-5436
-384
-1496
1572
-6244
11884
252
-6016
-432
-1324
192
-1900
11476
-4508
-4072
-2920
2940
-812
-284
10640
-7504
-2836
-64
1624
-3440
6056
3280
-9152
2000
1052
1904
-4252
6448
-1200
-5400
2596
268
-340
-3800
10092
-3972
-3676
1340
316
-2452
-1368
10252
-4152
-924
-2068
-1324
-3664
5168
8564
-7436
-608
-2204
732
-2028
8120
1652
-9544
980
1248
-268
-1672
10528
-3184
-7560
-12
2548
-676
712
8080
-7432
-3076
1324
3192
-3500
2304
4260
-6440
2584
-308
-756
-3648
5684
1620
-3988
1164
480
-1536
-5176
9004
-128
-2164
-280
-1080
-4224
144
11112
-2528
-3040
-3360
152
-2880
5304
8112
-5672
-4940
-2296
3468
-2580
8524
1896
-8932
-1392
2988
1388
-3548
7912
-3664
-4908
1240
4628
-2560
-3264
7992
-4372
-1100
1180
1296
-6720
2796
8536
-4872
-440
-2356
-816
-4932
10168
4140
-6184
76
-3216
-1628
-2500
12708
-1392
-4264
-3020
-1312
552
1908
11568
-8676
-4632
-2104
3372
252
3132
6612
-10364
-1288
1180
3460
-4608
6224
1976
-8024
2432
480
920
-6180
8076
-1112
-2152
2940
-896
-3572
-4132
11136
-3280
-716
-456
-1900
-3660
2264
10400
-5628
-440
-2460
-1876
-4052
8176
7564
-7156
-2592
-3888
2804
-3128
10368
2172
-8360
-264
-1668
-8
-304
10856
-4896
-4852
-804
1212
912
84
8288
-7972
-2272
884
2104
-4108
4944
6356
-10472
1180
628
1072
-4116
7852
1648
-6856
700
-972
-20
-680
6072
-2772
-640
180
1028
-7256
5740
5816
-7016
2640
-3660
2616
-6424
8440
4832
-7848
-1236
-1128
2424
-3016
9736
-156
-7480
-2696
1600
1256
-500
9496
-6176
-4592
1616
1584
-756
1664
3292
-6744
-132
2204
3716
-6324
2912
3664
-5980
2352
2136
-1804
-7064
9552
1632
-4664
-212
2488
-5788
-4748
13340
1064
-2068
-6360
2412
-8684
6976
11340
-8420
724
-6564
3052
-3180
8972
3568
-8896
-1772
-1176
4952
-3744
10088
-2644
-8460
-400
3804
2032
-3116
7840
-7736
-988
1916
2804
-2864
-1856
6724
-6488
2096
1624
1156
-7744
4264
4148
-4168
2560
-1124
-560
-8080
12264
1268
-5860
216
-1648
-1228
-1968
12556
-3624
-3348
-2880
-976
-716
2964
10276
-7164
-2552
-2476
556
-2904
8400
4276
-9916
1444
152
1540
-3768
7464
-540
-7216
1636
1828
-244
-2960
8172
-4040
-2172
1880
-364
-2812
-292
8436
-5424
728
-812
-1796
-3480
4248
6684
-5352
1300
-868
-3508
-3840
10416
1976
-5872
-2480
-604
-28
1004
10868
-4832
-6152
-1316
1932
-1380
3164
7092
-5560
-3812
-1704
2648
-3064
8688
1964
-8532
-40
1576
568
-3864
8884
-3376
-3968
984
1736
-1308
-2432
9052
-4544
-2928
1500
2356
-6756
1920
7752
-3992
488
-2404
-452
-5700
7872
4812
-3084
-1224
-2884
-1524
-4440
13076
112
-5536
-2724
-304
-1236
2828
11724
-8144
-4940
-2156
3600
-1708
4908
6860
-10248
-2432
172
4268
-3276
7928
-1380
-7000
1224
844
3068
-5692
8036
-4856
-1420
1944
864
-2160
-2216
9400
-6684
740
-384
768
-5112
3144
7964
-5680
660
-3436
-916
-4612
11516
3840
-6444
-1268
-4248
740
-828
11452
-2592
-6120
-1860
792
-296
3412
8864
-9340
-3068
-572
2920
-528
4172
3180
-9912
108
2356
2768
-4036
6000
200
-6700
3000
824
-1828
-2968
7188
-1944
-2032
1132
88
-3652
748
7912
-4904
-436
580
-1580
-5096
5736
6408
-5756
-364
-820
-1764
-3652
10348
2588
-6128
-2496
-500
-1092
-136
10308
-3372
-3552
-3144
1880
-1560
3780
7236
-8516
-2220
28
2404
-2140
6924
-724
-7412
856
2892
2608
-5880
6960
-3080
-3012
2152
2188
-3132
-4480
9416
-3288
404
-372
72
-4692
1720
6492
-2912
92
-2712
568
-5804
9252
3340
-6360
8
-1688
-1104
-2860
13068
316
-7712
-5056
3680
-1004
1632
7640
-3920
-4336
-4436
8968
-6928
6812
3252
-9136
2096
-752
3312
-5912
7996
-200
-6384
3012
160
-764
-3916
8840
-3072
-1356
508
-368
-3792
-1460
11880
-5544
-312
-284
-1272
-4836
4268
6852
-4604
544
-3124
-2132
-3220
11620
3188
-6808
-2008
-3168
-1104
4812
7848
-5896
-4288
1656
-204
-3172
7840
1980
-3900
-3572
-1676
3420
-3672
7960
1476
-6840
-1480
1904
912
-2636
7616
-2776
-3836
964
604
-2552
280
7460
-4044
-1648
-764
2824
-5016
2240
7332
-5316
-684
-1948
324
-5220
9604
4440
-5904
-1728
-1880
-720
-2348
11900
-2028
-4588
-2636
272
-336
1364
10432
-8084
-3852
-784
3872
-2592
4644
5096
-9472
-52
-700
3752
-4028
6816
-296
-5448
916
928
2252
-6976
8724
-3324
-2060
2840
456
-3304
-2764
9080
-5072
480
840
-516
-6680
5088
7872
-5720
900
-3436
-876
-5744
12024
3972
-8912
984
-2712
-552
840
9948
-4308
-4820
-1492
1164
824
1260
7128
-8252
-1312
576
1020
-812
4680
1968
-8372
1876
1992
-588
-4356
7024
-392
-4060
2900
1104
-4500
-2420
9080
-2476
-2280
732
-144
-5928
3728
7208
-3408
232
-2772
-2440
-2824
9412
1944
-4036
-1092
-2404
-2468
-1180
12488
-1708
-4012
-3540
528
-1700
2860
9828
-7388
-4736
-420
3228
-3436
7316
2332
-6540
-1688
-656
3488
-2712
8960
-4760
-5760
1876
2512
-976
-2936
8520
-4788
-476
-384
884
-4352
2976
7152
-6644
400
-1752
2132
-6372
7128
5232
-5504
208
-3420
-556
-2692
11820
-908
-5616
-2136
-508
252
336
11872
-7532
-4968
528
2868
-3808
4148
6760
-10104
1156
-368
2224
-2632
4972
776
-6324
2660
624
-1100
-3172
8256
-4204
-1388
2236
-716
-2208
-2216
8328
-4080
544
2248
-3532
-7368
5636
8224
-3012
-1364
-2644
-2000
-3776
10308
2596
-4356
-2556
-2300
-2708
2876
11180
-3872
-3504
-4148
-960
-472
7452
5792
-8468
-2696
-660
2424
-2652
8332
456
-7204
-928
1072
2912
-3200
6928
-4500
-2752
1088
2944
-2108
-2420
6032
-3372
1612
-1304
684
-7272
5540
7680
-6440
880
-2444
-1636
-3348
10580
648
-3204
-1904
-2696
-688
-1448
12600
-4300
-3208
-3624
1220
32
2256
8372
-8156
-2300
-1564
3020
-2744
6260
2880
-7420
2532
-4504
1604
-904
8940
-1576
-9560
6184
-2644
-224
-180
7440
-3820
-4572
3580
-1428
-2456
3084
5044
-5384
788
-476
-1944
-3004
7680
2384
-4212
-620
-1628
-2024
-476
9760
-3344
-3924
1056
-160
-3120
4024
6168
-5416
-3556
-836
3168
-3500
8088
1112
-8084
-240
1544
820
-3144
11532
-4572
-9224
3912
3068
-1608
-1944
9576
-10668
288
4780
-564
-1800
-308
5220
-6208
1944
136
536
-6160
6924
2640
-4156
1808
-1736
-3360
-2392
10812
-1252
-952
-3660
-1880
-3320
3308
11176
-6236
-1600
-3616
764
-1000
7976
1856
-9216
-720
108
2724
-932
8556
-5256
-4144
-724
3532
1208
-4740
7704
-6312
188
1708
1768
-4568
720
5376
-5548
3416
76
-524
-6256
5612
2904
-3668
2004
-1980
-2156
-3864
11500
-264
-4332
-664
-2408
-2036
3748
7960
-5840
-2648
-568
984
-3252
7000
3428
-8040
120
888
636
-2828
8076
-2392
-7420
3956
2712
-3808
676
5452
-6044
1448
1720
56
-4444
1428
3520
-2332
1932
-392
-1760
-5372
8884
-436
-2680
1784
-1800
-3232
-1232
10180
-2852
-980
-2828
-648
-4284
5072
9520
-7144
-1636
-3772
3428
-3740
7900
3348
-8112
-1028
-624
1612
-1452
9492
-5976
-1436
-596
-196
416
-556
7752
-7248
72
232
1312
-4616
3692
5456
-5996
1720
-728
-940
-5440
9392
828
-3500
388
-3236
-808
-940
10064
-3252
-1964
-708
-2732
-2488
5352
7204
-7016
-1184
-1224
-240
-848
7660
904
-7584
-324
48
2760
-920
4896
-2624
-4796
1172
3016
-1336
-472
4536
-5916
808
2124
656
-4332
3560
1856
-4792
2528
1620
-1580
-6176
7380
348
-1244
456
292
-3952
-2856
9448
-2576
172
-2816
1068
-3812
2700
6768
-5364
820
-3120
388
-2720
8088
1864
-6060
-2388
1728
-340
-1276
11128
-8528
-2540
1400
2188
-984
-1736
6556
-7380
1784
1584
812
-3592
2724
1404
-5320
4572
-420
296
-5224
5384
-816
-756
4052
-4472
-3344
-152
8556
-1972
212
-3416
-2380
-1332
3996
6912
-5424
-864
-2160
-552
300
6512
-1700
-4292
1624
-1516
604
1004
3408
-3928
-872
1060
1340
-1720
4
2428
-2596
1080
1112
-128
-5404
3380
1856
20
1296
-1260
-2936
-2248
6240
-540
-696
-1384
80
-3448
3212
5060
-4024
1716
-3588
-296
-1708
5252
1756
-3416
-1116
-1216
1872
-688
5304
-4200
-1420
-876
2520
1252
-464
760
-5596
3384
-20
1284
-1312
952
-24
-1724
3168
-1028
-852
-2604
964
492
2884
800
-2116
-1772
-2032
4128
1412
-360
-2532
-2192
1120
2672
1572
-1420
-2084
-1672
1500
1760
1204
1572
-1848
-6636
1468
4864
1716
-812
-5468
3340
-2740
5244
1700
-5580
1204
-3780
3072
1544
1424
-1024
-1544
-664
-12
2084
424
-1708
-700
120
1072
632
-680
-64
-1464
1472
1256
-580
-656
-1224
-704
1272
2484
-1044
-1024
-756
-864
2584
1224
-680
-3088
-664
1968
452
1324
2240
-6128
-1844
5276
1916
-888
-2572
1116
-5636
4848
1704
640
724
-5644
484
732
4600
-168
-2876
-2032
-288
3064
1040
-908
-2396
4
2368
676
180
-2504
-988
992
812
1600
-500
-1128
-1248
-120
2028
596
-676
-788
-812
32
2300
-372
-912
-956
4
2204
-436
-764
-1292
348
1388
492
164
-1608
-668
-880
2152
2188
-1104
-1220
-1380
-120
1536
1412
-592
-1072
-2236
1656
2280
424
-1312
-1924
-328
756
1444
1232
312
-3468
-1416
1612
2048
1672
-1292
-2784
-420
1276
2256
-88
-1584
-1456
-12
1840
976
-228
-1208
-332
-1308
1884
1472
-1096
-968
-980
1668
660
212
-1744
-1404
2136
1024
168
-648
-1812
-1328
2652
2244
-884
-2244
-1432
672
2064
1940
-1072
-2336
-1392
564
2728
1984
-1632
-3048
-1116
2196
2116
400
-1232
-2636
336
2264
828
-764
-1948
-436
2156
1516
-1124
-1952
224
-172
512
2276
-952
-1652
-284
836
1296
304
-1100
-1512
-84
1384
676
924
-1392
-2568
1072
2112
1400
-1320
-2092
-608
892
2336
-108
-1412
-772
-732
1512
1956
-956
-2132
-492
1324
1788
144
-1524
-1244
-684
1912
1288
-800
-688
-1336
880
2324
-924
-1240
520
-404
-352
1084
-1220
-588
1240
1380
1180
-1112
-2884
-1212
1252
2144
2312
-1512
-1780
-1432
-596
3100
764
-592
-1068
-1352
912
1760
744
-1460
-2428
64
2440
1072
-856
-1560
-524
1388
1200
-784
-224
-772
-216
1112
276
-1172
-536
1220
980
156
-1628
-1300
468
1408
1180
140
-1272
-2088
-196
2248
1524
-548
-1128
-1980
516
2304
592
-676
-1976
-340
1088
1108
-192
196
-1608
580
1536
-1716
224
-920
452
1660
432
-1360
-992
192
744
1096
-556
-828
-808
472
1420
412
-1252
-1124
-224
1632
1444
-348
-1656
-1400
1328
1140
-476
-1008
-276
860
960
1404
-2128
-2476
3152
-284
-2280
2608
-1096
1888
-4060
3260
1508
-6284
6120
-3028
2768
-1376
-1860
68
-548
3408
52
72
-2892
-1136
756
2052
1200
-316
-852
-1392
-192
564
380
100
-232
260
740
-392
-944
-392
836
1564
-412
-1528
-1468
344
2736
940
-1256
-2032
-800
1980
-252
3052
-24
-6460
804
3436
2516
-4000
2200
-2848
256
3524
-3132
2552
-3068
912
756
276
-488
-972
732
772
372
-756
-368
100
84
-328
-836
260
1036
996
1156
-1576
-1660
-928
464
1604
656
388
-600
-976
-1052
744
1068
-316
344
48
-16
-304
-1100
-340
1132
896
-428
-960
272
1032
172
-560
-1180
-256
1044
668
688
-1412
-1368
1044
1004
-284
-144
-8
-420
600
-144
-224
-436
-16
856
276
-316
-1060
408
120
576
124
-788
352
296
-116
-224
-184
-988
388
1540
404
-804
-764
-80
836
-44
-844
-316
680
760
248
-228
-1388
-752
1344
1400
-116
-836
-1484
24
1224
752
196
-968
-1092
724
496
-276
336
12
44
492
-1172
-900
976
584
896
-148
-1976
-16
544
956
160
-1060
72
384
644
-832
-84
272
392
-100
-2148
516
1524
1016
436
-1688
-1260
392
1384
76
-612
-1116
72
1700
436
-536
-1212
60
936
156
-552
-952
-60
1132
1372
-696
-1388
-328
1008
1708
-1140
-2332
-684
1368
3244
464
-2136
-1572
-1496
1504
1836
120
-76
-368
148
-1676
-992
588
1540
1736
-124
-1092
-1804
128
432
492
1104
-968
-348
-196
204
888
-1040
836
312
-424
-656
-640
648
560
700
-1064
-784
832
856
152
-1080
-1716
1188
2336
44
-1696
-1684
152
2076
832
-1088
-932
28
880
480
-984
-556
1172
512
-632
-1464
-248
1248
2164
-80
-2696
-676
-60
1608
1236
-296
-356
-1168
-452
112
384
676
860
308
-1152
-1692
-144
1544
1132
-4
-1140
-880
260
1256
-464
-156
80
304
388
-1168
-984
396
1788
448
-664
-820
-896
1148
908
-1128
-276
-72
832
360
-296
-1128
356
1448
-720
-960
-384
992
1416
-780
-1092
-544
1076
636
-400
-896
-620
2048
2780
-4680
-2644
3164
2076
1212
-4748
4296
-4772
1744
2900
-4428
3632
-2428
2392
-896
48
-1156
-456
1340
-176
372
-344
-16
232
-648
-812
1236
1044
752
-1708
-1588
-388
1508
1780
-876
-908
-232
228
1436
-300
-2052
1024
900
-844
-292
-128
780
1296
-2076
-2044
5208
-1980
-1820
1432
-24
-796
268
3248
-6332
2788
204
2020
1248
-4132
-212
92
3384
-1420
-1580
-72
464
1872
-192
-1552
248
68
732
-568
-1288
1064
992
-620
-1136
512
1484
1016
-2164
-2056
1224
1616
604
-1696
-1096
1396
1764
136
-2576
-1712
1532
2812
-48
-2068
-1280
408
2216
-1224
-416
1244
160
-116
-2172
244
1400
1160
-632
-1592
-116
592
1548
-844
-1508
384
1584
764
-1456
-1824
1428
1744
-988
-1436
-1284
2444
2540
-2012
-1848
-636
820
2804
-624
-1840
76
672
-320
-496
192
1104
820
-1948
-664
124
1544
1380
-1596
-1504
536
1200
-700
-284
-128
1044
1076
-1840
-608
448
1128
324
-1720
-364
320
1428
280
-1556
556
1444
-748
-2196
-504
2152
2108
-1180
-2800
-52
3048
700
-1888
-1504
-144
2416
944
-2116
-1424
1040
2236
-128
-1896
-716
908
968
-1172
-80
2096
0
-2312
-1548
680
2528
2380
-2616
-3024
1216
2144
360
-1432
-1428
1260
1932
-2224
-1188
1844
2140
-852
-3428
-400
2252
2472
-188
-3220
-360
1680
352
-1548
-432
2160
1044
-928
-2780
592
3240
-104
-2764
-1348
1604
1924
164
-2640
-120
2656
72
-1572
-980
732
2076
-896
-3288
996
2928
564
-2264
-784
1464
600
-860
-2064
824
3268
352
-3700
-1340
1556
2632
676
-3680
-600
3232
604
-2820
-808
2736
584
-2436
-1368
1168
3960
-60
-4428
-1488
2732
3048
-1624
-3068
-736
3928
2180
-3484
-1908
1888
1208
-1308
-1312
408
3040
-12
-3620
-352
3480
1220
-3092
-2160
944
3408
356
-2624
-980
1472
1344
-2260
-196
1916
672
-864
-3008
520
4256
-60
-3564
-860
1744
2684
-856
-3668
104
3720
148
-3128
-308
2928
1076
-3136
-1496
1008
3864
-696
-3892
824
1760
484
-1424
-1240
1764
2668
-2092
-3912
1004
4604
40
-4088
-1564
5512
1084
-5704
-636
1972
5800
-5504
696
-1996
-388
7300
-7096
1248
-24
3364
-1720
-3072
2520
892
232
-3384
-80
3336
2464
-4940
-2144
3296
3052
-864
-4776
136
4096
1140
-3728
-1696
3728
2092
-2900
-3548
1640
4056
-240
-4232
308
4448
-216
-3656
-1832
3304
808
-612
860
-4336
3708
1092
-2428
-536
1884
3044
-6856
1128
816
5264
-2144
-6216
3384
3144
-252
-4288
192
3252
1892
-3892
-2140
3640
2688
-3668
-3192
2392
3312
224
-3664
-744
3320
700
-3964
-1200
3728
3648
-2968
-5144
1576
4764
-24
-4068
-532
3352
280
-3084
-172
3512
1488
-3716
-3884
2940
5004
-1760
-3916
668
2716
600
-3416
-2028
5288
1800
-4688
-1756
2900
2836
-1944
-3156
428
3908
180
-4456
-520
3560
1564
-2632
-2292
3268
2620
-3344
-3340
1952
4260
-1588
-4736
1188
5140
-588
-3732
-816
3396
1776
-4460
-1728
3864
2712
-2960
-4684
2424
5320
-664
-4692
-376
3208
908
-2872
-1048
3820
720
-4260
-2624
4184
5036
-3068
-4932
1624
3200
-24
-2616
-752
2432
624
-3456
-1024
6468
972
-5472
-1852
1864
3488
-1404
-4672
2864
5500
-3596
-4480
1992
4136
-772
-4152
-116
3144
1980
-2948
-2956
3620
2732
-4100
-2652
4508
2584
-2948
-3996
336
6368
-392
-5372
548
3676
-768
-3668
884
4364
1372
-4952
-2956
3580
2768
-2276
-2932
2052
4084
-1884
-4624
1832
3892
-612
-4296
-100
3856
636
-2528
-1792
3472
1004
-4740
-692
5368
1400
-4428
-1676
2900
2116
-2280
-3444
2052
3944
-2104
-3828
2632
4956
-2352
-5288
40
4180
1736
-3544
-2220
4340
1840
-4500
-1508
4292
1128
-3028
-2596
1528
4384
-1172
-3484
876
2732
-1700
-3028
1648
4340
-372
-4784
-408
3328
824
-2964
-600
3988
-40
-4444
-820
5088
2416
-4796
-3540
3444
2924
-3316
-1176
3924
1608
-3288
-4240
2900
3884
-2312
-2128
3260
-1120
-1928
-312
3128
1488
-1552
-1072
-7608
9664
1208
-4148
136
432
2300
-4732
1444
1916
2028
-2968
-3676
3868
3624
-2852
-3372
2128
1024
-1040
-228
900
2748
-2604
-4628
2828
5016
-1296
-4200
16
2860
112
-3260
1408
3688
-1352
-4700
752
4964
300
-3944
-3520
6512
2300
-7312
-272
4756
2920
-6212
1016
300
456
1056
-3652
4960
-204
-2484
-2556
2444
2964
-2508
-1616
1688
2056
-2076
-2216
1568
3160
-1760
-3300
2016
3388
-1592
-4312
1600
3196
-1052
-2112
-52
3700
-308
-4016
1064
3116
-1084
-3172
28
3356
940
-3348
-724
3320
328
-3132
-576
3912
336
-4132
-348
2956
1204
-3492
-776
4396
92
-3176
-2096
3400
3280
-3748
-2312
2680
1168
-3036
-424
3792
576
-2820
-1696
1936
2604
-1676
-2604
1968
1164
-3376
100
4940
12
-4036
-1764
1928
3824
-1596
-3380
1580
2264
-1896
-1556
2000
1412
-1916
-1860
1732
1848
408
-2824
-124
2200
-1580
-1664
2060
2500
-1940
-2768
1420
3036
-1284
-2396
756
1772
-1428
-2112
3012
2672
-2052
-3156
-596
3492
392
-2716
1560
2244
-2000
-2740
652
2960
200
-3084
1156
2968
-1924
-3428
2372
3012
-1996
-2836
588
2620
584
-2128
444
2272
-2540
-2336
2656
2544
-1540
-2792
52
2916
-332
-1456
1316
972
-2180
-2528
3228
3420
-2540
-3600
820
3000
-924
-1028
1536
436
-1312
-2332
1900
3440
-1900
-3384
1952
1524
-2524
232
2136
1220
-2124
-2448
2464
1680
-1648
-1836
1468
2184
-3020
-1212
3788
1164
-3212
-1816
1824
2244
-1320
-1976
1716
1472
-2116
-1168
3220
80
-3376
-312
2284
1724
-1812
-440
1012
-908
-584
-712
1740
1816
-2764
-892
3484
-708
-2940
804
1596
404
-1348
-740
1112
776
-1744
268
2108
-360
-2384
20
2184
-984
-544
1200
484
-1500
-1928
1736
3164
-1584
-2796
344
3808
-856
-4028
1688
1884
-972
-1048
1520
388
-1444
-516
1752
1420
-3156
-1244
2412
1160
-2228
-432
3480
-384
-2836
-984
1556
2032
-1444
-908
2496
-996
-2736
292
2372
940
-2016
356
900
-704
-896
208
1600
-752
-1796
808
2148
-488
-2268
616
2168
-2008
-316
1784
360
-2212
-1448
3916
1856
-6412
264
3348
2476
-3396
-2608
7032
-5824
1584
-988
1244
2104
-4944
2464
1172
412
-2620
1024
1488
-1332
-1512
1456
1792
-1428
-1728
1008
1924
-1728
-1204
2416
764
-1980
-1012
936
1520
-1404
-1284
2800
-500
-2452
1152
2280
-648
-2224
20
1160
964
-2036
-616
5348
-1728
-6396
2800
2508
1316
-4076
3356
624
-5040
2628
-1088
3304
-2420
-456
3040
-864
-3028
-704
3480
196
-1280
-20
1336
-1548
-2416
2520
2280
-1296
-2108
1032
904
-1076
292
1092
364
-2216
-1168
2012
1004
-1324
-108
2256
-876
-2516
888
1748
-416
-1808
832
1708
-1404
-1756
1984
1596
-1988
-996
1644
320
-1068
332
648
-448
-1728
-424
3632
-16
-3048
1216
852
-724
-256
556
1016
-1608
-2388
2496
2320
-2540
-540
1328
360
-952
484
1152
-1760
-1888
1160
2828
-592
-2816
1000
1644
0
-1220
-700
1912
-1756
-312
1824
732
-2164
-868
2004
224
-876
-192
1524
-980
-1832
1340
2156
-1352
-2184
744
1832
-720
-396
1628
-948
-1908
156
1980
804
-1876
-512
784
252
-508
412
1692
-1652
-1828
1308
1840
-1520
-876
1440
-48
-1100
-652
1936
1468
-2088
-984
1404
-820
-1000
1792
996
-1408
-472
-12
904
-456
-356
1532
-464
-2232
492
2328
-376
-1048
-784
1220
-152
-1104
1744
-48
-688
-856
616
1396
-1608
-176
1348
-756
-1388
1288
1600
-804
-1736
484
1368
-860
-576
1124
184
-1580
-132
1560
464
-1492
560
652
-1524
-60
1104
992
-964
-1448
928
876
-740
-528
1388
-128
-1872
1536
532
-1668
-544
1516
2316
-1744
-2120
948
300
-896
808
1892
-592
-2076
88
1488
-92
-1800
1476
1700
-2548
-152
1156
68
-760
-832
1860
604
-1768
-140
1464
-992
-992
1676
760
-1724
-1208
1928
1120
-1480
-876
1260
464
-1316
-368
1428
72
-1468
1140
936
-1424
-1088
1520
1268
-2200
-756
1912
244
-776
-808
1788
572
-2344
64
1276
-404
-864
1420
-532
-952
460
1072
60
-932
-56
1216
-188
-2172
676
1020
-368
-332
672
-292
-560
820
1516
-1120
-1944
672
624
360
-564
152
76
-828
1000
1072
-1704
-932
3448
-1228
-2944
1884
-376
3100
-4628
3056
32
-3880
4164
-3248
4400
-1456
-772
-168
-1148
-16
-120
3104
-500
-1812
-1412
2128
860
-956
396
-456
-1192
-88
1344
728
-784
-576
1380
-448
-2200
1060
1772
-272
-788
-108
-236
-476
-584
1948
1352
-2340
-584
1160
-588
2304
-1224
-3084
1516
160
2480
-1544
1604
-4120
1528
2536
-3012
2436
-1628
588
-1788
1596
1848
-2108
-596
488
1132
236
-1228
40
-344
-200
1016
664
-1364
-636
1928
-412
-776
-100
692
556
-1252
-76
1092
-680
-976
1040
296
-332
124
484
-488
-668
836
856
-1020
-1852
1052
1724
-372
-1176
604
-176
-732
1652
532
-1952
-860
1740
1264
-1420
-1280
484
744
-160
160
984
-1184
-1152
2248
348
-1488
-1276
1040
1400
-1768
420
860
-456
-556
832
704
-772
-716
-280
1068
-1168
244
1992
-1024
-1320
392
1656
-680
-1724
1456
716
-1388
276
296
-392
-32
924
532
-1116
-1792
1212
2056
-1488
-140
564
-1144
160
1108
172
-576
-980
292
1536
-800
-736
976
-796
-1092
2036
928
-1448
-884
0
1416
-740
892
432
-2300
-460
1072
1948
-824
-956
-220
924
-804
-456
2412
-752
-1692
168
1144
68
-1508
1300
1344
-3032
200
1980
-328
-424
64
1204
-1984
-612
1464
496
-296
-1568
1440
-36
-308
252
616
-304
-2224
1684
1076
-880
-76
-176
-316
-764
1180
1788
-584
-2064
-444
2020
-364
-976
472
388
-392
-252
1256
-144
-1100
32
760
-456
-460
828
-428
-416
712
776
-828
-1288
816
1216
-288
-320
-640
-520
236
1252
1032
-2192
-916
1548
804
-656
-624
660
-368
-312
1220
-292
-1880
876
1416
-428
-1232
304
1112
-1040
196
864
-36
-1256
-136
1188
-548
8
252
-336
-600
756
688
-876
1172
-788
-944
676
-532
1088
-512
-448
40
1000
300
-976
100
-856
496
844
-32
-912
-80
1140
-492
-228
300
24
-172
-448
96
112
512
-436
-40
256
-852
1336
760
-1140
-1004
188
892
-80
-740
-368
776
860
-176
-488
-240
-76
240
768
-264
-1396
-124
724
700
24
-992
1704
876
-5440
1980
2172
1132
-320
-3680
4008
-5228
4188
88
-1356
2132
-3892
2308
-1112
1900
-136
-528
-280
-532
284
380
636
-560
-816
-864
1696
152
-668
2072
-1372
-1328
768
-560
804
312
-876
476
516
-472
-384
520
-548
168
972
-80
-1416
-224
968
-1068
3744
-2344
-3124
2104
812
1880
-600
1048
-6920
2264
2228
496
2168
-3000
104
-1428
1316
808
680
-1604
60
648
-952
580
448
100
-848
-440
-56
340
2124
-104
-1976
12
-400
-268
1924
172
-936
-412
-724
488
1492
520
-1272
-592
-948
-144
2740
784
-1228
-2320
-100
1916
368
232
-712
-612
-488
896
1072
-508
-1364
-208
1420
-696
4
1492
188
-1284
-1084
508
360
-696
168
1208
-432
600
180
-772
-548
-208
284
396
340
-1164
1056
252
-980
72
256
276
-480
856
72
-100
-936
-1020
1856
-428
-516
428
460
-28
-256
752
-1212
-232
632
-312
-380
428
760
120
-240
-676
-740
1564
-356
-688
928
-1780
1648
1304
-1924
-268
-180
752
164
-680
856
468
-556
-236
-352
-88
-388
540
1140
-820
-472
828
-548
-364
468
516
476
-2008
260
1088
-196
324
-204
-380
-664
364
-16
844
880
-1264
508
-680
-1632
896
1932
-612
-400
512
-1196
404
264
144
312
-352
-840
-216
960
-88
484
1252
-1552
-1572
1048
20
340
1176
-684
-1488
-92
764
912
1264
-1564
-1572
1056
-736
876
1468
-980
240
-1560
-988
2192
876
-124
-1656
-576
792
888
872
-1108
-1072
-400
1200
628
-116
-804
72
376
-364
400
16
-304
-296
196
152
612
-104
-1316
296
808
-124
376
-440
-696
724
-88
40
772
-1672
-152
1144
372
-588
124
312
-768
524
180
-520
116
92
-664
908
-460
-248
1452
-336
-1912
536
2072
-1452
-212
236
-452
916
-336
-368
620
-396
28
208
-864
524
844
-388
432
-1216
-992
824
1020
764
-164
-788
-964
268
32
568
28
-904
1212
836
-684
-1104
-336
772
172
-380
-116
500
360
404
-528
-948
336
-708
1004
120
-168
1328
-1312
-1052
2408
-2224
-1104
3616
-1424
-496
-1652
5940
-4604
-1256
2988
-4120
5472
-2776
208
-88
-80
604
-496
736
-1492
1192
32
-1144
304
1256
228
-1076
-736
-144
848
308
-8
268
652
-1092
-860
32
312
1044
-64
260
-1872
-444
2424
256
-712
-168
-792
-704
920
268
3560
-3968
-3180
2896
2672
-1328
-152
1240
-4668
3648
-1508
1684
-548
-1164
1248
-1428
2584
-1564
-428
776
-288
-640
324
684
-508
216
-264
124
620
-1012
-244
824
116
-420
232
-244
-264
692
444
-636
-868
344
288
1112
-384
-1948
1048
788
-880
640
-124
-552
968
72
-900
28
48
-456
452
716
-280
-108
-320
-636
912
1016
76
-1788
-1784
1876
1688
528
-1384
-1592
592
36
1040
184
52
-928
-292
456
-168
680
-252
688
-1808
-68
1408
468
-464
-1280
1348
8
-560
-1108
984
1036
-904
716
-524
-1456
1276
1032
-1008
644
-1372
-240
1552
44
-236
-332
424
-1720
796
1364
-952
364
-396
-580
1076
16
-1236
1344
400
-1824
896
244
-1232
1132
864
-824
-1224
1044
824
-972
-192
-80
652
-44
-144
480
-168
-616
-420
-180
172
1548
460
-1120
-1136
188
1568
-604
84
-568
-1048
892
608
644
184
-988
-368
-116
-1116
1732
588
120
-216
-1996
328
808
488
600
8
-1276
-204
-172
284
1272
-500
544
-1140
-1808
1176
2316
604
-2112
-816
-392
576
1600
224
-952
-632
-80
332
1040
-732
-464
12
592
-844
200
1728
-1432
-168
88
68
556
-488
-824
996
908
-1224
148
-312
-764
704
1480
-224
-1044
536
-540
-664
816
-260
492
88
-812
1248
144
-1988
228
1480
-344
148
-800
-604
1460
464
-808
-192
-244
-540
752
164
124
316
320
-804
-812
384
208
596
-680
-552
1248
488
-48
-1728
-424
1184
1420
-464
-1612
240
-68
896
-500
536
-364
228
456
-1468
344
540
648
-388
-1268
268
808
-56
40
568
-288
-812
196
-840
740
920
-220
-308
-240
68
-248
780
376
-1304
-1208
572
1748
1308
-1124
-1592
-572
260
1988
284
-984
-956
-620
1440
584
-108
-944
84
688
-1568
1536
384
-716
-380
-276
544
56
0
-144
836
-1140
764
-72
-536
-136
-328
1396
-412
-480
272
-48
312
188
-1216
224
88
136
1504
-952
-808
52
248
1148
-476
-980
136
596
-1180
228
2000
-916
-180
-504
120
456
-764
468
2064
-3012
-1800
3440
-552
1756
-3408
4092
-2200
-3248
3604
-2688
4860
-3004
184
-760
-1020
2088
28
1412
-1560
-1188
-104
912
168
812
-176
-1280
-420
440
1152
392
-940
-588
328
512
-48
-768
376
264
-56
252
-204
-980
140
1332
512
-524
-1472
24
-28
112
4784
-3524
-3616
1712
2272
512
-1704
2608
-5312
2932
80
76
1564
-2744
2028
-2524
1208
356
596
676
-1076
-564
-784
1152
256
-84
-44
-624
1088
-224
-628
-308
312
1456
-1336
-768
752
256
660
-384
-900
316
68
128
64
348
-136
-724
316
40
-384
724
488
-488
-916
-356
1756
316
-1288
-224
184
168
-96
488
532
-956
-504
256
376
-152
628
360
-744
-268
-1020
832
924
-252
-276
132
-728
328
896
-352
-624
-424
1156
160
-796
-476
420
1076
-1024
-164
48
244
604
-100
424
-1548
-344
656
816
492
-1216
-536
44
1372
16
96
276
-1896
-556
1120
936
-328
-44
-384
-248
200
472
276
-504
-176
-408
464
180
-112
508
136
-1356
-844
1904
552
-584
-332
56
60
-812
540
188
-272
428
524
-744
-688
308
996
580
-1160
-1580
576
1852
228
-968
-532
-160
180
856
140
-24
-1124
-200
332
44
888
176
108
-888
-1592
828
1888
-108
-716
-416
-624
392
704
364
-236
-1232
-192
1160
292
164
-212
-724
412
-348
-336
492
24
560
-256
-484
-44
-156
1148
260
-896
-864
-504
1116
1420
-652
-744
-388
-1064
1176
1956
-8
-332
-1844
-1148
212
1088
2128
-524
-936
-616
-572
656
688
96
72
216
-1000
-1108
328
1216
676
0
-852
-776
712
4
536
396
-1156
-648
164
788
632
-440
156
-176
-1904
1624
1208
-372
-580
-1728
848
1020
732
-732
-824
-204
392
688
132
-20
-768
224
-276
-48
-260
212
1384
-320
-824
-304
460
-84
64
532
-616
-716
472
832
-52
-268
-392
228
-236
-368
1312
-452
-276
-660
-128
1308
184
-172
-1088
-212
244
820
1088
-500
-1596
-792
1456
428
-624
476
-240
-120
424
100
-300
-500
264
-192
-280
1848
-400
-3108
2176
-420
2520
-2144
1008
-744
-4572
6964
-2328
1632
-2204
-1656
1540
-172
2216
-1172
-572
-332
1068
-308
-812
372
448
476
-1428
-1148
1932
1388
-576
-1212
-248
-124
-28
984
784
-444
-1336
100
44
68
440
1148
892
-2768
-1280
1336
928
1628
-2632
560
2988
-5292
212
2992
1772
-3652
1808
196
-3836
4436
-2220
2768
-1708
-2092
1476
684
368
-780
224
-1092
800
708
52
-508
-1124
116
1676
-252
-308
-728
-88
1084
-1540
1580
1052
-1860
-748
180
1096
56
28
-116
-420
-724
960
1092
-1372
44
-676
696
1220
-1288
-332
164
616
556
-660
-460
-24
-76
616
356
-856
-348
1008
-164
-432
572
-20
-336
-676
-484
1296
972
212
-1216
-1324
60
668
1068
884
-1464
-336
384
-868
776
376
-16
292
-1280
-924
1440
1112
316
-712
-1532
32
1128
-4
-124
284
-916
284
600
-352
-232
104
944
-124
-1440
396
-164
220
1264
-372
-516
-1224
40
1828
116
-416
-236
-616
-296
400
568
676
164
-2112
-620
1196
752
764
-148
-1060
-712
504
564
164
100
-1164
-28
644
-4
464
464
-468
-1336
252
632
112
844
-640
-776
20
-56
888
252
-948
128
232
-220
636
-128
-424
532
-744
-876
736
1184
324
-840
-1084
456
-212
1004
1124
-1152
-1332
-224
1428
-208
600
-20
-540
-336
-1164
984
1404
156
-872
-972
-196
760
592
-28
-76
-532
-540
540
312
400
172
-728
-272
-860
320
1692
-4
-100
-940
-1048
980
1064
-288
-484
-452
-844
1108
560
-84
-12
-264
1000
-1200
-1040
1032
-180
796
92
-932
-352
808
300
-544
276
208
84
-460
-480
-8
24
1276
-216
-1256
60
332
1240
148
-524
-1176
-656
596
740
1092
-880
-776
-160
520
744
-584
604
-24
-2048
552
1296
-96
376
-524
-528
-548
360
1020
612
-772
-748
136
-244
172
744
176
-320
-628
-752
892
1196
-24
-788
-608
-612
624
920
336
-352
-848
-628
-124
1656
820
-348
-608
-1960
-456
2132
672
968
-868
-2572
748
892
460
596
-700
-1332
-240
1440
620
-460
84
-184
-948
-788
1156
1352
200
-1252
-700
764
-92
-364
244
388
-408
-64
876
-368
-752
372
976
-960
-1124
900
308
428
-376
16
856
-1048
-196
-104
-228
816
-132
-8
216
-388
332
260
312
-1904
-520
2240
-72
96
-308
-868
668
-44
-1340
720
3432
-3008
-3052
4212
-388
720
-3068
3232
-1536
-3616
5864
-3236
2916
-2404
548
188
-1428
1008
-876
2224
-920
556
-660
-828
-348
180
2196
-444
-1704
-728
1764
640
-372
-308
-1008
624
-264
500
620
-1244
372
300
-584
800
-84
44
364
-2360
556
2440
-512
-1704
356
2792
-4144
380
2068
1944
-3096
-120
2188
-4780
4176
-1616
2492
-636
-3212
1508
436
2024
-1492
-632
-1496
1020
1488
-608
1228
-1808
-1508
1940
500
-324
788
-988
-668
-12
-260
1632
608
-944
-1496
0
1148
-460
1196
420
-476
-1644
-336
860
456
676
-1152
1332
-644
-2044
1696
1284
-684
-884
-4
-324
20
920
376
-240
-688
48
-324
1204
-596
-304
1540
-2292
-636
2172
24
-572
116
-620
308
708
208
-928
-192
108
-324
1520
-1436
-460
1740
-540
780
-1232
-1140
1264
1116
-736
-1200
412
388
336
524
-176
-1676
760
652
-572
1064
-1568
352
1944
-1388
-2084
1312
1024
-212
808
-352
-792
-520
260
-460
1088
484
-1000
348
-548
-124
1000
1332
-1596
-1816
1148
-176
1764
-32
-1172
208
-1052
-604
2136
832
-1320
116
-1328
864
1080
-208
-176
-1452
-436
524
1720
864
-1288
-784
464
-364
-568
1048
-376
448
164
-852
156
592
-156
232
1016
-3084
-392
2592
532
68
-996
-1172
-164
768
804
1332
-560
-2236
424
116
308
388
532
-92
-1876
-320
1924
2016
-708
-2464
-776
888
-236
1152
1744
-1208
-968
-1000
224
924
892
148
-1116
640
-1848
168
2552
-804
-880
336
-936
456
988
-328
1528
-1272
-1848
88
84
1348
568
1504
-1968
-1884
748
644
1820
-364
-1972
-452
412
-524
2396
1568
-2508
-1468
-224
952
1080
896
-488
-792
-732
-1352
2244
396
-196
-624
-440
436
96
592
200
-1188
-772
1700
-540
124
68
-232
1364
-1976
-1044
1916
384
268
-608
-412
-524
188
-220
1628
324
-1780
164
-224
608
616
296
-244
-1908
-908
1796
1112
532
-140
-1560
176
-316
-376
1348
388
-848
-1072
600
488
932
-116
8
-2148
-860
2440
540
920
-1356
-1096
120
-188
292
896
1096
-2080
32
356
240
152
216
2624
-5592
-856
2908
2692
-236
-1560
1932
-7312
4204
784
652
2512
-3928
-92
-1192
2496
-632
1312
496
-2112
-1408
152
2756
732
64
-2248
-2360
1124
1980
1316
248
-2208
-972
-164
1244
2084
-1480
-292
-128
-1700
740
1144
1592
-512
-2024
-280
-528
1332
2604
-1380
-2884
3060
-28
-4504
1992
2112
2056
-2772
1144
-3232
-692
4464
-1552
2648
-4260
-248
808
820
1616
-120
-1624
-1216
436
448
1736
272
-1216
-1408
-492
584
1756
872
-1216
-844
-180
-152
892
1372
-656
-1736
-112
-368
1172
1228
116
-600
-464
-980
-796
2068
1064
-1468
-156
-412
-896
2488
360
-1800
1248
-1932
-400
2192
-1052
1720
92
-2260
-212
-616
788
2704
-328
-908
-1188
-1392
2224
-284
-136
1724
-2288
216
476
-1112
1484
1532
-2080
248
-1108
-1040
4236
-1748
-664
1444
-3160
1528
1188
-2492
3256
-408
-1372
1596
-4072
2216
2064
-2640
4008
-4516
-1640
5152
-2692
1920
2032
-5776
2640
204
-3920
6512
-3028
-1696
5752
-5588
1228
2440
-5260
4896
-704
-4076
6496
-4168
-1660
5780
-5876
4136
948
-6612
5736
-3164
-116
7704
-7936
120
3084
-5824
8304
-1880
-6052
7652
-5876
1304
5708
-8528
3828
1916
-5064
7004
-4124
-3592
7552
-6556
4036
2532
-8992
8096
-3624
-3636
11592
-8480
-748
5492
-9888
9972
-248
-9792
11772
-7356
336
8644
-12944
6300
1624
-6760
12712
-8032
-6668
10956
-8300
7176
4092
-14400
8864
-3384
-2384
14016
-11024
-1932
5304
-9088
10152
1468
-9484
10648
-7820
-2860
11456
-11924
5568
3628
-8848
11564
-8124
-5628
12960
-8788
5016
5412
-15800
8668
-900
-3996
15752
-12268
-3800
6880
-9076
11892
1516
-12264
9448
-7228
476
12280
-13660
3788
2972
-7688
12708
-7096
-6704
12560
-9096
3044
6196
-13376
9080
-380
-7620
15100
-8704
-4184
7980
-11200
8700
3432
-9668
9928
-7060
-2956
12240
-10680
2264
3708
-9408
12780
-4420
-7352
11816
-9836
2836
7888
-14072
7272
944
-7072
15092
-8888
-4692
10020
-11764
7084
2712
-11396
12932
-4460
-4364
11964
-12864
1136
7576
-10256
12684
-4284
-10968
13512
-8452
3316
9748
-14752
5064
216
-8272
15860
-5296
-5492
8184
-11992
8112
4420
-12564
10432
-4060
-2972
12088
-11812
-48
6820
-7772
10820
-4680
-11592
12268
-4528
3580
8544
-15636
4460
2012
-8168
13620
-5808
-4932
10688
-11548
5744
5528
-13336
11212
-4100
-5784
14316
-11136
240
6716
-11288
12404
-420
-12172
10836
-7188
880
11496
-13396
5140
2352
-9092
13128
-7504
-6640
12184
-8488
6108
5068
-15676
9612
-1548
-5260
13792
-10552
-928
6548
-11116
11652
1084
-11216
12088
-9012
-2376
12128
-11060
4452
1744
-6716
12928
-7616
-9344
15268
-12188
5748
8860
-16636
11956
-6672
-3768
15860
-10228
-2020
4760
-9520
11164
1356
-12052
11516
-6160
-1092
10440
-14788
6256
3456
-8552
14428
-7776
-7800
11600
-8648
4796
4724
-13744
11328
-1300
-6880
13076
-11536
648
8320
-11828
10464
-1304
-10508
12232
-6952
-336
14664
-16304
152
3296
-5520
16768
-7892
-4696
3748
-8684
7912
6588
-12192
6624
-1788
-7444
16720
-11916
44
9164
-12336
10948
-3636
-11352
13760
-5276
368
11180
-15288
3760
3564
-10352
15064
-5508
-6584
11436
-11732
5132
6432
-12252
9588
-3368
-6900
15284
-9976
-1532
8228
-12660
10976
840
-10624
11416
-8772
-1012
13204
-12816
4932
3452
-10812
13776
-7896
-7976
14036
-9236
6616
5896
-15536
8392
-2948
-4804
15972
-11564
-1140
9136
-12956
9168
-304
-8152
13532
-8496
-2096
9612
-12984
5848
4356
-8684
13208
-6912
-8068
10816
-10880
7048
8852
-13460
6736
-3712
-2996
14444
-13916
-2212
10072
-9436
11112
-608
-11652
11768
-9736
1028
13788
-15180
3744
2352
-6936
14148
-9204
-6060
14568
-10564
2976
4796
-12664
10200
-2892
-3212
14712
-13740
-2664
8292
-9464
11188
-580
-9780
13036
-10344
-1600
12568
-13448
4564
1540
-5880
15776
-9852
-7476
11452
-10468
7948
4784
-13572
10044
-6748
-2120
16524
-14184
520
7264
-9776
11320
-6504
-9192
15760
-8656
1780
10484
-15584
5636
-156
-7400
17072
-9716
-4944
12644
-12676
5692
3596
-10920
12660
-7336
-4844
16804
-13268
12
6108
-9856
13924
-4744
-10144
12764
-9700
1936
10960
-13172
6328
-792
-5916
15484
-12792
-5200
11232
-8876
10728
508
-12372
10952
-8344
-1956
14928
-11988
2168
4120
-10272
12764
-5988
-6212
14720
-12204
944
8724
-11864
9060
-2052
-7444
15712
-11696
-2464
11156
-13204
9676
552
-10652
14312
-8916
-1616
13924
-15580
720
4892
-6300
15996
-7848
-9128
12812
-11924
5640
7236
-13092
8776
-3476
-3808
14040
-13248
-1652
11728
-9372
7816
-3424
-8888
12540
-9008
2348
10952
-13280
4768
932
-8572
13192
-8344
-3148
14344
-14172
6428
4944
-13868
10236
-5984
-1200
15720
-14172
-24
8040
-12092
11644
-2132
-9484
12792
-10988
4620
11136
-17080
5160
2092
-4948
13608
-11364
-4872
12736
-12220
9240
4892
-14968
9764
-5144
-236
12556
-16300
2684
9184
-10360
11132
-3384
-8592
11200
-12704
5288
11028
-14820
8636
-1964
-5980
12628
-8580
-1412
4592
-10668
13800
360
-11640
9920
-6188
164
10116
-11596
-1576
10076
-10376
11484
-2696
-10516
12720
-12152
8688
6456
-16812
9872
-1744
-4516
12864
-10484
1352
7124
-14212
10288
688
-10640
14028
-7872
444
9124
-15800
9296
1208
-10764
14536
-6012
-3864
9296
-12200
8448
4340
-14924
11628
-4660
-3704
14168
-10124
708
1216
-6972
11732
-4696
-7672
14896
-10652
-1232
11660
-17804
13604
-388
-8124
15324
-15164
-2536
10796
-7184
9028
-732
-13080
13276
-5856
-3304
12612
-14576
4892
4256
-8632
15076
-8444
-7956
12224
-10936
4508
8936
-12596
8628
-4640
-6104
16784
-11908
-3120
9448
-9256
10228
-700
-12232
11916
-7976
312
15060
-16380
2100
4332
-7248
14648
-9588
-6112
13524
-12264
5444
7840
-14704
9028
-3432
-2820
13084
-14804
4756
8052
-13036
8484
-3472
-4572
12944
-9812
2364
7844
-16076
7632
1852
-5648
13208
-11440
636
8116
-15148
11816
4180
-13324
8608
-6772
2216
14104
-17248
4592
5412
-13760
15692
-4408
-7412
10236
-11784
9548
5344
-17052
11324
-904
-4644
11788
-14412
2588
7928
-11776
14688
-2196
-13212
10284
-6936
3972
9780
-15528
7480
1800
-12240
16000
-5316
-4740
9616
-13312
7544
3328
-10788
13260
-6320
-4068
12260
-13632
3016
5464
-9748
15084
-6820
-9660
13700
-9360
6012
5568
-16300
8820
-2392
-3604
18024
-13280
-3668
8584
-11244
12584
-2096
-10680
12444
-8904
2324
11032
-14880
4892
2016
-8440
15444
-9744
-4864
13416
-13196
8144
4676
-14128
10196
-6576
-1048
14684
-14664
3148
6480
-11936
13292
-3508
-9344
9368
-11472
10172
10084
-17812
7104
-1860
-5420
15100
-11028
600
6388
-15104
15096
1656
-12984
10600
-7604
2288
7968
-14988
9852
3584
-10432
11988
-7756
-4620
9676
-10744
10616
2128
-14680
13984
-5664
-3532
12172
-14036
5708
3480
-13680
17412
-4260
-9540
13392
-11412
5532
5520
-15200
10912
-2300
-4124
15296
-13804
-2348
7784
-9288
14744
-4056
-13092
13804
-8632
1024
11808
-13956
5968
1880
-8668
12676
-10120
-4092
15132
-10028
4564
1220
-12048
12336
-4232
-1960
10128
-14840
4588
7856
-9592
11692
-6580
-7960
10668
-10764
8052
8044
-14872
8280
-3216
-4460
14316
-10592
-56
4380
-12572
14256
704
-10652
11140
-10148
3304
9456
-16552
9816
1760
-10608
14788
-7264
-4288
9248
-11712
10156
716
-15584
16288
-3240
-3188
10648
-16636
4484
5912
-10640
15944
-5688
-9400
12500
-10872
5848
4508
-11864
13444
-8084
-7812
18416
-11020
-2204
8612
-10252
12872
-8488
-5232
13704
-13852
8896
4448
-12780
6084
-1824
-3292
16104
-11168
-7232
11696
-10804
10368
3076
-13212
10448
-9556
912
13960
-14968
4940
3364
-8208
13208
-9284
-3876
13048
-14592
6600
6236
-15264
12248
-1456
-2836
10152
-14856
3844
4844
-11288
13520
-1024
-6364
7368
-13064
7236
10740
-17368
9164
-1772
-5008
13744
-12076
4092
1160
-9284
13540
-1896
-12920
11224
-4200
792
11156
-16668
6960
304
-8688
16812
-9724
-5224
10740
-9360
9176
756
-14164
13460
-6536
-3436
14888
-13476
2808
3056
-9284
15440
-6588
-7852
13148
-12024
3332
8220
-11940
10136
-6940
-3092
16416
-14532
240
6964
-10428
12592
-3084
-9100
12340
-11188
4788
10256
-17628
7152
376
-4360
15280
-12768
-1724
9640
-12876
11172
468
-12872
11164
-7416
4548
11132
-18100
6824
4776
-9540
9568
-8616
-1068
11592
-11260
7660
3920
-14476
10272
-3884
-1760
11228
-15052
7508
4020
-14356
16096
-3320
-8264
9484
-11748
8208
8648
-16972
10392
-1512
-7848
14532
-11760
1020
6084
-11220
15756
-2848
-12904
11808
-8920
4032
8824
-14524
9316
-2216
-7660
15508
-9112
-2776
8076
-9364
8560
-1720
-10268
12324
-5696
228
11128
-14808
4112
448
-6724
17472
-10052
-5280
11304
-13512
8040
5388
-12848
11412
-7296
-2824
16244
-14416
1460
5664
-10276
13408
-5608
-7228
10544
-12204
8924
10220
-17496
7668
-2728
-4280
15312
-14824
1428
9984
-13664
11196
152
-9868
10984
-7752
1112
6568
-14528
11292
2912
-7848
11556
-14520
156
11828
-12616
12012
1204
-15424
11284
-3712
-760
9700
-13560
7272
620
-11360
17264
-6856
-4456
8716
-11840
9804
1444
-14808
13468
-3884
-3524
14116
-13788
2892
3824
-11736
16428
-4916
-10924
10956
-7236
7148
3564
-13776
12084
-4904
-6272
14956
-11448
772
5744
-10472
13980
-4692
-11788
15556
-7132
-1040
8220
-11280
7436
-3300
-6276
17560
-10548
-3132
6784
-12104
12128
-80
-6816
12580
-14992
-556
14828
-12204
4588
904
-7852
13692
-10412
-2384
13668
-12564
6536
1604
-11404
10452
-7204
1016
13688
-15824
4220
5948
-8936
10988
-10856
-3468
13752
-11224
7200
5640
-14620
7932
-4324
-192
14280
-17076
3892
7116
-12264
13268
-4976
-5824
11000
-13396
6916
8292
-15676
9816
-236
-4964
10560
-12180
2448
5020
-12208
15972
-740
-11392
10088
-10780
5276
10084
-16516
8212
752
-6432
13036
-11248
-460
8304
-10680
11132
-1896
-12292
11380
-2476
4152
-164
-15060
12392
3816
-10896
12632
-5828
-8844
14160
-12392
9652
2924
-15908
14224
-8344
156
11516
-13540
8120
-520
-11056
17868
-7384
-7196
7772
-10904
12872
2884
-13208
11756
-8008
-3928
14172
-10320
2744
-204
-9160
18324
-6264
-9092
11540
-10632
4780
4944
-11760
13960
-6708
-7308
15908
-11836
2616
2872
-8928
15648
-11656
-6348
15768
-8048
1684
7536
-14088
6184
-180
-8064
18348
-12748
-232
8432
-12328
12680
-4676
-7976
12912
-11032
2664
9844
-12632
6444
-2716
-4668
16840
-12256
-3332
7996
-11048
12848
-1324
-10760
13080
-10540
1892
12648
-15960
4052
1496
-3768
14228
-13852
-2252
11668
-9468
9668
-5140
-10940
14824
-7608
2212
13356
-18376
836
5276
-5340
15552
-11388
-7236
12724
-10700
9076
4744
-12276
7664
-9512
1244
14636
-15156
5616
4292
-10696
13444
-8320
-3796
12136
-14972
8088
8664
-15584
8272
-4656
-984
15924
-17344
2148
8516
-12608
13772
-4488
-7268
11372
-14292
7228
10452
-16332
8440
52
-4324
10652
-14408
3332
9096
-12268
10620
-3912
-4608
11596
-13472
5900
8216
-16948
9144
3584
-6316
9080
-13100
3776
9656
-14108
12296
-316
-10704
7564
-9676
9728
10520
-18788
6556
124
-6372
15000
-12428
1300
8828
-15768
14248
240
-11724
11240
-9376
4500
9172
-19324
9572
4168
-7432
13660
-12944
252
9308
-15664
12436
2592
-12824
10116
-5852
2076
9580
-14732
7980
2300
-13552
12696
-3732
-564
6336
-13772
12156
1716
-13648
12328
-4976
-436
6748
-15832
11208
6396
-11292
11216
-9488
-5076
8704
-8664
14632
1408
-16628
10520
-4984
236
9308
-16036
9308
4096
-11484
13800
-6572
-3156
6564
-11360
12716
672
-16696
11688
-412
-28
8164
-15588
7508
3312
-12816
16408
-5872
-7156
10060
-12032
10464
5764
-16596
10580
-2860
-4332
11936
-11684
6088
2124
-14076
15072
-3584
-3284
8860
-16436
9204
8872
-14552
10768
-5256
-4880
12384
-14280
7456
6764
-15016
13228
-3972
-5044
8808
-11636
10200
3960
-17460
10680
-236
-2412
9840
-14812
7220
6592
-14288
11608
-3800
-5928
10508
-10284
8544
4840
-18296
10776
252
-4284
12232
-13864
5120
6552
-16056
12648
-344
-6996
8660
-12112
8300
9172
-16636
8208
-1360
-3988
14000
-15752
960
9956
-13720
14068
1028
-12312
8404
-7912
6456
7656
-19044
8092
4420
-2628
9960
-16200
2216
11200
-14344
10348
600
-8984
11436
-11212
3952
11308
-17740
6696
2216
-5676
12688
-13212
3312
10648
-16508
8824
3292
-9372
6828
-8096
4756
13780
-19476
7544
480
-8860
18544
-15380
4056
6008
-14560
11968
-772
-4988
9020
-11444
3680
12532
-17396
3580
2604
-1900
11948
-14880
624
10176
-9036
9368
-6116
-9064
15048
-8512
2740
10604
-18776
5504
2516
-3780
15992
-14812
-4636
11040
-8392
11016
-2824
-9864
13576
-14108
668
13432
-10088
9288
-8796
-6000
19376
-11908
-5660
13468
-11852
5980
988
-10564
18436
-13048
-900
13168
-13580
5760
-3856
-5692
20240
-10000
-9476
9832
-6208
9428
-2740
-13108
16080
-6788
-52
8424
-16212
13284
-1520
-13404
17776
-7744
-4232
9460
-9040
10112
-2928
-13344
16124
-6444
-2140
8588
-13712
12884
-1064
-13864
17436
-6680
-3036
6164
-13072
13860
208
-13948
13440
-5764
1052
7728
-15616
10888
1040
-13008
15660
-5200
-2984
5332
-13028
14256
2856
-17116
10384
-2372
2676
8196
-18568
9616
5788
-13196
11352
-7188
-284
10008
-15264
12008
5180
-15224
7372
-5020
4256
7320
-19916
11836
9848
-11248
8460
-11192
-544
11724
-15468
12144
4800
-14068
7648
-7932
5868
13516
-18192
3016
1584
-6792
16804
-9912
-2820
12180
-16120
5948
3572
-8844
14492
-11536
-792
15736
-15172
2592
884
-4800
15436
-13496
-6604
16036
-8884
7700
-1340
-13108
17436
-10440
-3616
14520
-12468
3796
-700
-6180
17940
-9576
-8288
10644
-8340
8340
-448
-13092
16860
-3504
-6808
5592
-10940
11752
332
-12116
18356
-5780
-10620
7956
-8412
11784
3592
-14492
7380
-6616
3196
11416
-13544
7412
1160
-13116
13304
-5036
-900
7284
-16312
13924
5456
-15512
8624
-5736
4804
8864
-19900
7704
8396
-9380
9956
-10352
-1016
12984
-16096
8884
4828
-11248
11012
-10236
1408
14552
-16940
2208
4796
-6968
14508
-9332
-5644
15152
-13572
2284
2988
-6872
16396
-10296
-5980
13856
-14368
3960
2352
-4392
19364
-13356
-11216
8972
-5528
13976
-436
-14900
12384
-9080
-1616
14044
-11040
7804
-3492
-13248
19352
-4944
-6336
6660
-11008
13528
740
-15784
13992
-3748
-1112
6760
-16500
11552
5628
-14540
12284
-5908
-2076
10380
-15436
11340
6996
-17080
7596
-5904
2224
15024
-17356
3632
7256
-10208
11248
-8932
-3916
15280
-15296
4676
7740
-9004
9216
-11828
-484
19708
-15492
-3948
3864
-4024
17820
-9928
-7544
12236
-13476
6292
3124
-7980
14808
-11208
-5268
13288
-8380
6492
-1684
-13412
16112
-4664
-5484
9672
-10568
11172
1668
-17488
13368
-2264
-3364
9396
-15684
10048
6536
-16420
13224
-3680
-2680
8456
-17260
11604
11064
-18804
5628
-1932
968
14376
-19976
7856
2976
-10884
17452
-12420
-500
10956
-15284
8140
5824
-14312
12040
-6068
-3228
17236
-13956
-304
696
-4848
16852
-10872
-9128
14956
-6060
4452
-1416
-13092
17416
-3920
-7480
8528
-10824
9280
2336
-13404
16880
-5672
-7904
8756
-11700
12504
4416
-17256
9816
-2892
1860
9056
-15156
6104
324
-9280
15992
-5440
-4024
12956
-19880
5672
10060
-12536
12088
-10420
332
15976
-16720
1856
6244
-6660
11388
-13084
-5776
19624
-9088
4112
784
-14180
14820
-7568
-4996
17416
-13048
3500
2728
-13804
16932
-3108
-7480
9392
-12464
8924
4700
-15868
13476
-1972
-4148
8780
-15444
9004
6132
-14104
12956
-5560
-2124
10484
-17304
9716
8440
-14808
7036
-6652
2708
16616
-17528
-244
6184
-7048
13456
-10412
-6488
14996
-10280
5476
3304
-12612
13484
-6740
-7084
15732
-11964
3408
5592
-13752
16032
-2580
-11928
9392
-8744
10016
4016
-18296
14248
84
-5060
8316
-16204
8408
7592
-13508
12220
-5796
-2912
10436
-14548
8688
6916
-15040
8860
-5332
-52
15872
-17144
692
6500
-7844
15308
-8624
-10908
13812
-8184
6192
4256
-14484
13520
-5032
-7980
14396
-9548
2660
2940
-11712
16768
-3976
-11740
10936
-7916
7788
4504
-18120
10988
1632
-3044
10008
-16268
4520
9304
-12596
8496
-3816
-1668
12952
-17096
4600
9816
-12968
11064
-7792
-3824
16628
-15928
1440
8988
-9260
12704
-6816
-11032
13660
-7012
3608
5404
-15660
13152
-236
-8904
13832
-12552
1120
7208
-13024
14552
308
-10572
8052
-11004
7212
10448
-17016
6568
-216
-1792
13276
-15824
-872
10956
-9056
7968
-4220
-7364
15336
-9380
-292
7076
-10300
7704
-3984
-4392
11732
-6852
1932
724
-11184
15216
232
-11904
7184
-6244
6628
5568
-16264
9268
4164
-6044
6080
-10532
3720
8848
-12480
9464
-1740
-7656
12716
-11392
2740
8792
-13588
8168
-2004
-4792
15784
-10540
-4912
5712
-7704
13836
-2368
-13060
10688
-4676
3996
5024
-13840
9484
680
-8464
8412
-6028
2916
6336
-11008
6760
292
-6508
8152
-8556
3816
8464
-12012
5108
-1008
-2940
11248
-9996
-3228
6228
-4796
11660
-4408
-11716
12352
-5760
1216
4556
-11024
10356
-2076
-6208
10836
-8716
1964
6332
-11616
8808
-516
-9472
10760
-5792
2824
8252
-14252
3144
1096
-544
11072
-11720
-3072
7752
-5548
8128
-3104
-7248
10820
-8984
288
8792
-8844
7228
-2352
-8224
11268
-5240
-1096
4756
-8996
9588
1768
-9816
5388
-5284
4992
8708
-12160
-1016
-276
1476
10988
-5176
-7432
7108
-6380
4292
1356
-9304
13588
-8788
2204
5204
-10996
9520
-2836
-5272
8916
-5848
-1116
5864
-6724
7160
-148
-9100
6632
-5268
5492
7432
-13968
4584
44
-3172
11352
-9636
-1020
7332
-9444
7804
-252
-7084
9716
-7872
1272
6960
-10292
7276
-1532
-6932
12188
-6944
-1884
8296
-11620
8660
1940
-10180
7644
-8156
10352
2852
-13804
6316
1080
-2004
7500
-8344
-4280
10744
-5900
6644
-3968
-8524
12152
-6244
-912
6752
-8408
7816
-536
-10308
10968
-4028
-1372
5644
-10488
8616
2304
-9600
7656
-5836
2844
10024
-13044
528
244
-1668
13516
-8528
-4856
7000
-7276
8432
-832
-9680
10352
-6604
1388
7992
-12200
6884
1276
-6580
10768
-9192
-2464
7872
-8064
9924
920
-10000
5664
-7020
3584
10536
-9964
516
-548
-3448
13896
-7624
-7768
9464
-7220
6700
1888
-12012
10584
-2220
-1416
7104
-12576
5144
3204
-6932
10464
-6748
-1832
7836
-10920
7724
3868
-10128
6164
-6536
1800
12312
-10460
1156
-968
-6008
14332
-6480
-4236
6396
-9384
9440
2384
-11308
8056
-3328
640
6200
-12696
5412
5028
-6032
8564
-6508
-3792
8948
-10372
5844
4048
-9356
11248
-8588
-1928
11056
-9812
3688
2756
-7236
5060
-1896
-2380
8588
-9992
7656
5360
-19824
11768
-1904
-160
12668
-12100
540
-4668
-1952
15944
-5476
-9252
12464
-9356
-1920
10768
-12128
9404
-2540
-88
6332
-18320
9496
6140
-8660
10624
96
-11788
4460
-2280
2176
5384
-10144
14612
-9456
-8628
18568
-12040
1284
3228
-4076
6712
-6928
-1632
7760
-6896
6340
8176
-21812
7232
3344
-3348
15108
-13216
1436
-3228
-6124
18704
-6004
-9600
12972
-7672
-5644
12060
-10448
8856
-2764
-5952
15456
-20264
4932
11428
-10808
11136
-1284
-10272
600
-3764
9656
8956
-16512
8888
-2664
-11632
20736
-11392
-248
6284
-8812
10132
-10904
-1024
13664
-9428
3124
8768
-17624
2972
5848
-4560
12364
-12680
5340
3044
-17520
18916
-2044
-9240
10336
-6864
-1492
6692
-7128
7408
-2372
-8912
19244
-16068
-4256
15000
-12300
14020
-3752
-8232
5172
-12276
13676
7732
-17776
8536
3464
-12584
15004
-8288
-2620
8104
-12524
17468
-9292
-9980
18224
-11712
4052
9308
-13956
1268
528
-3332
13928
-10188
1072
11848
-22768
12148
3940
-10128
12436
-9084
3696
180
-10360
13828
-2192
-9636
18340
-7980
-14956
11800
-7760
14800
1116
-12844
11204
-19268
9756
14016
-17592
7860
2004
-7804
7840
-6536
56
8380
-9932
12152
-8048
-14636
20332
-2768
-528
7496
-13400
-716
348
-2460
17432
-10340
-5108
15044
-17680
4924
6364
-10172
14372
-11708
2484
7560
-18340
15352
244
-8572
13744
-6932
-8512
4784
-5608
11612
3568
-14608
16628
-13300
-5220
19000
-17096
5944
1936
-3088
11020
-14712
1748
9560
-12576
11500
7216
-21620
6484
-1044
1528
15764
-14700
6184
-5828
-10900
20832
-13140
2048
11928
-10728
3236
-2636
-5960
9640
-5060
-508
15764
-21016
5820
6148
-13000
17636
-7496
88
208
-15320
16464
5040
-13028
11872
-4268
-11884
15336
-9128
4088
2104
-11276
18856
-13956
-2412
14372
-13956
9712
3312
-14812
3272
-304
4668
12088
-17160
4468
6556
-19064
18652
-3296
-7752
9988
-10332
12028
-5424
-11108
16604
-5948
-4556
13492
-13480
-3160
11396
-8640
12860
-9248
-4624
13948
-20528
13788
6304
-15120
12176
-4812
-4120
6660
-7868
6364
3044
-13296
17756
-5348
-15560
17596
-10696
8236
5576
-14348
9616
-14372
4548
19564
-14684
-284
6832
-14212
8772
2176
-7648
13204
-13076
7908
3644
-20120
17916
-3264
-3592
13836
-12924
-2424
1044
-3696
15708
-5224
-11136
17640
-15308
-1612
14840
-15284
12872
-4880
-3492
10636
-19728
9276
9724
-10628
10156
-736
-15448
7032
-2428
5876
9896
-16192
12524
-10320
-9916
22628
-11860
3008
4408
-10116
7740
-7260
-352
13060
-11104
2780
11884
-23016
6232
7080
-6124
16796
-16148
3472
2108
-16768
21828
-1884
-11960
12568
-6092
-4124
7308
-8900
9088
-1408
-8912
19276
-17952
-1620
14588
-15628
15088
-1116
-8700
5868
-13300
9528
9416
-15556
10180
5304
-16732
11856
-5800
-3024
10892
-11744
15060
-6992
-14020
18408
-8616
1524
11172
-13312
-512
-340
-1984
15384
-10552
-2168
13896
-20964
9872
5748
-13808
13692
-7160
4208
2216
-16188
14512
896
-10092
15536
-6788
-11560
10736
-7456
10932
284
-13084
17436
-17696
1868
17392
-16856
6220
780
-5016
8804
-7788
144
6948
-13256
12632
5456
-21132
15500
-4720
-2008
12744
-16344
9344
-6420
-6424
22616
-10956
-7432
13548
-10300
216
4780
-11072
12260
-6256
560
16024
-21516
6696
4624
-12036
14756
-6300
-1912
3728
-9740
10600
2064
-12824
15600
-4712
-12504
16324
-12296
5376
4848
-9704
13680
-16092
752
14476
-12808
7860
7188
-13336
-328
-3036
2348
14684
-14392
7456
4208
-21680
18596
-3892
-6700
12440
-10052
8804
-3900
-10704
13556
-5752
-1452
16452
-16828
-5268
10060
-8072
16092
-7068
-5400
10392
-20616
14192
7696
-15752
10772
-2156
-5312
7180
-8400
4112
7416
-13108
13204
-4800
-13456
19192
-10912
2716
11100
-17576
10556
-10216
-84
19500
-16420
3288
7488
-13892
7188
2376
-8484
11904
-11084
6420
5360
-19748
16844
-1892
-4724
12908
-11684
-1540
-708
-3748
16208
-5252
-10576
16864
-14032
-2420
13588
-14612
12484
-2848
-3992
9488
-18248
9724
8552
-13036
11192
-556
-14328
9184
-3800
2932
12596
-18296
12128
-4972
-12588
21732
-13408
4736
1096
-6548
9836
-8984
-176
10812
-10056
-764
16276
-20080
3656
7144
-10068
18220
-13684
684
5336
-16888
20360
-1588
-11764
10580
-5824
-744
6564
-9288
7264
-2012
-8900
20524
-14136
-5876
15184
-13776
10968
680
-8472
6544
-11816
7304
10580
-13972
4592
5916
-13596
11336
-2876
-4112
9268
-13632
13784
-3168
-12756
16668
-9312
696
10744
-8704
-2864
-2720
392
13688
-8020
-4176
13680
-18224
4568
9392
-11388
9148
-2840
2364
-924
-13716
10376
6056
-6044
8296
-1904
-14896
7168
108
4392
3684
-9960
10888
-11228
-1596
12596
-10572
5016
4032
-3344
-2112
-5040
2756
6668
-5096
3620
4080
-15260
7168
3996
-1980
2504
-5372
7424
-8308
-2628
10240
-3608
-1824
2960
152
-5216
1820
1556
2856
-4312
1040
6796
-12560
3648
3852
-2344
2224
472
3544
-11116
956
7192
-2112
-164
3488
1228
-11344
2956
4632
-84
232
516
1988
-9760
2836
5208
-968
-916
2956
1804
-11468
2960
3304
876
2752
220
-1044
-10504
4640
5192
1052
-896
-184
1256
-10600
4668
5180
-1624
-4
1796
1464
-10444
3324
4472
88
416
1688
-752
-11140
6352
3404
76
-780
1084
2616
-11020
4440
3536
-884
1540
2136
-2548
-9728
6124
2644
1956
-1004
1608
-960
-11060
7484
3516
-108
-968
1808
-2132
-7712
6432
1884
-104
-2784
5548
-276
-10456
5436
384
1788
1312
1660
-2584
-8368
5288
2692
1324
-1276
2520
-3116
-7448
6712
696
780
1284
3052
-6272
-7804
7600
2228
1948
-2124
2200
-4696
-6072
8840
1128
552
-3644
3296
-3432
-6408
7088
1344
1380
-1448
2984
-5360
-6988
7580
3416
-16
-1372
2424
-7376
-3712
8316
552
44
-1708
4996
-6548
-5644
8732
-968
1532
1288
-1468
-6216
-3300
10744
-792
-632
1804
-4588
-1208
-4208
8104
2064
-1060
-2680
576
-1804
-4480
7888
-636
-1424
192
3572
-6456
-1856
6500
-1596
1504
-2444
4160
-6800
-3220
9872
-2076
-1276
-220
4300
-7024
-1936
6016
-168
-268
-1276
6316
-9040
-3336
7264
-152
1532
-964
2484
-7292
-204
5360
-2160
2048
900
124
-8324
2240
6504
-3764
5084
-3792
2740
-7876
-1960
11116
-4932
2952
-504
1732
-9724
-492
8804
1564
-1688
-3292
4052
-9288
2928
7864
-1432
-2900
-704
3676
-9896
2996
6920
-868
176
-948
-772
-8800
6412
6492
-2344
-1992
-1568
2368
-6004
2984
4712
-1704
-3340
3520
3068
-9184
2740
2696
652
-2036
1424
3704
-11016
3828
4748
-1420
8
1424
1388
-8148
3388
796
-568
580
3176
2136
-10716
4580
2332
-1532
1336
2008
-44
-9280
3400
4168
2740
-3548
1064
376
-10540
8456
3800
-1460
-2548
1868
1964
-8992
3580
2172
328
180
4136
-2112
-10360
6020
2832
416
-164
2012
-4192
-5320
6456
836
688
-2816
4636
-2644
-8524
7108
2132
-616
-1624
5812
-4404
-8260
6696
392
2556
-1760
3736
-3780
-9360
8456
2748
28
-1932
2620
-4604
-4760
8008
-508
-552
-1272
4924
-4296
-6400
6280
-884
2400
584
4256
-7516
-7604
9136
1656
-532
-1080
3336
-6188
-3324
7996
-936
-512
-192
4020
-7072
-3536
7384
-1204
364
668
4532
-8112
-2972
4896
-728
3380
380
3336
-9104
-3060
6544
-32
1220
-2112
5956
-7596
-3204
8260
-2592
-256
752
4984
-8524
-2332
5180
-840
2764
-364
3748
-9480
-1356
6960
-316
2000
-2620
2788
-8892
528
8524
-2000
-804
-516
3540
-9148
2352
6220
-2336
968
-344
1696
-9468
1504
6324
712
160
-552
1852
-9796
1472
6624
1004
-1884
-664
2308
-9076
5032
3628
-2240
928
524
2516
-10084
2452
4716
940
-232
400
396
-11312
6668
5880
-2484
-1928
1940
1284
-9188
6988
2728
-2912
-2536
2056
3908
-8088
4428
1288
-1108
-2000
4008
1976
-9912
4700
592
1012
1120
2452
-4164
-8660
8352
2472
848
-3240
2100
-1812
-6456
7968
84
-912
-2312
4892
-1580
-9660
7696
1692
-384
252
2808
-5032
-7132
8520
1176
752
-1732
2188
-5464
-5028
9176
676
144
-2620
2832
-5040
-2316
7224
-2320
916
-2332
4548
-3764
-5472
5872
1180
1524
-1840
4324
-8716
-5396
9412
2540
584
-3200
3656
-8720
-1872
8932
-1088
272
-2348
4512
-5008
-1304
840
-72
2368
2364
3768
-10444
492
-1156
4588
2104
548
4400
-13420
-380
6100
2880
-52
-684
2428
-10092
984
6556
748
-984
-1520
3864
-8024
1144
5120
-1048
-1280
872
3708
-9824
2636
5396
-900
-444
816
1264
-11212
4728
6344
-1220
-984
776
456
-8668
4988
4432
-548
-2928
1588
740
-5692
3832
-1220
1780
-172
4940
-4204
-5808
2676
136
5440
-2444
4648
-4296
-9608
5952
2460
1840
4
1956
-3184
-8328
6948
2068
-724
-100
4200
-3440
-7788
4308
2284
1548
-2996
6940
-3504
-10216
6984
1928
1168
-1156
4716
-6784
-7496
9052
1304
916
-1924
920
-5000
-1776
9548
-1696
-2012
-2364
4000
-3756
-3720
7296
-1964
704
352
3536
-8204
-3544
9060
-452
720
-1912
3672
-7864
-3144
8324
808
176
-2364
3376
-8960
2032
7972
-2788
-2192
-748
4172
-7712
3264
3664
-1700
672
192
3384
-11156
2080
5620
876
140
-724
1972
-11792
4524
6192
1020
-1128
-820
-248
-10116
7312
4904
-268
-2464
-1024
1628
-6872
5668
2368
-1788
-2224
5076
-1160
-9000
7232
-868
368
900
4104
-2948
-10276
6048
2960
1012
-1512
3960
-2612
-8744
6316
2220
-84
-1916
3128
-3244
-4488
7000
-344
-1680
-2880
6804
-1384
-5996
4608
-2508
-92
1320
6904
-6448
-7548
6300
1156

vt# 
