Change to local

vt# target 0x18

vt# ifconfig


Bandplan   : FCC
EUI-64      : 3013:38ff:fe02:0000
Device      : LBD (FFD)  (uptime 181833 sec)
Already joined a pan
PAN ID      :  0xe0a4
Short Addr  :  0x0018
IPv6 addr   :  fe800000 00000000 020000ff fe000000

vt# route
Route discovery requset usage:
route a [short addr 0x??]
Routing Table : [000]-[099]
                    Dest   Next_Hop  Cost  Hop_Count  Weak  EUI64
[000](65524m22s):  0x0000   0x0000  0x00ff   1   1
[001](64680m47s):  0x0023   0x0023  0x002a   1   1
[002](64428m54s):  0x0074   0x0074  0x002a   1   1
[003](64589m25s):  0x0024   0x0024  0x001b   1   0
[004](62828m19s):  0x0085   0x0085  0x002a   1   1
[005](64248m56s):  0x00d6   0x00d6  0x001b   1   0
[006](62831m51s):  0x00a2   0x00a2  0x001a   1   0
[007](62929m08s):  0x0041   0x0041  0x002a   1   1
[008](62836m42s):  0x0087   0x0021  0x0043   2   1
[009](64224m23s):  0x028f   0x028f  0x001b   1   0
[010](62927m53s):  0x00f0   0x00f0  0x0019   1   0
[011](62956m32s):  0x00f2   0x00f2  0x001a   1   0
[012](62943m54s):  0x0066   0x0066  0x002a   1   1
[013](62946m39s):  0x005c   0x005c  0x001e   1   0
[014](63000m53s):  0x0069   0x0026  0x0049   2   1
[015](63000m52s):  0x0026   0x0026  0x001f   1   0
[016](63001m01s):  0x0098   0x0098  0x002a   1   1
[017](63860m32s):  0x0107   0x0107  0x001b   1   0
[018](63044m37s):  0x000c   0x000c  0x001a   1   0
[019](63500m36s):  0x010f   0x010f  0x001a   1   0
[020](63192m46s):  0x0073   0x0073  0x00ff   1   1
[021](63136m49s):  0x006f   0x006f  0x002a   1   1
[022](64625m39s):  0x00a0   0x00a0  0x001c   1   0
[023](63322m51s):  0x016f   0x016f  0x001f   1   0
[024](63503m59s):  0x01b9   0x01b9  0x002a   1   1
[025](63503m59s):  0x0164   0x0164  0x001a   1   0
[026](63616m13s):  0x0110   0x0110  0x002a   1   1
[027](63620m17s):  0x01e5   0x01e5  0x002a   1   1
[028](64017m48s):  0x0257   0x0257  0x001a   1   0
[029](64031m34s):  0x0153   0x0153  0x002a   1   1
[030](64076m07s):  0x0100   0x0100  0x001d   1   0
[031](64494m27s):  0x0254   0x0254  0x001a   1   0
[032](64265m10s):  0x029e   0x029e  0x001e   1   0
[033](64599m12s):  0x0228   0x0228  0x001a   1   0
[034](64548m23s):  0x01ca   0x01ca  0x001d   1   0
[035](64510m54s):  0x00cd   0x00cd  0x002a   1   1
[036](64549m49s):  0x015b   0x015b  0x002a   1   1
[037](64566m54s):  0x02fb   0x02fb  0x001d   1   0
[038](64595m42s):  0x0300   0x0300  0x001b   1   0
[039](64631m59s):  0x0316   0x0316  0x001a   1   0
[040](64626m21s):  0x0313   0x0313  0x001b   1   0
[041](64723m45s):  0x007e   0x007e  0x002a   1   1
[042](64723m45s):  0x0311   0x0311  0x001f   1   0
[043](64976m09s):  0x033a   0x033a  0x001c   1   1
[044](65524m00s):  0x040a   0x0000  0x0119   2   1



vt# ver

Magpie PLC Platform - Copyright (c) 2015 Vango Technologies, Inc.

version: v6.1.3.102_0.0.0   2019/05/21 09:44:37

vt#
vt#
Route discovery to 0x0000 success!!
log
Reboot Counter 53
Reboot flag 0010
CLI|SDK|DMA| SQ|APP|UPG|CMD|CNF|RXQ|TFA|SEC|
  0|  0|  0|  0|  1|  0|  0|  0|  0|  0|  0|
DMA : 1
RX  : 20
TCIP: 31
Current_idx = 0
Index--[0]--
REG A0000080: 00000000
REG A0000084: 00000000
REG A00000C8: 00000000
REG A00000CC: 00000000
REG A00100B0: 00000000
REG A00100C8: 00000000
REG A0249C00: 00000000
REG A0249C10: 00000000
[0]:(  0D 08:14:58)SYSTEM_REBOOT (APP)
[1]:(  0D 00:00:00)SYSTEM_BOOT_UP (Power Button Reset) (RTC Alarm)

Route discovery to 0x040a success!!
[2]:(  0D 00:00:59)BOOTSTRAP_JOIN_SUCCESS  (PANID 0xE0A4)
[3]:(  0D 03:56:22)SYSTEM_REBOOT (APP)
[4]:(  0D 00:00:00)SYSTEM_BOOT_UP (Power Button Reset) (RTC Alarm)
[5]:(  0D 00:00:54)BOOTSTRAP_JOIN_SUCCESS  (PANID 0xE0A4)
[6]:(  0D 11:39:12)SYSTEM_REBOOT (APP)
[7]:(  0D 00:00:00)SYSTEM_BOOT_UP (Power Button Reset) (RTC Alarm)
[8]:(  0D 00:00:51)BOOTSTRAP_JOIN_SUCCESS  (PANID 0xE0A4)
[9]:(  0D 03:02:08)SYSTEM_REBOOT (APP)
[10]:(  0D 00:00:00)SYSTEM_BOOT_UP (Power Button Reset) (RTC Alarm)
[11]:(  0D 00:00:36)BOOTSTRAP_JOIN_SUCCESS  (PANID 0xE0A4)
[12]:(  0D 18:22:53)SYSTEM_REBOOT (APP)
[13]:(  0D 00:00:00)SYSTEM_BOOT_UP (Power Button Reset) (RTC Alarm)
[14]:(  0D 00:00:57)BOOTSTRAP_JOIN_SUCCESS  (PANID 0xE0A4)
[15]:(  0D 05:49:39)SYSTEM_REBOOT (APP)
[16]:(  0D 00:00:00)SYSTEM_BOOT_UP (Power Button Reset) (RTC Alarm)
[17]:(  0D 00:00:48)BOOTSTRAP_JOIN_SUCCESS  (PANID 0xE0A4)
[18]:(  0D 02:24:40)SYSTEM_REBOOT (APP)
[19]:(  0D 00:00:00)SYSTEM_BOOT_UP (Power Button Reset) (RTC Alarm)
[20]:(  0D 00:00:53)BOOTSTRAP_JOIN_SUCCESS  (PANID 0xE0A4)
[21]:(  0D 00:30:40)SYSTEM_REBOOT (APP)
[22]:(  0D 00:00:00)SYSTEM_BOOT_UP (Power Button Reset) (RTC Alarm)
[23]:(  0D 00:00:57)BOOTSTRAP_JOIN_SUCCESS  (PANID 0xE0A4)
[24]:(  0D 03:01:30)SYSTEM_REBOOT (APP)
[25]:(  0D 00:00:00)SYSTEM_BOOT_UP (Power Button Reset) (RTC Alarm)
[26]:(  0D 00:00:41)BOOTSTRAP_JOIN_SUCCESS  (PANID 0xE0A4)
[27]:(  0D 04:16:25)SYSTEM_REBOOT (APP)
[28]:(  0D 00:00:00)SYSTEM_BOOT_UP (Power Button Reset) (RTC Alarm)
[29]:(  0D 00:00:57)BOOTSTRAP_JOIN_SUCCESS  (PANID 0xE0A4)
[30]:(  0D 00:20:28)SYSTEM_REBOOT (APP)
[31]:(  0D 00:00:00)SYSTEM_BOOT_UP (Power Button Reset) (RTC Alarm)
[32]:(  0D 00:00:53)BOOTSTRAP_JOIN_SUCCESS  (PANID 0xE0A4)
[33]:(  0D 01:59:29)SYSTEM_REBOOT (APP)
[34]:(  0D 00:00:00)SYSTEM_BOOT_UP (Power Button Reset) (RTC Alarm)
[35]:(  0D 00:00:54)BOOTSTRAP_JOIN_SUCCESS  (PANID 0xE0A4)
[36]:(  0D 01:46:06)SYSTEM_REBOOT (APP)
[37]:(  0D 00:00:00)SYSTEM_BOOT_UP (Power Button Reset) (RTC Alarm)
[38]:(  0D 00:00:51)BOOTSTRAP_JOIN_SUCCESS  (PANID 0xE0A4)
[39]:(  0D 02:02:14)BOOTSTRAP_JOIN_SUCCESS  (PANID 0xE0A4)
[40]:(  1D 07:30:18)BOOTSTRAP_JOIN_SUCCESS  (PANID 0xE0A4)
[41]:(  1D 09:36:26)BOOTSTRAP_JOIN_SUCCESS  (PANID 0xE0A4)
[42]:(  1D 10:47:43)BOOTSTRAP_JOIN_SUCCESS  (PANID 0xE0A4)
[43]:(  1D 11:50:53)BOOTSTRAP_JOIN_SUCCESS  (PANID 0xE0A4)
[44]:(  1D 13:02:03)BOOTSTRAP_JOIN_SUCCESS  (PANID 0xE0A4)
[45]:(  1D 14:11:41)BOOTSTRAP_JOIN_SUCCESS  (PANID 0xE0A4)
[46]:(  1D 15:15:48)BOOTSTRAP_JOIN_SUCCESS  (PANID 0xE0A4)
[47]:(  1D 16:21:30)BOOTSTRAP_JOIN_SUCCESS  (PANID 0xE0A4)
[48]:(  1D 17:30:59)BOOTSTRAP_JOIN_SUCCESS  (PANID 0x74A7)
[49]:(  1D 18:24:12)BOOTSTRAP_JOIN_SUCCESS  (PANID 0xE0A4)
[50]:(  1D 18:35:00)BOOTSTRAP_JOIN_SUCCESS  (PANID 0x74A7)
[51]:(  0D 00:00:00)SYSTEM_BOOT_UP (Power Button Reset) (RTC Alarm)
[52]:(  0D 00:03:10)BOOTSTRAP_JOIN_SUCCESS  (PANID 0x74A7)
[53]:(  0D 00:13:33)BOOTSTRAP_JOIN_SUCCESS  (PANID 0x74A7)
[54]:(  0D 01:21:53)BOOTSTRAP_JOIN_SUCCESS  (PANID 0x74A7)
[55]:(  0D 02:31:18)BOOTSTRAP_JOIN_SUCCESS  (PANID 0x74A7)
Response timeout
[cli_processCmd] no response !!
