
[2019-09-26 15:28:45.029] 
[2019-09-26 15:28:45.039] Receive beacon_request
[2019-09-26 15:28:45.039]     ->form: 354146FFFE020000
[2019-09-26 15:28:45.949] Send Beacon (RC_COORD 0x1A)
[2019-09-26 15:28:46.129] rev
[2019-09-26 15:28:47.259] 
[2019-09-26 15:28:47.259] 
[2019-09-26 15:28:47.259] Magpie PLC Platform - Copyright (c) 2015 Vango Technologies, Inc.
[2019-09-26 15:28:47.269] ================================================
[2019-09-26 15:28:47.269] SW Ver : v6.1.3.102 @537d2db5 (2019/05/08 17:28:51)ASIC
[2019-09-26 15:28:47.279] FW Ver :  v6.0.0.0 @e8de071e (2018/11/15 15:37:01, 0x80003733)
[2019-09-26 15:28:47.289] LD Ver	: MP B01
[2019-09-26 15:28:47.289] ChipVer	: V6306 
[2019-09-26 15:28:47.289] Band	: CEN-A FCC Vango 
[2019-09-26 15:28:47.289] Module	: ROBO mode 
[2019-09-26 15:28:47.299] ZeroX	: OFF
[2019-09-26 15:28:47.299] SoftAck	: ON
[2019-09-26 15:28:47.299] Others	: Data coherent modeTwo RS blocks mode
[2019-09-26 15:28:47.299] ================================================
[2019-09-26 15:28:47.299] 
[2019-09-26 15:28:47.299] vt# ifcondif    nfig
[2019-09-26 15:28:53.959] 
[2019-09-26 15:28:53.959] Bandplan   : FCC
[2019-09-26 15:28:53.959] Device     : LBD (FFD) (start time 1969 sec) AC:50 Hz Pan 0xE0A4  Joined
[2019-09-26 15:28:53.969] Short Addr : 0x040A (RC_COORD 0x001A)
[2019-09-26 15:28:53.969] Extended Addr : 0x8311 39FF FE02 0000
[2019-09-26 15:28:53.979] 
[2019-09-26 15:28:53.979] Routing Table : [000]-[511]
[2019-09-26 15:28:53.979]                     Dest   Next_Hop  Route_Cost  Hop_Count  Weak_Link_Count
[2019-09-26 15:28:53.979] [000](65522m36s):  0x0000   0x0000     0x001A        1             0
[2019-09-26 15:28:53.989] [001](65519m13s):  0x0375   0x0375     0x0019        1             1
[2019-09-26 15:28:53.999] [002](65519m13s):  0x0087   0x0087     0x002A        1             1
[2019-09-26 15:28:53.999] [003](65522m36s):  0x0326   0x0326     0x001F        1             0
[2019-09-26 15:28:54.009] [004](65532m23s):  0x0018   0x0018     0x002A        1             1
[2019-09-26 15:28:54.019] 
[2019-09-26 15:28:54.019] BlackList Table : [000]-[127]
[2019-09-26 15:28:54.019]                     Dest
[2019-09-26 15:28:54.019] 
[2019-09-26 15:28:54.019] BlackList History : [00]-[127]
[2019-09-26 15:28:54.029]          Dest
[2019-09-26 15:28:54.029] 
[2019-09-26 15:28:54.029] RREQ History : [00]-[31]
[2019-09-26 15:28:54.029]          Dest    Ori     Seq
[2019-09-26 15:28:54.029] [01]     02fe    0000     1421
[2019-09-26 15:28:54.039] [02]     0000    02fe     1
[2019-09-26 15:28:54.039] [03]     0305    0000     1422
[2019-09-26 15:28:54.039] [04]     0306    0000     1423
[2019-09-26 15:28:54.039] [05]     030a    0000     1424
[2019-09-26 15:28:54.049] [06]     030b    0000     1425
[2019-09-26 15:28:54.049] [07]     0000    030b     1
[2019-09-26 15:28:54.049] [08]     030d    0000     1426
[2019-09-26 15:28:54.049] [09]     0087    0375     0
[2019-09-26 15:28:54.059] [10]     0000    0087     26
[2019-09-26 15:28:54.059] [11]     0000    0395     6
[2019-09-26 15:28:54.059] [12]     0326    0000     1427
[2019-09-26 15:28:54.059] [13]     03df    0000     1428
[2019-09-26 15:28:54.069] [14]     0000    005e     7
[2019-09-26 15:28:54.069] [15]     000a    0000     1429
[2019-09-26 15:28:54.069] [16]     0121    0000     1430
[2019-09-26 15:28:54.069] [17]     012d    0307     9
[2019-09-26 15:28:54.079] [18]     0000    0125     2
[2019-09-26 15:28:54.079] [19]     02f8    0000     1431
[2019-09-26 15:28:54.079] [20]     02f2    0000     1432
[2019-09-26 15:28:54.089] [21]     02f3    0000     1433
[2019-09-26 15:28:54.089] [22]     00a9    03dd     0
[2019-09-26 15:28:54.089] [23]     0000    01ca     5
[2019-09-26 15:28:54.099] [24]     01ca    0000     1434
[2019-09-26 15:28:54.099] [25]     0000    0116     3
[2019-09-26 15:28:54.099] [26]     0000    013d     2
[2019-09-26 15:28:54.099] [27]     013a    0000     1417
[2019-09-26 15:28:54.099] [28]     013f    0307     8
[2019-09-26 15:28:54.109] [29]     0000    013f     1
[2019-09-26 15:28:54.109] [30]     013e    0000     1418
[2019-09-26 15:28:54.109] [31]     014e    0000     1419
[2019-09-26 15:28:54.109] 
[2019-09-26 15:28:54.109] Neighbor Table : [000]-[64] TX Use Neighbor table
[2019-09-26 15:28:54.119]       TMR/Neighgor   Dest    LQI  Mod(expect) Scheme    ToneMap    TXRES TXGAIN Phase
[2019-09-26 15:28:54.129] [000](000/255 min): 0x013C  00/27   0/0(0)     0/0   FFFFFF/FFFFFF  0/0    0/ 0   0 FCC
[2019-09-26 15:28:54.129] [001](000/255 min): 0x03E8  00/45   0/0(1)     0/0   FFFFFF/3A0001  0/0    0/ 0   0 FCC
[2019-09-26 15:28:54.139] [002](000/255 min): 0x03D8  00/34   0/0(0)     0/0   FFFFFF/FFFFFF  0/0    0/ 0   0 FCC
[2019-09-26 15:28:54.149] [003](000/255 min): 0x0373  00/60   0/0(2)     0/0   FFFFFF/FFE000  0/0    0/ 0   0 FCC
[2019-09-26 15:28:54.159] [004](000/255 min): 0x03DF  00/36   0/0(1)     0/0   FFFFFF/000700  0/0    0/ 0   0 FCC
[2019-09-26 15:28:54.169] [005](000/255 min): 0x03EF  00/45   0/0(1)     0/0   FFFFFF/07A000  0/0    0/ 0   0 FCC
[2019-09-26 15:28:54.169] [006](000/255 min): 0x02CB  00/42   0/0(2)     0/0   FFFFFF/01B800  0/0    0/ 0   0 FCC
[2019-09-26 15:28:54.179] [007](000/255 min): 0x0301  00/4E   0/0(2)     0/0   FFFFFF/1FFFC0  0/0    0/ 0   0 FCC
[2019-09-26 15:28:54.189] [008](000/255 min): 0x0124  00/4B   0/0(2)     0/0   FFFFFF/001F80  0/0    0/ 0   0 FCC
[2019-09-26 15:28:54.199] [009](000/255 min): 0x012B  00/40   0/0(1)     0/0   FFFFFF/001A00  0/0    0/ 0   0 FCC
[2019-09-26 15:28:54.199] [010](000/255 min): 0x0137  00/52   0/0(1)     0/0   FFFFFF/898100  0/0    0/ 0   0 FCC
[2019-09-26 15:28:54.209] [011](000/254 min): 0x0125  00/53   0/0(3)     0/0   FFFFFF/007F80  0/0    0/ 0   0 FCC
[2019-09-26 15:28:54.219] [012](000/255 min): 0x0317  00/4C   0/0(2)     0/0   FFFFFF/3FCFF8  0/0    0/ 0   0 FCC
[2019-09-26 15:28:54.229] [013](000/255 min): 0x0308  00/57   0/0(2)     0/0   FFFFFF/13FFE0  0/0    0/ 0   0 FCC
[2019-09-26 15:28:54.229] [014](000/255 min): 0x00F6  00/67   0/0(3)     0/0   FFFFFF/FFFFFC  0/0    0/ 0   0 FCC
[2019-09-26 15:28:54.239] [015](000/255 min): 0x0139  00/22   0/0(0)     0/0   FFFFFF/FFFFFF  0/0    0/ 0   0 FCC
[2019-09-26 15:28:54.249] [016](000/255 min): 0x0375  00/6B   0/0(3)     0/0   FFFFFF/9FFFFE  0/0    0/ 0   0 FCC
[2019-09-26 15:28:54.259] [017](000/255 min): 0x02F3  00/3D   0/0(1)     0/0   FFFFFF/00BF80  0/0    0/ 0   0 FCC
[2019-09-26 15:28:54.259] [018](000/255 min): 0x0132  00/56   0/0(2)     0/0   FFFFFF/000382  0/0    0/ 0   0 FCC
[2019-09-26 15:28:54.269] [019](000/255 min): 0x0304  00/57   0/0(2)     0/0   FFFFFF/13FFE0  0/0    0/ 0   0 FCC
[2019-09-26 15:28:54.279] [020](000/255 min): 0x01D5  00/5C   0/0(3)     0/0   FFFFFF/FFFFE0  0/0    0/ 0   0 FCC
[2019-09-26 15:28:54.289] [021](000/255 min): 0x0133  00/3F   0/0(1)     0/0   FFFFFF/E00000  0/0    0/ 0   0 FCC
[2019-09-26 15:28:54.299] [022](000/255 min): 0x0306  00/56   0/0(3)     0/0   FFFFFF/3BFFE1  0/0    0/ 0   0 FCC
[2019-09-26 15:28:54.309] [023](000/255 min): 0x02F2  00/42   0/0(2)     0/0   FFFFFF/001D00  0/0    0/ 0   0 FCC
[2019-09-26 15:28:54.309] [024](000/255 min): 0x0122  00/32   0/0(0)     0/0   FFFFFF/FFFFFF  0/0    0/ 0   0 FCC
[2019-09-26 15:28:54.319] [025](000/255 min): 0x03FA  00/6A   0/0(3)     0/0   FFFFFF/FFFFFF  0/0    0/ 0   0 FCC
[2019-09-26 15:28:54.329] [026](000/255 min): 0x03FB  00/3E   0/0(2)     0/0   FFFFFF/FFF800  0/0    0/ 0   0 FCC
[2019-09-26 15:28:54.329] [027](000/255 min): 0x02FE  00/63   0/0(2)     0/0   FFFFFF/03FFE0  0/0    0/ 0   0 FCC
[2019-09-26 15:28:54.339] [028](000/255 min): 0x03F6  00/3A   0/0(1)     0/0   FFFFFF/02C000  0/0    0/ 0   0 FCC
[2019-09-26 15:28:54.349] [029](000/255 min): 0x006F  00/48   0/0(1)     0/0   FFFFFF/0183C2  0/0    0/ 0   0 FCC
[2019-09-26 15:28:54.359] [030](000/255 min): 0x00A9  00/41   0/0(1)     0/0   FFFFFF/007B80  0/0    0/ 0   0 FCC
[2019-09-26 15:28:54.369] [031](000/255 min): 0x030E  00/2A   0/0(0)     0/0   FFFFFF/FFFFFF  0/0    0/ 0   0 FCC
[2019-09-26 15:28:54.369] [032](000/255 min): 0x004F  00/52   0/0(2)     0/0   FFFFFF/07CFF0  0/0    0/ 0   0 FCC
[2019-09-26 15:28:54.379] [033](000/255 min): 0x0116  00/43   0/0(2)     0/0   FFFFFF/001F80  0/0    0/ 0   0 FCC
[2019-09-26 15:28:54.389] [034](000/255 min): 0x0102  00/42   0/0(1)     0/0   FFFFFF/000500  0/0    0/ 0   0 FCC
[2019-09-26 15:28:54.399] [035](000/254 min): 0x007A  00/3F   0/0(1)     0/0   FFFFFF/003F80  0/0    0/ 0   0 FCC
[2019-09-26 15:28:54.399] [036](000/254 min): 0x0000  00/68   0/0(3)     0/0   FFFFFF/FFFFFF  0/0    0/ 0   0 FCC
[2019-09-26 15:28:54.409] [037](000/255 min): 0x03DD  00/60   0/0(3)     0/0   FFFFFF/FFFFE0  0/0    0/ 0   0 FCC
[2019-09-26 15:28:54.419] [038](000/255 min): 0x03FC  00/51   0/0(3)     0/0   FFFFFF/0F8FF8  0/0    0/ 0   0 FCC
[2019-09-26 15:28:54.429] [039](000/254 min): 0x0140  00/3D   0/0(0)     0/0   FFFFFF/FFFFFF  0/0    0/ 0   0 FCC
[2019-09-26 15:28:54.429] [040](000/255 min): 0x03D0  00/6B   0/0(3)     0/0   FFFFFF/FFFFC0  0/0    0/ 0   0 FCC
[2019-09-26 15:28:54.439] [041](000/255 min): 0x02DF  00/2A   0/0(1)     0/0   FFFFFF/001800  0/0    0/ 0   0 FCC
[2019-09-26 15:28:54.449] [042](000/255 min): 0x0146  00/3A   0/0(0)     0/0   FFFFFF/FFFFFF  0/0    0/ 0   0 FCC
[2019-09-26 15:28:54.459] [043](000/255 min): 0x013A  00/4E   0/0(1)     0/0   FFFFFF/EFFFA2  0/0    0/ 0   0 FCC
[2019-09-26 15:28:54.469] [044](000/255 min): 0x0405  00/5B   0/0(3)     0/0   FFFFFF/0FEBC0  0/0    0/ 0   0 FCC
[2019-09-26 15:28:54.479] [045](000/255 min): 0x0088  00/46   0/0(1)     0/0   FFFFFF/181202  0/0    0/ 0   0 FCC
[2019-09-26 15:28:54.479] [046](000/255 min): 0x03FE  00/6A   0/0(3)     0/0   FFFFFF/FFFFF0  0/0    0/ 0   0 FCC
[2019-09-26 15:28:54.489] [047](000/255 min): 0x02FF  00/54   0/0(2)     0/0   FFFFFF/23FFE1  0/0    0/ 0   0 FCC
[2019-09-26 15:28:54.499] [048](000/255 min): 0x037A  00/23   0/0(0)     0/0   FFFFFF/FFFFFF  0/0    0/ 0   0 FCC
[2019-09-26 15:28:54.509] [049](000/255 min): 0x002A  00/37   0/0(1)     0/0   FFFFFF/300000  0/0    0/ 0   0 FCC
[2019-09-26 15:28:54.509] [050](000/255 min): 0x0135  00/3F   0/0(1)     0/0   FFFFFF/000D00  0/0    0/ 0   0 FCC
[2019-09-26 15:28:54.519] [051](000/255 min): 0x03E4  00/62   0/0(3)     0/0   FFFFFF/BFFF80  0/0    0/ 0   0 FCC
[2019-09-26 15:28:54.529] [052](000/255 min): 0x0142  00/30   0/0(0)     0/0   FFFFFF/FFFFFF  0/0    0/ 0   0 FCC
[2019-09-26 15:28:54.539] [053](000/255 min): 0x0018  00/1D   0/0(2)     0/0   FFFFFF/07F010  0/0    0/ 0   0 FCC
[2019-09-26 15:28:54.539] [054](000/255 min): 0x0369  00/43   0/0(2)     0/0   FFFFFF/001F80  0/0    0/ 0   0 FCC
[2019-09-26 15:28:54.549] [055](000/255 min): 0x0120  00/6A   0/0(3)     0/0   FFFFFF/03FFF0  0/0    0/ 0   0 FCC
[2019-09-26 15:28:54.559] [056](000/255 min): 0x012D  00/41   0/0(0)     0/0   FFFFFF/FFFFFF  0/0    0/ 0   0 FCC
[2019-09-26 15:28:54.569] [057](000/255 min): 0x035B  00/52   0/0(0)     0/0   FFFFFF/FFFFFF  0/0    0/ 0   0 FCC
[2019-09-26 15:28:54.569] [058](000/255 min): 0x0401  00/62   0/0(3)     0/0   FFFFFF/FFFFC0  0/0    0/ 0   0 FCC
[2019-09-26 15:28:54.579] [059](000/255 min): 0x0145  00/2C   0/0(0)     0/0   FFFFFF/FFFFFF  0/0    0/ 0   0 FCC
[2019-09-26 15:28:54.589] [060](000/255 min): 0x01D8  00/41   0/0(1)     0/0   FFFFFF/0303C7  0/0    0/ 0   0 FCC
[2019-09-26 15:28:54.599] [061](000/255 min): 0x0303  00/5D   0/0(2)     0/0   FFFFFF/3BFFE0  0/0    0/ 0   0 FCC
[2019-09-26 15:28:54.609] [062](000/255 min): 0x013D  00/50   0/0(1)     0/0   FFFFFF/FF0140  0/0    0/ 0   0 FCC
[2019-09-26 15:28:54.609] [063](000/255 min): 0x03FF  00/62   0/0(3)     0/0   FFFFFF/FFFFFB  0/0    0/ 0   0 FCC
[2019-09-26 15:28:54.619] [064](002/255 min): 0xFFFF  00/00   0/0(0)     0/0   FFFFFF/FFFFFF  0/0    0/ 0   0 FCC
[2019-09-26 15:28:54.629] 
[2019-09-26 15:28:54.629] MHR SEQ History : [00]-[15]
[2019-09-26 15:28:54.629]          Src     Seq
[2019-09-26 15:28:54.629] [00]     0000     91
[2019-09-26 15:28:54.639] 
[2019-09-26 15:28:54.639] vt# ifconfig        rev   pinge 0018 20
[2019-09-26 15:28:58.469] 
[2019-09-26 15:28:58.469] 
[2019-09-26 15:28:58.469] Ping Test : size 7, loops 20
[2019-09-26 15:28:59.539] .
[2019-09-26 15:29:00.539] Send ToneMap Response(0018), Mod D-2 0x9FFFFE
[2019-09-26 15:29:00.749] ..T seq=0035
[2019-09-26 15:29:06.229] Total Send Tx/Rx : 4/3, AvgTime 913 msec
[2019-09-26 15:29:06.229] PER : 25.0 %
[2019-09-26 15:29:06.229] 
[2019-09-26 15:29:06.229] vt# Send RREP, Dest Addr 0x0018, Next 0x0000, Seq 1, Flag 8, size 14
[2019-09-26 15:29:07.959] 
[2019-09-26 15:29:07.959] Receive beacon_request
[2019-09-26 15:29:07.959]     ->form: 354146FFFE020000
[2019-09-26 15:29:08.479] 
[2019-09-26 15:29:08.479] Receive beacon_request
[2019-09-26 15:29:08.489]     ->form: 354146FFFE020000
[2019-09-26 15:29:08.779] 
[2019-09-26 15:29:08.779] Send ToneMap Response(0000), Mod D-3 0xFFFFFF
[2019-09-26 15:29:09.928] 
[2019-09-26 15:29:09.928] Send ToneMap Response(02DF), Mod D-0 0xFFFFFF
[2019-09-26 15:29:10.298] C(02DF)C(02DF)Add D:02DF O:0000  seq:1435 to RREQ History[26]
[2019-09-26 15:29:19.928] >> holley_send_heartbeat(20)
[2019-09-26 15:29:19.938] 
[2019-09-26 15:29:19.938]       68 0e 0e 68 5a 99 99 06 82 05 55 30 00 aa aa 00 
[2019-09-26 15:29:19.938]       01 00 77 16 
[2019-09-26 15:29:19.938] 
[2019-09-26 15:29:23.238] 
[2019-09-26 15:29:23.238] Receive beacon_request
[2019-09-26 15:29:23.238]     ->form: 490555FFFE020000
[2019-09-26 15:29:24.288] pinge 0018 20 20  20  20 3 209 205 20
[2019-09-26 15:29:30.608] 
[2019-09-26 15:29:30.608] 
[2019-09-26 15:29:30.608] Ping Test : size 7, loops 20
[2019-09-26 15:29:30.888] Send RREQ, Dest 0x0395, Seq 1, Flag 0
[2019-09-26 15:29:36.187] Route Discovery Success (Dest 0x0395, Next 0x0395, Hop 1)
[2019-09-26 15:29:36.197] vtmsg_nwk_event
[2019-09-26 15:29:36.207] check_link_repair() send packet to 0x0395 (next 0x0395)
[2019-09-26 15:29:36.207] 
[2019-09-26 15:29:36.207] Send ToneMap Response(0395), Mod D-2 0xE1FFF8
[2019-09-26 15:29:37.437] ..C(0395)...C(0395)Tx Packet Give Up (TxCMP, nack_or_ackto = 3)
[2019-09-26 15:29:42.867] Robust retry success(0), Update Neighor table 0x0395(Robust)
[2019-09-26 15:29:43.087] C(0395).Tx Packet Give Up (TxCMP, nack_or_ackto = 3)
[2019-09-26 15:29:44.177] Robust retry success(1), Update Neighor table 0x0395(Robust)
[2019-09-26 15:29:45.367] C(0395)Add D:01D8 O:0390  seq:01 to RREQ History[27]
[2019-09-26 15:29:48.817] T seq=003c
[2019-09-26 15:29:48.827] Total Send Tx/Rx : 7/6, AvgTime 2116 msec
[2019-09-26 15:29:48.827] PER : 14.28 %
[2019-09-26 15:29:48.827] 
[2019-09-26 15:29:48.827] vt# 
[2019-09-26 15:29:49.737] Receive beacon_request
[2019-09-26 15:29:49.747]     ->form: 354146FFFE020000
[2019-09-26 15:29:58.207] log
[2019-09-26 15:29:58.857] 
[2019-09-26 15:29:58.857] Reboot Counter 18
[2019-09-26 15:29:58.867] Reboot flag 0040
[2019-09-26 15:29:58.867] CLI|SDK|DMA| SQ|APP|UPG|CMD|CNF|RXQ|TFA|SEC|DT2|
[2019-09-26 15:29:58.867]   0|  0|  0|  0|  0|  0|  1|  0|  0|  0|  0|  0|
[2019-09-26 15:29:58.877] DMA : 1
[2019-09-26 15:29:58.877] RX  : 20
[2019-09-26 15:29:58.877] TCIP: 100
[2019-09-26 15:29:58.877] Current_idx = 0
[2019-09-26 15:29:58.877] Index--[0]--
[2019-09-26 15:29:58.877] REG A0000080: 00000000
[2019-09-26 15:29:58.887] REG A0000084: 00000000
[2019-09-26 15:29:58.887] REG A00000C8: 00000000
[2019-09-26 15:29:58.887] REG A00000CC: 00000000
[2019-09-26 15:29:58.887] REG A00100B0: 00000000
[2019-09-26 15:29:58.887] REG A00100C8: 00000000
[2019-09-26 15:29:58.887] REG A0249C00: 00000000
[2019-09-26 15:29:58.897] REG A0249C10: 00000000
[2019-09-26 15:29:58.897] System Log (Total 22, Current 21)
[2019-09-26 15:29:58.897]   [000]:(  0D 00:00:00)SYSTEM_BOOT_UP (Power Button Reset) (RTC Alarm) 
[2019-09-26 15:29:58.907]   [001]:(  0D 00:00:00)SYSTEM_BOOT_UP (Power Button Reset) (RTC Alarm) 
[2019-09-26 15:29:58.907]   [002]:(  0D 00:00:00)SYSTEM_BOOT_UP (Power Button Reset) (RTC Alarm) 
[2019-09-26 15:29:58.917]   [003]:(  0D 00:00:00)SYSTEM_BOOT_UP (Power Button Reset) (RTC Alarm) 
[2019-09-26 15:29:58.927]   [004]:(  0D 00:00:00)SYSTEM_BOOT_UP (Power Button Reset)Send Beacon (RC_COORD 0x2A)
[2019-09-26 15:29:58.927]  (RTC Alarm) 
[2019-09-26 15:29:58.937]   [005]:(  0D 00:00:00)SYSTEM_BOOT_UP (Power Button Reset) (RTC Alarm) 
[2019-09-26 15:29:58.937]   [006]:(  0D 00:00:00)SYSTEM_BOOT_UP (Power Button Reset) (RTC Alarm) 
[2019-09-26 15:29:58.947]   [007]:(  0D 00:00:00)SYSTEM_BOOT_UP (Power Button Reset) (RTC Alarm) 
[2019-09-26 15:29:58.947]   [008]:(  0D 00:00:00)SYSTEM_BOOT_UP (Power Button Reset) (RTC Alarm) 
[2019-09-26 15:29:58.957]   [009]:(  0D 00:00:00)SYSTEM_BOOT_UP (Power Button Reset) (RTC Alarm) 
[2019-09-26 15:29:58.967]   [010]:(  0D 00:14:59)SYSTEM_REBOOT (Command Line) 
[2019-09-26 15:29:58.977]   [011]:(  0D 00:00:00)SYSTEM_BOOT_UP (Power Button Reset) (RTC Alarm) 
[2019-09-26 15:29:58.977]   [012]:(  0D 00:00:00)SYSTEM_BOOT_UP (Power Button Reset) (RTC Alarm) 
[2019-09-26 15:29:58.987]   [013]:(  0D 00:00:00)SYSTEM_BOOT_UP (Power Button Reset) (RTC Alarm) 
[2019-09-26 15:29:58.987]   [014]:(  0D 00:00:00)SYSTEM_BOOT_UP (Power Button Reset) (RTC Alarm) 
[2019-09-26 15:29:58.997]   [015]:(  0D 00:00:00)SYSTEM_BOOT_UP (Power Button Reset) (RTC Alarm) 
[2019-09-26 15:29:58.997]   [016]:(  0D 00:00:00)SYSTEM_BOOT_UP (Power Button Reset) (RTC Alarm) 
[2019-09-26 15:29:59.007]   [017]:(  0D 00:00:00)SYSTEM_BOOT_UP (Power Button Reset) (RTC Alarm) 
[2019-09-26 15:29:59.017]   [018]:(  0D 00:57:07)BOOTSTRAP_JOIN_SUCCESS  (PANID 0xE0A4)
[2019-09-26 15:29:59.017]   [019]:(  0D 00:59:17)SYSTEM_REBOOT (Command Line) 
[2019-09-26 15:29:59.027]   [020]:(  0D 00:00:00)SYSTEM_BOOT_UP (Power Button Reset) (RTC Alarm) 
[2019-09-26 15:29:59.027] ->[021]:(  0D 00:00:56)BOOTSTRAP_JOIN_SUCCESS  (PANID 0xE0A4)
[2019-09-26 15:29:59.037] 
[2019-09-26 15:29:59.037] vt# 
[2019-09-26 15:30:00.447] Receive beacon_request
[2019-09-26 15:30:00.447]     ->form: 490555FFFE020000
[2019-09-26 15:30:13.789] Send Beacon (RC_COORD 0x2A)
[2019-09-26 15:30:18.659] log   pinge 0395 20
[2019-09-26 15:30:21.139] Receive beacon_request
[2019-09-26 15:30:21.149]     ->form: 354146FFFE020000
[2019-09-26 15:30:21.709]  20  20  20  20 4 200 207 20
[2019-09-26 15:30:24.229] 
[2019-09-26 15:30:24.229] 
[2019-09-26 15:30:24.229] Ping Test : size 7, loops 20
[2019-09-26 15:30:24.279] Send RREQ, Dest 0x0407, Seq 2, Flag 0
[2019-09-26 15:30:28.189] Route Discovery Success (Dest 0x0407, Next 0x0407, Hop 1)
[2019-09-26 15:30:28.199] vtmsg_nwk_event
[2019-09-26 15:30:28.199] check_link_repair() send packet to 0x0407 (next 0x0407)
[2019-09-26 15:30:28.199] 
[2019-09-26 15:30:28.199] Send ToneMap Response(0407), Mod D-3 0xFFFFC0
[2019-09-26 15:30:28.939] ...C(0407).C(0407)..C(0407)...C(0407)C(0407)...........
[2019-09-26 15:30:31.739] Total Send Tx/Rx : 20/20, AvgTime 375 msec
[2019-09-26 15:30:31.739] PER : 0.0 %
[2019-09-26 15:30:31.749] 
[2019-09-26 15:30:31.749] vt# ARQ_RETRYFAIL (pid 0)(ACKTO)
[2019-09-26 15:30:32.909] Tx Packet Give Up (TxCMP, nack_or_ackto = 3)
[2019-09-26 15:30:33.059] Robust retry success(0), Update Neighor table 0x0407(Robust)
[2019-09-26 15:30:33.869] pinge 407 200407 20
[2019-09-26 15:30:37.789] 
[2019-09-26 15:30:37.789] 
[2019-09-26 15:30:37.789] Ping Test : size 7, loops 20
[2019-09-26 15:30:37.909] ......Send Beacon (RC_COORD 0x2A)
[2019-09-26 15:30:38.729] ..............
[2019-09-26 15:30:41.419] Total Send Tx/Rx : 20/20, AvgTime 181 msec
[2019-09-26 15:30:41.429] PER : 0.0 %
[2019-09-26 15:30:41.429] 
[2019-09-26 15:30:41.429] vt# pinge 0407 20
[2019-09-26 15:30:51.599] 
[2019-09-26 15:30:51.599] 
[2019-09-26 15:30:51.599] Ping Test : size 7, loops 20
[2019-09-26 15:30:51.719] ....................
[2019-09-26 15:30:54.919] Total Send Tx/Rx : 20/20, AvgTime 165 msec
[2019-09-26 15:30:54.929] PER : 0.0 %
[2019-09-26 15:30:54.939] 
[2019-09-26 15:30:54.939] vt# pinge 0407 20
[2019-09-26 15:31:07.278] Receive beacon_request
[2019-09-26 15:31:07.278]     ->form: 354146FFFE020000
[2019-09-26 15:31:08.701]              pinge 0407 20             pinge 0407 20 20  20  20 2 20d 20n 20 20 b 20
[2019-09-26 15:31:15.161] 
[2019-09-26 15:31:15.161] 
[2019-09-26 15:31:15.161] Ping Test : size 7, loops 20
[2019-09-26 15:31:15.461] Send RREQ, Dest 0x02db, Seq 3, Flag 0
[2019-09-26 15:31:30.161] Route error (give up)!!
[2019-09-26 15:31:30.171] 
[2019-09-26 15:31:30.171] Total Send Tx/Rx : 1/0, AvgTime 99999 msec
[2019-09-26 15:31:30.171] PER : 100.0 %
[2019-09-26 15:31:30.171] 
[2019-09-26 15:31:30.171] vt# pinge 02db 20 20 a 20
[2019-09-26 15:31:36.841] 
[2019-09-26 15:31:36.841] 
[2019-09-26 15:31:36.841] Ping Test : size 7, loops 20
[2019-09-26 15:31:37.161] Send RREQ, Dest 0x02da, Seq 4, Flag 0
[2019-09-26 15:31:37.451] 
[2019-09-26 15:31:37.451] Receive beacon_request
[2019-09-26 15:31:37.451]     ->form: 490555FFFE020000
[2019-09-26 15:31:44.181] Add D:0000 O:0308  seq:00 to RREQ History[28]
[2019-09-26 15:31:45.191] LR F,G RERR
[2019-09-26 15:31:45.191] RERR dest is myself, Stop RERR
[2019-09-26 15:31:46.191] Wait RREP(0x02db) Timeout
[2019-09-26 15:31:51.841] Route error (give up)!!
[2019-09-26 15:31:51.851] 
[2019-09-26 15:31:51.851] Total Send Tx/Rx : 1/0, AvgTime 99999 msec
[2019-09-26 15:31:51.851] PER : 100.0 %
[2019-09-26 15:31:51.851] 
[2019-09-26 15:31:51.851] vt# 
[2019-09-26 15:31:57.950] Receive beacon_request
[2019-09-26 15:31:57.960]     ->form: 354146FFFE020000
[2019-09-26 15:32:01.270] Send Beacon (RC_COORD 0x2A)
[2019-09-26 15:32:06.700] LR F,G RERR
[2019-09-26 15:32:06.700] RERR dest is myself, Stop RERR
[2019-09-26 15:32:07.700] Wait RREP(0x02da) Timeout
[2019-09-26 15:32:20.430] >> holley_send_heartbeat(20)
[2019-09-26 15:32:20.430] 
[2019-09-26 15:32:20.430]       68 0e 0e 68 5a 99 99 06 82 05 55 30 00 aa aa 00 
[2019-09-26 15:32:20.440]       01 00 77 16 
[2019-09-26 15:32:20.440] 
[2019-09-26 15:32:31.320] 
[2019-09-26 15:32:31.320] Receive beacon_request
[2019-09-26 15:32:31.320]     ->form: 354146FFFE020000
[2019-09-26 15:32:51.212] Send Beacon (RC_COORD 0x2A)
[2019-09-26 15:33:13.296] 
[2019-09-26 15:33:13.296] Receive beacon_request
[2019-09-26 15:33:13.296]     ->form: 490555FFFE020000
[2019-09-26 15:33:15.486] 
[2019-09-26 15:33:15.486] Receive beacon_request
[2019-09-26 15:33:15.496]     ->form: 354146FFFE020000
[2019-09-26 15:33:21.886] Send Beacon (RC_COORD 0x2A)
[2019-09-26 15:34:03.598] 
[2019-09-26 15:34:03.598] Receive beacon_request
[2019-09-26 15:34:03.598]     ->form: 354146FFFE020000
[2019-09-26 15:34:09.828] Add D:0000 O:0058  seq:04 to RREQ History[29]
[2019-09-26 15:34:12.698] Send Beacon (RC_COORD 0x2A)
[2019-09-26 15:34:27.837] Add D:0000 O:0335  seq:00 to RREQ History[30]
[2019-09-26 15:34:36.008] 
[2019-09-26 15:34:36.008] Receive beacon_request
[2019-09-26 15:34:36.008]     ->form: 354146FFFE020000
