652
-48
-3308
2468
340
1936
888
-2644
-732
-2144
1176
2144
992
1572
-2136
-1840
-1668
-248
2832
1840
1636
-1668
-3216
-1492
-356
3088
2856
716
-1764
-3628
-1380
872
3264
2348
-748
-2080
-3024
64
2508
2104
452
-2676
-1880
388
2168
2064
-1040
-2652
-1992
1808
3588
816
-2096
-3556
-364
2540
2588
596
-3340
-1832
1176
2152
1264
-2460
-1732
700
2332
1880
-2872
-2580
700
2388
1976
-1984
-2264
436
1992
992
-2248
-1564
1452
2460
56
-2992
-1300
2152
2300
-1292
-2572
596
2280
716
-2232
-1692
1732
1928
-928
-2208
1128
2160
-1192
-2000
-248
2516
1248
-2532
-1024
1628
1248
-1792
-1524
2492
912
-1792
-724
1240
1040
-2152
-880
2428
1120
-1816
-1708
2000
1136
-2452
-364
2280
516
-2144
-248
2064
-808
-1968
1248
2168
-1284
-1928
1748
904
-2340
-136
2516
-372
-1816
1120
612
-1692
-324
2128
420
-2452
776
1372
-1944
564
1364
-1332
-588
1444
240
-1816
960
1136
-2016
436
1396
-1232
-240
1524
-748
-1540
1740
160
-1880
1756
676
-2300
1120
1184
-2660
912
2500
-2692
-144
2452
-2208
-340
2460
-2184
-692
3380
-2168
-1316
3476
-2756
-912
3548
-2800
192
3056
-3348
-24
2516
-2992
976
2732
-3644
1468
1652
-3968
3000
32
-3032
4064
-1452
-1500
2700
-2708
348
2032
-2332
1412
864
-2604
2372
-556
-2548
3812
-2256
-524
3460
-3960
2700
-436
-3652
4968
-3332
1216
2888
-4872
3856
-2604
-1532
4304
-3724
3452
-184
-2824
2660
-3848
2096
1160
-1628
3404
-2788
