
[2019-09-30 14:12:41.896] [S->SB] Send_Keepalive(seq:43,len:6, time:4096)
[2019-09-30 14:12:41.896] [S->SB] Send_Keepalive(seq:43,len:6, time:4096)
[2019-09-30 14:12:41.896] [S->SB] Send_Keepalive(seq:43,len:6, time:4096)
[2019-09-30 14:12:41.896] [S->SB] Send_Keepalive(seq:43,len:6, time:4096)
[2019-09-30 14:12:43.666] [S->SB] Send_Keepalive(seq:43,len:6, time:4096)
[2019-09-30 14:12:48.447] __info_block = 0x000ff000
[2019-09-30 14:12:48.447] __info_h0    = 0x000ff030
[2019-09-30 14:12:48.447] __info_h1    = 0x000ff2b0
[2019-09-30 14:12:48.463] __info_hb0   = 0x000ff0b0
[2019-09-30 14:12:48.463] __info_hb1   = 0x000ff330
[2019-09-30 14:12:48.463] 
[2019-09-30 14:12:48.463] bbp_reloc    = 0x00000001
[2019-09-30 14:12:48.463] 
[2019-09-30 14:12:48.463] 
[2019-09-30 14:12:48.463]   PHY_CR1		a00000c0	<- 00000000
[2019-09-30 14:12:48.478]   vma)a0200000 lma)0005f800 vma_size)000000d4 lma_size)000000e0
[2019-09-30 14:12:48.478]   vma)a0200400 lma)0005f8e0 vma_size)0000016c lma_size)00000170
[2019-09-30 14:12:48.478]   vma)a020057c lma)0005fa50 vma_size)00000008 lma_size)00000010
[2019-09-30 14:12:48.478]   vma)a020059c lma)0005fa60 vma_size)00000008 lma_size)00000010
[2019-09-30 14:12:48.494]   vma)a02005bc lma)0005fa70 vma_size)00000008 lma_size)00000010
[2019-09-30 14:12:48.494]   vma)a02005dc lma)0005fa80 vma_size)0000000c lma_size)00000010
[2019-09-30 14:12:48.509]   vma)a02005fc lma)0005fa90 vma_size)00000004 lma_size)00000010
[2019-09-30 14:12:48.509]   vma)a020061c lma)0005faa0 vma_size)00000008 lma_size)00000010
[2019-09-30 14:12:48.509]   vma)a0200638 lma)0005fab0 vma_size)00000004 lma_size)00000010
[2019-09-30 14:12:48.525]   vma)a020063c lma)0005fac0 vma_size)00000018 lma_size)00000020
[2019-09-30 14:12:48.525]   vma)a020065c lma)0005fae0 vma_size)00000008 lma_size)00000010
[2019-09-30 14:12:48.525]   vma)a0220000 lma)0005faf0 vma_size)00000010 lma_size)00000010
[2019-09-30 14:12:48.540]   vma)a0240000 lma)73826577 vma_size)00000348 lma_size)00000000
[2019-09-30 14:12:48.540] (decompress) get config ... target vma:a0240000 target size:348
[2019-09-30 14:12:48.540]   vma)76907765 lma)0005fb00 vma_size)0000017c lma_size)00000180
[2019-09-30 14:12:48.556] (decompress) bbp image done ... outsize:348
[2019-09-30 14:12:48.556]   vma)a0220020 lma)73826577 vma_size)000003e0 lma_size)00000000
[2019-09-30 14:12:48.571] (decompress) get config ... target vma:a0220020 target size:3e0
[2019-09-30 14:12:48.571]   vma)76907765 lma)0005fc80 vma_size)00000180 lma_size)00000180
[2019-09-30 14:12:48.587] (decompress) bbp image done ... outsize:3e0
[2019-09-30 14:12:48.587]   vma)a0200678 lma)73826577 vma_size)00016310 lma_size)00000000
[2019-09-30 14:12:48.587] (decompress) get config ... target vma:a0200678 target size:16310
[2019-09-30 14:12:48.602]   vma)76907765 lma)0005fe00 vma_size)0000f0a4 lma_size)0000f0b0
[2019-09-30 14:12:48.975] (decompress) bbp image done ... outsize:1630d
[2019-09-30 14:12:48.975] 
[2019-09-30 14:12:48.975] heap size internal 1200 remain)023c 
[2019-09-30 14:12:48.990] heap size total    b100 remain)b100
[2019-09-30 14:12:48.990] pool size total    efe8 remain)efe8 min)efe8
[2019-09-30 14:12:48.990] 
[2019-09-30 14:12:48.990] Flash status:0000001c, Protect, ret=0
[2019-09-30 14:12:48.990] vtmm_restore_nvram R:0 addr= 0x0007f000, ptr = 0x200011d0, size = 1604
[2019-09-30 14:12:49.006] vtmm_restore_nvram cs= 0x7804e46e, nvcs = 0x7804e46e  
[2019-09-30 14:12:49.006] 
[2019-09-30 14:12:49.006] Magpie PLC Platform - Copyright (c) 2015 Vango Technologies, Inc.
[2019-09-30 14:12:49.006] 
[2019-09-30 14:12:49.006] Version: v6.1.3.103_6.0.0.0 2019/03/27 14:58:24
[2019-09-30 14:12:49.022] reset		: hw_reset)0 watchdog)0 dormant)0 power_off)0
[2019-09-30 14:12:49.022] remap		: 2
[2019-09-30 14:12:49.022] hw-strap	: 0x13 pll_bypass)pll xtal)24M bootstrap)efc ate_spi)gpio jtag)gpio/mcu
[2019-09-30 14:12:49.022] clkin_mux	: AHB[1:0] 0x0 APB[3:2] 0x1
[2019-09-30 14:12:49.037] pwmtmr_clk	: apb_clk
[2019-09-30 14:12:49.037] 
[2019-09-30 14:12:49.037] xtal_clk	: 24000000
[2019-09-30 14:12:49.037] clk_in		: 128000000
[2019-09-30 14:12:49.037] fclk		: 128000000
[2019-09-30 14:12:49.037] hclk		: 128000000
[2019-09-30 14:12:49.053] pclk		: 32000000
[2019-09-30 14:12:49.053] uart_uclk	: 32000000
[2019-09-30 14:12:49.053] ssp_sclk	: 32000000
[2019-09-30 14:12:49.053] pwmtmr_extclk	: 500000
[2019-09-30 14:12:49.053] wdt_extclk	: 32000000
[2019-09-30 14:12:49.053] scu_clk		: 100000
[2019-09-30 14:12:49.053] rtc_clk		: 32000
[2019-09-30 14:12:49.053] 
[2019-09-30 14:12:49.053] 
[2019-09-30 14:12:49.053] vt# ChipVer	: V6306 
[2019-09-30 14:12:49.053] System Init, LBS
[2019-09-30 14:12:49.068] ChipVer	: V6  macMaxFrameRetries = 3
[2019-09-30 14:12:49.068]   macMaxRobustFrameRetries = 3
[2019-09-30 14:12:49.068]   macMaxSegmentFrameRetries = 3
[2019-09-30 14:12:49.068] 
[2019-09-30 14:12:49.068]   PHY_CR1		a00000c0	<- 00001003
[2019-09-30 14:12:49.068] [A00000C8] -> 00000000 bbp busy ...
[2019-09-30 14:12:49.177] bbp ready ~
[2019-09-30 14:12:49.177] vtmm_flush_nvram(1170) nvram_rom= 0x0007f000 0x0007e000, ptr = 0x200011d0, size = 1604 chk = 0x7805e870
[2019-09-30 14:12:49.239] g_lbs_keepalive_seq = 44
[2019-09-30 14:12:49.254] vtmm_flush_nvram(1170) nvram_rom= 0x0007f000 0x0007e000, ptr = 0x200011d0, size = 1604 chk = 0x7805e870
[2019-09-30 14:12:49.316] set_vango_band_freq_range:(init/total/perGrp) 64/36/3
[2019-09-30 14:12:49.332] set bandplan 3, modulation 0
[2019-09-30 14:12:49.332]   macMaxFrameRetries = 3
[2019-09-30 14:12:49.332]   macMaxRobustFrameRetries = 3
[2019-09-30 14:12:49.332]   macMaxSegmentFrameRetries = 3
[2019-09-30 14:12:49.332] set bandplan: 3
[2019-09-30 14:12:49.348] set modulation: 0
[2019-09-30 14:12:49.363] Clear tone mask
[2019-09-30 14:12:49.363] Bandplan as FCC
[2019-09-30 14:12:49.379] set pmb syncp sym: 8
[2019-09-30 14:12:49.379] set pmb match sym: 3
[2019-09-30 14:12:49.394] set TDP FIR3 scale_max=134 scale_min=10 thr=15, start_scale
[2019-09-30 14:12:49.410] set LD gain select: 12V
[2019-09-30 14:12:49.425] set PGA mode: 0
[2019-09-30 14:12:49.441] set urgetnIn_en 1 
[2019-09-30 14:12:49.456] set apdt param: 1 20 1 32 20 500 2 1 10 3 9 6 9 6
[2019-09-30 14:12:49.472] set ant param: 1 24 5 30
[2019-09-30 14:12:49.472] set pmb det idle gain misc: 00000054 00000024 0000002a 0000002a 00000002
[2019-09-30 14:12:49.487] set max fa cnt in rx :10
[2019-09-30 14:12:49.503] set syncm inv det ratio :55
[2019-09-30 14:12:49.518] set ack tx additional gain :0 dB
[2019-09-30 14:12:49.534] set modulation: 0
[2019-09-30 14:12:49.549] 
[2019-09-30 14:12:49.549]   PHY_CR1		a00000c0	<- 00011003
[2019-09-30 14:12:49.549] Role = (0)....as LBS
[2019-09-30 14:12:49.549] dcu_if_init
[2019-09-30 14:12:49.565] 
[2019-09-30 14:12:49.565] Release Ver: E01
[2019-09-30 14:12:49.565] 
[2019-09-30 14:12:49.565] Device Type: as dcu
[2019-09-30 14:12:49.565] 
[2019-09-30 14:12:49.565] as FCC
[2019-09-30 14:12:49.565] 
[2019-09-30 14:12:49.565] vtmm_flush_nvram(1170) nvram_rom= 0x0007f000 0x0007e000, ptr = 0x200011d0, size = 1604 chk = 0x7806e870
[2019-09-30 14:12:53.461] Recv PAN ID 0x00F1
[2019-09-30 14:12:53.477] vtmm_flush_nvram(1170) nvram_rom= 0x0007f000 0x0007e000, ptr = 0x200011d0, size = 1604 chk = 0x7806e870
[2019-09-30 14:12:53.539]   200086E4 | 03 00 00 0C 68 28 00 20 - 01
[2019-09-30 14:12:53.554] first task immed (priority 3) size 24
[2019-09-30 14:12:55.402] [S->SB] Send_Keepalive(seq:44,len:6, time:4096)
[2019-09-30 14:12:55.402] bbp adaptive scale ready
[2019-09-30 14:12:55.743] 
[2019-09-30 14:12:55.743] VCS wait 344 ms(3)
[2019-09-30 14:13:01.719] [S->SB] Send_Keepalive(seq:44,len:6, time:4096)
[2019-09-30 14:13:06.019] 
[2019-09-30 14:13:06.019] Receive beacon_request
[2019-09-30 14:13:06.019]     ->form: 547606FFFE020000
[2019-09-30 14:13:06.035] 
[2019-09-30 14:13:06.035] Receive beacon_request
[2019-09-30 14:13:06.050]     ->form: 765806FFFE020000
[2019-09-30 14:13:06.578] 
[2019-09-30 14:13:06.578] Receive beacon_request
[2019-09-30 14:13:06.594]     ->form: 366106FFFE020000
[2019-09-30 14:13:07.354] 
[2019-09-30 14:13:07.354] Receive beacon_request
[2019-09-30 14:13:07.354]     ->form: 665806FFFE020000
[2019-09-30 14:13:07.696] [S->SB] Send_Keepalive(seq:44,len:6, time:4096)
[2019-09-30 14:13:13.672] [S->SB] Send_Keepalive(seq:44,len:6, time:4096)
[2019-09-30 14:13:19.649] [S->SB] Send_Keepalive(seq:44,len:6, time:4096)
[2019-09-30 14:13:25.625] [S->SB] Send_Keepalive(seq:44,len:6, time:4096)
[2019-09-30 14:13:28.171] Send Beacon (RC_COORD 0x0)
[2019-09-30 14:13:29.009] 
[2019-09-30 14:13:29.009] Receive beacon_request
[2019-09-30 14:13:29.009]     ->form: 416106FFFE020000
[2019-09-30 14:13:31.623] [S->SB] Send_Keepalive(seq:44,len:6, time:4096)
[2019-09-30 14:13:31.873] 
[2019-09-30 14:13:31.873] Receive beacon_request
[2019-09-30 14:13:31.873]     ->form: 027506FFFE020000
[2019-09-30 14:13:33.850] Send Beacon (RC_COORD 0x0)
[2019-09-30 14:13:37.634] [S->SB] Send_Keepalive(seq:44,len:6, time:4096)
[2019-09-30 14:13:38.397] 
[2019-09-30 14:13:38.397] Receive beacon_request
[2019-09-30 14:13:38.397]     ->form: 336106FFFE020000
[2019-09-30 14:13:41.559] 
[2019-09-30 14:13:41.559] Receive beacon_request
[2019-09-30 14:13:41.574]     ->form: 017506FFFE020000
[2019-09-30 14:13:43.630] [S->SB] Send_Keepalive(seq:44,len:6, time:4096)
[2019-09-30 14:13:45.280] 
[2019-09-30 14:13:45.280] Receive beacon_request
[2019-09-30 14:13:45.280]     ->form: 557606FFFE020000
[2019-09-30 14:13:46.261] Send Beacon (RC_COORD 0x0)
[2019-09-30 14:13:49.859] [S->SB] Send_Keepalive(seq:44,len:6, time:4096)
[2019-09-30 14:13:49.921] add task tcip (priority 4) size 24
[2019-09-30 14:13:49.968] [D->S] Bootstrap: Receive_Join
[2019-09-30 14:13:49.983] [S->D] Bootstrap: Send_eap_psk_msg1
[2019-09-30 14:13:50.357] Tx Packet Give Up (TxCMP, nack_or_ackto = 3)
[2019-09-30 14:13:50.700] Robust retry fail
[2019-09-30 14:13:56.212] [S->SB] Send_Keepalive(seq:44,len:6, time:4096)
[2019-09-30 14:13:59.654] 
[2019-09-30 14:13:59.654] Receive beacon_request
[2019-09-30 14:13:59.654]     ->form: 087506FFFE020000
[2019-09-30 14:14:02.363] [S->SB] Send_Keepalive(seq:44,len:6, time:4096)
[2019-09-30 14:14:03.017] Send Beacon (RC_COORD 0x0)
[2019-09-30 14:14:06.708] 
[2019-09-30 14:14:06.708] vt# 
[2019-09-30 14:14:07.798] Receive beacon_request
[2019-09-30 14:14:07.798]     ->form: 537606FFFE020000
[2019-09-30 14:14:09.667] 
[2019-09-30 14:14:09.667] Receive beacon_request
[2019-09-30 14:14:09.682]     ->form: 356106FFFE020000
[2019-09-30 14:14:11.785] [D->S] Bootstrap: Receive_Join
[2019-09-30 14:14:11.785] [S->D] Bootstrap: Send_eap_psk_msg1
[2019-09-30 14:14:12.267] Tx Packet Give Up (TxCMP, nack_or_ackto = 3)
[2019-09-30 14:14:12.890] Robust retry fail
[2019-09-30 14:14:22.234] Send Beacon (RC_COORD 0x0)
[2019-09-30 14:15:23.058] 
[2019-09-30 14:15:23.058] Receive beacon_request
[2019-09-30 14:15:23.058]     ->form: 527606FFFE020000
[2019-09-30 14:15:25.783] 
[2019-09-30 14:15:25.783] Receive beacon_request
[2019-09-30 14:15:25.783]     ->form: 366106FFFE020000
[2019-09-30 14:15:34.628] Send Beacon (RC_COORD 0x0)
[2019-09-30 14:15:50.092] 
[2019-09-30 14:15:50.092] Receive beacon_request
[2019-09-30 14:15:50.092]     ->form: 557606FFFE020000
[2019-09-30 14:15:50.154] 
[2019-09-30 14:15:50.154] Receive beacon_request
[2019-09-30 14:15:50.154]     ->form: 356106FFFE020000
[2019-09-30 14:16:00.603] 
[2019-09-30 14:16:00.603] Receive beacon_request
[2019-09-30 14:16:00.619]     ->form: 446106FFFE020000
[2019-09-30 14:16:00.930] 
[2019-09-30 14:16:00.930] Receive beacon_request
[2019-09-30 14:16:00.930]     ->form: 336106FFFE020000
[2019-09-30 14:16:01.179] Send Beacon (RC_COORD 0x0)
[2019-09-30 14:16:12.376] 
[2019-09-30 14:16:12.376] Receive beacon_request
[2019-09-30 14:16:12.376]     ->form: 537606FFFE020000
[2019-09-30 14:16:30.191] 
[2019-09-30 14:16:30.191] Receive beacon_request
[2019-09-30 14:16:30.191]     ->form: 575306FFFE020000
[2019-09-30 14:16:30.798] Send Beacon (RC_COORD 0x0)
[2019-09-30 14:16:33.928] 
[2019-09-30 14:16:33.928] Receive beacon_request
[2019-09-30 14:16:33.928]     ->form: 386106FFFE020000
[2019-09-30 14:16:37.323] 
[2019-09-30 14:16:37.323] Receive beacon_request
[2019-09-30 14:16:37.323]     ->form: 537606FFFE020000
[2019-09-30 14:16:47.211] Send Beacon (RC_COORD 0x0)
[2019-09-30 14:16:51.182] 
[2019-09-30 14:16:51.182] Receive beacon_request
[2019-09-30 14:16:51.198]     ->form: 555306FFFE020000
[2019-09-30 14:16:53.938] 
[2019-09-30 14:16:53.938] Receive beacon_request
[2019-09-30 14:16:53.938]     ->form: 426106FFFE020000
[2019-09-30 14:16:55.075] 
[2019-09-30 14:16:55.075] Receive beacon_request
[2019-09-30 14:16:55.075]     ->form: 665806FFFE020000
[2019-09-30 14:16:57.209] 
[2019-09-30 14:16:57.209] Receive beacon_request
[2019-09-30 14:16:57.209]     ->form: 547606FFFE020000
[2019-09-30 14:16:57.536] Send Beacon (RC_COORD 0x0)
[2019-09-30 14:17:24.927] 
[2019-09-30 14:17:24.927] Receive beacon_request
[2019-09-30 14:17:24.927]     ->form: 057506FFFE020000
[2019-09-30 14:17:27.949] 
[2019-09-30 14:17:27.949] Receive beacon_request
[2019-09-30 14:17:27.964]     ->form: 537606FFFE020000
[2019-09-30 14:17:30.098] 
[2019-09-30 14:17:30.098] Receive beacon_request
[2019-09-30 14:17:30.113]     ->form: 557606FFFE020000
[2019-09-30 14:17:32.869] 
[2019-09-30 14:17:32.869] Receive beacon_request
[2019-09-30 14:17:32.885]     ->form: 595306FFFE020000
[2019-09-30 14:17:34.738] [D->S] Bootstrap: Receive_Join
[2019-09-30 14:17:34.738] [S->D] Bootstrap: Send_eap_psk_msg1
[2019-09-30 14:17:35.065] ARQ_RETRYFAIL (pid 8)(ACKTO)
[2019-09-30 14:17:35.081] Tx Packet Give Up (TxCMP, nack_or_ackto = 3)
[2019-09-30 14:17:35.641] Robust retry fail
[2019-09-30 14:17:36.077] Same join again
[2019-09-30 14:17:36.077]   30006BCE | 42 61 06 FF FE 02 00 00
[2019-09-30 14:17:41.730] Send Beacon (RC_COORD 0x0)
[2019-09-30 14:17:42.898] 
[2019-09-30 14:17:42.898] Receive beacon_request
[2019-09-30 14:17:42.898]     ->form: 555306FFFE020000
[2019-09-30 14:17:50.201] 
[2019-09-30 14:17:50.201] Receive beacon_request
[2019-09-30 14:17:50.201]     ->form: 949006FFFE020000
[2019-09-30 14:17:52.973] Send RREP, Dest Addr 0x0102, Next 0x0102, Seq 6, Flag 0, size 14
[2019-09-30 14:17:53.223] dcu insert route fail
[2019-09-30 14:17:53.316] Tx Packet Give Up (TxCMP, nack_or_ackto = 3)
[2019-09-30 14:17:53.332] vtmac_pkt_do_fragmentation() tmr force = 1
[2019-09-30 14:17:54.204] Robust retry fail
[2019-09-30 14:17:54.204] set_tmr_valid_time_to_zero search Neighbor 0x0102 fail
[2019-09-30 14:17:54.406] RREP or PREP send fail, A BL, G RERR
[2019-09-30 14:17:54.422] Add 0102 to BlackList[0]
[2019-09-30 14:17:54.422] cmd delete route
[2019-09-30 14:17:54.422] add task rxch (priority 6) size 24
[2019-09-30 14:17:54.577] dcu delete route success
[2019-09-30 14:17:54.577] RERR dest is myself, Stop RERR
[2019-09-30 14:17:54.577] cmd search route
[2019-09-30 14:17:54.593] dcu search route success
[2019-09-30 14:17:54.873] Tx Packet Give Up (TxCMP, nack_or_ackto = 3)
[2019-09-30 14:17:54.889] vtmac_pkt_do_fragmentation() tmr force = 1
[2019-09-30 14:17:55.216] Send RREQ, Dest 0x0102, Seq 8, Flag 0
[2019-09-30 14:17:55.372] Robust retry fail
[2019-09-30 14:17:55.387] set_tmr_valid_time_to_zero search Neighbor 0x0102 fail
[2019-09-30 14:17:55.387] cmd delete route
[2019-09-30 14:17:55.481] dcu delete route success
[2019-09-30 14:17:55.496] 
[2019-09-30 14:17:55.496] Receive beacon_request
[2019-09-30 14:17:55.512]     ->form: 655306FFFE020000
[2019-09-30 14:17:58.393] 
[2019-09-30 14:17:58.393] Receive beacon_request
[2019-09-30 14:17:58.408]     ->form: 585306FFFE020000
[2019-09-30 14:17:58.844] 
[2019-09-30 14:17:58.844] Receive beacon_request
[2019-09-30 14:17:58.844]     ->form: 547606FFFE020000
[2019-09-30 14:18:00.931] Send Beacon (RC_COORD 0x0)
[2019-09-30 14:18:01.850] 
[2019-09-30 14:18:01.850] Receive beacon_request
[2019-09-30 14:18:01.850]     ->form: 745806FFFE020000
[2019-09-30 14:18:04.466] 
[2019-09-30 14:18:04.466] Receive beacon_request
[2019-09-30 14:18:04.466]     ->form: 745806FFFE020000
[2019-09-30 14:18:06.085] 
[2019-09-30 14:18:06.085] Receive beacon_request
[2019-09-30 14:18:06.085]     ->form: 255606FFFE020000
[2019-09-30 14:18:14.385] Send Beacon (RC_COORD 0x0)
[2019-09-30 14:18:25.769] Wait RREP(0x0102) Timeout
[2019-09-30 14:18:25.769] cmd delete route
[2019-09-30 14:18:25.862] dcu delete route success
[2019-09-30 14:18:25.940] 
[2019-09-30 14:18:25.940] Receive beacon_request
[2019-09-30 14:18:25.940]     ->form: 537606FFFE020000
[2019-09-30 14:18:26.999] 
[2019-09-30 14:18:26.999] Receive beacon_request
[2019-09-30 14:18:27.015]     ->form: 567606FFFE020000
[2019-09-30 14:18:35.291] Send Beacon (RC_COORD 0x0)
[2019-09-30 14:18:51.037] 
[2019-09-30 14:18:51.037] Receive beacon_request
[2019-09-30 14:18:51.037]     ->form: 537606FFFE020000
[2019-09-30 14:19:10.556] 
[2019-09-30 14:19:10.556] Receive beacon_request
[2019-09-30 14:19:10.571]     ->form: 557606FFFE020000
[2019-09-30 14:19:12.177] Send Beacon (RC_COORD 0x0)
[2019-09-30 14:19:34.393] 
[2019-09-30 14:19:34.393] Receive beacon_request
[2019-09-30 14:19:34.393]     ->form: 225606FFFE020000
[2019-09-30 14:19:34.596] 
[2019-09-30 14:19:34.596] Receive beacon_request
[2019-09-30 14:19:34.611]     ->form: 466106FFFE020000
[2019-09-30 14:19:40.536] 
[2019-09-30 14:19:40.536] Receive beacon_request
[2019-09-30 14:19:40.536]     ->form: 416106FFFE020000
[2019-09-30 14:19:46.133] Send Beacon (RC_COORD 0x0)
[2019-09-30 14:19:56.531] 
[2019-09-30 14:19:56.531] Receive beacon_request
[2019-09-30 14:19:56.531]     ->form: 336106FFFE020000
[2019-09-30 14:20:05.028] 
[2019-09-30 14:20:05.028] Receive beacon_request
[2019-09-30 14:20:05.043]     ->form: 547606FFFE020000
[2019-09-30 14:20:12.231] 
[2019-09-30 14:20:12.231] Receive beacon_request
[2019-09-30 14:20:12.231]     ->form: 396106FFFE020000
[2019-09-30 14:20:12.496] Send Beacon (RC_COORD 0x0)
[2019-09-30 14:20:12.823] 
[2019-09-30 14:20:12.823] Receive beacon_request
[2019-09-30 14:20:12.839]     ->form: 446106FFFE020000
[2019-09-30 14:20:21.226] 
[2019-09-30 14:20:21.226] Receive beacon_request
[2019-09-30 14:20:21.242]     ->form: 336106FFFE020000
[2019-09-30 14:20:23.799] 
[2019-09-30 14:20:23.799] Receive beacon_request
[2019-09-30 14:20:23.799]     ->form: 366106FFFE020000
[2019-09-30 14:20:26.324] 
[2019-09-30 14:20:26.324] Receive beacon_request
[2019-09-30 14:20:26.340]     ->form: 466106FFFE020000
[2019-09-30 14:20:28.335] Send Beacon (RC_COORD 0x0)
[2019-09-30 14:20:36.286] log
[2019-09-30 14:20:37.159] 
[2019-09-30 14:20:37.159] Reboot Counter 44
[2019-09-30 14:20:37.159] Reboot flag 0040
[2019-09-30 14:20:37.159] CLI|SDK|DMA| SQ|APP|UPG|CMD|CNF|RXQ|TFA|SEC|DT2|
[2019-09-30 14:20:37.175]   0|  0|  0|  0|  0|  0|  1|  0|  0|  0|  0|  0|
[2019-09-30 14:20:37.175] DMA : 1
[2019-09-30 14:20:37.175] RX  : 20
[2019-09-30 14:20:37.175] TCIP: 100
[2019-09-30 14:20:37.175] Current_idx = 0
[2019-09-30 14:20:37.175] Index--[0]--
[2019-09-30 14:20:37.175] REG A0000080: 00000000
[2019-09-30 14:20:37.175] REG A0000084: 00000000
[2019-09-30 14:20:37.190] REG A00000C8: 00000000
[2019-09-30 14:20:37.190] REG A00000CC: 00000000
[2019-09-30 14:20:37.190] REG A00100B0: 00000000
[2019-09-30 14:20:37.190] REG A00100C8: 00000000
[2019-09-30 14:20:37.190] REG A0249C00: 00000000
[2019-09-30 14:20:37.190] REG A0249C10: 00000000
[2019-09-30 14:20:37.190] System Log (Total 55, Current 54)
[2019-09-30 14:20:37.206]   [000]:(  0D 00:00:00)SYSTEM_BOOT_UP (Power Button Reset) (RTC Alarm) 
[2019-09-30 14:20:37.206]   [001]:               PANID_CONFLICT  (OLD:0x781D -> NEW:0xF89F)
[2019-09-30 14:20:37.206]   [002]:(  0D 00:00:00)SYSTEM_BOOT_UP (Power Button Reset) (RTC Alarm) 
[2019-09-30 14:20:37.222]   [003]:(  0D 00:00:00)SYSTEM_BOOT_UP (Power Button Reset) (RTC Alarm) 
[2019-09-30 14:20:37.222]   [004]:(  0D 00:00:00)SYSTEM_BOOT_UP (Power Button Reset) (RTC Alarm) 
[2019-09-30 14:20:37.222]   [005]:(  0D 00:00:00)SYSTEM_BOOT_UP (Power Button Reset) (RTC Alarm) 
[2019-09-30 14:20:37.237]   [006]:(  0D 00:00:00)SYSTEM_BOOT_UP (Power Button Reset) (RTC Alarm) 
[2019-09-30 14:20:37.237]   [007]:(  0D 00:00:00)SYSTEM_BOOT_UP (Power Button Reset) (RTC Alarm) 
[2019-09-30 14:20:37.253]   [008]:(  0D 00:00:00)SYSTEM_BOOT_UP (Power Button Reset) (RTC Alarm) 
[2019-09-30 14:20:37.253]   [009]:(  0D 00:00:00)SYSTEM_BOOT_UP (Power Button Reset) (RTC Alarm) 
[2019-09-30 14:20:37.253]   [010]:(  0D 00:00:00)SYSTEM_BOOT_UP (Power Button Reset) (RTC Alarm) 
[2019-09-30 14:20:37.268]   [011]:(  0D 00:00:00)SYSTEM_BOOT_UP (Power Button Reset) (RTC Alarm) 
[2019-09-30 14:20:37.268]   [012]:(  0D 00:00:00)SYSTEM_BOOT_UP (Power Button Reset) (RTC Alarm) 
[2019-09-30 14:20:37.284]   [013]:(  0D 00:00:00)SYSTEM_BOOT_UP (Power Button Reset) (RTC Alarm) 
[2019-09-30 14:20:37.284]   [014]:(  0D 00:00:00)SYSTEM_BOOT_UP (Power Button Reset) (RTC Alarm) 
[2019-09-30 14:20:37.300]   [015]:(  0D 00:00:00)SYSTEM_BOOT_UP (Power Button Reset) (RTC Alarm) 
[2019-09-30 14:20:37.300]   [016]:(  0D 00:00:00)SYSTEM_BOOT_UP (Power Button Reset) (RTC Alarm) 
[2019-09-30 14:20:37.300]   [017]:(  0D 00:00:00)SYSTEM_BOOT_UP (Power Button Reset) (RTC Alarm) 
[2019-09-30 14:20:37.315]   [018]:(  0D 00:00:00)SYSTEM_BOOT_UP (Power Button Reset) (RTC Alarm) 
[2019-09-30 14:20:37.315]   [019]:(  0D 00:00:00)SYSTEM_BOOT_UP (Power Button Reset) (RTC Alarm) 
[2019-09-30 14:20:37.331]   [020]:(  0D 00:00:00)SYSTEM_BOOT_UP (Power Button Reset) (RTC Alarm) 
[2019-09-30 14:20:37.331]   [021]:(  0D 00:00:00)SYSTEM_BOOT_UP (Power Button Reset) (RTC Alarm) 
[2019-09-30 14:20:37.331]   [022]:(  0D 00:01:45)SYSTEM_REBOOT (Command Line) 
[2019-09-30 14:20:37.346]   [023]:(  0D 00:00:00)SYSTEM_BOOT_UP (Power Button Reset) (RTC Alarm) 
[2019-09-30 14:20:37.346]   [024]:(  0D 00:00:00)SYSTEM_BOOT_UP (Power Button Reset) (RTC Alarm) 
[2019-09-30 14:20:37.362]   [025]:(  0D 00:00:00)SYSTEM_BOOT_UP (Power Button Reset) (RTC Alarm) 
[2019-09-30 14:20:37.362]   [026]:(  0D 00:00:00)SYSTEM_BOOT_UP (Power Button Reset) (RTC Alarm) 
[2019-09-30 14:20:37.362]   [027]:(  0D 00:08:37)SYSTEM_REBOOT (Command Line) 
[2019-09-30 14:20:37.378]   [028]:(  0D 00:00:00)SYSTEM_BOOT_UP (Power Button Reset) (RTC Alarm) 
[2019-09-30 14:20:37.378]   [029]:(  0D 00:00:00)SYSTEM_BOOT_UP (Power Button Reset) (RTC Alarm) 
[2019-09-30 14:20:37.378]   [030]:(  0D 00:00:00)SYSTEM_BOOT_UP (Power Button Reset) (RTC Alarm) 
[2019-09-30 14:20:37.393]   [031]:(  0D 00:00:00)SYSTEM_BOOT_UP (Power Button Reset) (RTC Alarm) 
[2019-09-30 14:20:37.393]   [032]:(  0D 00:00:00)SYSTEM_BOOT_UP (Power Button Reset) (RTC Alarm) 
[2019-09-30 14:20:37.409]   [033]:(  0D 00:00:00)SYSTEM_BOOT_UP (Power Button Reset) (RTC Alarm) 
[2019-09-30 14:20:37.409]   [034]:(  0D 00:00:00)SYSTEM_BOOT_UP (Power Button Reset) (RTC Alarm) 
[2019-09-30 14:20:37.424]   [035]:(  0D 00:00:00)SYSTEM_BOOT_UP (Power Button Reset) (RTC Alarm) 
[2019-09-30 14:20:37.424]   [036]:(  0D 00:07:59)SYSTEM_REBOOT (Command Line) 
[2019-09-30 14:20:37.424]   [037]:(  0D 00:00:00)SYSTEM_BOOT_UP (Power Button Reset) (RTC Alarm) 
[2019-09-30 14:20:37.440]   [038]:(  0D 00:00:00)SYSTEM_BOOT_UP (Power Button Reset) (RTC Alarm) 
[2019-09-30 14:20:37.440]   [039]:               PANID_CONFLICT  (OLD:0x00F1 -> NEW:0xE03B)
[2019-09-30 14:20:37.440]   [040]:(  0D 00:03:03)SYSTEM_REBOOT (Command Line) 
[2019-09-30 14:20:37.456]   [041]:(  0D 00:00:00)SYSTEM_BOOT_UP (Power Button Reset) (RTC Alarm) 
[2019-09-30 14:20:37.456]   [042]:(  0D 00:00:38)SYSTEM_REBOOT (Command Line) 
[2019-09-30 14:20:37.456]   [043]:(  0D 00:00:00)SYSTEM_BOOT_UP (Power Button Reset) (RTC Alarm) 
[2019-09-30 14:20:37.471]   [044]:(  0D 00:01:17)SYSTEM_REBOOT (Command Line) 
[2019-09-30 14:20:37.471]   [045]:(  0D 00:00:00)SYSTEM_BOOT_UP (Power Button Reset) (RTC Alarm) 
[2019-09-30 14:20:37.487]   [046]:(  0D 00:00:00)SYSTEM_BOOT_UP (Power Button Reset) (RTC Alarm) 
[2019-09-30 14:20:37.487]   [047]:(  0D 00:00:00)SYSTEM_BOOT_UP (Power Button Reset) (RTC Alarm) 
[2019-09-30 14:20:37.487]   [048]:(  0D 00:03:50)SYSTEM_REBOOT (Command Line) 
[2019-09-30 14:20:37.502]   [049]:(  0D 00:00:00)SYSTEM_BOOT_UP (Power Button Reset) (RTC Alarm) 
[2019-09-30 14:20:37.502]   [050]:(  0D 00:01:29)SYSTEM_REBOOT (Command Line) 
[2019-09-30 14:20:37.502]   [051]:(  0D 00:00:00)SYSTEM_BOOT_UP (Power Button Reset) (RTC Alarm) 
[2019-09-30 14:20:37.518]   [052]:(  0D 00:01:09)SYSTEM_REBOOT (Command Line) 
[2019-09-30 14:20:37.518]   [053]:(  0D 00:00:00)SYSTEM_BOOT_UP (Power Button Reset) (RTC Alarm) 
[2019-09-30 14:20:37.518] ->[054]:(  0D 00:00:00)SYSTEM_BOOT_UP (Power Button Reset) (RTC Alarm) 
[2019-09-30 14:20:37.533] 
[2019-09-30 14:20:37.533] vt# 
[2019-09-30 14:20:42.834] Receive beacon_request
[2019-09-30 14:20:42.834]     ->form: 416106FFFE020000
[2019-09-30 14:20:49.897] 
[2019-09-30 14:20:49.897] Receive beacon_request
[2019-09-30 14:20:49.912]     ->form: 537606FFFE020000
[2019-09-30 14:20:51.081] 
[2019-09-30 14:20:51.081] Receive beacon_request
[2019-09-30 14:20:51.081]     ->form: 555606FFFE020000
[2019-09-30 14:20:53.997] Send Beacon (RC_COORD 0x0)
[2019-09-30 14:20:55.743] 
[2019-09-30 14:20:55.743] Receive beacon_request
[2019-09-30 14:20:55.743]     ->form: 585306FFFE020000
[2019-09-30 14:20:58.721] 
[2019-09-30 14:20:58.721] Receive beacon_request
[2019-09-30 14:20:58.736]     ->form: 426106FFFE020000
[2019-09-30 14:20:59.921] 
[2019-09-30 14:20:59.921] Receive beacon_request
[2019-09-30 14:20:59.921]     ->form: 255606FFFE020000
[2019-09-30 14:21:00.389] Send Beacon (RC_COORD 0x0)
[2019-09-30 14:21:00.716] 
[2019-09-30 14:21:00.716] VCS wait 323 ms(2)
[2019-09-30 14:21:05.674] 
[2019-09-30 14:21:05.674] Receive beacon_request
[2019-09-30 14:21:05.674]     ->form: 547606FFFE020000
[2019-09-30 14:21:08.075] [D->S] Bootstrap: Receive_Join
[2019-09-30 14:21:08.090] [S->D] Bootstrap: Send_eap_psk_msg1
[2019-09-30 14:21:08.979] Tx Packet Give Up (TxCMP, nack_or_ackto = 3)
[2019-09-30 14:21:08.979] 
[2019-09-30 14:21:08.979] Receive beacon_request
[2019-09-30 14:21:08.994]     ->form: 017506FFFE020000
[2019-09-30 14:21:09.447] Robust retry fail
[2019-09-30 14:21:09.790] [D->S] Bootstrap: Receive_Msg2
[2019-09-30 14:21:09.868] [S->D] Bootstrap: Send_EAP_Result (shortAddr:0x0001)
[2019-09-30 14:21:09.883] [S->D] Bootstrap: Send_eap_psk_msg3
[2019-09-30 14:21:10.398] Tx Packet Give Up (TxCMP, nack_or_ackto = 3)
[2019-09-30 14:21:10.897] Robust retry fail
[2019-09-30 14:21:11.364] [D->S] Bootstrap: Receive_Msg2
[2019-09-30 14:21:11.364]   300063EE | 41 61 06 FF FE 02 00 00
[2019-09-30 14:21:11.489] [D->S] Bootstrap: Receive_Msg2
[2019-09-30 14:21:11.505]   3000674E | 41 61 06 FF FE 02 00 00
[2019-09-30 14:21:13.718] 
[2019-09-30 14:21:13.718] Receive beacon_request
[2019-09-30 14:21:13.718]     ->form: 527606FFFE020000
[2019-09-30 14:21:15.729] 
[2019-09-30 14:21:15.729] Receive beacon_request
[2019-09-30 14:21:15.729]     ->form: 356106FFFE020000
[2019-09-30 14:21:16.556] 
[2019-09-30 14:21:16.556] Receive beacon_request
[2019-09-30 14:21:16.556]     ->form: 655306FFFE020000
[2019-09-30 14:21:25.957] Send Beacon (RC_COORD 0x0)
[2019-09-30 14:21:29.963] 
[2019-09-30 14:21:29.963] Receive beacon_request
[2019-09-30 14:21:29.963]     ->form: 547606FFFE020000
[2019-09-30 14:21:37.197] Send Beacon (RC_COORD 0x0)
[2019-09-30 14:21:39.910] 
[2019-09-30 14:21:39.910] Receive beacon_request
[2019-09-30 14:21:39.925]     ->form: 537606FFFE020000
[2019-09-30 14:21:40.502] 
[2019-09-30 14:21:40.502] Receive beacon_request
[2019-09-30 14:21:40.502]     ->form: 356106FFFE020000
[2019-09-30 14:21:40.970] 
[2019-09-30 14:21:40.970] Receive beacon_request
[2019-09-30 14:21:40.970]     ->form: 557606FFFE020000
[2019-09-30 14:21:51.275] Send Beacon (RC_COORD 0x0)
[2019-09-30 14:21:52.335] 
[2019-09-30 14:21:52.335] Receive beacon_request
[2019-09-30 14:21:52.351]     ->form: 047506FFFE020000
[2019-09-30 14:21:59.460] 
[2019-09-30 14:21:59.460] Receive beacon_request
[2019-09-30 14:21:59.460]     ->form: 525606FFFE020000
[2019-09-30 14:21:59.756] 
[2019-09-30 14:21:59.756] Receive beacon_request
[2019-09-30 14:21:59.756]     ->form: 346106FFFE020000
[2019-09-30 14:22:01.487] 
[2019-09-30 14:22:01.487] Receive beacon_request
[2019-09-30 14:22:01.502]     ->form: 027506FFFE020000
[2019-09-30 14:22:06.023] 
[2019-09-30 14:22:06.039] Receive beacon_request
[2019-09-30 14:22:06.039]     ->form: 557606FFFE020000
[2019-09-30 14:22:06.819] 
[2019-09-30 14:22:06.819] Receive beacon_request
[2019-09-30 14:22:06.834]     ->form: 655306FFFE020000
[2019-09-30 14:22:06.974] 
[2019-09-30 14:22:06.974] Receive beacon_request
[2019-09-30 14:22:06.974]     ->form: 386106FFFE020000
[2019-09-30 14:22:10.778] Send Beacon (RC_COORD 0x0)
[2019-09-30 14:22:16.064] [D->S] Bootstrap: Receive_Join
[2019-09-30 14:22:16.064] [S->D] Bootstrap: Send_eap_psk_msg1
[2019-09-30 14:22:16.500] Tx Packet Give Up (TxCMP, nack_or_ackto = 3)
[2019-09-30 14:22:16.562] Same join again
[2019-09-30 14:22:16.578]   3000650E | 41 61 06 FF FE 02 00 00
[2019-09-30 14:22:16.796] Robust retry fail
[2019-09-30 14:22:16.812] Same join again
[2019-09-30 14:22:16.812]   3000698E | 41 61 06 FF FE 02 00 00
[2019-09-30 14:22:27.600] [D->S] Bootstrap: Receive_Join
[2019-09-30 14:22:27.600] [S->D] Bootstrap: Send_eap_psk_msg1
[2019-09-30 14:22:28.006] Tx Packet Give Up (TxCMP, nack_or_ackto = 3)
[2019-09-30 14:22:28.333] Robust retry fail
[2019-09-30 14:22:29.533] 
[2019-09-30 14:22:29.533] Receive beacon_request
[2019-09-30 14:22:29.533]     ->form: 366106FFFE020000
[2019-09-30 14:22:29.736] Same join again
[2019-09-30 14:22:29.736]   3000542E | 42 61 06 FF FE 02 00 00
[2019-09-30 14:22:30.687] 
[2019-09-30 14:22:30.687] Receive beacon_request
[2019-09-30 14:22:30.687]     ->form: 356106FFFE020000
[2019-09-30 14:22:31.342] 
[2019-09-30 14:22:31.342] Receive beacon_request
[2019-09-30 14:22:31.342]     ->form: 537606FFFE020000
[2019-09-30 14:22:31.389] 
[2019-09-30 14:22:31.389] Receive beacon_request
[2019-09-30 14:22:31.389]     ->form: 557606FFFE020000
[2019-09-30 14:22:38.358] 
[2019-09-30 14:22:38.358] Receive beacon_request
[2019-09-30 14:22:38.358]     ->form: 547606FFFE020000
[2019-09-30 14:22:40.992] Send Beacon (RC_COORD 0x0)
[2019-09-30 14:22:43.424] 
[2019-09-30 14:22:43.424] Receive beacon_request
[2019-09-30 14:22:43.424]     ->form: 047506FFFE020000
[2019-09-30 14:22:45.685] Send Beacon (RC_COORD 0x0)
[2019-09-30 14:22:48.507] 
[2019-09-30 14:22:48.507] Receive beacon_request
[2019-09-30 14:22:48.507]     ->form: 396106FFFE020000
[2019-09-30 14:22:50.300] 
[2019-09-30 14:22:50.300] Receive beacon_request
[2019-09-30 14:22:50.300]     ->form: 567606FFFE020000
[2019-09-30 14:22:52.966] 
[2019-09-30 14:22:52.966] Receive beacon_request
[2019-09-30 14:22:52.966]     ->form: 426106FFFE020000
[2019-09-30 14:23:07.371] Send Beacon (RC_COORD 0x0)
[2019-09-30 14:23:12.453] 
[2019-09-30 14:23:12.453] Receive beacon_request
[2019-09-30 14:23:12.453]     ->form: 555306FFFE020000
[2019-09-30 14:23:13.950] 
[2019-09-30 14:23:13.950] Receive beacon_request
[2019-09-30 14:23:13.966]     ->form: 555306FFFE020000
[2019-09-30 14:23:14.870] Add Neighbor Table Fail(BlackList 0x0102)
[2019-09-30 14:23:18.845] Send RREP, Dest Addr 0x0102, Next 0x0102, Seq 7, Flag 0, size 14
[2019-09-30 14:23:18.845] C BLH[0]0102 == 0102
[2019-09-30 14:23:18.861] get_link_cost() addr 0x0102 in BLH
[2019-09-30 14:23:18.954] 
[2019-09-30 14:23:18.954] Receive beacon_request
[2019-09-30 14:23:18.954]     ->form: 527606FFFE020000
[2019-09-30 14:23:18.954] dcu insert route fail
[2019-09-30 14:23:19.141] Tx Packet Give Up (TxCMP, nack_or_ackto = 3)
[2019-09-30 14:23:19.141] vtmac_pkt_do_fragmentation() tmr force = 1
[2019-09-30 14:23:19.718] Robust retry fail
[2019-09-30 14:23:19.718] set_tmr_valid_time_to_zero search Neighbor 0x0102 fail
[2019-09-30 14:23:19.734] RREP or PREP send fail, A BL, G RERR
[2019-09-30 14:23:19.734] cmd delete route
[2019-09-30 14:23:19.890] dcu delete route success
[2019-09-30 14:23:19.890] RERR dest is myself, Stop RERR
[2019-09-30 14:23:19.890] cmd search route
[2019-09-30 14:23:19.905] dcu search route success
[2019-09-30 14:23:20.202] Tx Packet Give Up (TxCMP, nack_or_ackto = 3)
[2019-09-30 14:23:20.217] vtmac_pkt_do_fragmentation() tmr force = 1
[2019-09-30 14:23:20.545] Send RREQ, Dest 0x0102, Seq 9, Flag 0
[2019-09-30 14:23:20.763] Robust retry fail
[2019-09-30 14:23:20.763] set_tmr_valid_time_to_zero search Neighbor 0x0102 fail
[2019-09-30 14:23:20.763] cmd delete route
[2019-09-30 14:23:20.856] dcu delete route success
[2019-09-30 14:23:20.934] 
[2019-09-30 14:23:20.934] Receive beacon_request
[2019-09-30 14:23:20.934]     ->form: 537606FFFE020000
[2019-09-30 14:23:24.317] 
[2019-09-30 14:23:24.317] Receive beacon_request
[2019-09-30 14:23:24.317]     ->form: 547606FFFE020000
[2019-09-30 14:23:32.332] Send Beacon (RC_COORD 0x0)
[2019-09-30 14:23:33.752] 
[2019-09-30 14:23:33.752] Receive beacon_request
[2019-09-30 14:23:33.752]     ->form: 027506FFFE020000
[2019-09-30 14:23:38.399] rev
[2019-09-30 14:23:39.819] 
[2019-09-30 14:23:39.819] 
[2019-09-30 14:23:39.819] Magpie PLC Platform - Copyright (c) 2015 Vango Technologies, Inc.
[2019-09-30 14:23:39.834] ================================================
[2019-09-30 14:23:39.834] SW Ver : v6.1.3.103 @402af71e (2019/03/27 14:58:24)ASIC - tainted
[2019-09-30 14:23:39.834] FW Ver :  v6.0.0.0 @e8de071e (2018/11/15 15:37:01, 0x80003733)
[2019-09-30 14:23:39.850] LD Ver	: MP B01
[2019-09-30 14:23:39.850] ChipVer	: V6306 
[2019-09-30 14:23:39.850] Band	: CEN-A FCC Vango 
[2019-09-30 14:23:39.850] Module	: ROBO mode 
[2019-09-30 14:23:39.850] ZeroX	: OFF
[2019-09-30 14:23:39.850] SoftAck	: ON
[2019-09-30 14:23:39.850] Others	: Data coherent modeTwo RS blocks mode
[2019-09-30 14:23:39.850] ================================================
[2019-09-30 14:23:39.865] 
[2019-09-30 14:23:39.865] vt# 
[2019-09-30 14:23:46.572] Receive beacon_request
[2019-09-30 14:23:46.572]     ->form: 557606FFFE020000
[2019-09-30 14:23:49.192] 
[2019-09-30 14:23:49.192] Receive beacon_request
[2019-09-30 14:23:49.192]     ->form: 007506FFFE020000
[2019-09-30 14:23:49.800] 
[2019-09-30 14:23:49.800] Receive beacon_request
[2019-09-30 14:23:49.800]     ->form: 547606FFFE020000
