bandplan FCC
analog_gain 48
digital_gain 12
-1508
2108
1132
-872
-2260
-3152
17928
-6460
-12504
4672
184
2820
-1152
3536
-3540
-316
1356
-1808
1136
-96
536
-1116
-1476
-3404
14380
-1952
-13044
2488
5044
936
-4992
3500
-4272
6592
-2744
-1332
3648
-3176
496
-1820
-4896
3980
16736
-12292
-7732
8988
-3876
-3256
-128
4948
1308
2324
-3076
-1092
1244
-5388
4732
-3940
-1356
-144
16396
-1024
-19180
7140
-1628
3416
-1728
1112
2212
-1696
1844
-1664
-116
-2428
-1936
372
284
9920
7212
-17728
-1288
4248
-952
1936
-3312
3856
1300
72
-1332
-256
604
-1768
-372
1240
-5872
3316
15120
-12232
-4844
2720
704
1132
-1896
3172
-436
840
-372
-848
-1172
1692
-4324
-2580
-3320
15820
8640
-17076
648
-648
-144
-2248
1920
2916
576
444
356
2364
-6472
-728
-836
1772
-3204
7796
11748
-15552
-2268
652
452
-672
-504
5156
772
3100
-3204
-4064
-304
-212
-652
-348
-3208
16848
-836
-14820
3964
-2200
3584
-3332
5252
-944
-1328
1664
-3340
4148
-3368
504
440
-2832
-5460
16044
4788
-17900
1352
2628
2136
-236
-660
-1848
1432
4692
-4408
1492
-1416
-1272
1468
-7232
5420
14132
-8332
-11692
7336
4020
-4340
-3324
1588
3196
540
2636
-3040
-1388
-140
-476
612
-4316
-524
16624
-3840
-12164
1592
904
4084
-4128
1396
1616
608
528
-592
-1072
-552
-2412
560
-5160
7524
19284
-20216
-6976
5596
1796
1332
-3840
4068
-164
376
-584
-1036
-1524
1928
-744
-844
-148
-1164
15552
-11916
-9148
8408
-880
1248
-3344
1560
3952
384
-1940
-968
-2044
1708
-696
-1304
-6584
12756
11636
-19896
-516
3768
1692
-1084
-2688
4272
-644
792
16
-328
180
-2424
-3280
140
-3024
13360
12704
-22740
412
2048
-4
-1324
-1264
7056
-5660
8556
-1688
-4256
1976
-6024
144
1700
-6944
21916
576
-20608
3400
3412
2176
-8892
4616
7116
308
744
-6112
-2068
1376
-1984
2108
-2052
-4912
18636
4368
-20252
784
4024
-1572
1484
-176
1680
560
-976
2236
-3088
-412
-1988
1348
-2140
-108
20168
-12632
-12472
7192
1024
2840
-6984
1024
5820
-108
444
304
-2236
-1340
-1808
-752
-1768
-1820
22340
-8824
-15956
14016
-5364
-2368
-692
1384
4520
-500
1548
-1328
-4064
2712
-1400
-2568
-5636
7180
21328
-17224
-8984
6052
-996
1016
-4492
5860
1976
-472
-216
-1900
296
-2532
-88
848
-4196
4668
18948
-18148
-12324
14592
-56
-1892
-3860
2816
2464
-308
-92
-1104
-2144
2720
-1420
976
-8180
10212
14716
-25804
3960
6852
-3324
3172
-7072
8228
-1032
-4772
7504
-5940
-1056
5680
-4728
-1924
-5396
6764
23192
-24196
-5504
11704
-3480
-44
-6456
7292
2180
-3252
4316
-1116
-4320
-424
-4332
3424
-4708
23552
-2152
-27356
14412
-1736
820
-6764
2300
7052
1348
4424
-6768
-3516
-1220
1624
-3720
1648
-3584
19452
6604
-31460
9052
3932
-1848
-488
-2552
9300
-2096
-752
-472
-3336
2320
-1872
-3116
-3768
1500
29580
-14700
-20560
15672
-4876
-536
-2008
3220
3360
-2360
1744
-452
652
-1192
-1288
-3720
-1028
-3152
21556
820
-26756
12824
4508
-6584
-5860
4140
8452
-84
-1928
-1092
-3004
196
-368
-2900
-2992
4404
24404
-22328
-6360
14792
-12820
3580
-2700
4180
4260
-2244
652
-3096
-732
1708
-2648
-1676
-588
1648
25724
-17344
-22104
17476
536
-3108
-2980
3816
5848
-340
-7124
6240
-4636
-1388
1228
-4304
380
11412
12528
-31080
6148
11864
-8652
2968
-5256
8340
-796
-952
1008
-4424
880
-1156
2276
-844
-8728
10268
22424
-28784
-5116
16404
-6292
-1196
-3044
6820
-1008
-1448
3220
1316
-3504
-1320
-5900
1908
-3344
17096
12688
-32768
10948
7652
-8372
1956
-5088
10072
-384
-3756
4164
496
-5500
-3268
2272
-336
-5164
17180
9292
-29072
4684
9724
-4060
-3640
-476
7480
336
496
-4240
-540
1440
-3448
-224
-1092
-6436
30600
-8420
-29348
21772
-2068
-3220
-2708
2844
5024
-5096
2324
2020
-5712
2256
1556
-5200
1544
-7076
23692
3412
-32768
17028
7080
-5176
-3428
-2804
12640
-5008
876
1368
-5732
340
352
-1816
-3648
1060
30504
-22588
-19740
27144
-8116
-4300
-4168
7312
5556
-5708
1528
1616
-5592
-316
3108
-3952
-1436
-3616
31680
-12704
-32028
26952
-2836
-4524
-3580
3632
9608
-7600
1636
1492
-5876
3012
-3112
-2024
-3808
9524
27436
-32768
688
24348
-16716
524
-4484
11048
384
-5376
5800
-4384
-3360
2868
-940
-1116
-5988
5088
31352
-32768
-8972
29656
-16508
-344
-5004
10260
2524
-7584
8108
-4620
-3952
3796
-5332
904
-7828
22732
11648
-32768
24080
7200
-15012
1608
-2676
14692
-8008
1316
2880
-6128
244
1168
-928
-1496
-8484
18188
18680
-32768
15256
15624
-16840
3420
-5268
12300
-3220
-2340
4568
-5416
-676
1524
-4452
368
-6568
30352
-6432
-32768
31400
-6684
-5036
-2172
604
11876
-9248
5072
-1972
-3532
552
1380
-2296
-1716
-6440
24392
5324
-32768
26976
6928
-14560
924
-1424
11916
-7276
376
5072
-7652
2300
-248
-4320
-948
-1648
32764
-29136
-15620
32764
-19080
-2072
-3512
8392
4644
-9160
8684
-3696
-4452
2300
-44
-1572
-3396
-3236
32764
-20904
-23560
32764
-13960
-2616
-2784
5044
7372
-9424
6776
-1800
-5340
3900
-3908
264
-6548
11228
24728
-32768
9884
17028
-17480
4024
-5972
13192
-3568
-1860
4108
-4996
-780
680
-100
-1236
-6460
5864
30008
-32768
-2620
22012
-16356
7156
-8080
6456
4840
-5204
3640
-3184
-2464
3056
-5180
800
-7200
26004
232
-32768
32764
-8140
-9864
7884
-5516
9856
-4964
2448
-632
-2684
-1068
2956
-3652
-1676
-2592
14396
13104
-32768
24056
5772
-19216
12796
-7516
7980
-1132
-1936
3920
-5416
988
-60
-5316
4844
-8156
29476
-16312
-22944
32764
-21712
2688
2116
-2756
9648
-7172
4648
-2888
-1560
-752
120
1124
-2480
-8024
27492
-5172
-32768
32764
-10644
-5612
5444
-4708
9236
-4612
1384
1004
-5420
1584
976
-3352
-3232
2364
29684
-32768
-1252
25424
-24172
9600
-4608
4244
3780
-4184
3816
-5212
-248
2460
-872
-3536
-880
-1532
28612
-23980
-15364
32764
-22292
4468
1036
-1432
7128
-4404
708
-488
-1212
1564
-5240
1200
-4528
11208
19260
-32768
19744
8912
-20588
12664
-7284
8168
-504
-3412
3284
-1212
-3092
1076
-584
-1008
-4628
4984
26980
-32768
4580
22248
-23548
10540
-5536
5476
564
-2828
6048
-5716
-1504
2976
-5260
1884
-8016
23260
3552
-32768
32076
-6968
-10160
8588
-6752
8612
-2772
3556
-3248
-2256
400
1124
-2840
-128
-5712
16616
11904
-32768
25216
3008
-15692
10656
-9316
11084
-652
-3644
2572
-3220
388
-312
-4268
2072
-5428
29848
-19096
-20208
32764
-20924
2204
328
804
8028
-7492
4088
-1996
-1748
-716
2196
-3408
-536
-5540
24736
-4084
-32768
32764
-12400
-7856
10904
-7004
7608
-3020
1040
856
-5652
3656
-2352
-2632
-768
1592
28992
-32768
2216
22396
-25324
14036
-6776
3496
4376
-3912
3348
-4608
128
828
-532
-1928
-2304
-452
28980
-27528
-12196
31076
-19584
4020
-2568
2184
5864
-5228
2556
-968
-3180
2664
-4172
1056
-5252
12560
17088
-32768
22856
7268
-20244
12008
-7140
9288
-2636
-428
1816
-3828
-452
1324
-1420
-920
-4072
8828
20428
-32768
13184
14468
-21776
12756
-6528
5052
1684
-2412
2536
-3308
-1592
3084
-5892
2836
-7192
22056
1136
-32768
32340
-10756
-6364
7656
-7320
11076
-5172
1516
-204
-2680
-192
1744
-2776
-908
-6892
21332
7152
-32768
29024
-304
-14540
9728
-6704
9904
-3728
-468
2612
-4732
1148
4
-5372
1688
-1420
28356
-24164
-15076
32720
-23276
4896
428
-540
7184
-5440
3796
-2708
-2232
756
-824
-1984
2340
-6700
27468
-15028
-24028
32764
-17840
1028
2308
-2712
8240
-4872
1844
-136
-3968
664
56
-640
-4204
4516
26300
-32768
5192
20880
-23032
10496
-5096
5208
2196
-2972
2988
-4096
-2908
5108
-2064
-3852
-904
3484
26204
-32768
2080
24156
-24572
10464
-4452
4348
3376
-4176
1992
-2628
460
1380
-6596
3000
-5560
16672
10552
-32768
27576
-748
-14680
11772
-8528
10340
-2812
-2028
2512
-1600
-2740
1896
-2636
960
-6396
14444
15104
-32768
23228
5220
-16792
11408
-8044
8808
-3160
1384
2612
-6676
1080
1608
-4988
1708
-5624
27844
-13044
-26248
32764
-17616
-940
4656
-4864
8292
-2036
1268
-3500
-808
-132
1396
-4148
1236
-4916
24268
-7116
-30940
32764
-13608
-4164
4652
-4380
11572
-6840
540
1932
-4104
1488
-2332
-1816
300
-4
28096
-32528
-2076
25844
-24756
7928
-1324
4508
1508
-3780
3968
-3160
-2856
2176
-360
-2904
-996
1196
27668
-32548
-2836
25644
-25032
12728
-4316
1084
5404
-4248
2752
-3220
-1640
3172
-5512
1904
-4828
13572
14856
-32768
21656
5592
-14448
9364
-8608
10248
-2168
-960
1252
-2760
-1104
1908
-3488
1164
-5172
13864
14004
-32768
24328
5280
-18796
11720
-7044
9048
-2156
-932
2540
-4836
-144
1528
-4844
3088
-5664
25224
-10416
-27380
32764
-17664
-1752
6244
-4648
8360
-4796
2880
-1800
-2368
-164
1644
-4008
1896
-7340
25068
-4660
-32768
32764
-12896
-4268
5668
-5160
10112
-5888
1580
868
-4108
1800
-1220
-3268
-852
1292
29032
-31132
-7032
29148
-24200
7256
-1900
2468
4892
-4644
3456
-2744
-2444
2532
-3756
-1788
2308
504
25736
-32768
108
24372
-24792
11328
-4256
3344
4068
-4308
3164
-3164
-1412
732
-4248
4592
-6920
12512
16320
-32768
21960
4920
-16576
11864
-8272
9456
-1792
-1300
2044
-4072
-2272
5160
-4356
-44
-4788
16416
9656
-32768
26896
1136
-15124
10748
-6752
9032
-2796
-4
-516
-2884
2652
-848
-6096
4200
-5224
24400
-8592
-29764
32764
-15080
-3444
6284
-4620
9412
-5376
180
1736
-2424
-1700
1076
-3920
2976
-5804
26640
-13484
-25384
32764
-18376
788
3396
-2984
7596
-5812
5100
-1980
-5248
3728
-2304
-2540
452
312
27812
-32312
-3232
26524
-23912
9444
-3756
1372
6216
-2968
1008
-2708
-1736
2784
-4744
320
-604
3464
24700
-32768
7904
18568
-22516
11056
-7116
8868
1048
-5040
3804
-2992
-1928
1868
-4444
2556
-4920
14664
12032
-32768
25036
2552
-18016
13204
-5196
6804
-3236
452
2108
-4520
-808
2740
-5428
3324
-6112
19876
2816
-32768
30744
-7832
-7300
8960
-8460
10340
-3344
272
76
-3104
736
-200
-4512
3716
-5204
26644
-15172
-25152
32764
-16720
-296
2000
-2264
9232
-5796
1796
-440
-4004
1816
-316
-3424
2204
-2780
27296
-26380
-10480
31404
-25224
7028
-80
-4
6012
-4600
3024
-2584
-2760
3032
-4172
348
-416
3016
23864
-32768
8252
17056
-21848
13064
-7648
6060
1920
-3172
2828
-3552
-1052
2164
-4080
1224
-5680
12588
18780
-32768
18528
10096
-19004
11468
-6948
8456
-1520
-2124
2608
-3236
-1404
2996
-7468
3860
-2492
18568
-736
-32768
32764
-10632
-8408
10104
-6528
9788
-4892
1916
-732
-3448
632
-1404
-1720
4748
-8360
24504
-8276
-29488
32764
-14248
-3008
4836
-3720
9420
-4636
760
592
-5784
1664
1636
-4880
1764
-1048
27608
-28696
-8732
29520
-24044
8512
-2484
1504
5912
-4752
3088
-4676
-172
3608
-5996
-312
1292
1384
25280
-32768
2440
22308
-23952
11436
-4032
3820
3188
-5632
3532
-300
-4000
2344
-5476
3548
-4536
13160
13172
-32768
25268
1492
-15524
11888
-7688
9672
-4404
1580
2112
-6016
-344
2928
-4688
2528
-5532
19060
3652
-32768
30540
-5232
-10708
10268
-8568
9908
-576
-1768
-452
-3800
2116
-376
-5644
5760
-5056
25920
-18084
-20556
32764
-20424
3128
-56
608
9072
-8180
3100
-884
-2776
280
-1116
-1708
2392
-2848
26684
-25660
-11816
30880
-24640
7416
2196
-1736
5360
-4088
2996
-2624
-3632
4608
-5940
692
-212
6548
20572
-32768
14012
11340
-18832
13032
-8908
8332
612
-2436
1324
-3084
-1132
2236
-4776
2528
-3712
11164
15632
-32768
22104
7500
-19416
11648
-6584
8984
-2040
-1936
2944
-4420
-108
632
-5348
6304
-6348
22200
-8084
-28872
32764
-16592
-2648
6796
-5504
9360
-4896
2144
-672
-3688
1352
-844
-4152
4904
-6832
27544
-16948
-21772
32764
-20088
4096
864
-2160
8232
-5460
2496
-1808
-2908
2916
-3652
-1900
800
4352
24200
-32768
3456
21692
-23404
11108
-4104
4996
2136
-4120
2996
-2996
-2360
3112
-6732
3916
-108
5236
18824
-32768
17040
9792
-19960
13460
-6980
7828
-572
-1844
1460
-3304
-2044
1372
-3016
4312
-6768
19656
1100
-32768
31428
-8216
-7924
7868
-6140
10920
-4604
668
132
-5892
2648
1596
-7336
5916
-4596
24180
-13984
-24516
32764
-19336
1232
4160
-3832
8716
-4448
232
-752
-812
912
-4500
-680
3592
-2352
26252
-30888
-3100
26032
-24912
10744
-3444
3832
3528
-7284
6856
-2700
-4976
3892
-4548
1916
-2056
5604
21676
-32768
13268
13908
-20844
12444
-6720
5280
1820
-548
-336
-4060
172
2640
-7208
5416
-4620
17436
2624
-32768
32064
-8276
-8740
9020
-8044
13380
-5196
-964
732
-4104
1200
-476
-3756
6024
-6768
23876
-11796
-26072
32764
-17348
-2020
5980
-1300
6372
-5876
2720
-88
-5060
2872
-3656
-780
2780
-264
25988
-32768
2800
20920
-24520
15000
-6260
3224
3860
-3512
2244
-3760
-1016
2648
-5808
2608
-776
5988
19908
-32768
13692
14368
-19616
11152
-7456
8420
416
-3984
3384
-4476
-664
2140
-6724
7260
-6724
19800
-2792
-32768
32764
-13356
-6792
8908
-5000
9004
-5820
2436
-616
-3636
1224
-740
-4112
6784
-7568
23320
-11432
-24760
32764
-18276
1560
3092
-3272
9208
-5512
1632
-880
-3648
3396
-5424
828
-56
2904
25840
-32768
7024
19260
-22316
11444
-6192
6772
880
-3140
2808
-3776
-1292
3200
-7460
3892
816
5724
16532
-32768
19056
7968
-19088
14540
-7928
7424
-584
-2276
2316
-4312
484
-1352
-3940
8436
-9228
23728
-9032
-28104
32764
-16988
-1004
4576
-3360
9292
-5400
1976
-884
-5668
2428
1876
-6008
4964
-4788
26148
-19968
-19280
32764
-21688
4068
1596
-1244
7832
-5252
1260
-2476
-988
3036
-8692
4632
852
4536
18776
-32768
17180
9744
-20048
13972
-7768
8376
-560
-4384
4216
-2496
-2768
1788
-5836
6464
-5288
10840
14320
-32768
24960
2184
-16360
12988
-7208
7452
-2124
916
1136
-6464
2256
204
-6580
7540
-5588
24996
-17532
-20680
32764
-21692
4384
916
-2992
11420
-6352
888
-2044
-2280
2960
-4416
-472
5088
-5756
26816
-26104
-10556
30296
-23188
5556
632
2752
3172
-5192
3944
-2148
-4160
3072
-6416
5236
-1892
8636
15300
-32768
23460
2244
-16844
16112
-9888
8848
-1620
-1096
1304
-4708
1108
756
-7076
8100
-5780
15668
5600
-32768
29156
-3264
-10120
8224
-6148
10076
-3956
-392
1152
-4764
2028
-2056
-3412
6020
-5052
27192
-26220
-10884
31804
-26420
7696
84
1048
6432
-5980
3396
-2780
-3676
3228
-4620
1552
3476
-3216
25244
-32616
1644
21216
-23360
12808
-5280
4120
3812
-4648
3044
-4152
-1032
2308
-7696
8052
-7404
16476
8316
-32768
30320
-4700
-11708
10604
-7292
10768
-4384
-176
1068
-4072
1312
64
-8268
9276
-4556
19812
-7004
-30400
32764
-16108
-2716
7512
-5336
9368
-5612
2008
-548
-3820
1688
-5480
3244
3564
-5456
27812
-31368
-3164
25280
-24012
11216
-4268
3704
4700
-5236
2896
-3064
-4356
4944
-4544
1816
512
1444
23528
-32768
10928
16604
-22824
13328
-6584
6892
1248
-3312
1048
-3792
1892
-404
-7952
9564
-6060
17024
1772
-32768
32592
-9716
-8232
10212
-7280
10900
-5100
-784
3096
-4712
-620
-852
-3472
8328
-8888
25088
-13052
-25108
32764
-19616
1552
4040
-3372
7084
-3480
3416
-3184
-4504
3984
-5480
1056
3344
-1400
25920
-32768
4668
21240
-25148
13584
-7404
5784
5704
-6424
2604
-3144
-1372
2264
-7960
7232
-2388
6228
18076
-32768
19980
7944
-19524
11448
-4640
8696
-3092
-1528
2840
-4816
-316
672
-6148
9556
-8612
20892
-3316
-32768
32764
-16660
-2124
9500
-8332
10072
-4388
1868
-1844
-4028
2672
-2416
-3148
8052
-7908
25012
-15716
-23808
32764
-17488
1216
1788
-692
8352
-7040
2032
-40
-4328
2620
-5644
3028
2708
-1632
25148
-32768
6904
20444
-25920
13448
-4504
5316
1476
-3280
2632
-3968
-1464
2020
-6280
6752
-2180
3808
19692
-32768
18012
7768
-18792
14320
-8508
8576
-192
-3372
2716
-4528
-144
996
-5668
7760
-8408
21500
-1764
-32768
32764
-11308
-6700
8432
-5372
9836
-5392
752
532
-4648
2376
-2736
-4652
11908
-9452
23228
-15164
-22380
32764
-21644
3648
3336
-3136
8996
-6200
2256
-932
-3832
764
-3672
3824
1744
-4160
27176
-32768
-680
24312
-24108
11560
-4812
4180
4212
-4900
3416
-5356
-1588
5396
-8600
5300
-616
3136
21844
-32768
15316
12676
-21308
13728
-6984
7460
332
-3752
1048
-920
-820
-1208
-5524
9884
-7136
13040
8824
-32768
29460
-4088
-11580
11260
-7316
10312
-6316
1824
2436
-6392
468
252
-4428
8728
-8952
20552
-2908
-32768
32764
-12960
-5004
8616
-7492
10056
-2348
-528
-1208
-3348
1692
-3188
-1664
8712
-9464
26208
-18888
-18992
32764
-21896
4760
-204
1316
7912
-7912
3544
-1632
-3556
1568
-3808
1784
4608
-6888
28068
-29000
-6936
28476
-26652
12112
-1132
-312
5232
-4732
3832
-3972
-2752
3116
-6424
5484
-32
208
24240
-32768
8312
17548
-20392
11888
-7528
7416
1728
-4496
2144
-2472
-1416
900
-5748
7704
-3596
5648
18172
-32768
21372
8340
-21168
13636
-6076
8700
-2956
-1736
2508
-3988
-688
672
-5100
9292
-7340
9968
13296
-32768
25584
-952
-12988
12624
-9128
10404
-2756
-1516
1120
-3568
396
-376
-4308
7696
-8596
19196
2380
-32768
32276
-7660
-9412
9836
-6260
9684
-4780
632
512
-4088
1740
-2868
-4648
12776
-10944
21200
-6768
-29972
32764
-17252
-736
6128
-5076
9764
-6128
2124
-296
-3732
-1136
112
-624
5984
-10184
25656
-12888
-25576
32764
-19440
1388
3768
-2924
9024
-6420
2952
-3700
-1964
3984
-5824
628
5852
-7424
27212
-25184
-12164
30644
-23444
7888
-740
664
7256
-7188
1472
604
-3292
-152
-2396
2532
3224
-6904
28120
-28956
-6948
27908
-23804
9644
-2260
2180
2972
-2716
3624
-5000
-2364
2264
-4688
5280
-744
-88
24532
-32768
9208
17540
-22796
14192
-9140
8040
3972
-6764
2648
-3020
-876
240
-5168
7908
-2596
1048
23312
-32768
11732
15844
-23700
13700
-3760
5376
-820
-2672
3468
-4168
-2512
2000
-4580
8192
-7080
11392
12624
-32768
26200
-1640
-11972
13288
-10040
10616
-3460
-568
104
-3184
292
-524
-3404
8252
-7352
10656
13212
-32768
25700
3372
-16644
11972
-6572
9696
-3676
-1908
2440
-3912
-1120
-276
-2080
8144
-9104
21416
-7720
-28764
32764
-16720
-1928
7520
-5228
9260
-5444
1644
-1420
-2668
372
-1248
-1628
8168
-11580
19596
2744
-32768
32168
-7504
-8228
8512
-6020
10436
-5316
-120
1896
-5592
876
-2248
280
5376
-4104
25396
-30884
-4088
26712
-25416
12040
-3068
2560
4800
-6152
4180
-4268
-216
-1860
-1888
4592
3152
-10568
26276
-15744
-22780
32764
-18840
2632
3160
-2696
8100
-5776
2560
-2512
-5588
4996
-4268
4444
-2544
4844
20564
-32768
16436
10656
-20284
13956
-7156
8796
-644
-3336
-144
-1492
932
-2992
-1176
4572
1012
-6232
26984
-28896
-6732
27616
-22904
10152
-2876
2340
3252
-4660
5080
-4640
-4188
2440
-2620
6604
-7080
14376
7700
-32768
28636
-3604
-12040
12784
-9564
10268
-1200
-1460
-1020
-3036
316
-440
-2412
6720
-3588
772
23076
-32768
9240
17144
-21972
11880
-3328
5932
-1188
-3816
4056
-3340
-3856
1788
-1644
6912
-9152
20108
-2880
-32756
32764
-15272
-1880
9752
-8136
10232
-6064
2532
-2196
-2648
196
-420
-1184
6360
-6812
9516
13672
-32768
23028
6540
-16832
11572
-6976
9104
-2380
-2932
2856
-4400
-1684
1012
-388
5572
-8116
24160
-16668
-20896
32764
-21368
3928
3860
-2196
7664
-6656
3276
-2712
-2060
-1020
396
-100
6208
-11848
21460
-548
-32768
32764
-10924
-4484
6812
-6252
11064
-5712
356
896
-5024
-112
-196
420
3324
-2064
23836
-30100
-4968
26636
-23980
10424
-1912
2616
4524
-5984
3416
-3512
-1516
-1612
-948
5764
1320
-8560
26748
-23212
-14200
30240
-21044
7300
-320
20
6648
-6232
2644
-2072
-6096
4092
-232
1148
-472
272
23780
-32768
5936
19224
-22580
13424
-5684
5904
1816
-4024
-216
-1340
-624
-1880
-312
5120
-2088
-316
23440
-32768
6904
18488
-22272
13864
-5924
6352
-440
-4576
5804
-4852
-4280
2764
-1000
5064
-5528
7684
16272
-32768
19208
7764
-17140
14192
-9080
7252
1172
-2576
-168
-2784
-1816
1588
-1876
6036
-5668
7604
15800
-32768
20912
7144
-17580
11852
-5912
10304
-4400
-2720
2972
-3468
-3708
2432
-448
5644
-8396
16552
3464
-32768
31320
-8972
-7796
13488
-9096
9088
-4484
1080
-848
-3856
-1172
2240
-1020
5348
-7888
16356
2948
-32768
30244
-4264
-8976
8648
-6392
10412
-4956
-1060
1608
-4556
-2024
2608
-228
4936
-7832
22940
-14948
-22896
32764
-20344
2564
4776
-3132
8236
-6428
2728
-2080
-3776
-664
2244
336
3776
-9808
25500
-14072
-24036
32764
-18632
3836
2124
-2580
9192
-6840
1684
-1204
-4316
452
2248
-916
1788
-1620
23516
-28340
-7776
27872
-22476
9700
-1528
1052
4836
-5152
2488
-2516
-2956
-280
-292
4688
456
-4916
25044
-30228
-3440
23968
-21328
11484
-3456
2812
3032
-4888
2992
-2212
-6848
4744
1976
-916
-920
1608
22248
-32768
8140
18272
-22104
13916
-6100
6080
1252
-4540
420
-2044
-1436
1328
-1084
4748
-4352
5572
17140
-32768
18204
9232
-18388
14384
-7812
8564
-2596
-3712
5220
-5816
-4484
5524
-912
4304
-7804
15848
3932
-32768
29656
-5380
-8496
11256
-8424
8096
-1836
908
-2184
-4620
-1508
4724
-1648
4924
-7268
16680
-712
-32768
31268
-8536
-5592
6976
-4600
11216
-7608
-300
1576
-4528
-2940
4868
-504
3744
-7656
22604
-13012
-25220
32764
-19564
2684
7372
-5112
7260
-5468
1988
-1972
-5148
1360
2904
-1264
3828
-5444
23388
-21212
-16416
29012
-18056
7308
-1068
152
6788
-6572
1676
-1152
-5212
1848
2636
-668
1872
-3636
24512
-30744
-3856
28004
-25676
11480
-1648
1768
4072
-5740
3412
-3304
-5324
3812
1428
1152
-44
-4192
25544
-31636
-900
22384
-21164
12572
-5808
4552
3200
-5604
2904
-3412
-4508
4312
848
-24
-1016
2764
20180
-32768
9116
18724
-22180
13500
-5712
5280
1356
-4632
2336
-3280
-3544
3752
-1888
5112
-1704
204
20148
-32768
12508
14176
-19400
14272
-7180
6184
-344
-2876
2344
-4264
-5700
7408
676
-484
-2548
4208
19564
-32768
14888
13856
-20400
14488
-7524
7464
-820
-3136
564
-4116
-176
3368
-2704
4444
-3868
5524
16824
-32768
19120
8308
-17824
15000
-8252
8888
-3184
-3888
5160
-6660
-2660
5808
-2212
4580
-8244
19964
-4080
-32768
32764
-12604
-3992
9084
-6276
7948
-3464
1420
-3376
-4404
1228
4328
-3280
5392
-7992
20252
-8180
-29496
32764
-14412
-1340
4600
-3012
10932
-8764
548
-636
-4732
3096
-244
2228
-240
-600
22704
-32768
5128
20720
-23928
14176
-3348
3388
1032
-3428
2488
-5100
-3444
5176
-124
772
88
-996
22708
-32768
3276
20528
-19316
12908
-6876
4300
3896
-6488
1920
-4704
484
1496
-260
3736
-5216
24808
-26792
-11544
31320
-22044
7236
-592
2112
5372
-8088
4172
-3908
-2824
1228
3872
-3052
5924
-8512
14076
2856
-32768
30056
-7412
-5832
10388
-8744
10260
-5420
-1376
-924
-2512
3228
-2972
6196
-8772
22768
-10108
-27068
32696
-18212
2984
4924
-4808
10904
-7928
2968
-3404
-4596
1300
4220
-988
-40
1676
-2256
21456
-32768
3788
22824
-23032
14416
-5748
3176
3332
-6820
1608
-3508
2760
-5200
8464
-4736
12716
3840
-32768
30260
-7220
-8880
12284
-8356
11576
-5536
-188
980
-6388
-1220
2404
5800
-4272
3200
-7036
19744
-8796
-29256
32764
-13636
-1824
6968
-6328
9868
-7036
-1676
-1296
2828
-2004
-1132
4476
-3672
24568
-29264
-6936
27896
-23792
10640
-908
924
5896
-7872
2940
-2312
-2620
292
2724
432
756
-832
-2792
23320
-31632
-600
24820
-22100
12712
-4996
396
5352
-3616
-140
-3712
-244
4320
-3472
2624
-1376
1936
20000
-32768
11760
15224
-19704
12000
-6360
9332
-2300
-5360
5320
-6240
-484
1508
3576
-3060
2848
-4176
6936
13892
-32768
19352
6460
-12916
11792
-10148
10052
-2368
-2820
976
-2924
-580
2956
-2480
4192
-5656
9996
11548
-32768
25900
2800
-16848
14188
-7716
8956
-3840
-1612
3028
-7024
1760
1088
2696
-1668
1980
-7484
10716
13588
-32768
23084
5380
-14856
11468
-8180
9584
-3596
-2512
1356
-2256
-804
3516
-4616
5224
-4328
10468
7864
-32768
28312
-2236
-12772
13732
-8808
9748
-4304
-1732
2692
-6028
984
356
4612
-1176
-1744
-1128
1192
20636
-32768
9324
18228
-21424
13132
-7248
5968
676
-4824
2340
-2336
1456
-2072
2284
-1500
3680
-8388
20340
-7332
-28284
32764
-14796
-800
6296
-5192
7644
-6424
4932
-4324
-2952
1932
1752
-552
316
816
-2804
22552
-30616
-812
23788
-21048
9604
-4044
6392
1104
-7548
5012
-3752
-352
-640
3572
-2048
3308
-7244
13792
5088
-32768
28184
-5112
-6244
9996
-9876
11192
-5600
-1908
764
-784
-1136
2032
-1448
4720
-7276
16716
-3472
-32328
32764
-9068
-6420
7660
-5752
10040
-6744
520
-712
-2908
2616
-1132
3484
-2616
3496
-10308
18796
-432
-32768
32700
-10072
-3968
6196
-6684
10780
-7772
1692
168
-3576
3236
-1496
1300
-2172
5500
-7912
12364
5440
-32768
27780
-4388
-8256
10212
-7900
8836
-4680
4
1248
-5384
2172
1172
2128
-2804
2276
-3080
4952
14252
-32768
17944
8284
-16356
13756
-7996
6528
-1604
-4012
4404
-3720
-76
12
1552
832
-1940
2000
-2108
18896
-26648
-2352
22228
-18868
11264
-5724
2532
5396
-6808
2052
-2612
1172
-428
-400
3684
-3620
3832
-7576
18520
-8844
-23836
29488
-14620
4104
4024
-7888
8336
-3820
772
-2160
-1048
1972
-1792
2912
-1016
1104
1816
-3744
12908
-23140
6528
11044
-13660
12144
-6924
3464
1684
-4320
1128
-2104
1112
1048
-44
2156
-4824
6576
-7744
12356
-2936
-24072
27928
-11784
144
5820
-6684
7432
-4964
660
368
-1564
-780
920
3148
-2656
-1104
2240
-1100
18336
-28848
1252
21672
-21056
11980
-5020
2044
5516
-7168
3120
-548
-3316
484
1800
-144
2264
-3004
4308
-2916
3316
1440
-19064
17644
-1916
-5036
5312
-3340
5100
-4008
-396
1880
-2780
-608
3740
-1328
388
-1224
1572
-744
5344
-14104
5796
19696
-31144
17724
-920
-8976
10608
-9956
9672
-2720
-1148
3020
-5092
788
128
1288
-168
3540
-1188
-5056
-1628
4236
-4312
5508
18928
-32768
16776
8012
-20124
13420
-8612
10228
-1028
-2844
6460
-7672
-2632
540
2004
1784
1208
692
1640
-2552
-8232
1800
-524
26160
-25832
-8584
30360
-23296
6380
-5156
6524
4448
-9628
10532
-6536
-2004
848
-1900
4380
-420
1032
-3048
4060
-1932
-4688
-3516
8008
20088
-32768
16044
13056
-21432
12344
-8228
6768
544
-2248
2736
-3528
1364
-1816
-1048
3712
344
-84
-4320
2784
-968
2696
-3940
-196
20664
-31052
8856
10924
-14256
11024
-8060
7140
496
-4380
3816
-3816
-1320
1584
-1052
3492
-768
1232
-2312
-272
3088
-5924
-2424
1952
24860
-30372
-216
24320
-23304
10164
-5508
3264
4492
-4508
4856
-5504
-640
1964
-3088
2156
2124
1360
1828
-6440
-612
-1408
4228
-7384
21256
-4688
-28908
31172
-14928
-1096
4708
-5704
12148
-5768
1896
-1216
-4804
-188
916
1544
2980
-32
1060
-1880
-2048
-1692
-4216
5584
-1988
22860
-24160
-7852
27228
-24040
7728
-1976
2256
6460
-4556
3204
-6032
280
452
-2984
4056
2284
248
220
400
-6192
-40
-520
3264
-1548
3368
20060
-32768
14656
13616
-24020
14776
-5640
7776
348
-4944
3816
-6204
-424
2980
-1840
2992
2344
-3972
1496
92
-1484
2712
-2268
-3428
-532
6488
-8028
22768
-16632
-17640
32764
-22540
5476
-516
-3244
13452
-8704
1972
-1052
-4068
2772
-1572
1620
3208
-640
492
-3972
-108
772
-340
-436
3340
-348
-3212
1824
-4604
22952
-26172
-4068
24992
-21512
11248
-5084
1220
5444
-5992
2152
88
-1548
444
-644
816
3516
-2640
-1860
-204
948
224
-376
2220
-1128
1304
-6300
4332
-4052
12976
3516
-31044
26304
-8256
-4524
7884
-8376
10700
-4184
1080
1052
-4084
-1748
1444
1284
1164
-148
12
676
-2404
-248
604
96
828
-940
1428
-2576
4024
-7040
15544
-6656
-20340
23888
-10700
2696
384
-2748
6704
-3552
1068
-844
-2044
-308
2152
-892
-236
1364
1280
-2656
-1048
1824
-300
-104
528
656
-1596
1596
-3060
4356
-4008
6132
1636
-22400
24428
-6964
-6496
8712
-7412
8216
-2648
-476
756
-3456
-832
2752
-1808
3568
-740
-3364
5492
-3668
-2052
1236
1284
1316
-828
196
-784
-1036
408
1720
-1352
664
-5500
12656
-8124
-6312
14120
-13012
6800
-660
-1160
5156
-4768
248
-36
-2708
1792
2012
-1300
1916
-396
-420
-1468
-1656
2052
472
140
1212
-720
-376
-556
-408
520
-1416
3140
-5288
2744
-1720
12548
-3988
-21792
25268
-11572
-2308
6448
-5184
8280
-4600
-32
392
-2844
-1476
2548
1748
1820
-1156
-1928
1320
-3104
180
2056
28
1460
-724
180
-1180
-880
516
-1684
4204
-1780
-440
-1476
4456
-7580
8892
7760
-29676
23356
-2756
-8064
9328
-7324
7704
-5872
680
3816
-5248
-196
3792
-1656
728
620
-1904
2868
-2892
-640
2264
-1016
1700
-3040
1044
2800
-3280
-104
1088
1236
-772
-860
896
884
-3284
1652
-2412
3748
-5324
12648
3484
-31652
28236
-7760
-8124
11264
-8712
10036
-3556
-1032
1188
-4204
-528
3000
-24
1296
-656
184
1728
-4768
208
2876
-1756
876
1624
-976
-576
-904
172
92
284
1300
-1748
1908
956
-4092
2680
1036
-2356
-3020
4232
-1260
240
-2552
4724
17776
-32768
16376
8488
-19364
17396
-10448
7652
1136
-4360
2308
-3920
-1180
1824
1572
-152
2876
-2644
116
-736
-4348
6328
-1172
-1580
3624
-2332
-288
-936
-424
1016
-332
1120
452
-200
892
-2256
-2504
3460
1116
-64
172
-3984
1492
960
188
-1104
1140
212
-892
280
-3900
22564
-29896
192
26468
-23948
11532
-4428
2160
3384
-6444
3840
-2044
-1540
380
3208
-1264
1884
-948
-2724
4156
-3720
-1032
3152
-1228
1192
-148
-1060
1324
-1976
-840
2532
-932
908
180
-2064
2536
-764
-568
20
-1064
908
-460
1044
28
-480
164
272
-280
-164
204
-1996
2500
444
-1816
-840
2064
-2796
3356
-4728
15140
-1588
-29336
27104
-9704
-5064
9332
-7688
11452
-2424
-2540
584
-2496
-1720
628
1840
556
1092
-600
-1704
832
-1572
1008
876
-892
3004
-1620
-2108
792
-228
-876
1836
828
-908
420
-580
-44
-756
1040
-504
-244
1548
-1700
388
112
116
40
-36
744
-936
-224
-208
-192
0
600
568
452
1600
-436
-1508
-948
-1400
-432
220
1264
928
552
1064
-928
944
-3936
3296
-7920
19724
-7932
-26740
32764
-14872
-1712
6140
-5068
9528
-6460
728
-796
-1532
-816
816
2668
-128
340
180
-1632
-1116
300
428
404
1284
-96
-1120
0
-632
-196
376
652
296
-224
364
-440
-512
196
220
132
-184
244
-52
-712
468
-100
-320
580
64
36
292
-592
-572
436
324
200
-8
52
-352
-284
256
-128
-84
256
-96
76
236
-348
716
-304
-1172
432
640
24
-188
176
-128
-164
24
104
-196
84
196
-412
364
156
-304
300
-144
-516
-124
616
224
-276
392
-320
-76
-216
-212
480
-260
180
292
-60
-36
-448
420
-296
-648
804
192
68
-156
28
-68
-464
276
-248
396
416
-560
124
-8
-320
292
304
-340
-540
448
540
-356
88
-188
-144
156
-192
352
-56
52
-304
-32
472
-416
252
132
-628
180
272
72
-8
-156
72
-332
304
16
-192
444
-384
-92
248
-112
-104
416
76
-872
216
436
0
16
36
-284
-188
228
236
-248
16
96
-192
500
-604
68
596
-500
-168
64
212
220
-232
192
-372
-136
520
-484
380
-40
-216
256
-184
-16
216
268
-644
-248
408
212
-4
148
-216
-396
188
160
-68
84
108
-388
420
-88
-244
368
-248
-400
276
332
32
-96
-52
-56
-400
380
-172
172
256
-308
188
-124
-96
-20
444
-436
-468
672
84
-36
-12
-128
-204
-12
64
20
244
40
-228
148
128
-468
272
36
-512
268
396
92
-396
220
16
-488
176
48
164
140
-248
76
16
-140
28
172
-48
-400
376
148
-204
232
-120
-256
-192
332
152
-44
156
-436
84
260
-316
316
212
-824
200
264
304
-104
-288
176
-444
392
104
-248
92
-8
-20
192
-236
52
400
-352
-512
236
352
64
92
-136
-100
-248
164
-12
-96
292
-168
-20
432
-396
76
260
-840
192
296
328
-56
-208
196
-476
204
-60
8
248
-172
-32
280
-180
-148
344
-312
-308
196
320
-12
80
-40
-416
116
28
-100
696
4
-224
-188
-2208
1976
1728
-2072
452
16
280
116
-496
32
-176
60
336
32
-248
248
-448
48
212
-156
616
-24
-512
-448
244
384
112
100
-32
-436
136
-128
-240
588
-328
200
36
-84
72
96
48
-876
260
456
60
400
-368
-384
40
-108
252
156
72
-344
76
276
-292
552
-1004
488
12
-880
1952
-1200
452
324
-1528
984
-300
536
-396
-332
1332
-1224
-140
1296
-1524
912
8
-2008
3708
-3084
1876
424
-3412
4268
-3956
2892
-1144
36
740
-1564
2052
-2228
2352
-1708
564
-688
552
496
-232
112
-928
1156
-1240
1020
-540
516
-660
704
-296
-384
768
-488
244
-1100
1260
-488
468
20
-516
44
-160
424
-488
564
12
-260
-244
408
-88
40
80
-812
492
228
264
12
-452
-152
72
160
-8
76
-80
0
156
4
-552
804
-48
-1164
632
332
-24
76
272
-816
68
344
-248
184
-8
144
-40
24
-392
312
280
-500
-248
188
212
536
-204
-500
132
-140
-12
464
-132
-508
764
-984
1584
-1472
-432
2728
-3320
1412
652
-1128
1868
-1208
-1056
932
84
220
-1928
2596
-564
-932
1392
1080
-2412
3744
-3416
-20320
32764
-6228
-12968
12388
-9464
5900
-5752
1116
1088
2216
-1240
1552
-632
-1168
-792
-540
1344
-504
2544
-1300
656
-1800
-604
-272
616
1304
96
824
-1008
-60
-1168
144
-152
1100
-108
16
520
-1148
560
-256
-104
-276
1012
-604
208
220
-556
128
-172
588
-572
948
-652
-420
-48
0
860
-436
-16
308
-252
-344
524
-216
-272
496
-116
-448
480
-236
-256
300
248
60
-392
376
-312
-156
-12
244
124
-620
796
28
-676
456
-72
-328
288
44
-56
-40
-264
444
-252
-96
508
-360
-144
200
-4
176
-564
596
600
-2592
2804
-868
-1336
1968
-1656
488
1460
-884
-696
3720
-4376
6136
-20896
13808
20644
-28280
14940
-7104
2008
1904
-9096
10756
-6080
3456
852
-2044
1840
-5044
3688
-2028
2280
1532
-1224
460
-1884
-572
-1808
2932
-1660
3060
-124
-1156
1204
-1960
460
-496
104
428
1256
-2100
1368
16
-1884
1676
-328
-284
984
40
-900
508
-1252
700
936
-808
488
160
-1100
432
476
-1512
1916
-588
-744
1420
-1072
628
-68
-664
404
-348
184
560
-820
316
96
-64
488
-704
560
-480
-16
424
-528
264
264
-20
-496
160
372
-500
356
-72
-368
864
-536
16
-8
-144
220
-484
448
40
-20
80
-84
-20
-464
544
244
-528
84
252
-668
228
120
24
1128
-3060
6900
-6140
6620
-12412
-9168
32764
-29232
2952
13580
-12976
7444
-9040
3612
1136
-2812
5456
1080
-4624
3060
-3616
-1316
4168
-3468
4976
-1680
-732
672
-1768
160
-348
1404
-1412
3008
-3324
2068
-716
-1616
2340
-1864
2564
-1248
472
-952
304
-748
180
720
-204
444
-948
496
-428
-208
1288
-860
2296
-876
1756
-1176
-23680
32764
-6500
-21092
23916
-11256
5624
-6100
-1272
5016
-2464
1772
-680
-528
-976
1044
-1836
2464
172
-964
2512
-2736
856
-1000
-1396
2496
-1312
632
1220
-288
752
-304
-1384
-704
-744
288
484
-68
1492
-588
932
-928
1888
-1992
2468
-2372
4628
-9048
-15444
32764
-22328
-6708
18196
-11964
7608
-9028
2804
1416
-2228
3032
88
96
-1304
-1456
-88
2492
-132
-1624
2368
-1484
-836
1016
-628
580
680
-1232
-36
592
-352
-688
176
2448
-2456
768
1484
-2804
2008
228
-1036
1372
2976
-23904
22660
13740
-30120
18224
-2216
-1928
1104
-5720
4228
-2120
732
2112
-772
680
-1728
-724
1584
-36
-184
1228
-1496
940
732
-2636
1780
-1468
792
376
-832
620
264
-400
200
-320
40
356
960
1188
-608
2484
-25440
29328
4440
-28164
23824
-8872
3360
-3132
-1796
5960
-5924
2780
-1544
308
1568
-2344
-188
2716
-1244
992
876
-1688
88
-508
868
-252
-352
-484
276
-676
900
-712
1732
-1092
3264
-2900
4456
-7076
-17688
32764
-20168
-9500
19368
-12264
7180
-8964
1996
3488
-2220
5840
-936
-5220
1028
-1440
284
332
-392
4892
-472
-1828
-1100
268
-2352
1184
3268
-2884
3008
-2508
280
-596
1972
-2600
7032
-9356
-14404
32764
-23544
-5196
15256
-9980
6840
-9976
6556
-1924
1544
3400
-5140
2732
-3308
1120
-940
584
832
1712
1224
-3792
1808
-2596
1384
-176
384
1708
-1840
2212
-3068
3840
-4352
7372
-10000
-14124
32764
-24192
-4968
16252
-11644
7484
-8788
3212
3144
-1624
3164
-4324
-144
1480
-3348
2408
1012
656
680
-880
-1160
-452
-1040
532
1060
668
1012
-240
1892
-3628
6076
-25396
21120
16240
-32616
22100
-5920
-528
-276
-6656
7920
-1244
3020
-1968
-3156
1588
-1316
-908
2836
-748
1472
1048
-952
-1908
-1120
-88
608
2324
-400
3316
-3648
6908
-25456
14876
22468
-32768
19928
-1996
-2712
1080
-8164
7912
-2568
4304
3116
-6800
-932
-1772
1076
2756
-2328
4932
-636
-804
-716
-3168
36
2324
-2036
6404
-2476
5400
-13276
-13208
32764
-27504
-288
17428
-14844
11196
-12668
2508
5168
-6628
11412
-5052
-3352
2932
-4512
2988
-3044
3872
148
1264
-1644
108
-1932
1904
-340
5460
-11044
-10332
32764
-28580
-3440
17556
-11176
5656
-7016
3384
80
-336
3380
-576
-2124
784
-2468
-732
2288
-620
1832
-1232
2464
-2868
3144
-3228
6616
-13800
-7640
32764
-30020
3064
11312
-10212
7236
-10760
6528
-60
-956
4344
-2684
-824
768
-2008
32
868
-424
1616
-836
1652
-2004
1136
288
1684
44
-24156
32764
-6644
-21272
23280
-11724
5736
-5640
-1032
3848
-4048
5796
432
-2592
2092
-3028
-1144
384
840
-336
1468
708
160
420
-504
2804
-25316
30800
1724
-25964
23580
-8284
384
-2752
-1192
2740
-1724
3628
512
-1144
-860
-1280
-288
216
908
-676
4416
-4068
1516
560
1648
-8464
-12116
32764
-18556
-7936
15544
-9804
4076
-6200
828
3680
-2428
4656
-604
-2744
2272
-4804
1496
628
684
1300
-12
676
-520
-12
1672
-24168
29820
3668
-26164
23984
-11372
3488
-3896
-3536
6496
-3672
5172
-524
-2388
1212
-1300
-3072
2776
-448
1960
516
272
324
-2088
4116
-24912
26644
6316
-22700
18192
-8484
3760
-5340
-1776
3968
-2432
5108
-48
-588
-1524
-1564
-1216
1008
944
1032
4088
-3764
6240
-25908
17900
17320
-31316
22596
-5308
-1452
-32
-6452
5692
-3484
4140
2800
-1880
-1624
-1104
-920
856
-584
5172
-2732
8628
-24424
9044
25620
-32768
18888
624
-3520
3956
-9748
6676
-4896
4020
1184
-2464
3616
-2756
-2196
2512
-2304
3752
1776
-2688
5800
-28292
28356
4364
-26480
27488
-11644
1156
-3248
-3656
8572
-8948
6488
5780
-7684
3396
-5500
2336
-1436
3200
1140
4336
-7440
-17424
32764
-26468
-1840
17132
-12164
10592
-11168
3648
-900
-1808
3936
-280
-200
-320
-424
-1344
2044
728
232
5424
-26896
25468
9712
-29876
17812
-3148
4184
-5588
-1704
7492
-5104
-2532
2116
4336
-3864
-1236
2880
-1704
3572
-3360
8896
-23876
9604
26420
-32768
17272
360
-2992
3164
-8920
7104
-4804
1116
3884
-416
-1264
-572
-124
-1728
4808
-3388
9236
-21884
6804
28076
-32768
15404
1264
-3720
4400
-7556
9020
-8692
-456
5432
1740
-3360
-812
1988
-848
3020
-3912
7892
-25324
18848
17036
-32768
22264
-4792
296
572
-9436
6088
-1864
704
4952
104
-4944
3632
-4696
2916
540
672
208
-20580
32764
-15064
-15148
23072
-16224
9236
-5048
-2140
5272
-340
-1376
-828
-1408
3196
-1196
-2244
7164
-5080
12020
-29756
13068
23692
-32768
22444
-1872
-52
1656
-11368
7488
752
-5460
676
7800
-3848
-464
-2092
4896
-3224
6344
-12768
-10052
32764
-27232
1128
12032
-8908
6156
-8132
4124
-4420
684
5364
1436
-4116
1728
-1816
1552
-1640
4288
-5088
-18116
32764
-18556
-11496
18588
-11620
8216
-7332
3628
-2644
-2508
7876
-3452
1244
-2628
1988
-2864
8608
-19128
5384
29804
-32768
13564
2384
-5380
5120
-9008
6664
60
-1268
-68
660
1776
-916
-588
3752
-25276
28876
3036
-22176
19684
-11152
5340
-5576
-2192
5748
1156
3268
-4304
-4100
4908
-72
3964
-20736
5576
32764
-32768
10024
6412
-9608
6032
-8380
6224
2976
-3564
-484
700
4052
-4272
1728
-1384
-21180
32764
-11196
-13632
17524
-9580
1944
-5220
2120
1088
5072
-2136
1332
-4892
3292
-2544
6132
-18008
5128
30828
-32768
15160
-376
-5800
4816
-8444
8148
144
1036
-1032
-2456
2940
-3572
6936
-13832
-6920
32764
-27048
4516
8284
-10248
7428
-11264
7576
-1484
4236
-816
-2744
2204
-1464
-1588
3232
940
-23512
32764
-8220
-18060
20052
-12956
8600
-7524
828
3728
-776
1768
-1368
-1828
3100
-2528
3584
-2376
-22064
32764
-13992
-11740
18408
-13192
8664
-9356
3024
2512
900
-308
-2708
3632
-2668
1056
-1840
8532
-25940
21064
13812
-30740
21032
-7932
2920
-904
-4892
6428
-2716
-596
1964
308
52
-644
1400
1992
-25808
32016
-1376
-21908
23228
-12144
3556
-2924
-2240
3308
1336
1952
-4860
4160
-3052
1912
-1804
8376
-23716
11128
25876
-32768
18580
-796
-5656
5964
-8800
4588
2152
-2268
6148
-7100
1824
2032
-36
-36
-24696
32764
-12840
-10940
17776
-13280
9124
-11388
4524
1196
-304
6044
-4268
-1984
80
2528
-4296
11600
-24472
10080
26612
-32768
15372
-888
-2276
2896
-8248
6660
-1240
1680
3276
-5716
3420
-3536
5836
-7272
-17444
32764
-20060
-2496
12992
-11952
8516
-11372
5092
108
576
5240
-2916
-2312
1032
-528
-1052
7180
-26204
26908
7096
-27204
21264
-11020
5244
-3380
-4256
7564
-2760
4940
-3884
3088
-5316
5364
-8868
-13236
32764
-23724
36
13056
-13484
9296
-14024
6264
1500
1628
5864
-5528
-228
1120
-3756
488
4520
-23500
32380
-868
-24400
22372
-12716
5560
-1184
-6848
6044
456
624
3920
-6180
2692
-1752
3668
-10092
-9856
32764
-25004
-436
13012
-12548
5732
-5988
1928
100
4996
-576
-616
-596
428
-1968
3028
-21752
21736
13936
-29084
21152
-9852
1372
-56
-6976
8780
-4248
4972
2164
-5116
1316
-1468
556
3032
-23716
30564
1216
-22664
22264
-14444
-4756
10132
2608
-5488
-1904
6960
-192
-5280
3832
-4860
8344
-20424
6564
29136
-31672
15228
-1060
-5332
3836
-9480
8148
-2704
2572
4788
-3708
-2396
2496
-3696
7488
-24300
19160
17508
-30740
20428
-7796
88
292
-6392
6676
-2536
4416
2960
-5436
2176
-2872
2308
-2948
-19588
32764
-14064
-10020
17276
-14480
8696
-9416
2196
3100
-1516
5128
-220
-3864
3184
-5332
8148
-15440
-3304
32764
-32768
14264
-4400
-17628
32764
-16904
-956
-4616
-2140
14560
-8364
2416
-260
-3408
7168
-27880
27996
8288
-27640
24160
-11176
1996
-4300
-1712
6536
-6040
8048
1116
-8288
8408
-7516
5008
-3692
-20272
32764
-23144
-2444
15096
-14940
10204
-12004
5980
-176
876
4532
-1872
-2784
3112
-5052
7744
-20176
7988
26868
-32676
18820
-3820
-3240
2916
-10204
8848
-3312
3796
3736
-4640
1076
-472
-1016
3236
-24868
32764
-6680
-18080
21552
-32768
32764
2660
-19352
4692
-9204
8080
5732
-2580
1816
-4256
4952
-16344
-1148
32764
-29624
10048
4944
-8552
5772
-10540
6260
-1096
1268
5780
-3312
-1684
1548
-3180
5620
-25024
27228
7404
-27104
22940
-11592
3912
-3188
-4456
5980
-2664
3916
4012
-4856
1060
-3340
4936
-7976
-14452
32764
-21964
-2356
13604
-13132
8100
-10360
4568
1008
-692
4324
1928
-4516
2060
-4072
5788
-16896
4428
28584
-25568
5760
7152
-19052
-8624
32764
-2584
-15336
-2608
-1424
11436
-10528
5768
3652
-1680
-25532
27968
5224
-21236
20144
-11228
5800
-8044
-556
3076
-940
3252
3196
-2488
-1348
-328
232
1664
-24228
32764
-8836
-14904
20444
-14492
7780
-8620
1204
2528
-868
3436
3052
-3628
1272
-4364
6928
-13724
-7020
32764
-28732
7564
6944
-9520
7096
-11656
6716
-1100
660
3516
1720
-3520
1292
-4364
9044
-20968
6116
29776
-32768
18356
-6244
2116
-10624
-13252
32764
-16652
-11640
2092
-5428
8796
-5068
-64
12652
-29324
24844
6052
-25968
24584
-11980
3984
-3512
-3684
4828
-2384
3748
2688
-2324
-308
-2540
2308
-1588
-20916
32764
-11168
-13584
19496
-14312
7648
-8628
828
3784
-1552
3524
2988
-2816
816
-5664
8120
-15200
-4944
32764
-29300
10636
4056
-9032
8148
-13844
8320
-1456
-1868
7272
1148
-1424
-1268
-2732
9000
-26168
10568
-540
-408
32764
-32768
-5200
-5052
-7776
16044
-9788
9808
6740
-5928
-856
-3864
2152
3124
-25120
28808
5296
-25428
22692
-11188
3784
-3656
-4724
6584
-3052
3636
1880
-952
68
-2480
1948
-72
-23512
32764
-5540
-18108
21724
-13832
7188
-6924
-1316
4756
-2596
3128
3208
-2084
576
-5372
8120
-12508
-10108
32764
-24024
1164
12040
-12284
8964
-10772
-21420
32764
14420
-21480
3044
-12804
9828
-4252
5556
-10524
-28
30624
-32768
12584
4440
-7244
6116
-11044
7124
-2472
1252
4252
-492
-936
-840
-3196
8000
-25580
20180
16072
-29740
21916
-8672
1464
-928
-7408
6996
-2656
2596
2964
-4
-332
-2484
-1160
5248
-26408
29060
4508
-24544
25120
-15252
7016
-2908
-9188
13212
-28348
22076
32740
-29460
-332
-10808
8392
-140
-22624
32764
-18876
-9360
17368
-16040
10504
-7324
-1048
5796
-3700
2956
3748
-5180
4868
-8244
8732
-11868
-11036
32764
-27000
4160
9028
-9844
7324
-10248
4220
-96
-328
3708
1576
-1624
1544
-6356
9828
-23536
10512
25088
-30456
16928
-776
-6340
9696
-28696
6320
32764
-17480
-5816
-3984
-2760
9328
-10844
16084
-23028
13748
17496
-32272
22236
-6116
536
-660
-7148
7088
-3548
2452
4072
-1836
1284
-3832
1664
-208
-23640
32764
-9196
-15272
21540
-14348
7944
-9100
140
3536
-2200
4468
1340
-312
1220
-3416
-348
3176
-29256
32764
-9124
-12688
32764
-28692
-3332
-11120
-4404
15452
-8916
10172
6436
-6232
760
-8412
10252
-15396
-4376
32764
-29964
8760
5900
-9116
8760
-13576
5828
1148
-460
2980
1312
-1788
3048
-6580
5868
-9144
-11864
32764
-26000
2552
12636
-14580
12860
-12920
4788
-680
1584
-5868
-13984
32764
-5636
-22952
6108
-32768
32764
2508
-20448
30464
-17712
4060
-7408
-2092
6596
-3696
6104
-1464
1592
-996
-492
-5160
11076
-25628
14184
22588
-32608
20356
-5344
-420
1112
-8640
7676
-3300
1532
4696
-1520
4404
-8272
8548
-14828
-9820
19032
-19964
32764
-6580
-23256
2820
-15608
15900
-6012
6652
6656
-4152
-1548
256
-3552
2692
1724
-23952
32764
-8680
-15756
20476
-14312
8332
-7956
-1284
4532
-2364
3852
1680
4
1464
-6996
10120
-24328
11084
25864
-32768
22096
-7776
3332
-18480
112
32764
-27080
-2180
-5828
1156
8328
-5024
1984
10860
-21760
-3736
32764
-29564
11032
5032
-7784
6584
-11872
6664
176
-3196
6932
-812
416
-2128
-752
624
-23564
32764
-6564
-15940
22480
-15044
6076
-2992
-7744
11324
-19984
2512
32764
-20180
-8760
-4964
-6472
17668
-31420
32376
7468
-28864
23044
-14280
8152
-4576
-4544
7064
-4736
4260
976
332
2348
-7480
8008
-14836
-6996
32764
-28856
6040
10224
-11472
10064
-13996
7732
-2972
1012
3160
-24336
32764
15040
-31928
8264
-20872
-2140
32764
-26388
10748
7988
-13396
6404
-10092
5648
488
-600
3848
-152
296
1028
-6292
8852
-25620
17368
19044
-31136
21852
-6852
240
1032
-8840
7768
-2624
548
6768
-26488
22768
28808
-32136
8732
-32768
17368
24976
-31764
29084
-7900
-3240
-1768
-8148
8724
-3208
2920
3512
-2384
3392
-5052
1780
-824
-24012
32764
-11532
-13296
21672
-15000
9656
-10040
1208
3508
-5088
8768
-24644
20156
32688
-31100
-292
-10168
-16292
32764
-16160
-3004
16500
-14216
6320
-9800
1528
5384
-1652
1208
3652
-2720
2088
-5328
5088
-13992
-4004
32764
-26792
4576
10572
-10596
7512
-11480
5260
1136
-26180
32764
14112
-23340
3388
-18908
20368
-18920
588
32764
-32768
11376
1044
-5440
6484
-9928
6624
-2208
780
3808
-2340
3412
-1544
-4788
7288
-26676
25364
11308
-29604
26116
-13192
6340
-8488
-23576
32764
-3524
-16012
2180
-11204
16900
-7528
-180
11624
-32368
32116
-2256
-21396
25076
-13760
7088
-5576
-3304
4248
-3088
4200
428
-1280
5748
-8592
7648
-7968
-14808
32764
-11552
-22540
2012
32764
-4596
-25348
564
-4988
10384
-2724
7844
2292
644
-10820
6620
-12236
-7052
32764
-30432
8168
8484
-10888
7612
-11124
5136
-864
704
4888
-2736
4088
-2788
-272
-9116
-23576
32764
5020
-32768
13160
-9928
10892
-6012
-3036
11756
-6776
-528
968
2452
1988
-1536
-1700
3904
-27004
29636
3624
-23316
22096
-12036
7960
-8800
1228
100
1128
-120
-21524
32764
10960
-28648
2116
-12224
-12288
32764
-16052
-1620
15256
-15816
6964
-9380
3204
1488
-776
4040
460
-1692
5460
-9176
7800
-13652
-7140
32764
-27780
2916
16964
-32768
12936
31700
-18748
-7056
-6984
3020
8308
-4784
11968
-8836
6600
-26088
12944
24160
-32768
22188
-4924
-1284
1368
-9512
7940
-3148
3208
2012
-1428
3940
-5620
1048
-21248
588
32764
-25184
-20836
10564
-7492
10320
-10200
6552
3212
-5620
1908
1356
-76
5688
-6472
3524
-6492
-18388
32764
-21756
-3572
17792
-15752
11692
-15636
10048
-15700
-3936
32764
-18204
-9504
696
-12236
19556
-26120
9808
31860
-32768
15812
-1368
-4008
6632
-12356
8004
-1880
-1452
6524
-1568
3152
-1200
-5128
6812
-31252
25912
-6076
-2608
32764
-32768
2912
-11836
-3440
14028
-10440
14708
428
-6228
4824
-7200
4468
-2756
-21820
32764
-13720
-13036
20500
-12776
8704
-9784
2224
-1568
5380
-19064
6776
32764
-17276
-15056
448
-17760
5276
32764
-23784
9224
2980
-11508
6264
-9312
6356
-1096
960
3860
-2484
2324
3596
-8208
7660
-25144
13556
23936
-32768
32764
11672
-22696
-472
-16924
14440
-292
-580
12332
-7136
4152
-5904
-1224
2896
-25184
32764
-10660
-14880
21740
-14064
9576
-10004
1900
-616
5012
-20972
10568
32764
-17440
-13864
-1772
-12132
-2464
32764
-20684
3480
6956
-13424
7472
-9392
4668
700
-668
6012
-3196
1924
4204
-8324
7456
-27908
17856
-1336
-5060
32764
-32768
-4976
-6212
-4236
10152
-4764
10576
2008
-4968
-400
-144
-432
2596
-25936
32764
-616
-24908
26672
-12928
6320
-7684
1852
-7776
-15708
32764
-984
-20432
4216
-14144
16212
-14172
-8032
32764
-32768
4624
8568
-8800
8460
-12188
6440
-1204
-244
4256
-1576
2980
-348
-3400
-2240
-29108
32764
18036
-32768
14832
-11712
8692
-1132
-6588
12984
-7736
132
2148
-1520
6120
-1808
-3816
3812
-26468
32764
-6548
-16632
18496
-8832
-8100
-14032
32764
-10956
-16884
1124
-5156
9368
852
-100
6052
-12684
-15192
32764
-24248
1384
13140
-11764
8520
-10840
3016
2232
-1976
3788
736
-26008
32764
9404
-17712
-23624
3372
32292
-32768
20292
4480
-6028
-852
-10240
7356
-908
2060
4712
-3252
3984
-880
-3988
1104
-27624
30576
-14256
7468
32764
-32768
3224
-15568
5196
4828
-3808
14812
-4500
-3440
4788
-8024
9388
-14276
-9956
32764
-27016
1604
12772
-10196
7188
-12308
-20760
32764
16208
-19552
-3316
-7916
13692
-9684
9872
-17332
6780
24352
-32768
19456
-648
-2084
2836
-9396
6784
-3920
3308
4
3692
-13980
-6428
32764
-14928
-32768
32764
-11700
-7372
17132
-6456
9696
-13324
-2264
2320
-172
4076
3964
-3332
7288
-7460
2788
-11992
-14408
32676
-29244
32764
12360
-31028
6004
-19728
13532
-292
692
12304
-6584
-1112
2604
-6428
8056
-23792
17104
20180
-32768
24012
-8204
1652
-1732
-30100
32764
6328
-19768
2804
-12464
14560
-1716
-3264
10976
-31552
31252
-2144
-21912
25184
-11560
6476
-4728
-5236
6544
-7236
8892
-7264
-18796
32764
-10712
-13056
-14212
-16620
32764
-30840
12416
13264
-13844
4788
-13720
7144
-172
-524
6840
-1768
-2620
7748
-9652
8176
-26968
9120
32764
-32768
10648
-6236
-2144
10516
-15792
15408
-1932
-6516
5464
-4312
5008
3740
-5460
992
-23468
32764
-9976
-14784
14008
-27792
32764
-10524
-19972
3432
-12244
16688
-3932
2184
12096
-10624
1308
-11804
-11892
32764
-23680
764
13052
-11336
6344
-9272
1364
-23588
32764
16632
-26924
2564
-5980
3528
6020
-26096
26644
13084
-32768
21044
-6052
2956
-968
-5464
5656
-1924
-112
4064
-4252
-22508
32764
7920
-22304
-25880
22260
12556
-26652
25732
-3940
236
-7724
-5556
6308
-2064
4088
2192
-3168
8160
-7776
5720
-14076
-17316
32764
-24572
-3296
5628
-14364
17372
-15056
8144
4516
-4992
2140
-3084
1108
6680
-6720
8276
-22280
9400
23360
-24228
-10744
5816
32764
-21220
-16608
-864
-2436
10636
-1620
5796
4796
-5760
-2260
-6068
-18136
32764
-11504
-13528
23164
-16792
11248
-12608
-24088
32764
6140
-19652
1940
-11688
15384
-5968
6100
-3636
-21480
32764
-27768
1396
15140
-12668
11924
-13884
6344
-5240
6056
-21648
16800
32764
-22412
-8532
-4344
-20508
22404
17752
-24396
20176
-9096
-2528
860
-6320
6756
-2280
3324
4688
-7504
8604
-21220
-1188
32764
-32768
23812
-2664
-25916
31824
-18124
14020
-5092
-7796
3508
-5752
7608
776
56
5408
-1220
-872
-3996
-27232
23052
19664
-9124
-520
-12848
2728
156
-1144
6476
1108
8
-2668
-2028
7788
-6084
7528
-23152
11716
22136
-24612
-8452
2944
32764
-20036
-17036
-772
-3912
11200
-2064
5860
4980
-3532
-5536
-528
-22880
32764
-5912
-18596
23768
-16164
10744
-30944
21580
29540
-28568
1560
-8792
3692
10704
-7608
11940
-11088
-20336
32764
-22140
-4092
20936
-15688
11152
-13224
5464
-4592
-22120
32764
116
-20380
5472
-16680
19464
-25524
12332
29832
-32768
16196
-1036
-3620
4012
-7176
3656
1040
-3748
10396
-26720
17588
32764
-30244
1564
-32768
30252
9652
-25336
32704
-13320
1652
-7036
-3076
4808
-864
2452
5452
-8812
12388
-20308
-4520
32764
-25568
26564
-28940
-3000
22832
-16636
14504
-8232
-384
-2540
-932
4248
1500
-1808
6816
-5528
7760
-17872
-14596
32764
-24692
-1440
1992
-12444
15328
-12088
8184
3992
-4364
2396
-4236
4164
2920
-4108
1712
-26804
31848
-48
-32768
32764
-5648
-15376
-5824
-11276
14372
-4260
5256
9448
-7840
3436
-4528
2220
-4464
-19816
32764
-23028
-3916
10764
-28660
32764
-12012
-16884
188
-11040
16792
-4244
2632
12480
-11780
5144
-23572
8220
30584
-32768
19532
-3244
1692
-14496
-11592
32764
-18636
-8804
-2280
-6196
13856
-5012
4092
8520
-32768
25616
8940
-26140
22500
-8352
6320
-9392
2520
-21088
14552
32764
-27432
-2436
-5756
708
9380
-14212
-7212
32764
-21332
-9712
17532
-9096
5884
-5556
-2736
6392
-10696
-15748
32764
-2996
-13812
-5600
-3728
-5600
-5332
32764
-25616
4420
6144
-10220
9668
-10656
5724
-1060
-1752
7984
-28420
26412
28820
-30572
3476
-32768
26068
17460
-28564
31548
-12392
-388
-3704
-5688
8948
-5164
5456
-1484
4572
-20600
6244
32764
-26564
-31532
32764
-9500
-9468
16544
-4664
7796
-12368
-636
1744
1160
2388
3952
-7524
12364
-24044
2556
27988
-22664
26796
-32768
4220
18396
-16164
14420
-8744
1076
-2748
396
6892
-2960
3172
-2356
2016
-15224
-18644
32764
364
-32768
11800
-7500
10036
-5168
-1476
10716
-11208
2512
2656
-1676
3880
2952
-4004
8256
-32768
21336
27552
-31088
14464
-15644
6432
3700
-11028
15396
-4872
-1076
3040
-6188
10080
-3064
2584
-10880
-12548
6320
1824
32764
-13432
-14904
-2892
-7848
10328
-5804
10056
1164
-1896
-2848
5452
-2328
3592
-22392
3148
29356
-32768
32764
7892
-24808
2880
-19624
15680
-1792
940
11232
-5936
-1056
996
-948
3712
-22156
17884
23568
-32768
8264
32764
-10576
-13336
-9412
136
8180
-3968
9748
-272
384
-3188
2044
-5856
-19320
32764
-15224
-10728
-9804
21240
29976
-32768
1676
-11020
8096
4756
-1388
5844
376
-2256
1592
-11144
-11200
32764
-29692
4844
-4284
-10700
32764
-28696
-5536
-7248
-5192
18472
-7916
6460
7312
-8292
3044
-23988
15016
25300
-32768
21856
-7832
-24804
32764
-2544
-15328
-2732
-10056
15788
-3544
1400
11264
-9052
208
-24556
25460
12284
-30204
21048
-2680
-27556
26992
19284
-21444
-1140
-13092
10924
1948
-736
11904
-4284
-15672
-12080
32764
-15772
-6820
11952
-3420
-20636
7148
32764
-24188
-5336
-6460
2360
3148
2792
6596
2732
-20664
-6268
32764
-26856
6268
4128
-2412
-15744
-2596
32764
-25420
-5464
-3252
-3188
10780
-1796
4984
5400
-30988
17396
20256
-32188
23636
-9488
4456
-18040
-3156
32764
-23696
-4696
-4652
-2600
11532
-4324
6392
2568
-31136
28012
5192
-26064
27044
-13456
10248
-24800
1476
32764
-24596
-3824
-4752
-3572
15140
-7880
8260
-8092
-19724
32764
-20844
-5108
19176
-15140
13980
-32768
16144
32764
-25196
48
-11064
2224
14352
-8992
13784
-17984
-10104
32764
-30664
7232
10224
-10056
9356
-32768
31508
19880
-24592
3140
-12300
8964
7244
-4672
10520
-30488
17516
18320
-32520
25344
-10404
6980
-5964
-28260
32764
-3988
-17696
2924
-9820
12428
-1264
3248
6060
-32768
30084
2220
-23020
24808
-15132
15676
-26752
-948
32764
-24124
-4784
-3408
-4820
16064
-9056
10636
-6392
-24608
32764
-23224
-2128
17104
-12592
9184
-32768
32764
18828
-24240
-300
-8652
5476
7624
-3504
10604
-16368
-11356
32764
-25624
6612
5384
-2220
-8520
-26224
32764
1620
-13056
-3296
-7936
7200
3660
-948
8540
-27016
13284
20864
-26772
15128
-2812
2896
-28804
13608
32764
-18172
-2704
-9196
1084
4724
2216
4664
492
-29472
25268
10508
-21628
15904
-2620
-16108
-6804
32764
-1788
-12948
-5328
-1552
1952
1764
6332
4204
-10036
-18452
32764
-9824
-11184
17344
-18916
-9720
24656
11320
-16004
-6152
-4048
6188
-1456
5912
4208
2136
-15196
-12172
32764
-21224
-1248
9188
-30596
28872
13224
-11312
-6048
-10588
6308
4004
-2248
9600
-2320
4052
-25716
8448
29708
-32768
19976
-20336
5860
32764
-23580
1104
-12540
800
8172
-4452
8136
3732
-4476
1404
-24940
23540
9992
-21372
-312
-4108
32764
-11456
-14920
-2744
-5056
8412
-1556
5004
6292
-2576
-152
-6772
-17876
28088
3112
-32140
10724
27116
656
-17652
-8544
-1220
5212
1760
5516
1420
1128
-1208
300
-7568
-21760
32764
-20700
-13740
32764
-12352
-3824
-14848
-3692
8040
-3484
8132
3668
-4032
4428
-4728
8436
-26456
7156
17972
-30720
32764
-2412
-12932
-3096
-14472
10508
-2784
7356
4944
-2108
-3244
2796
1108
-2096
-15228
-6988
24480
5508
3452
-8084
-7872
-2540
-2400
2716
2756
4588
68
-2952
1724
3392
-3524
6224
-32768
25672
23600
-26036
14292
-16944
4948
692
-6252
10716
-2548
1824
-444
-708
1192
384
5128
-28052
-624
32764
-20272
-16836
9128
-7144
7844
-7568
4908
4052
-4260
-192
6620
-7552
8572
-7508
-16288
15476
3968
19512
-26908
-4952
12216
-4540
3624
-1440
1332
640
-4952
3300
1168
1496
-7008
-13940
32764
-20708
-12140
25072
-26916
10076
1948
1020
4756
-8848
1740
464
3148
-4000
4116
-17376
11520
27676
-11508
-30452
10224
13980
-15960
12252
-216
2764
-2736
-7844
5116
-2328
2624
892
-20852
26888
18180
-17112
-7180
-30816
26832
9624
-14696
19024
-6740
820
-7332
1836
-3168
3612
-11696
-2564
32764
-1716
-13528
-2620
-13596
-8252
28200
-5992
408
6036
-7896
7320
-8828
-3828
2396
-20396
21816
25656
-16744
-2096
-10352
4756
-8116
-11984
32764
-12736
-6520
2572
-876
5492
-5416
-11040
-10808
32764
3428
-12064
-9524
-812
3676
2620
-17072
8764
25648
-23892
7536
-164
-2088
2212
-27944
20296
27988
-16448
-3416
-7604
-4860
10100
-3944
11156
-20376
8676
19652
-20868
9108
-488
-12276
-12196
31052
5812
-14112
-4344
-5696
4728
1588
4844
3948
-2220
-24696
27464
692
-14572
13776
-32768
24160
22812
-13684
-6540
-10760
3480
6440
-2684
4884
4228
-676
-6128
-15976
22136
3240
-26644
272
32764
5336
-17960
-6944
-6332
5876
-600
5416
3404
3572
-7412
4892
-11744
-7352
27740
-32768
21344
25456
-15492
-1496
-19436
4768
3084
-436
7144
2056
-2472
1588
2012
1564
-10260
-24340
17840
24960
788
-7660
-9788
-5200
964
1588
2076
3244
924
-1728
1056
2448
1028
1488
-32768
31596
23320
-28340
7296
-11736
8664
556
-5000
8172
-2788
-2836
2292
2816
-3516
11848
-26096
680
17076
8160
4120
-28016
10160
-252
1904
3252
-4248
3692
-2712
316
1016
2984
-5780
-19084
32764
4172
-31796
25164
-16840
-3096
10876
-3492
10792
-10044
-1060
284
636
2624
3504
-27512
18268
29068
-10888
-14300
-27400
32656
-3348
-8880
15004
-6292
4484
-9192
2324
-1284
5536
-17112
-1680
32180
1796
-9964
-6436
-23512
5508
25904
-14072
9268
1340
-4868
2464
-9756
8996
-11648
-15344
32764
6264
-9952
-1180
-10136
6572
-20520
7212
28472
-18852
3644
1788
-36
4044
-9332
-26716
24336
21296
-9616
-1852
-10576
3724
788
1660
-18056
23608
2080
-16044
13972
-8284
11776
-30332
6836
32004
-14848
-984
-5020
-704
3008
-2196
5672
1584
-24588
22472
8640
-19492
19140
-24060
-2708
31780
-8788
-5852
-4904
-2788
7520
-7816
8704
3364
1420
-16712
-7116
29988
-8252
-9840
-14532
29560
12308
-25580
-12
-7532
4912
2288
6452
1336
-96
-1260
2168
-12096
-11444
29792
-29636
19732
24260
-25504
2328
-13548
4956
2736
-1804
9288
188
-3880
3068
-876
5248
-19820
-16484
32532
9848
-2516
-10684
-5620
3260
-3788
2640
1164
3824
112
-2800
428
604
7344
-20832
-13348
32764
6456
-29092
600
1600
4872
-1468
-2148
4912
-2556
-3148
4832
-3244
9316
-17908
-2028
32764
-27492
18056
-9768
-18104
18900
-5752
9384
-5172
-544
-1508
828
-1776
9048
-16572
-8872
32764
-1028
-13900
-29232
20348
6184
-10340
17704
-8760
3888
-6620
1320
-1188
3984
-11548
-12504
32764
7868
-15552
-1660
-25116
1920
30996
-14572
6032
1948
-5932
4376
-9640
8772
-10852
-17688
32764
11112
-17124
-980
-10688
6712
-7308
-7000
32764
-15652
-5764
9100
-7476
8560
-14080
-17308
32480
8356
-8608
-5532
-11504
7460
444
7688
-18760
15280
9200
-19728
9524
2504
-2708
-25408
28200
14264
-14752
-3760
-7948
4456
-1104
9312
2548
1072
-25908
14552
15188
-15800
4376
-24924
32764
12860
-20116
-3144
-9024
3464
1156
3524
9724
356
-2468
-7452
-20804
32764
-10912
-28544
32764
6824
-9336
-14776
-8624
6588
-1504
2232
8796
2828
-1500
-88
-3484
-780
-23524
6504
28476
-152
-764
-10588
-4888
-1676
-1768
1256
5868
6416
-3124
-2228
1960
4824
-5088
-32768
28592
30668
-28344
1556
-4020
3508
1580
-6736
4532
1800
-264
2512
-1248
1420
-8656
-17168
32764
-8748
-19516
23944
-25476
8860
4004
-1224
6368
-9564
1928
1788
-3252
7508
-12652
-12036
32764
-1228
-9880
-29004
10376
19668
-18884
14024
-3204
2540
-2868
-1236
-2332
5692
-14392
-8448
32764
-2548
-6728
-6832
-8236
-14972
15984
18428
-13748
3524
-1712
5876
-7596
4812
-20836
-1460
32764
-3592
-10144
-6640
-288
6156
-5700
-15884
32764
-8492
-13024
14028
-7156
10660
-30684
4220
32764
-7328
-6192
-8028
-3332
5896
-36
7204
-540
-22052
23256
-2244
-8288
12960
-31580
17264
24964
-12460
-4060
-10980
328
7268
-2664
8280
1576
180
-22580
1648
32764
-18904
-24688
22544
24572
-13784
-11620
-8216
1452
6060
3012
4888
-2668
1128
-1300
588
-11136
-5184
4788
10200
20572
-14820
-7424
-4000
-4912
3204
660
7188
3356
-3896
1512
-4048
5636
-1716
-32768
32764
11364
-23692
5844
-11584
10036
-5348
2048
6120
-1420
-2536
1444
-3704
4192
-6184
-10632
32764
-23736
1704
9616
-25832
16776
-724
6056
548
-8120
348
1968
-1836
5652
-22440
7888
32764
-6184
-16564
-26892
25268
-3564
-4312
12456
-648
3976
-8568
1104
-6460
4372
-23836
20656
29132
-14620
-3264
-9616
-3860
-17596
28832
3416
-10584
7704
-4556
3808
-3704
-2320
-28424
28620
23648
-13316
-7012
-7324
4156
5208
-19488
3916
30532
-23460
7164
-2292
4608
-5520
-29688
32764
9340
-11392
-7080
-6688
2396
5148
1620
7336
-15436
-9324
32400
-20092
9280
-13684
-12300
32764
-7092
-9360
-8764
-3956
6872
-416
5100
7260
-3660
112
-24032
19276
14616
-32768
22056
22600
-5592
-7072
-13100
1000
100
2196
7440
3820
-5220
2384
-388
3776
-21220
-12896
32764
1140
-3744
-5284
-5448
-336
-3768
3904
4140
2628
-1732
-1792
-1480
7148
-5572
-26060
17692
32764
-24324
-9284
3236
-1276
4532
-7156
6580
-3036
-568
5264
-1812
5672
-19952
-2008
32764
-12956
-29020
21156
-3684
-4972
5696
-2208
10048
-9504
376
-1392
92
6276
-23604
15696
28800
-14016
-4240
-29520
5204
31352
-19868
8456
5788
-6568
2380
-10856
8508
-6372
-20548
32764
12716
-17508
-2996
-11960
12460
-11756
-5516
32764
-17832
-1072
2588
-6920
13716
-25332
-6696
32764
-944
-9576
-8080
-8264
10716
3324
1900
-21772
19856
8236
-19768
13036
-1416
-20968
8580
28980
-9948
-9808
-7136
-1296
4280
3368
7680
1656
-1896
-23548
7900
25432
-25860
-12556
29028
16664
-14700
-13220
-4936
500
368
9508
3040
2452
-2704
3480
-12044
-11900
14240
-15660
30840
6548
-16120
-1228
-12668
7740
-7468
5584
11768
-2912
-2056
-3328
2476
8204
-28728
-4020
32764
-12856
-17088
1004
-2964
7876
-7520
4584
5744
-4460
756
-1952
4292
-4284
-21868
32764
-9164
-16848
23532
-27832
8736
3520
-1212
8528
-5464
-60
-2476
-720
8056
-23348
1252
32764
-7012
-4804
-23004
-11956
32764
-12004
-92
8460
-4468
6124
-9348
688
-3096
-23328
29144
20028
-14772
-1744
-9100
4672
-22564
17916
19748
-21752
8656
808
-2548
4152
-20624
-7376
32764
1376
-9780
-6244
-6392
7236
-1700
8020
-17732
1396
24172
-17940
7544
2428
-27204
15548
23280
-10332
-6768
-9344
4512
712
1380
6676
7060
-11716
-23812
30248
4392
-20460
-7488
26912
12592
-19632
-8160
-8336
7652
4120
3880
4436
-1516
-2992
-1612
1136
-13392
-4612
15244
16316
-944
-11992
-4408
-6676
1580
3980
3968
5748
-3788
-712
-3516
4828
2356
-32768
22580
32764
-26784
-5996
-444
-1172
5360
-10176
18396
2548
-32768
27900
19236
-4952
-21592
-10504
32764
-13608
-5708
16736
-23984
-32768
32764
32764
-5844
-20712
-27156
4072
8984
-3308
-14208
32764
11596
-9568
8344
-32768
-2204
-18516
26988
32764
-16356
-12380
-22908
-200
14048
-22864
6876
32764
-14372
-5256
7424
-6856
-12224
-32768
32764
32764
-26932
-2768
-22672
10044
652
-28492
32764
16028
-17432
-1456
3820
-432
-14944
-31504
32764
19116
-2456
-8840
-32768
22240
-23920
11108
31728
-5856
-12276
-4756
14072
-2048
-18336
-28004
32764
29856
-17084
-32768
3348
12080
-28516
32764
4420
452
-15644
-8020
20004
-7700
-17328
-23420
32764
29708
-17944
-12472
-25360
-22384
32764
13592
-12932
11084
-17172
12008
7036
-8204
-18324
-22532
32764
24368
-21316
-7340
-32768
4252
32764
-19428
17376
-2740
-20920
24084
2056
-2096
-25212
-23576
32764
15092
-14096
-16652
-32768
32764
17336
-8356
-28136
-1724
26416
-7268
16376
-4752
-28540
-17708
32764
10568
-17084
-30924
-4556
32764
-10052
-8848
-9628
6600
-10696
5728
32764
-17044
-32768
-7744
32764
12180
-32768
-24256
22576
13788
-11712
-1844
-5020
9512
-1960
12344
-9352
-1364
-13764
-18060
32764
-216
-32768
4704
4228
-304
-5268
-4440
6320
2952
-3080
21736
6212
-16296
-32768
-3484
32764
-22020
7404
10772
-18540
1944
-16984
5824
4936
336
7776
15884
-1452
-11972
-32768
5628
32764
12276
13532
-30792
-7936
-1320
-1872
3092
1944
2444
5016
15504
-2656
-15040
-32768
8116
32764
19384
-24292
-16448
-3456
-14124
16408
1496
6964
-2556
-3804
19100
-4868
-14388
-31728
8488
32764
4332
-16560
-32768
-13560
32764
-10336
4332
13328
-8608
844
11176
-1156
-15932
-32768
19644
32764
-6460
-16608
-28424
3176
5440
-16652
32764
672
-16640
8628
16380
3044
-31016
-32768
32764
32764
-12940
-17376
-26948
12352
5312
8304
-15724
8040
14172
-20444
32764
-11760
-29972
-19896
32764
32764
-27928
-18944
-15712
9424
6244
12876
1176
6256
-26888
2392
30108
-32456
9816
-21796
32764
28436
-32768
-11252
-20248
11108
13088
944
1608
4440
-2744
3820
-31400
25208
6516
-32768
32764
10336
-17688
-16632
-20000
20112
2088
656
5868
20
-3296
-16384
23736
21864
-32768
-16244
32764
7432
-6872
-22256
-10700
13432
-4476
7456
-152
12032
-23360
4052
32764
-16680
-32768
-16124
32764
30604
-25956
-19252
-540
3044
4736
-8088
12020
-14056
-10864
32764
5440
-19388
-32768
-4524
32764
-5600
-31536
13188
-13708
3884
2508
7320
-7728
-17012
32244
8504
-3496
-12816
-32768
6924
32764
-2092
-8092
-32768
-3288
29248
-9916
-2124
-12864
32764
2404
-3988
-3748
-17292
-28980
13724
32764
-7412
-12464
-21860
-1176
8
-16612
13204
25196
7224
-10480
3724
-9064
-10208
-30488
22572
32764
-13656
-14196
-28736
11644
5740
-19144
11036
32472
-1760
-25504
13344
-6516
-5572
-31388
31600
32764
-17260
-18896
-19568
5672
-19372
32168
24848
-4760
-32768
-404
32764
-23108
-7020
-26112
32764
32764
-23664
-12516
-21624
-15376
28864
23092
-7184
-1656
-12620
584
-2696
16040
-12556
-32768
32764
23988
-17596
-19928
-32768
27564
29456
-10968
-4376
-6944
-5340
16444
16008
-5984
-32768
-16512
32764
15972
-11208
-32768
6004
32736
-13164
-4224
-6828
6524
-2328
7872
15488
-9516
-29304
-17760
32764
26520
-32768
-5108
17004
-1516
-5708
-15484
6184
9272
-6292
20988
6792
-17168
-28084
-8128
32764
-19528
-17672
32764
-23776
-5968
-908
-968
11372
-3216
-460
17852
804
-13476
-32768
7384
32764
5388
17628
-32768
-3772
18256
-18344
14640
1624
6100
-3280
7104
2736
-19012
-32768
10168
32764
17912
-14836
-32768
-1508
-12916
4824
29712
-9400
4456
-1484
14580
-2392
-23148
-32768
21004
32764
3312
-17524
-32092
880
10424
-1556
-15300
30328
1672
-13044
22396
-4892
-24260
-32768
32764
32764
-9352
-23696
-23840
10128
2192
8472
8248
5236
-27340
12796
32764
-29492
-20212
-16976
32764
25636
-24136
-18852
-15872
10812
8256
6488
-368
3624
-5596
6156
-18980
8184
3008
-30196
32764
12352
-17540
-21928
-16236
14564
7820
1368
1940
-1480
1160
-2068
84
22684
-32768
-13420
32764
5096
-5772
-25192
-9128
13668
-1588
5312
-1668
8560
-15148
-3484
32764
-6972
-32768
-11008
32764
21484
-23052
-26132
2736
7092
0
-2092
10280
-7924
-17656
32764
6268
-24144
-32768
3712
32764
-11780
-25252
6460
-13344
6684
612
6916
-4600
-20916
32024
21444
-10672
-21780
-32768
20100
32764
-1736
-3712
-32768
8976
18708
-8000
-2128
-13692
32764
3320
3796
-8988
-27020
-28496
28988
32764
-2920
-16960
-23552
5776
-7292
-7708
4760
31640
4288
-11804
9492
-12068
-20820
-28328
32764
32764
-7892
-17916
-25748
13360
-2824
-17580
17940
29404
-10976
-9632
7704
-2096
-21396
-26860
32764
21128
-5472
-24388
-11572
-2472
-15892
32764
9368
-5820
-32768
15608
25628
-15668
-21992
-15684
32764
14260
-18652
-16580
-23960
-4160
32764
6660
-5352
-4164
-9932
5552
-5640
15800
-28920
-10436
32764
2020
-5804
-32768
-21648
32764
8772
-7612
-3900
-5396
-492
15964
12260
-13860
-32768
12064
32764
7192
-14332
-32768
28956
9832
-17756
-2252
-1016
5448
-3348
15640
10664
-17552
-32768
4608
32764
-1596
-30056
10276
6908
-7484
-10188
-6812
9416
2428
3820
19888
-1284
-18520
-32768
29700
32764
-32768
17144
2452
-16108
-2760
-5276
9080
7672
-7084
7948
13352
-3912
-24880
-32768
30756
28036
20908
-8056
-32768
9484
5008
-2504
8132
5092
2736
144
7068
-5716
-22144
-28216
32764
32764
-724
-24416
-25076
6808
-14264
11132
17640
-344
-3432
4836
11940
-10508
-29420
-18708
32764
22004
-7412
-26016
-20020
13280
5936
-3496
-8232
23272
-6344
3988
16396
-15404
-32768
-1204
32764
4912
-15500
-26584
-4520
10440
1524
9272
2912
1248
-30008
32764
1500
-23088
-6848
-1568
32764
-12884
-21960
-15256
-3320
10164
8920
128
6720
-5212
3556
-7484
-21948
32764
-32768
9000
32764
-17388
-13736
-26508
5200
17536
-5120
4100
4204
276
-12064
2492
32656
-21508
-32768
31104
32764
-4512
-18288
-18508
14936
-3144
-1280
1592
12616
-14324
-6440
32764
-3336
-32064
-32768
26712
32764
2960
-26612
-10216
1560
3116
-3084
3724
-4540
-17532
32764
12480
-13536
-31432
-25528
32764
26460
-24172
-18528
2660
3888
-540
9064
-15572
-7428
27900
11036
-1584
-14976
-31016
-11528
32764
22404
-6604
-29872
-29256
18096
17524
-18688
-2004
32764
-5600
468
-7328
-13076
-25680
-3868
32764
10780
-14824
-26840
-5644
20160
-28612
1576
32764
-4480
-9308
3844
68
-7792
-32768
10000
32764
1048
-11248
-32768
11024
-8408
1704
29996
-14932
13656
-17840
7232
8836
-14468
-31200
19352
32764
-3736
-20344
-22540
-11876
4692
32764
-1412
1976
-17692
-23116
32764
1436
-17752
-27936
27416
32764
-14220
-13716
-32768
10640
32764
-2392
-11772
1484
-7624
11936
288
-7560
1836
-32768
32764
24312
-8152
-32768
-17908
32764
-1028
-8660
-7324
2840
-3788
7384
18300
-2856
-30472
-22804
32764
22452
-26356
-14896
13244
7180
-10216
-7848
60
10516
-6064
16308
9360
-10780
-29796
-16984
32764
-4664
6116
-880
-21464
4832
-5528
1380
2224
3168
-1056
19012
2088
-12464
-32768
708
32764
18688
-392
-31224
-2416
-6460
5032
6044
6024
3020
-8296
11916
1300
-11432
-32768
3936
32764
19268
-15408
-32768
-27820
22052
17932
-6352
11160
-52
-5668
8140
-1668
-11292
-32768
18328
32764
1988
-19200
-30904
-1400
12496
-16744
17420
19332
-14388
5160
10380
2924
-32768
-32044
32764
32764
-8416
-24364
-25600
10276
5880
15272
-5572
-11440
9992
4384
13820
-21788
-10564
-14580
32764
25440
-21012
-17332
-17580
7816
10356
11700
-5556
8912
-13112
-6736
1464
11600
-6856
-24632
32764
8704
-16676
-20052
-18068
14404
10332
4028
-1960
7248
-8392
-9544
13296
7036
-27496
-10516
32764
7292
-10632
-25436
-8244
7520
3056
6240
4524
3196
-29404
29568
22600
-21772
-32768
2068
32764
-2320
-11572
-15888
-5448
5844
-532
7104
3252
-24956
21620
32492
-13456
-18820
-32768
26168
32764
440
4540
-32768
2936
-2432
7772
2784
-22072
27924
13420
3340
-8156
-27228
-30024
31536
32764
2760
-29512
-20320
14620
-3204
3316
-18308
32764
6112
-12036
8012
-12856
-16772
-25776
32764
32764
-9376
-15496
-28968
-5860
11336
-8632
29972
18320
-22460
2716
-892
-4608
-23156
-16464
32764
18372
-7936
-27196
-10996
6548
-21824
20460
25072
3196
-20356
2900
8852
-4404
-32128
-5888
32764
10340
-13888
-16520
-22640
-5420
32032
19644
-13976
-24064
8040
18136
684
-4992
-32184
2788
32764
-7164
-8216
-31216
-18036
32764
2476
-488
-3832
-4064
-3744
-2996
22440
-4096
-32768
19468
32764
-376
-26032
-28140
32764
4936
-8232
-5300
736
3640
-84
23408
-13296
-21724
-21896
21852
32764
-21808
-20336
9652
-596
-3204
-8252
-1664
15616
-6080
4316
17204
-5572
-19360
-32768
32764
17800
-12200
17736
-25148
564
-6380
-10132
9052
12588
-1060
10640
5308
-6928
-29864
-22632
32764
10912
26628
-13004
-32768
-784
-2096
8536
2920
10388
-4400
7952
6748
-10100
-28988
-17340
32764
28444
-10760
-32768
-13748
16168
3332
-816
5748
10768
-10896
7828
3300
-7640
-32768
1868
32764
11692
-12796
-28788
-11896
-4376
15972
7096
2840
4552
-7392
16344
1360
-23132
-32768
24648
32764
-4152
-21840
-24660
6228
7692
7468
-17064
18468
3448
-11144
25632
-31240
4072
-19596
18552
32764
-19660
-17600
-18640
5364
12836
1172
5068
-4936
-12084
22836
-16568
10180
4016
-32768
32764
21784
-13696
-13200
-23372
14264
5164
2080
-980
7048
4288
-29588
21248
26272
-32768
-25720
32764
20416
-8916
-24132
-12192
11640
84
2056
2528
4464
-22972
32764
24172
-31472
-32768
-9976
32764
15924
-12096
-17304
-14556
7864
-2696
8088
-2512
-16224
27748
23908
-9284
-19128
-32768
-12
32764
14628
-5140
-27496
-6332
3036
4288
-5384
-18336
32764
8116
6772
-7252
-21740
-32324
16380
32764
-11740
-4920
-17696
-9608
15396
-11676
-10756
32764
1380
-6920
7016
-8296
-10232
-32768
27808
32764
-6564
-12496
-32768
15268
2924
-13348
32764
860
-10232
-4772
4008
1316
-18940
-28452
32764
30816
-8276
-22256
-10976
-11168
-14968
32764
4844
-7824
-12316
-608
20812
-5976
-29308
-19468
32764
23032
-11772
-16668
-32768
11664
32764
-6724
-22052
7540
-4712
12796
9464
-6524
-26928
-14820
32764
8492
-9996
-32768
-1840
32764
-1664
-6564
-316
-16172
-7244
32764
5400
-5468
-32768
740
32764
3876
-29564
-13948
23752
1556
-6420
-10872
5708
3504
1408
15736
-7960
-2892
-32768
9544
32764
-26580
-1320
2320
-12540
3200
-7936
2320
9672
-6012
6432
24520
-2528
-30772
-32768
32764
21464
9324
11188
-32768
-3172
-8356
4328
7604
5972
-464
3968
12188
-6744
-25336
-30880
24888
32764
21140
-30492
-32480
-3372
5164
7496
-648
12984
-6616
3964
12728
-8436
-20584
-26796
32764
31268
-22748
-16948
-17740
7180
7484
188
10500
628
-14144
8776
17928
-6748
-32768
-7408
32764
15940
-11732
-29512
-29652
18876
13240
5984
4100
-660
-9884
13580
1840
-20668
-16892
3388
32764
-2800
-18364
-22188
-4336
3692
660
17068
1612
-1380
-3372
5584
-17484
16112
-26932
6012
32764
-17852
-4780
-28912
1876
16188
4152
892
-16920
19876
-10220
-8800
32764
-11092
-32768
24872
32764
-5512
-14288
-24280
12012
1544
6020
1168
13256
-21520
-18000
32764
1828
-26844
-32768
32764
32764
-12112
-17080
-15292
5836
5272
-592
9008
-8920
-18776
32764
1156
-22156
-16088
-26208
32764
19588
-6548
-15396
-25220
10636
-2488
11376
-10804
-6088
31012
7828
2496
-14976
-32768
-6840
32764
21712
-3724
-30532
-12716
5564
9044
-14136
-2308
32764
-7392
1784
-7624
-8184
-30504
1076
32764
7588
-1644
-30792
-11648
15600
-15900
1584
32764
-2864
-14224
-196
428
-2184
-32748
14748
32764
-4612
-28492
-18552
13268
-19536
4916
32764
984
-10308
-14964
11128
1816
-11668
-29620
25088
32764
-4980
-16988
-21176
-29176
17392
32764
-6556
-4560
-17828
8240
15348
-9796
-8876
-29532
32764
32764
-16956
-11968
-32768
25052
24296
-23864
16120
-1184
-8520
7536
6996
3324
-24952
-25488
32764
22504
-13016
-32768
660
32764
-7180
-1440
-12780
-13704
14208
16280
8316
-5172
-30408
-15520
32764
13016
-32768
-132
12096
-136
-6864
-3868
4800
12512
-24728
13968
25592
-16464
-31944
-5432
32764
-16448
4648
-2864
-18700
5220
-8504
6716
6076
5516
324
19240
-14568
-23356
-21824
3340
32764
24252
556
-32768
-16104
-3024
6540
8872
4372
6616
-3816
11924
636
-17120
-32768
11472
32764
11872
-21400
-31500
-456
5752
-512
2596
12632
-2232
-1680
15484
-4384
-18720
-32768
32764
29680
-10756
-3120
-32768
7500
7456
2960
10556
-2852
-5896
2516
18980
-2660
-32768
-18828
32764
26568
-23040
-32768
892
22480
-8148
8356
584
9516
-19088
10720
8632
-24600
364
-16580
32764
14600
-23424
-16064
-12476
-8228
19704
18040
-12248
3108
-3092
2712
-10440
20220
-26200
-16868
32764
1132
-15224
-20616
-8132
24224
-10692
-14048
25148
6108
-25092
3408
32764
-7764
-32768
5372
32764
1564
-18960
-20160
684
8804
3480
6084
3892
-28296
2040
32764
-8148
-22204
-32768
16136
32764
-11384
-13132
-17144
-3296
13996
-9208
14844
-12452
-6432
20284
4208
17652
-32768
-32768
32764
32764
-6596
-19104
-22288
5824
2580
10284
-16616
-2832
32764
1164
10464
-21476
-32768
-20140
32764
32764
-12336
-18548
-22260
-24
15632
-18280
-120
32764
-12028
-6392
7036
-9040
-17952
-28784
32764
32764
-24612
-14036
-20440
21288
-20104
-5068
32764
-4952
-12788
1024
6156
-2672
-24644
-17544
32764
-4180
-16512
5780
-24612
-10464
4596
32764
-4820
-13180
-15020
9528
17956
-8876
-29024
-4936
32764
4100
-26976
-31528
-13612
31168
21324
-1912
-5252
-7344
-15132
20628
6944
-8228
-30056
1608
32764
-13144
-10408
-32768
6536
20952
3084
15128
-31276
4676
2136
18340
5704
-17552
-32768
15264
32764
-7708
-32768
-10988
32764
8572
-23636
-27268
31600
6828
-19124
24516
6868
-16548
-32768
22028
32764
-32768
200
8776
-8340
6252
-14636
8732
5080
-27464
28096
27004
-18400
-16284
-32768
32764
18360
-14872
27476
-32768
-7132
7772
-9712
14896
7032
-568
-13268
9756
24048
-32768
-30760
32764
32764
2932
-28668
-30452
10868
2904
6172
1272
9028
-4044
2416
28544
-27992
-32768
-15220
32764
32764
-15040
-17716
-27132
1656
13180
-2736
6852
8636
-14228
13048
14520
-14412
-31960
-14760
32764
15936
-29864
-16456
-13804
26632
-6408
-6140
15460
-5376
-11964
21532
14828
-29864
-25008
4312
32764
-17376
-23484
13524
-24192
7928
8860
8296
-1864
-12300
-4936
26368
-25440
6584
-1092
-13316
32764
-23968
-20676
-32396
17040
32764
-29792
5392
10156
-3648
-1180
-14616
10696
23328
-32768
16964
32764
-30996
792
-22504
11060
-10172
1364
32764
-32768
19880
-21516
17256
26824
-32768
-31736
26776
32764
-17916
-19712
-13816
14588
11760
-26456
-14888
32764
-21072
-8428
32764
-29400
-20712
-32768
32056
32764
-32768
12440
-18728
-996
9984
-15188
23748
-19552
-15372
32764
-3632
-32768
-5332
-32768
32764
19636
-19352
11412
-32768
24280
-2436
-1460
-4068
-10656
32764
-32768
9500
27204
-32768
-22460
32764
26896
-22120
-19148
-14604
12524
7892
-15088
-6940
32764
-22376
4940
21124
-32768
-23456
-13928
32764
17604
-19680
-4796
-29260
17928
-8096
-18600
32764
-1516
-27740
14708
7812
-5292
-20892
-23820
32764
1104
-26664
540
-14024
21084
-31036
32764
15036
-31480

vt# >> holley_send_heartbeat(20)

      68 0e 0e 68 5a 99 99 06 82 05 55 30 00 aa aa 00 
      01 00 77 16 


