-1116
132
924
0
496
-1264
-728
-88
344
1992
36
-648
-492
-1876
152
1284
1116
1104
-924
-1300
-1288
-540
1732
1536
696
-488
-1668
-1788
-64
1820
1872
912
-1736
-1820
-1020
-132
2836
2268
-1168
-2172
-1648
-368
2548
2324
-276
-2036
-2816
264
3080
1984
-488
-2972
-2108
1128
2916
1880
-1700
-2916
-860
1616
2484
452
-1984
-1768
384
1816
992
-1492
-1216
700
1056
400
-1240
-820
808
1240
-376
-1588
168
1344
916
-1492
-1676
1004
1816
492
-2136
-1088
1492
1468
-704
-1884
388
1680
348
-1952
-448
2000
428
-1672
-1132
1584
1808
-1108
-2152
164
2276
156
-2124
364
1880
-776
-1988
756
2184
-648
-2188
716
1936
-520
-1948
224
2172
-504
-1896
860
1608
-1096
-1656
1468
1308
-1652
-808
1820
464
-2140
52
2096
-676
-1796
1304
1372
-1760
-584
1712
-372
-1584
1252
1580
-1968
-864
1836
-336
-1088
1244
496
-1924
232
1984
-1156
-1128
1836
-272
-1844
1420
984
-1604
196
1192
-1448
-452
2212
-840
-1336
1724
-520
-1524
1836
384
-2152
1504
1056
-2684
856
1836
-1988
216
1744
-2160
52
2260
-2112
-28
1924
-1848
0
1548
-1480
220
1440
-1968
284
1544
-1768
848
1012
-2064
844
692
-1312
1072
80
-948
924
-260
-784
812
-64
-436
928
-524
-576
836
-592
104
424
-584
588
-104
-488
356
228
-464
-200
756
-628
476
436
-1456
1140
-500
-752
1860
-1112
412
480
-1836
1412
-844
-56
2024
-1744
604
-240
-1024
1572
