
[2019-10-31 17:05:09.012] [S->SB] Send_Keepalive(seq:8,len:6, time:4096)
[2019-10-31 17:05:09.020] [S->SB] Send_Keepalive(seq:8,len:6, time:4096)
[2019-10-31 17:05:10.151] [S->SB] Send_Keepalive(seq:8,len:6, time:4096)
[2019-10-31 17:05:16.141] [S->SB] Send_Keepalive(seq:8,len:6, time:4096)
[2019-10-31 17:05:16.281] s2e
[2019-10-31 17:05:17.808] 
[2019-10-31 17:05:17.810] Short Address to EUI64 table
[2019-10-31 17:05:17.812] ============================
[2019-10-31 17:05:17.814] 
[2019-10-31 17:05:17.814] vt# ifconfig
[2019-10-31 17:05:25.380] 
[2019-10-31 17:05:25.380] Bandplan   : FCC
[2019-10-31 17:05:25.383] Device     : LBS (FFD) (start time 81 sec) AC:50 Hz Pan 0xA015  Joined
[2019-10-31 17:05:25.390] Short Addr : 0x0000 (RC_COORD 0x0000)
[2019-10-31 17:05:25.393] Extended Addr : 0xABCD ABCD ABCD ABCD
[2019-10-31 17:05:25.396] 
[2019-10-31 17:05:25.396] Routing Table : [000]-[511]
[2019-10-31 17:05:25.399]                     Dest   Next_Hop  Route_Cost  Hop_Count  Weak_Link_Count
[2019-10-31 17:05:25.406] 
[2019-10-31 17:05:25.406] BlackList Table : [000]-[127]
[2019-10-31 17:05:25.408]                     Dest
[2019-10-31 17:05:25.410] 
[2019-10-31 17:05:25.410] Link Cost Penalty Table(Size 512)
[2019-10-31 17:05:25.412] No. Dest    State  Stable  TryRun  Dead  Penalty
[2019-10-31 17:05:25.420] 
[2019-10-31 17:05:25.420] RREQ History : [00]-[31]
[2019-10-31 17:05:25.424]          Dest    Ori     Seq
[2019-10-31 17:05:25.427] 
[2019-10-31 17:05:25.427] Neighbor Table : [000]-[64] TX Use Neighbor table
[2019-10-31 17:05:25.431]       TMR/Neighgor   Dest    LQI  Mod(expect) Scheme    ToneMap    TXRES TXGAIN Phase
[2019-10-31 17:05:25.435] [064](002/255 min): 0xFFFF  00/00   0/0(0)     0/0   FFFFFF/FFFFFF  0/0    0/ 0   0 FCC
[2019-10-31 17:05:25.445] 
[2019-10-31 17:05:25.445] MHR SEQ History : [00]-[15]
[2019-10-31 17:05:25.448]          Src     Seq
[2019-10-31 17:05:25.450] 
[2019-10-31 17:05:25.450] vt# 
[2019-10-31 17:05:36.056] vt# 
[2019-10-31 17:05:36.201] vt# 
[2019-10-31 17:05:36.375] vt# 