
[2019-10-31 17:12:42.965] s2e] 
[2019-10-31 17:12:44.930] 
[2019-10-31 17:12:44.930] Short Address to EUI64 table
[2019-10-31 17:12:44.935] ============================
[2019-10-31 17:12:44.937] 
[2019-10-31 17:12:44.937] vt# ifconfig
[2019-10-31 17:12:48.633] 
[2019-10-31 17:12:48.633] Bandplan   : FCC
[2019-10-31 17:12:48.634] Device     : LBS (FFD) (start time 77965 sec) AC:50 Hz Pan 0x6C5F  Joined
[2019-10-31 17:12:48.641] Short Addr : 0x0000 (RC_COORD 0x0000)
[2019-10-31 17:12:48.644] Extended Addr : 0xABCD ABCD ABCD ABCD
[2019-10-31 17:12:48.649] 
[2019-10-31 17:12:48.649] Routing Table : [000]-[511]
[2019-10-31 17:12:48.652]                     Dest   Next_Hop  Route_Cost  Hop_Count  Weak_Link_Count
[2019-10-31 17:12:48.657] 
[2019-10-31 17:12:48.657] BlackList Table : [000]-[127]
[2019-10-31 17:12:48.661]                     Dest
[2019-10-31 17:12:48.663] 
[2019-10-31 17:12:48.663] Link Cost Penalty Table(Size 512)
[2019-10-31 17:12:48.667] No. Dest    State  Stable  TryRun  Dead  Penalty
[2019-10-31 17:12:48.670] 
[2019-10-31 17:12:48.670] RREQ History : [00]-[31]
[2019-10-31 17:12:48.673]          Dest    Ori     Seq
[2019-10-31 17:12:48.676] 
[2019-10-31 17:12:48.676] Neighbor Table : [000]-[64] TX Use Neighbor table
[2019-10-31 17:12:48.682]       TMR/Neighgor   Dest    LQI  Mod(expect) Scheme    ToneMap    TXRES TXGAIN Phase
[2019-10-31 17:12:48.691] [000](000/212 min): 0x003E  00/54   0/0(2)     0/0   FFFFFF/007FC2  0/0    0/ 0   0 FCC
[2019-10-31 17:12:48.696] [001](000/164 min): 0x0054  00/2B   0/0(0)     0/0   FFFFFF/FFFFFF  0/0    0/ 0   0 FCC
[2019-10-31 17:12:48.705] [002](000/073 min): 0x0051  00/34   0/0(1)     0/0   FFFFFF/C00260  0/0    0/ 0   0 FCC
[2019-10-31 17:12:48.713] [004](000/007 min): 0x0001  00/4C   0/0(2)     0/0   FFFFFF/F81FA8  0/0    0/ 0   0 FCC
[2019-10-31 17:12:48.718] [005](000/223 min): 0x005F  00/5C   0/0(0)     0/0   FFFFFF/FFFFFF  0/0    0/ 0   0 FCC
[2019-10-31 17:12:48.726] [006](000/238 min): 0x007C  00/4C   0/0(1)     0/0   FFFFFF/FFCDC1  0/0    0/ 0   0 FCC
[2019-10-31 17:12:48.735] [007](000/242 min): 0x009E  00/58   0/0(3)     0/0   FFFFFF/F80000  0/0    0/ 0   0 FCC
[2019-10-31 17:12:48.742] [008](000/185 min): 0x00B2  00/33   0/0(1)     0/0   FFFFFF/F80001  0/0    0/ 0   0 FCC
[2019-10-31 17:12:48.752] [009](000/177 min): 0x004E  00/5E   0/0(3)     0/0   FFFFFF/FFFFFF  0/0    0/ 0   0 FCC
[2019-10-31 17:12:48.759] [010](000/057 min): 0x009B  00/38   0/0(1)     0/0   FFFFFF/000300  0/0    0/ 0   0 FCC
[2019-10-31 17:12:48.766] [011](000/197 min): 0x0020  00/5B   0/0(3)     0/0   FFFFFF/FFF07C  0/0    0/ 0   0 FCC
[2019-10-31 17:12:48.775] [012](000/206 min): 0x0072  00/5B   0/0(3)     0/0   FFFFFF/FFFFED  0/0    0/ 0   0 FCC
[2019-10-31 17:12:48.782] [013](000/215 min): 0x00C6  00/50   0/0(2)     0/0   FFFFFF/FB0224  0/0    0/ 0   0 FCC
[2019-10-31 17:12:48.788] [014](000/177 min): 0x008A  00/37   0/0(2)     0/0   FFFFFF/C07FEF  0/0    0/ 0   0 FCC
[2019-10-31 17:12:48.796] [015](000/085 min): 0x005B  00/54   0/0(2)     0/0   FFFFFF/FD79F5  0/0    0/ 0   0 FCC
[2019-10-31 17:12:48.803] [016](000/216 min): 0x0018  00/41   0/0(1)     0/0   FFFFFF/004F01  0/0    0/ 0   0 FCC
[2019-10-31 17:12:48.811] [017](000/048 min): 0x00A0  00/67   0/0(2)     0/0   FFFFFF/000240  0/0    0/ 0   0 FCC
[2019-10-31 17:12:48.821] [018](000/103 min): 0x026C  00/49   0/0(2)     0/0   FFFFFF/001FC3  0/0    0/ 0   0 FCC
[2019-10-31 17:12:48.828] [019](000/173 min): 0x002D  00/4B   0/0(2)     0/0   FFFFFF/FE0FEF  0/0    0/ 0   0 FCC
[2019-10-31 17:12:48.835] [020](000/239 min): 0x005A  00/5E   0/0(3)     0/0   FFFFFF/C03FE0  0/0    0/ 0   0 FCC
[2019-10-31 17:12:48.843] [021](000/087 min): 0x004F  00/41   0/0(0)     0/0   FFFFFF/FFFFFF  0/0    0/ 0   0 FCC
[2019-10-31 17:12:48.850] [022](000/195 min): 0x0038  00/50   0/0(2)     0/0   FFFFFF/003E00  0/0    0/ 0   0 FCC
[2019-10-31 17:12:48.860] [024](000/054 min): 0x006E  00/48   0/0(3)     0/0   FFFFFF/C03FF8  0/0    0/ 0   0 FCC
[2019-10-31 17:12:48.868] [025](000/029 min): 0x003A  00/41   0/0(0)     0/0   FFFFFF/FFFFFF  0/0    0/ 0   0 FCC
[2019-10-31 17:12:48.873] [026](000/058 min): 0x0099  00/38   0/0(0)     0/0   FFFFFF/FFFFFF  0/0    0/ 0   0 FCC
[2019-10-31 17:12:48.880] [027](000/012 min): 0x0008  00/60   0/0(0)     0/0   FFFFFF/FFFFFF  0/0    0/ 0   0 FCC
[2019-10-31 17:12:48.889] [028](000/245 min): 0x00A7  00/5C   0/0(2)     0/0   FFFFFF/FF00EF  0/0    0/ 0   0 FCC
[2019-10-31 17:12:48.895] [029](000/086 min): 0x0095  00/52   0/0(3)     0/0   FFFFFF/FFFFFF  0/0    0/ 0   0 FCC
[2019-10-31 17:12:48.904] [030](000/120 min): 0x00A4  00/5D   0/0(2)     0/0   FFFFFF/801FE3  0/0    0/ 0   0 FCC
[2019-10-31 17:12:48.912] [031](000/048 min): 0x0077  00/5F   0/0(3)     0/0   FFFFFF/FFFFFF  0/0    0/ 0   0 FCC
[2019-10-31 17:12:48.919] [032](000/122 min): 0x0041  00/35   0/0(1)     0/0   FFFFFF/002B80  0/0    0/ 0   0 FCC
[2019-10-31 17:12:48.926] [033](000/245 min): 0x006F  00/60   0/0(3)     0/0   FFFFFF/FFFFFF  0/0    0/ 0   0 FCC
[2019-10-31 17:12:48.934] [042](000/013 min): 0x0037  00/43   0/0(1)     0/0   FFFFFF/03E1C1  0/0    0/ 0   0 FCC
[2019-10-31 17:12:48.941] [046](000/057 min): 0x0084  00/5F   0/0(3)     0/0   FFFFFF/FFE007  0/0    0/ 0   0 FCC
[2019-10-31 17:12:48.950] [064](002/255 min): 0xFFFF  00/00   0/0(0)     0/0   FFFFFF/FFFFFF  0/0    0/ 0   0 FCC
[2019-10-31 17:12:48.957] 
[2019-10-31 17:12:48.957] MHR SEQ History : [00]-[15]
[2019-10-31 17:12:48.961]          Src     Seq
[2019-10-31 17:12:48.963] 
[2019-10-31 17:12:48.963] vt# route
[2019-10-31 17:12:54.820] 
[2019-10-31 17:12:54.820] Device     : LBS (FFD) Pan 0x6C5F  Joined
[2019-10-31 17:12:54.824] Short Addr : 0x0000 (RC_COORD 0x0000)
[2019-10-31 17:12:54.827] Extended Addr : 0xABCD ABCD ABCD ABCD
[2019-10-31 17:12:54.830] 
[2019-10-31 17:12:54.830] Routing Table : [000]-[511]
[2019-10-31 17:12:54.833]                     Dest   Next_Hop  Route_Cost  Hop_Count  Weak_Link_Count
[2019-10-31 17:12:54.838] 
[2019-10-31 17:12:54.838] BlackList Table : [000]-[127]
[2019-10-31 17:12:54.841]                     Dest
[2019-10-31 17:12:54.843] 
[2019-10-31 17:12:54.843] Link Cost Penalty Table(Size 512)
[2019-10-31 17:12:54.851] No. Dest    State  Stable  TryRun  Dead  Penalty
[2019-10-31 17:12:54.853] 
[2019-10-31 17:12:54.853] RREQ History : [00]-[31]
[2019-10-31 17:12:54.853]          Dest    Ori     Seq
[2019-10-31 17:12:54.859] 
[2019-10-31 17:12:54.859] vt# 