
[2019-10-31 17:16:35.860] s2e
[2019-10-31 17:16:37.118] 
[2019-10-31 17:16:37.118] Short Address to EUI64 table
[2019-10-31 17:16:37.123] ============================
[2019-10-31 17:16:37.124] 
[2019-10-31 17:16:37.124] vt# ifconfig
[2019-10-31 17:16:40.682] 
[2019-10-31 17:16:40.682] Bandplan   : FCC
[2019-10-31 17:16:40.685] Device     : LBS (FFD) (start time 78550 sec) AC:50 Hz Pan 0x1C51  Joined
[2019-10-31 17:16:40.690] Short Addr : 0x0000 (RC_COORD 0x0000)
[2019-10-31 17:16:40.692] Extended Addr : 0xABCD ABCD ABCD ABCD
[2019-10-31 17:16:40.696] 
[2019-10-31 17:16:40.696] Routing Table : [000]-[511]
[2019-10-31 17:16:40.699]                     Dest   Next_Hop  Route_Cost  Hop_Count  Weak_Link_Count
[2019-10-31 17:16:40.706] 
[2019-10-31 17:16:40.706] BlackList Table : [000]-[127]
[2019-10-31 17:16:40.708]                     Dest
[2019-10-31 17:16:40.710] 
[2019-10-31 17:16:40.710] Link Cost Penalty Table(Size 512)
[2019-10-31 17:16:40.714] No. Dest    State  Stable  TryRun  Dead  Penalty
[2019-10-31 17:16:40.718] 
[2019-10-31 17:16:40.718] RREQ History : [00]-[31]
[2019-10-31 17:16:40.721]          Dest    Ori     Seq
[2019-10-31 17:16:40.724] 
[2019-10-31 17:16:40.724] Neighbor Table : [000]-[64] TX Use Neighbor table
[2019-10-31 17:16:40.728]       TMR/Neighgor   Dest    LQI  Mod(expect) Scheme    ToneMap    TXRES TXGAIN Phase
[2019-10-31 17:16:40.736] [000](000/027 min): 0x00CA  00/52   0/0(0)     0/0   FFFFFF/FFFFFF  0/0    0/ 0   0 FCC
[2019-10-31 17:16:40.743] [001](000/034 min): 0x0097  00/5D   0/0(3)     0/0   FFFFFF/FFFFFF  0/0    0/ 0   0 FCC
[2019-10-31 17:16:40.752] [002](000/161 min): 0x0037  00/63   0/0(3)     0/0   FFFFFF/FFFFFF  0/0    0/ 0   0 FCC
[2019-10-31 17:16:40.761] [003](000/233 min): 0x0009  00/5B   0/0(3)     0/0   FFFFFF/407F40  0/0    0/ 0   0 FCC
[2019-10-31 17:16:40.768] [004](000/003 min): 0x004D  00/40   0/0(2)     0/0   FFFFFF/000F00  0/0    0/ 0   0 FCC
[2019-10-31 17:16:40.774] [005](000/161 min): 0x0054  00/5F   0/0(3)     0/0   FFFFFF/FFFFFF  0/0    0/ 0   0 FCC
[2019-10-31 17:16:40.782] [006](000/200 min): 0x00AB  00/2B   0/0(0)     0/0   FFFFFF/FFFFFF  0/0    0/ 0   0 FCC
[2019-10-31 17:16:40.791] [007](000/082 min): 0x0080  00/5C   0/0(3)     0/0   FFFFFF/FFFFFF  0/0    0/ 0   0 FCC
[2019-10-31 17:16:40.797] [008](000/013 min): 0x001C  00/55   0/0(3)     0/0   FFFFFF/001E40  0/0    0/ 0   0 FCC
[2019-10-31 17:16:40.804] [009](000/238 min): 0x0022  00/67   0/0(3)     0/0   FFFFFF/4FFFCF  0/0    0/ 0   0 FCC
[2019-10-31 17:16:40.812] [010](000/050 min): 0x006B  00/6A   0/0(3)     0/0   FFFFFF/FFFFFF  0/0    0/ 0   0 FCC
[2019-10-31 17:16:40.822] [011](000/025 min): 0x0001  00/41   0/0(1)     0/0   FFFFFF/000720  0/0    0/ 0   0 FCC
[2019-10-31 17:16:40.828] [012](000/025 min): 0x001B  00/3D   0/0(2)     0/0   FFFFFF/ECE400  0/0    0/ 0   0 FCC
[2019-10-31 17:16:40.838] [013](000/034 min): 0x0056  00/2C   0/0(0)     0/0   FFFFFF/FFFFFF  0/0    0/ 0   0 FCC
[2019-10-31 17:16:40.844] [014](000/093 min): 0x00B2  00/29   0/0(1)     0/0   FFFFFF/000500  0/0    0/ 0   0 FCC
[2019-10-31 17:16:40.853] [015](000/172 min): 0x008B  00/3B   0/0(2)     0/0   FFFFFF/CE8001  0/0    0/ 0   0 FCC
[2019-10-31 17:16:40.860] [016](000/034 min): 0x0094  00/3C   0/0(0)     0/0   FFFFFF/FFFFFF  0/0    0/ 0   0 FCC
[2019-10-31 17:16:40.869] [017](000/051 min): 0x0078  00/3D   0/0(0)     0/0   FFFFFF/FFFFFF  0/0    0/ 0   0 FCC
[2019-10-31 17:16:40.876] [018](000/182 min): 0x0029  00/4E   0/0(2)     0/0   FFFFFF/CEA802  0/0    0/ 0   0 FCC
[2019-10-31 17:16:40.881] [019](000/179 min): 0x0025  00/49   0/0(1)     0/0   FFFFFF/006600  0/0    0/ 0   0 FCC
[2019-10-31 17:16:40.892] [020](000/189 min): 0x00D3  00/54   0/0(3)     0/0   FFFFFF/FFFF0F  0/0    0/ 0   0 FCC
[2019-10-31 17:16:40.899] [021](000/205 min): 0x00A7  00/1C   0/0(0)     0/0   FFFFFF/FFFFFF  0/0    0/ 0   0 FCC
[2019-10-31 17:16:40.906] [022](000/243 min): 0x002D  00/5B   0/0(3)     0/0   FFFFFF/EFFFEF  0/0    0/ 0   0 FCC
[2019-10-31 17:16:40.914] [023](000/049 min): 0x008F  00/35   0/0(0)     0/0   FFFFFF/FFFFFF  0/0    0/ 0   0 FCC
[2019-10-31 17:16:40.923] [024](000/199 min): 0x0008  00/62   0/0(2)     0/0   FFFFFF/001186  0/0    0/ 0   0 FCC
[2019-10-31 17:16:40.930] [025](000/209 min): 0x008A  00/62   0/0(2)     0/0   FFFFFF/4F3C00  0/0    0/ 0   0 FCC
[2019-10-31 17:16:40.938] [026](000/053 min): 0x0032  00/1C   0/0(0)     0/0   FFFFFF/FFFFFF  0/0    0/ 0   0 FCC
[2019-10-31 17:16:40.946] [027](000/219 min): 0x007C  00/2C   0/0(2)     0/0   FFFFFF/840001  0/0    0/ 0   0 FCC
[2019-10-31 17:16:40.955] [028](000/091 min): 0x0084  00/21   0/0(0)     0/0   FFFFFF/FFFFFF  0/0    0/ 0   0 FCC
[2019-10-31 17:16:40.959] [029](000/014 min): 0x0018  00/38   0/0(2)     0/0   FFFFFF/000E00  0/0    0/ 0   0 FCC
[2019-10-31 17:16:40.968] [030](000/108 min): 0x0036  00/3C   0/0(0)     0/0   FFFFFF/FFFFFF  0/0    0/ 0   0 FCC
[2019-10-31 17:16:40.977] [031](000/131 min): 0x0003  00/1C   0/0(0)     0/0   FFFFFF/FFFFFF  0/0    0/ 0   0 FCC
[2019-10-31 17:16:40.983] [032](000/224 min): 0x0095  00/2F   0/0(1)     0/0   FFFFFF/0021C0  0/0    0/ 0   0 FCC
[2019-10-31 17:16:40.992] [033](000/227 min): 0x002F  00/52   0/0(0)     0/0   FFFFFF/FFFFFF  0/0    0/ 0   0 FCC
[2019-10-31 17:16:40.998] [034](000/228 min): 0x004E  00/2F   0/0(2)     0/0   FFFFFF/006FE7  0/0    0/ 0   0 FCC
[2019-10-31 17:16:41.007] [064](002/255 min): 0xFFFF  00/00   0/0(0)     0/0   FFFFFF/FFFFFF  0/0    0/ 0   0 FCC
[2019-10-31 17:16:41.015] 
[2019-10-31 17:16:41.015] MHR SEQ History : [00]-[15]
[2019-10-31 17:16:41.018]          Src     Seq
[2019-10-31 17:16:41.020] 
[2019-10-31 17:16:41.020] vt# 