
[2019-10-31 17:18:35.211] s2e
[2019-10-31 17:18:36.439] 
[2019-10-31 17:18:36.439] Short Address to EUI64 table
[2019-10-31 17:18:36.441] ============================
[2019-10-31 17:18:36.443] 
[2019-10-31 17:18:36.443] vt# ifv congi  fig
[2019-10-31 17:18:41.983] 
[2019-10-31 17:18:41.983] Bandplan   : FCC
[2019-10-31 17:18:41.986] Device     : LBS (FFD) (start time 78877 sec) AC:50 Hz Pan 0x781D  Joined
[2019-10-31 17:18:41.990] Short Addr : 0x0000 (RC_COORD 0x0000)
[2019-10-31 17:18:41.995] Extended Addr : 0xABCD ABCD ABCD ABCD
[2019-10-31 17:18:41.998] 
[2019-10-31 17:18:41.998] Routing Table : [000]-[511]
[2019-10-31 17:18:42.002]                     Dest   Next_Hop  Route_Cost  Hop_Count  Weak_Link_Count
[2019-10-31 17:18:42.006] 
[2019-10-31 17:18:42.008] BlackList Table : [000]-[127]
[2019-10-31 17:18:42.010]                     Dest
[2019-10-31 17:18:42.013] 
[2019-10-31 17:18:42.013] Link Cost Penalty Table(Size 512)
[2019-10-31 17:18:42.015] No. Dest    State  Stable  TryRun  Dead  Penalty
[2019-10-31 17:18:42.020] 
[2019-10-31 17:18:42.020] RREQ History : [00]-[31]
[2019-10-31 17:18:42.024]          Dest    Ori     Seq
[2019-10-31 17:18:42.026] 
[2019-10-31 17:18:42.026] Neighbor Table : [000]-[64] TX Use Neighbor table
[2019-10-31 17:18:42.031]       TMR/Neighgor   Dest    LQI  Mod(expect) Scheme    ToneMap    TXRES TXGAIN Phase
[2019-10-31 17:18:42.038] [000](000/038 min): 0x0022  00/58   0/0(2)     0/0   FFFFFF/FF80FF  0/0    0/ 0   0 FCC
[2019-10-31 17:18:42.046] [001](000/252 min): 0x007D  00/3C   0/0(3)     0/0   FFFFFF/001BC0  0/0    0/ 0   0 FCC
[2019-10-31 17:18:42.055] [002](000/041 min): 0x0031  00/21   0/0(0)     0/0   FFFFFF/FFFFFF  0/0    0/ 0   0 FCC
[2019-10-31 17:18:42.061] [003](000/023 min): 0x006E  00/5B   0/0(3)     0/0   FFFFFF/001FE0  0/0    0/ 0   0 FCC
[2019-10-31 17:18:42.068] [004](000/186 min): 0x0012  00/2A   0/0(0)     0/0   FFFFFF/FFFFFF  0/0    0/ 0   0 FCC
[2019-10-31 17:18:42.077] [005](000/192 min): 0x0056  00/4F   0/0(0)     0/0   FFFFFF/FFFFFF  0/0    0/ 0   0 FCC
[2019-10-31 17:18:42.083] [006](000/241 min): 0x0077  00/30   0/0(1)     0/0   FFFFFF/570100  0/0    0/ 0   0 FCC
[2019-10-31 17:18:42.092] [007](000/252 min): 0x009F  00/29   0/0(0)     0/0   FFFFFF/FFFFFF  0/0    0/ 0   0 FCC
[2019-10-31 17:18:42.101] [008](000/040 min): 0x0013  00/40   0/0(2)     0/0   FFFFFF/007100  0/0    0/ 0   0 FCC
[2019-10-31 17:18:42.109] [009](000/171 min): 0x00AB  00/45   0/0(0)     0/0   FFFFFF/FFFFFF  0/0    0/ 0   0 FCC
[2019-10-31 17:18:42.117] [010](000/061 min): 0x0057  00/3C   0/0(1)     0/0   FFFFFF/000005  0/0    0/ 0   0 FCC
[2019-10-31 17:18:42.125] [011](000/065 min): 0x006F  00/60   0/0(2)     0/0   FFFFFF/22AA80  0/0    0/ 0   0 FCC
[2019-10-31 17:18:42.130] [012](000/248 min): 0x0025  00/54   0/0(3)     0/0   FFFFFF/17FBC5  0/0    0/ 0   0 FCC
[2019-10-31 17:18:42.139] [013](000/194 min): 0x00B0  00/54   0/0(1)     0/0   FFFFFF/001FC4  0/0    0/ 0   0 FCC
[2019-10-31 17:18:42.148] [014](000/194 min): 0x0037  00/42   0/0(2)     0/0   FFFFFF/FA0001  0/0    0/ 0   0 FCC
[2019-10-31 17:18:42.154] [016](000/078 min): 0x0055  00/53   0/0(3)     0/0   FFFFFF/FFEAEB  0/0    0/ 0   0 FCC
[2019-10-31 17:18:42.161] [017](000/049 min): 0x061E  00/5E   0/0(3)     0/0   FFFFFF/FDFFFF  0/0    0/ 0   0 FCC
[2019-10-31 17:18:42.171] [018](000/169 min): 0x0028  00/46   0/0(0)     0/0   FFFFFF/FFFFFF  0/0    0/ 0   0 FCC
[2019-10-31 17:18:42.178] [019](000/173 min): 0x004E  00/5D   0/0(3)     0/0   FFFFFF/FFAAAA  0/0    0/ 0   0 FCC
[2019-10-31 17:18:42.187] [020](000/119 min): 0x0059  00/49   0/0(0)     0/0   FFFFFF/FFFFFF  0/0    0/ 0   0 FCC
[2019-10-31 17:18:42.191] [021](000/202 min): 0x0041  00/40   0/0(2)     0/0   FFFFFF/00BB80  0/0    0/ 0   0 FCC
[2019-10-31 17:18:42.201] [022](000/202 min): 0x005C  00/51   0/0(2)     0/0   FFFFFF/000284  0/0    0/ 0   0 FCC
[2019-10-31 17:18:42.209] [024](000/221 min): 0x008B  00/6B   0/0(3)     0/0   FFFFFF/FFFFFF  0/0    0/ 0   0 FCC
[2019-10-31 17:18:42.216] [026](000/025 min): 0x0006  00/35   0/0(1)     0/0   FFFFFF/003000  0/0    0/ 0   0 FCC
[2019-10-31 17:18:42.223] [027](000/112 min): 0x00B8  00/56   0/0(3)     0/0   FFFFFF/057BC5  0/0    0/ 0   0 FCC
[2019-10-31 17:18:42.230] [028](000/122 min): 0x0018  00/4B   0/0(2)     0/0   FFFFFF/0577C5  0/0    0/ 0   0 FCC
[2019-10-31 17:18:42.239] [030](000/026 min): 0x00B1  00/2D   0/0(1)     0/0   FFFFFF/400020  0/0    0/ 0   0 FCC
[2019-10-31 17:18:42.248] [031](000/193 min): 0x0001  00/5E   0/0(1)     0/0   FFFFFF/001F40  0/0    0/ 0   0 FCC
[2019-10-31 17:18:42.256] [032](000/031 min): 0x001B  00/4F   0/0(2)     0/0   FFFFFF/F80006  0/0    0/ 0   0 FCC
[2019-10-31 17:18:42.263] [034](000/138 min): 0x004A  00/4C   0/0(2)     0/0   FFFFFF/1E0000  0/0    0/ 0   0 FCC
[2019-10-31 17:18:42.269] [036](000/209 min): 0x00B3  00/5E   0/0(1)     0/0   FFFFFF/500460  0/0    0/ 0   0 FCC
[2019-10-31 17:18:42.277] [037](000/098 min): 0x0095  00/4F   0/0(0)     0/0   FFFFFF/FFFFFF  0/0    0/ 0   0 FCC
[2019-10-31 17:18:42.285] [038](000/138 min): 0x0600  00/4E   0/0(3)     0/0   FFFFFF/0013C0  0/0    0/ 0   0 FCC
[2019-10-31 17:18:42.294] [039](000/052 min): 0x00A6  00/45   0/0(2)     0/0   FFFFFF/003BC4  0/0    0/ 0   0 FCC
[2019-10-31 17:18:42.300] [040](000/067 min): 0x0032  00/5C   0/0(0)     0/0   FFFFFF/FFFFFF  0/0    0/ 0   0 FCC
[2019-10-31 17:18:42.309] [041](000/204 min): 0x0054  00/4F   0/0(2)     0/0   FFFFFF/7FAA81  0/0    0/ 0   0 FCC
[2019-10-31 17:18:42.317] [042](000/117 min): 0x0084  00/67   0/0(3)     0/0   FFFFFF/FFF7E5  0/0    0/ 0   0 FCC
[2019-10-31 17:18:42.324] [044](000/150 min): 0x0094  00/36   0/0(2)     0/0   FFFFFF/001D84  0/0    0/ 0   0 FCC
[2019-10-31 17:18:42.331] [045](000/032 min): 0x002D  00/55   0/0(2)     0/0   FFFFFF/FFE3A4  0/0    0/ 0   0 FCC
[2019-10-31 17:18:42.338] [046](000/025 min): 0x0547  00/49   0/0(3)     0/0   FFFFFF/003FE4  0/0    0/ 0   0 FCC
[2019-10-31 17:18:42.346] [047](000/135 min): 0x0082  00/60   0/0(3)     0/0   FFFFFF/FFF7FD  0/0    0/ 0   0 FCC
[2019-10-31 17:18:42.356] [048](000/169 min): 0x007B  00/51   0/0(2)     0/0   FFFFFF/7683C1  0/0    0/ 0   0 FCC
[2019-10-31 17:18:42.363] [049](000/138 min): 0x002A  00/5B   0/0(2)     0/0   FFFFFF/0473C4  0/0    0/ 0   0 FCC
[2019-10-31 17:18:42.371] [064](002/255 min): 0xFFFF  00/00   0/0(0)     0/0   FFFFFF/FFFFFF  0/0    0/ 0   0 FCC
[2019-10-31 17:18:42.379] 
[2019-10-31 17:18:42.379] MHR SEQ History : [00]-[15]
[2019-10-31 17:18:42.382]          Src     Seq
[2019-10-31 17:18:42.384] [00]     000002feff388753     157
[2019-10-31 17:18:42.387] 
[2019-10-31 17:18:42.387] vt# 