
vt#
Route discovery to 0x00a9 success!!
s2e
LBS Short Address to EUI64 Next hop address Table        valid
================================
[00]0x006c    0x65 0x50 0x07 0xff 0xfe 0x02 0x00 0x00     1
[01]0x005b    0x66 0x50 0x07 0xff 0xfe 0x02 0x00 0x00     1
[02]0x00a9    0x67 0x50 0x07 0xff 0xfe 0x02 0x00 0x00     1
[03]0x0012    0x68 0x50 0x07 0xff 0xfe 0x02 0x00 0x00     1
[04]0x0094    0x69 0x50 0x07 0xff 0xfe 0x02 0x00 0x00     1
[05]0x00ab    0x70 0x50 0x07 0xff 0xfe 0x02 0x00 0x00     1
[06]0x0075    0x71 0x50 0x07 0xff 0xfe 0x02 0x00 0x00     1
[07]0x008c    0x72 0x50 0x07 0xff 0xfe 0x02 0x00 0x00     1
[08]0x0065    0x73 0x50 0x07 0xff 0xfe 0x02 0x00 0x00     1
[09]0x00b2    0x74 0x50 0x07 0xff 0xfe 0x02 0x00 0x00     1
[10]0x0045    0x75 0x50 0x07 0xff 0xfe 0x02 0x00 0x00     1
[11]0x0069    0x76 0x50 0x07 0xff 0xfe 0x02 0x00 0x00     1
[12]0x00ad    0x91 0x59 0x07 0xff 0xfe 0x02 0x00 0x00     1
[13]0x002b    0x93 0x59 0x07 0xff 0xfe 0x02 0x00 0x00     1
[14]0x00b8    0x94 0x59 0x07 0xff 0xfe 0x02 0x00 0x00     1
[15]0x00b7    0x95 0x59 0x07 0xff 0xfe 0x02 0x00 0x00     1
[16]0x0019    0x96 0x59 0x07 0xff 0xfe 0x02 0x00 0x00     1
[17]0x00a4    0x97 0x59 0x07 0xff 0xfe 0x02 0x00 0x00     1
[18]0x00bd    0x98 0x59 0x07 0xff 0xfe 0x02 0x00 0x00     1
[19]0x0086    0x99 0x59 0x07 0xff 0xfe 0x02 0x00 0x00     1
[20]0x005e    0x00 0x60 0x07 0xff 0xfe 0x02 0x00 0x00     1
[21]0x007a    0x01 0x60 0x07 0xff 0xfe 0x02 0x00 0x00     1
[22]0x0095    0x02 0x60 0x07 0xff 0xfe 0x02 0x00 0x00     1
[23]0x002a    0x05 0x67 0x07 0xff 0xfe 0x02 0x00 0x00     1
[24]0x0038    0x07 0x67 0x07 0xff 0xfe 0x02 0x00 0x00     1
[25]0x00bf    0x08 0x67 0x07 0xff 0xfe 0x02 0x00 0x00     1
[26]0x0064    0x09 0x67 0x07 0xff 0xfe 0x02 0x00 0x00     1
[27]0x0079    0x67 0x72 0x07 0xff 0xfe 0x02 0x00 0x00     1
[28]0x008d    0x68 0x72 0x07 0xff 0xfe 0x02 0x00 0x00     1
[29]0x0087    0x69 0x72 0x07 0xff 0xfe 0x02 0x00 0x00     1
[30]0x008a    0x70 0x72 0x07 0xff 0xfe 0x02 0x00 0x00     1
[31]0x0062    0x71 0x72 0x07 0xff 0xfe 0x02 0x00 0x00     1
[32]0x003f    0x72 0x72 0x07 0xff 0xfe 0x02 0x00 0x00     1
[33]0x0041    0x73 0x72 0x07 0xff 0xfe 0x02 0x00 0x00     1
[34]0x00ba    0x74 0x72 0x07 0xff 0xfe 0x02 0x00 0x00     1
[35]0x0088    0x75 0x72 0x07 0xff 0xfe 0x02 0x00 0x00     1
[36]0x005a    0x76 0x72 0x07 0xff 0xfe 0x02 0x00 0x00     1
[37]0x00a5    0x77 0x72 0x07 0xff 0xfe 0x02 0x00 0x00     1
[38]0x0023    0x78 0x72 0x07 0xff 0xfe 0x02 0x00 0x00     1
[39]0x0096    0x01 0x77 0x07 0xff 0xfe 0x02 0x00 0x00     1
[40]0x009c    0x02 0x77 0x07 0xff 0xfe 0x02 0x00 0x00     1
[41]0x00b3    0x03 0x77 0x07 0xff 0xfe 0x02 0x00 0x00     1
[42]0x0013    0x04 0x77 0x07 0xff 0xfe 0x02 0x00 0x00     1
[43]0x0098    0x05 0x77 0x07 0xff 0xfe 0x02 0x00 0x00     1
[44]0x0080    0x06 0x77 0x07 0xff 0xfe 0x02 0x00 0x00     1
[45]0x00a1    0x08 0x77 0x07 0xff 0xfe 0x02 0x00 0x00     1
[46]0x0037    0x09 0x77 0x07 0xff 0xfe 0x02 0x00 0x00     1
[47]0x004e    0x10 0x77 0x07 0xff 0xfe 0x02 0x00 0x00     1
[48]0x000f    0x11 0x77 0x07 0xff 0xfe 0x02 0x00 0x00     1
[49]0x0076    0x12 0x77 0x07 0xff 0xfe 0x02 0x00 0x00     1
[50]0x0042    0x44 0x77 0x07 0xff 0xfe 0x02 0x00 0x00     1
[51]0x0058    0x45 0x77 0x07 0xff 0xfe 0x02 0x00 0x00     1
[52]0x004d    0x46 0x77 0x07 0xff 0xfe 0x02 0x00 0x00     1
[53]0x0091    0x47 0x77 0x07 0xff 0xfe 0x02 0x00 0x00     1
[54]0x0078    0x48 0x77 0x07 0xff 0xfe 0x02 0x00 0x00     1
[55]0x0074    0x49 0x77 0x07 0xff 0xfe 0x02 0x00 0x00     1
[56]0x000d    0x59 0x28 0x10 0xff 0xfe 0x02 0x00 0x00     1
[57]0x0050    0x04 0x42 0x10 0xff 0xfe 0x02 0x00 0x00     1
[58]0x00ac    0x05 0x42 0x10 0xff 0xfe 0x02 0x00 0x00     1
[59]0x005d    0x06 0x42 0x10 0xff 0xfe 0x02 0x00 0x00     1
[60]0x00bb    0x07 0x42 0x10 0xff 0xfe 0x02 0x00 0x00     1
[61]0x0047    0x32 0x42 0x10 0xff 0xfe 0x02 0x00 0x00     1
[62]0x0006    0x33 0x42 0x10 0xff 0xfe 0x02 0x00 0x00     1
[63]0x00ae    0x34 0x42 0x10 0xff 0xfe 0x02 0x00 0x00     1
[64]0x0077    0x35 0x42 0x10 0xff 0xfe 0x02 0x00 0x00     1
[65]0x0073    0x36 0x42 0x10 0xff 0xfe 0x02 0x00 0x00     1
[66]0x0027    0x37 0x42 0x10 0xff 0xfe 0x02 0x00 0x00     1
[67]0x009b    0x38 0x42 0x10 0xff 0xfe 0x02 0x00 0x00     1
[68]0x004c    0x39 0x42 0x10 0xff 0xfe 0x02 0x00 0x00     1
[69]0x0046    0x40 0x42 0x10 0xff 0xfe 0x02 0x00 0x00     1
[70]0x002e    0x41 0x42 0x10 0xff 0xfe 0x02 0x00 0x00     1
[71]0x005c    0x42 0x42 0x10 0xff 0xfe 0x02 0x00 0x00     1
[72]0x006d    0x43 0x42 0x10 0xff 0xfe 0x02 0x00 0x00     1
[73]0x0029    0x44 0x42 0x10 0xff 0xfe 0x02 0x00 0x00     1
[74]0x0002    0x45 0x42 0x10 0xff 0xfe 0x02 0x00 0x00     1
[75]0x0052    0x46 0x42 0x10 0xff 0xfe 0x02 0x00 0x00     1
[76]0x0032    0x47 0x42 0x10 0xff 0xfe 0x02 0x00 0x00     1
[77]0x001e    0x48 0x42 0x10 0xff 0xfe 0x02 0x00 0x00     1
[78]0x0071    0x49 0x42 0x10 0xff 0xfe 0x02 0x00 0x00     1
[79]0x002f    0x50 0x42 0x10 0xff 0xfe 0x02 0x00 0x00     1
[80]0x008f    0x51 0x42 0x10 0xff 0xfe 0x02 0x00 0x00     1
[81]0x0090    0x54 0x59 0x10 0xff 0xfe 0x02 0x00 0x00     1
[82]0x00b6    0x55 0x59 0x10 0xff 0xfe 0x02 0x00 0x00     1
[83]0x00bc    0x56 0x59 0x10 0xff 0xfe 0x02 0x00 0x00     1
[84]0x0089    0x59 0x59 0x10 0xff 0xfe 0x02 0x00 0x00     1
[85]0x00b9    0x60 0x59 0x10 0xff 0xfe 0x02 0x00 0x00     1
[86]0x0035    0x61 0x59 0x10 0xff 0xfe 0x02 0x00 0x00     1
[87]0x00a0    0x62 0x59 0x10 0xff 0xfe 0x02 0x00 0x00     1
[88]0x0043    0x63 0x59 0x10 0xff 0xfe 0x02 0x00 0x00     1
[89]0x00a8    0x64 0x59 0x10 0xff 0xfe 0x02 0x00 0x00     1
[90]0x00af    0x65 0x59 0x10 0xff 0xfe 0x02 0x00 0x00     1
[91]0x00a6    0x66 0x59 0x10 0xff 0xfe 0x02 0x00 0x00     1
[92]0x002c    0x67 0x59 0x10 0xff 0xfe 0x02 0x00 0x00     1
[93]0x0001    0x25 0x61 0x10 0xff 0xfe 0x02 0x00 0x00     1
[94]0x0010    0x26 0x61 0x10 0xff 0xfe 0x02 0x00 0x00     1
[95]0x0009    0x27 0x61 0x10 0xff 0xfe 0x02 0x00 0x00     1
[96]0x0022    0x28 0x61 0x10 0xff 0xfe 0x02 0x00 0x00     1
[97]0x0063    0x29 0x61 0x10 0xff 0xfe 0x02 0x00 0x00     1
[98]0x006e    0x30 0x61 0x10 0xff 0xfe 0x02 0x00 0x00     1
[99]0x0003    0x31 0x61 0x10 0xff 0xfe 0x02 0x00 0x00     1
[100]0x001b    0x32 0x61 0x10 0xff 0xfe 0x02 0x00 0x00     1
[101]0x003a    0x33 0x61 0x10 0xff 0xfe 0x02 0x00 0x00     1
[102]0x007f    0x34 0x61 0x10 0xff 0xfe 0x02 0x00 0x00     1
[103]0x001c    0x35 0x61 0x10 0xff 0xfe 0x02 0x00 0x00     1
[104]0x005f    0x36 0x61 0x10 0xff 0xfe 0x02 0x00 0x00     1
[105]0x008e    0x39 0x61 0x10 0xff 0xfe 0x02 0x00 0x00     1
[106]0x0015    0x40 0x61 0x10 0xff 0xfe 0x02 0x00 0x00     1
[107]0x009d    0x41 0x61 0x10 0xff 0xfe 0x02 0x00 0x00     1
[108]0x0039    0x43 0x61 0x10 0xff 0xfe 0x02 0x00 0x00     1
[109]0x0021    0x44 0x61 0x10 0xff 0xfe 0x02 0x00 0x00     1
[110]0x009a    0x45 0x61 0x10 0xff 0xfe 0x02 0x00 0x00     1
[111]0x0040    0x46 0x61 0x10 0xff 0xfe 0x02 0x00 0x00     1
[112]0x0099    0x47 0x61 0x10 0xff 0xfe 0x02 0x00 0x00     1
[113]0x009f    0x48 0x61 0x10 0xff 0xfe 0x02 0x00 0x00     1
[114]0x004b    0x49 0x61 0x10 0xff 0xfe 0x02 0x00 0x00     1
[115]0x0097    0x91 0x61 0x10 0xff 0xfe 0x02 0x00 0x00     1
[116]0x00aa    0x92 0x61 0x10 0xff 0xfe 0x02 0x00 0x00     1
[117]0x00a2    0x99 0x61 0x10 0xff 0xfe 0x02 0x00 0x00     1
[118]0x00b1    0x00 0x62 0x10 0xff 0xfe 0x02 0x00 0x00     1
[119]0x0048    0x01 0x62 0x10 0xff 0xfe 0x02 0x00 0x00     1
[120]0x0072    0x02 0x62 0x10 0xff 0xfe 0x02 0x00 0x00     1
[121]0x0004    0x03 0x62 0x10 0xff 0xfe 0x02 0x00 0x00     1
[122]0x008b    0x04 0x62 0x10 0xff 0xfe 0x02 0x00 0x00     1
[123]0x004a    0x06 0x62 0x10 0xff 0xfe 0x02 0x00 0x00     1
[124]0x0051    0x07 0x62 0x10 0xff 0xfe 0x02 0x00 0x00     1
[125]0x00b4    0x08 0x62 0x10 0xff 0xfe 0x02 0x00 0x00     1
[126]0x000e    0x09 0x62 0x10 0xff 0xfe 0x02 0x00 0x00     1
[127]0x0061    0x10 0x62 0x10 0xff 0xfe 0x02 0x00 0x00     1
[128]0x002d    0x12 0x62 0x10 0xff 0xfe 0x02 0x00 0x00     1
[129]0x0084    0x13 0x62 0x10 0xff 0xfe 0x02 0x00 0x00     1
[130]0x003c    0x15 0x62 0x10 0xff 0xfe 0x02 0x00 0x00     1
[131]0x001f    0x16 0x62 0x10 0xff 0xfe 0x02 0x00 0x00     1
[132]0x0057    0x17 0x62 0x10 0xff 0xfe 0x02 0x00 0x00     1
[133]0x000a    0x05 0x36 0x15 0xff 0xfe 0x02 0x00 0x00     1
[134]0x0031    0x15 0x43 0x15 0xff 0xfe 0x02 0x00 0x00     1
[135]0x0030    0x16 0x43 0x15 0xff 0xfe 0x02 0x00 0x00     1
[136]0x00b0    0x17 0x43 0x15 0xff 0xfe 0x02 0x00 0x00     1
[137]0x00c0    0x18 0x43 0x15 0xff 0xfe 0x02 0x00 0x00     1
[138]0x007e    0x19 0x43 0x15 0xff 0xfe 0x02 0x00 0x00     1
[139]0x0049    0x20 0x43 0x15 0xff 0xfe 0x02 0x00 0x00     1
[140]0x007b    0x22 0x43 0x15 0xff 0xfe 0x02 0x00 0x00     1
[141]0x007c    0x39 0x57 0x24 0xff 0xfe 0x02 0x00 0x00     1
[142]0x004f    0x44 0x61 0x24 0xff 0xfe 0x02 0x00 0x00     1
[143]0x00c1    0x53 0x87 0x38 0xff 0xfe 0x02 0x00 0x00     1


vt# route
Route discovery requset usage:
route a [short addr 0x??]
Routing Table : [000]-[099]
                    Dest   Next_Hop  Cost  Hop_Count  Weak  EUI64
[001](65317m36s):  0x000a   0x001c  0x01f0   6   1
[002](65392m50s):  0x00b0   0x008b  0x0259   8   2
[003](65532m47s):  0x00ad   0x008b  0x011e   2   1
[004](65459m26s):  0x005d   0x007f  0x0047   2   1
[005](65393m39s):  0x007b   0x008b  0x0424   8   3
[006](65473m36s):  0x00ba   0x0022  0x0037   2   0
[007](65409m21s):  0x0031   0x0001  0x0043   2   1
[008](65525m48s):  0x0022   0x0022  0x001c   1   0
[009](65524m01s):  0x003a   0x003a  0x00ff   1   1
[010](65531m05s):  0x0065   0x00c1  0x0033   2   0
[011](65528m47s):  0x0061   0x00b4  0x0035   2   0
[012](65401m29s):  0x005a   0x0032  0x015f   3   2
[013](65365m33s):  0x0072   0x0013  0x016c   4   1
[014](65525m55s):  0x002c   0x006e  0x0135   3   1
[015](65524m45s):  0x00bc   0x0043  0x011c   2   1
[016](65459m24s):  0x007f   0x007f  0x001d   1   0
[017](65525m57s):  0x0035   0x008b  0x011d   2   1
[018](65526m24s):  0x00af   0x00aa  0x0076   3   0
[019](65530m14s):  0x004f   0x00b4  0x0033   2   0
[020](65520m18s):  0x00a1   0x004a  0x0117   2   1
[021](65395m20s):  0x00b2   0x006e  0x0276   4   3
[022](65479m33s):  0x006d   0x008b  0x01c6   5   1
[023](65533m39s):  0x007a   0x00c1  0x0044   2   1
[024](65224m14s):  0x0069   0x000f  0x011e   2   1
[025](65524m32s):  0x00b6   0x008b  0x0138   3   1
[026](65357m36s):  0x004d   0x004d  0x002a   1   1
[027](65473m54s):  0x003f   0x0001  0x0034   2   0
[028](65435m39s):  0x0097   0x008b  0x01c3   5   1
[029](65088m17s):  0x0098   0x006e  0x0504   8   4
[030](65431m24s):  0x001f   0x001f  0x00ff   1   1
[031](65512m55s):  0x0004   0x001c  0x016f   4   1
[032](65441m11s):  0x0050   0x001c  0x0252   4   2
[033](65401m29s):  0x0088   0x006e  0x0151   3   1
[034](65530m12s):  0x00b4   0x00b4  0x0018   1   0
[035](65399m25s):  0x00b7   0x0001  0x0081   3   1
[036](65346m36s):  0x008c   0x001f  0x0141   3   2
[037](65522m00s):  0x0077   0x0043  0x0071   3   0
[038](65426m33s):  0x0046   0x001c  0x0189   4   1
[039](65503m25s):  0x0086   0x001c  0x0062   3   1
[040](65526m46s):  0x005f   0x008b  0x0115   2   1
[041](65451m08s):  0x00c0   0x0037  0x0039   2   0
[042](65534m38s):  0x00c1   0x00c1  0x002a   1   1
[043](65308m15s):  0x002a   0x006e  0x0276   4   3
[044](65451m10s):  0x007e   0x001c  0x027d   4   3
[045](65453m40s):  0x0045   0x001b  0x0045   2   1
[046](65453m24s):  0x0075   0x008b  0x018e   4   1
[047](65440m05s):  0x00bf   0x008b  0x02d9   6   2
[048](65430m57s):  0x00b1   0x006e  0x0135   3   1
[049](65241m54s):  0x0029   0x008b  0x030e   7   2
[050](65497m15s):  0x0021   0x008b  0x0119   2   1
[051](65333m28s):  0x0040   0x004d  0x0033   2   0
[052](65336m06s):  0x0049   0x008b  0x0260   4   3
[053](65531m53s):  0x005b   0x001c  0x0038   2   0
[054](65533m15s):  0x00a4   0x00c1  0x0054   2   2
[055](65238m39s):  0x0058   0x008b  0x0232   3   2
[056](65308m41s):  0x0079   0x0032  0x0054   2   2
[057](65467m56s):  0x0030   0x001c  0x0161   3   2
[058](65439m07s):  0x0062   0x001c  0x0299   5   3
[059](65477m19s):  0x0013   0x0013  0x001b   1   0
[060](65458m26s):  0x0091   0x008b  0x01bc   5   1
[061](65431m32s):  0x0051   0x0032  0x015e   3   2
[062](65364m01s):  0x009d   0x001c  0x01ed   6   1
[063](65241m46s):  0x002e   0x006e  0x037f   5   3
[064](65491m55s):  0x0073   0x003a  0x0129   2   2
[065](65037m35s):  0x005c   0x0032  0x0162   3   2
[066](65476m39s):  0x001e   0x001e  0x00ff   1   1
[067](65278m44s):  0x0002   0x001c  0x0307   7   2
[068](65446m46s):  0x0003   0x006e  0x0266   4   2
[069](65436m23s):  0x00bd   0x001c  0x0297   5   3
[070](65509m40s):  0x0032   0x0032  0x00ff   1   1
[071](65224m37s):  0x0071   0x006e  0x069f  12   5
[072](65534m36s):  0x0041   0x00c1  0x0054   2   2
[073](65509m40s):  0x002f   0x0032  0x0116   2   1
[074](65211m26s):  0x00a6   0x000f  0x0129   2   2
[075](65146m08s):  0x0010   0x006e  0x03ea   7   3
[076](65481m30s):  0x0009   0x0022  0x0044   2   1
[077](65438m07s):  0x0087   0x0032  0x017b   4   2
[078](65481m11s):  0x001b   0x001b  0x001c   1   0
[079](65454m48s):  0x005e   0x006e  0x0144   3   2
[080](65332m24s):  0x0063   0x008b  0x026b   4   2
[081](65525m43s):  0x0015   0x0015  0x00ff   1   1
[082](65494m07s):  0x0099   0x002d  0x0037   2   0
[083](65278m36s):  0x0052   0x001c  0x0423   8   3
[084](65485m03s):  0x007c   0x001c  0x0151   3   1
[085](65402m24s):  0x0076   0x008b  0x02da   6   2
[086](65510m03s):  0x004e   0x004e  0x001b   1   0
[087](65456m28s):  0x0039   0x0039  0x00ff   1   1
[088](65480m35s):  0x0037   0x0037  0x001d   1   0
[089](65523m35s):  0x0090   0x0022  0x0040   2   0
[090](65491m49s):  0x0057   0x008b  0x01c5   5   1
[091](65532m38s):  0x008b   0x008b  0x00ff   1   1
[092](65438m57s):  0x00a5   0x006e  0x0138   3   1
[093](65279m57s):  0x00b9   0x001c  0x0346   8   4
[094](65531m50s):  0x001c   0x001c  0x001b   1   0
[095](65326m34s):  0x00b3   0x000f  0x0119   2   1
[096](65399m34s):  0x000f   0x000f  0x00ff   1   1
[097](65372m44s):  0x0094   0x006e  0x0276   4   3
[098](65239m10s):  0x00a0   0x004a  0x0154   3   1
[099](65403m01s):  0x0078   0x008b  0x035c   4   4
[100](65357m21s):  0x009a   0x008b  0x02d8   6   2
[101](65469m34s):  0x006c   0x006e  0x0129   2   2
[102](65246m07s):  0x00a2   0x006e  0x0526   9   4
[103](65524m37s):  0x0043   0x0043  0x00ff   1   1
[104](65044m58s):  0x004b   0x0032  0x00bc   4   2
[105](65448m47s):  0x0048   0x001c  0x0255   4   2
[106](65397m07s):  0x002b   0x008b  0x036b   9   3
[107](65510m01s):  0x0084   0x004e  0x0035   2   0
[108](65233m01s):  0x0012   0x004a  0x018b   4   1
[109](65531m56s):  0x00a9   0x000e  0x011a   2   1
[110](65016m01s):  0x008f   0x006e  0x079e  12   6
[111](65453m59s):  0x00bb   0x008b  0x01c8   5   1
[112](65502m26s):  0x009b   0x004a  0x0134   3   1
[113](65454m15s):  0x0019   0x0013  0x008f   3   2
[114](65470m40s):  0x00ab   0x008b  0x011b   2   1
[115](65461m30s):  0x000d   0x008b  0x0148   3   1
[116](65273m37s):  0x0023   0x008b  0x049d   6   4
[117](64850m09s):  0x0038   0x006e  0x03ea   7   3
[118](65439m20s):  0x009c   0x001c  0x01b6   5   1
[119](64850m32s):  0x0064   0x0032  0x0076   3   1
[120](65491m10s):  0x0001   0x0001  0x001b   1   0
[121](65449m40s):  0x003c   0x004a  0x011a   2   1
[122](65425m32s):  0x00ae   0x0032  0x0178   4   2
[123](65525m42s):  0x006e   0x006e  0x00ff   1   1
[124](65426m34s):  0x008e   0x004e  0x030d   7   2
[125](65288m51s):  0x00b8   0x001c  0x02d8   6   2
[126](65099m56s):  0x009f   0x006e  0x03ea   7   3
[127](65520m02s):  0x004a   0x004a  0x00ff   1   1
[129](65513m34s):  0x002d   0x002d  0x002a   1   1
[130](65271m57s):  0x008a   0x006e  0x0415   8   4
[131](65531m47s):  0x000e   0x000e  0x00ff   1   1
[132](65473m06s):  0x008d   0x0001  0x014f   3   1
[133](65252m25s):  0x0095   0x006e  0x0539   9   4
[135](65361m26s):  0x0089   0x001c  0x006f   3   0
[136](65475m29s):  0x0080   0x001c  0x014e   3   1
[137](65476m24s):  0x0074   0x001e  0x0129   2   2
[138](65507m27s):  0x0027   0x006e  0x0145   3   2
[139](65507m40s):  0x004c   0x006e  0x0119   2   1
[140](65376m23s):  0x0042   0x0013  0x0151   3   1
[141](65412m16s):  0x0006   0x006e  0x0406   8   3
