-492
-1104
1168
1960
2128
356
-2904
-2824
-1864
1748
4000
2200
540
-3160
-3476
-1992
684
4184
3048
1564
-2572
-4492
-3032
144
4516
4264
1984
-3000
-5216
-3468
1216
5032
4088
428
-3888
-4312
-1604
2912
4272
1604
-2716
-3716
-500
2708
3168
-580
-3684
-2724
1732
4748
2516
-2660
-5500
-2404
3356
5460
2096
-3848
-5168
-460
4200
3564
-1724
-4192
-928
3420
3612
-1404
-4960
-2120
3388
4828
276
-4404
-3264
1912
3920
48
-3272
-1292
2764
2588
-1784
-3644
-292
3556
1944
-2288
-2348
1072
2388
-460
-2636
-532
2548
1588
-1808
-1428
1080
784
-1240
-1356
1580
2548
-732
-2788
-628
2160
676
-1700
-16
1628
224
-1556
-548
1080
-80
-880
500
1636
152
-2192
-824
1388
500
-572
268
920
-492
-1072
224
48
-604
708
1620
-260
-1748
-240
764
-444
-232
1476
420
-1284
-160
300
-840
-364
1716
1120
-1700
-776
792
-476
8
1200
-292
-1308
684
1168
-1264
-508
1136
-484
-532
1088
136
-1120
420
628
-1232
152
1160
-776
-176
1032
-620
-724
764
-484
-596
1652
232
-1388
284
48
-628
904
128
-1008
1024
468
-1276
332
-112
-660
1088
152
-300
676
-700
-1056
492
152
396
1080
-952
-516
412
-984
636
508
-756
1064
8
-716
256
-912
-120
1032
32
460
64
-1348
372
176
-872
1272
-200
-292
1120
-1120
404
-468
-1548
1784
-136
824
1128
-2240
136
-1032
-460
2096
-72
1468
-324
-2112
-260
-1372
1324
1872
308
792
-1684
-1064
