bandplan FCC
analog_gain 54
digital_gain 6
-8156
3428
7256
9148
1436
-6472
-5840
-3260
512
1852
3348
2724
1480
-1092
-2612
-2904
896
-2148
980
6380
-2436
92
-1392
852
-1832
-1680
1356
-584
3360
940
-648
-1156
-1408
-1572
1688
-420
1556
2096
-3212
128
-1296
728
2680
-152
-772
-2104
808
784
672
-628
-2568
-424
3808
2688
-1988
-1532
-3972
1248
144
4888
7056
-7924
-7232
-5980
6056
11528
4552
-3716
-7820
-4276
-896
5212
-1716
-1276
3460
8744
2876
-7060
-8572
-7688
1704
7168
10532
3872
-3992
-5872
-6964
-2752
1444
5724
6976
800
-3180
-3124
-3312
-704
-768
3072
7004
-1656
-1376
-4104
-3652
1576
2304
4472
1724
-1820
-3548
-3288
956
2468
20
912
-28
-1016
1832
872
1948
-3908
-5584
-588
1324
6888
2556
-2056
156
-828
-2468
-2916
-924
968
788
3984
828
-1144
2640
-2480
-1844
464
-1820
80
-1192
-944
1244
2820
5524
4704
-4744
-10316
-6224
1224
8560
7784
380
-5612
-3868
1512
1548
1460
-4788
-3500
2972
4572
4696
-1808
-5220
-2484
1336
1064
1964
-888
-692
1188
-576
2188
-1688
-2892
-1064
2452
3880
-1680
-1032
-1300
308
2748
-608
-3036
-604
-2264
2540
7688
2252
-4648
-8948
-2804
3708
7072
2308
-1628
24
-5148
-920
1808
752
1900
-1916
-1372
888
3788
2360
-7304
-3012
804
4000
5512
532
-2756
-9272
-2520
9132
7404
-5228
-7772
-172
10044
3024
-7616
-5356
-536
3880
3292
3792
-700
-3212
-3136
-2308
500
2292
1752
3316
504
-4332
-20
-2032
288
744
-1576
3504
3768
180
-4008
-6052
68
3312
3708
3192
-1208
-3296
-3712
-1928
5244
1996
-248
-1792
-2200
2848
904
-1332
-1528
-96
744
1864
944
-736
-3144
-3268
2392
5132
2980
-4140
-2112
-1176
-1044
1408
-600
7352
-996
-5792
-2148
768
3964
1572
-2112
-2372
528
1492
4448
-1428
-4288
-6160
1052
8284
2076
1976
-5720
-2556
1752
-432
-1064
-2236
1900
4704
3096
-1672
-3044
-5032
-1184
2968
2892
4012
-1552
-1252
-4752
-1356
3084
1992
2956
-2624
-1728
-832
860
1944
-1864
-1216
1856
2240
-492
-3204
-2144
1496
2332
3532
-492
-3084
-1408
-3168
1584
2916
1748
-592
-768
464
-1064
-296
-548
-568
696
-332
3392
368
-5548
-236
1416
2964
4220
-1744
-5212
-2984
184
1764
6092
-288
-5932
776
4156
3500
-4804
-6328
-824
3652
6020
864
-2068
-2660
-2044
736
88
680
1416
480
-608
-460
1144
744
-1704
-3756
-608
3140
4376
356
-2832
-2180
-1748
1056
3004
1700
-1192
-2500
-1644
1520
1460
676
-392
-808
-332
272
640
16
-888
-1728
680
3096
1540
-1604
-4252
-1360
3132
3000
760
-744
-2020
-2880
-912
-364
5568
4632
-1604
-5196
-3760
1532
1340
4108
-1808
-3516
2104
1888
4696
-1704
-8808
-3196
3588
6524
3156
-2492
-4056
-1452
2132
1888
-780
-3044
-2220
3508
5800
488
-4956
-5224
-116
4384
3832
1140
-2888
-4140
-620
1268
2000
2104
316
-2148
-944
1360
-400
-2652
-1748
2568
3600
1248
-128
-2096
-2948
-1396
612
2912
1784
-768
-1556
-880
140
340
1020
716
116
-684
-752
-388
-676
-844
-524
3240
6200
-2604
-7744
-3528
2592
7516
3584
-1936
-5944
-4900
932
4392
5984
476
-7552
-2764
3976
3580
-1288
-2412
-1472
112
3244
636
-1624
-504
-268
560
1480
-68
-2212
-1636
796
2300
1428
-664
-1164
-576
-844
-624
1424
1172
484
-16
-1632
-384
972
-204
-608
-188
696
252
-396
680
744
-1680
492
1600
-1124
-2148
-1968
1064
3912
2684
-940
-2608
-1760
-676
-204
1560
1668
-984
-916
1488
-848
-872
3508
1636
-3784
-4888
-292
3988
3668
1636
-3632
-4736
980
4220
3560
-1432
-6380
-2984
2572
4536
3144
-96
-3328
-4828
80
4784
2216
-2348
-3092
-536
3076
2804
-900
-2088
-2300
-656
1940
1876
932
-892
-596
1132
-1084
-3164
-1204
2424
3436
1080
-1584
-2044
-480
532
980
-32
-564
-672
-248
456
860
772
364
-464
-1720
-712
772
860
380
-820
-1620
2128
3340
-604
-3736
-4052
1292
4608
3320
-1432
-4708
-2352
552
4848
4472
-2288
-5264
-1692
528
4576
1464
-3912
-4896
1832
8364
3328
-3524
-6464
-4952
2484
7488
372
-3964
-3584
1644
6728
3484
-4056
-7244
-2412
2828
3844
1260
-472
-820
-632
256
1040
-824
-332
380
-2028
-736
692
1064
3028
1780
-3724
-2532
1000
828
556
-1152
-656
508
1580
1852
-116
-1956
-2872
-1144
2636
3052
108
-1300
-1956
-196
1288
656
-360
-1136
-424
-440
956
4132
684
-4928
-3644
2684
3748
-92
-852
-3296
-3372
3876
5136
4704
-1264
-9868
-5972
768
7108
5872
1592
-2988
-4820
-952
2156
1372
-2484
-2852
1624
5144
3124
-2276
-7004
-2924
5108
5696
932
-3744
-4688
-3432
4004
6696
1196
-3160
-5180
-2952
3648
6764
852
-3660
-4428
-588
2472
1060
1804
-1504
-3564
1936
3376
1264
-1372
-3628
-1156
1592
1308
-1412
-1268
2704
4288
320
-4360
-3088
-2816
432
6732
5908
-6072
-4432
308
1000
3144
28
168
-3312
44
660
704
2864
380
-7988
-3732
8200
9144
1516
-10384
-8052
-80
7168
5160
-1916
-1312
-548
-708
1500
-356
-892
-700
-2104
392
1036
2408
2824
-296
-2252
-2660
-884
676
468
216
160
1584
2624
-664
-3228
-2360
-232
3004
2048
-16
-976
-3032
-1280
2072
3760
648
-3000
-1268
-900
304
1396
1548
620
-236
-148
-2932
-1852
312
1048
1824
2668
1824
-140
-4288
-4508
-68
2212
5328
588
-1780
-3404
-4336
4372
4344
1908
-624
-5048
-2808
-296
2056
3644
1024
-900
-2184
-256
820
300
-156
-1452
448
-168
328
892
-500
1356
856
-16
-2464
-2596
-268
2008
3392
176
-1932
-1348
40
1656
1240
120
-2440
-3232
-984
3272
3708
1168
-1212
-4184
1980
2408
-1480
-4492
-2408
1872
3880
7104
544
-4700
-7460
-2372
2116
5736
3308
-2480
-1772
-888
2880
2336
-6032
-3848
1484
1624
4380
3692
-300
-6720
-2224
2024
2380
1108
-384
-7900
-1440
10244
7780
-1948
-11364
-5124
3648
5800
1980
-1544
-3840
-128
3232
2816
452
-6280
-3040
1812
2420
5516
-1180
-2224
-4116
-3812
6640
4728
-652
-3616
-4044
280
1948
4596
600
-3372
-3220
-1468
3040
2824
2540
-2640
-2240
-768
-148
1184
208
216
-1168
1652
2264
-340
-1572
-4112
-1424
3184
4572
172
-2668
-1760
80
452
-644
4456
-944
-4392
-1528
696
5420
2204
-548
-5192
-5784
1712
6020
5620
428
-6880
-6324
-984
5232
7004
-228
-2100
-2908
-1308
-1048
540
1936
-844
1924
328
-456
2464
-2260
-3640
-1460
1332
4812
356
376
-2156
-2488
0
-1232
2936
2292
260
-468
-2204
-2340
-1928
2968
4976
1676
-3436
-4764
-524
1976
2920
512
-980
-1152
-1608
832
2544
36
516
-2748
-1680
1364
24
1660
-512
-840
2684
-944
3588
-5256
-7344
3380
3404
6708
780
-3340
-5068
-1328
640
2692
540
680
-3624
-2776
7420
5720
-2036
-8228
-2644
1852
2516
-544
1776
1052
-1144
1724
-312
-2888
-1592
-1444
2504
5664
720
-2188
-5276
-4304
3008
4444
2524
1272
-1572
-2512
-2916
432
620
-876
1984
1296
1744
1760
-3428
-2576
-1388
164
1516
1788
2192
-744
-2072
-584
2052
372
-2076
-4340
848
4424
3240
384
-4328
-632
-660
-1800
2032
1924
3044
1120
-5144
-5624
748
3436
5904
1320
-3208
-4556
-3120
4072
3584
1540
-3228
-3080
220
1044
1840
596
-92
-1688
-1168
2928
1708
-1932
-3380
-1516
2800
1708
1652
-440
-2368
588
-532
316
-220
416
696
-1476
-396
-548
424
2580
2060
-616
-1800
-4492
696
1488
1196
2788
-1556
-1316
-2112
196
3740
1452
-1220
-2208
-1796
-436
1660
1804
204
-1588
180
872
244
2072
-2952
-3104
196
3360
3276
-4684
-1876
1220
3508
2680
-1540
-2812
-5876
1236
4600
1628
1600
84
-6960
-2940
6716
6468
-2428
-6984
-564
808
2660
588
-1444
76
84
2024
1852
-1804
-4036
-1992
3664
2684
-284
-1180
-1692
-616
1584
668
1608
-232
-2868
-204
-988
892
2336
308
416
688
-3060
-1040
-752
-388
1824
1108
4632
1320
-5072
-4836
-2712
3080
4940
2264
-636
-2752
-856
-996
1100
468
-1144
332
-788
2764
20
-2140
4400
-1304
-4024
-2812
-80
5616
3636
-940
-2924
-3936
-108
2792
2708
1844
-4108
-3952
-536
4964
4360
-1020
-2600
-4752
-1044
3264
3544
1764
-4076
-424
-684
-564
2640
40
916
-2388
-692
-452
-56
3676
2292
-2732
-3456
-2996
1140
6676
2348
-1088
-5020
-3444
852
1688
4028
1376
-2484
-2240
-1156
1476
2088
124
-1252
-796
-1028
2524
1488
-1832
-3200
-1940
3384
5288
904
-4976
-2084
-264
1324
2352
2676
-5624
-2852
5028
36
656
-924
772
-1968
-2616
3484
2788
900
-280
-8488
-3900
7708
6860
376
-6556
-1092
1224
496
-1268
-780
632
2664
1236
-1636
-168
-3008
212
1368
1872
1220
-112
-2596
-2756
792
0
3272
1780
-1408
-256
-1424
-1380
208
20
1304
1400
1740
-144
-3904
-3472
-1196
4540
5696
-196
-676
-4052
-3520
2208
96
1636
-636
176
1512
444
708
-1380
-1256
-1864
-132
1504
-632
1064
3248
636
-1336
-1804
-2276
-2696
2444
1612
1888
216
-980
3736
-3956
-356
-1196
-3608
2900
1108
1788
1244
724
-816
-2152
-776
-1116
240
-768
380
1812
1612
1956
1616
-1332
-4840
-4616
-1136
4076
4692
1928
1912
-3796
-3224
-692
-1168
3904
644
-976
-1348
-1024
1944
-368
2612
-168
-1304
-284
-2068
-8
-720
1304
2000
2368
28
-1708
-4832
-2232
3456
2312
3884
-3116
332
-1640
-1704
1888
-224
3944
-5692
-3300
2868
1624
3640
1608
2184
-6164
-4816
384
556
2840
1024
-3836
1840
8892
2800
-6540
-10632
-1668
3656
5780
1612
-1156
444
-40
976
80
-2584
-5196
-1352
2792
5132
3696
-1044
-1596
-2656
-2320
224
-1584
1532
2844
800
3472
-1480
-5328
-1260
-1044
3892
2536
724
-1216
-3316
-948
520
2496
1320
-340
-2900
960
1028
-548
260
-1132
712
-780
1872
1028
-2832
-1084
-1308
3440
4032
-2772
-4320
1944
2996
964
-3604
-3040
260
776
6028
-1424
-2180
96
-456
2524
608
-3356
-2956
-1552
3620
5744
-1140
-764
-4800
-752
4284
632
1388
-2652
-3964
-1524
2740
4448
1936
284
-3704
-2656
1520
-2164
88
2200
1064
1828
-2900
-1248
3548
-400
84
-2484
-1716
1064
228
2248
-912
-932
1688
1132
836
36
-5752
-1748
156
4464
3208
-40
1208
-4988
-1116
-1852
2132
2152
-1504
1884
-948
580
788
2140
-2316
-6264
1496
320
3252
3196
1000
-3580
-1600
964
-1276
424
-1112
-4124
4516
10452
-976
-7628
-7384
2108
4140
808
232
-656
2276
2904
-1168
-4484
-4068
-1868
4492
4256
2296
528
-3860
-1428
-4212
2284
3208
-884
996
-940
1452
-932
-796
-416
-604
-652
1952
3028
-428
-1996
-2168
-2204
508
3128
2460
972
-1336
-1912
-1708
8
372
-108
840
1564
1796
-368
-3488
-3280
2464
3372
40
-188
-3340
304
2780
-256
1784
-3920
-200
-108
416
2984
-4180
1096
3108
1788
1016
-4976
-5916
136
2396
5124
5136
444
-4048
-6604
-1400
388
3008
1320
1344
2100
-72
88
-3936
-1304
-776
532
1224
980
1064
504
768
-1960
-1328
0
160
2192
-332
-1292
-2536
968
3028
-252
-144
-1500
280
1424
1412
-1916
-2284
-380
-564
2188
2424
1452
-1848
-3356
-520
604
3572
-56
-1568
-332
-2664
3184
-128
1592
-456
-4344
2280
-1028
1344
2144
1684
-2280
-2732
60
-816
4032
-3984
-2872
4568
9056
556
-11452
-4432
164
5512
3300
2820
-2288
-3712
-184
-1576
1552
-536
464
2544
5676
-752
-6068
-6152
-4436
5052
7616
5832
-1512
-4244
-4416
-2788
2336
1448
2384
-1740
1348
1708
-2168
-1716
-1000
1696
1028
708
200
-136
-3172
4
1452
1464
600
-3152
96
1196
2636
-496
-2388
-1288
-688
3360
-328
3736
-4228
-5884
2424
3148
5352
-804
-4268
-2156
524
464
1784
-2348
-1416
2724
3144
4100
-3940
-7392
-2284
3248
4976
4724
-3732
-5076
2268
652
948
-3584
-2968
3660
3556
1348
1652
-2076
-4968
-696
-1236
1136
1488
2848
2456
-1464
-1480
-2668
508
1868
448
-2936
-1960
2416
1996
3120
-1248
-3908
-840
516
3376
1652
-2432
-1796
-4388
1276
4956
1000
1816
-1284
-2028
-1192
-2812
2292
-500
1528
2344
-452
-156
-2840
-300
1000
-2256
3524
3560
-4468
-1160
1828
2084
-2884
-3384
1672
4284
-2120
-5988
5132
7932
1332
-9872
-2660
708
-468
1916
-904
4160
2760
3848
-3160
-7976
-3696
-1800
6976
5160
2260
-1404
-4076
-2800
-3184
3456
2756
2560
256
-2672
404
-3572
-312
96
1384
2644
524
1300
-984
-3468
-3356
2436
4720
1912
-3568
-4920
-1620
4224
4244
1960
-2488
-2548
-460
-2144
4100
-2084
-640
-572
-256
3576
2032
-336
-2904
-236
-684
648
-1680
520
520
-1656
4396
-404
1076
-812
-5136
3112
2096
-596
-4756
-164
2400
1800
3628
52
-3468
-3488
-528
1096
3488
-256
-984
-1356
892
3620
-1352
-2652
-2324
-964
2972
3920
2800
-1836
-8308
-352
1572
3544
3944
-3524
304
-792
-536
-720
220
848
-796
-568
848
2432
-452
-1056
-1612
-472
392
2432
1516
-3312
-344
-1448
1352
2684
-240
-1920
-1096
1708
1420
688
-3560
708
-1020
-1408
4848
-1284
-1624
1284
1636
1896
-3980
-2328
1612
2940
-4828
-4920
5876
9060
712
-5864
-4792
-148
2372
-2332
116
-484
5488
2880
-984
-2460
-5008
-1336
2524
3404
652
-260
-2532
-740
-300
3200
748
-2596
1672
-1940
632
-556
-1944
1088
908
2924
3168
-1948
-4812
-3724
-1452
5360
2620
2928
-1284
-2204
-1012
-3064
2740
-328
-980
512
596
2960
124
-1012
-2128
-1004
1168
-368
-392
2004
-2256
-608
3972
1720
588
-5572
-2740
372
2480
3716
-1672
-36
-1736
2856
2336
-4828
-3416
-1216
2480
5040
2348
-1512
-2168
-2688
1128
-1340
-32
984
-160
3836
-2088
-760
1004
1064
-1296
-3432
808
888
2820
-988
-1260
-440
-2020
3884
2980
964
-2636
-7452
-1748
3332
4412
3504
-928
-840
-1576
-2212
616
-3640
524
1956
3668
5096
-3356
-4088
-5376
936
5812
3240
124
-4988
-2508
-292
1292
4844
-872
340
-156
-4932
4248
-2324
-1708
264
2888
3832
-3216
-1060
-616
3636
-5512
-4760
6040
6896
200
-7316
-1704
1984
1112
392
-256
-492
512
1072
612
-1512
-3692
-1084
3992
3180
3536
-2612
-5408
-2016
-1160
2900
2772
1864
-1220
412
-240
980
-2996
-3988
-68
1276
6396
196
560
-3480
-2384
700
560
1288
-196
-2512
-948
3928
748
2336
-2604
-1704
-2636
748
1836
-180
1748
-1732
3048
-508
304
-3256
-6024
2692
5816
3272
588
-4320
-5620
1376
1856
2664
860
-1716
-1808
316
2940
-1316
-2864
520
2820
1048
-1264
-1244
-1748
-96
2464
2024
1012
-3188
-3496
-2116
4068
5164
2092
-2936
-5096
-1696
-452
5156
1124
-296
-528
-3000
884
1296
1540
-1116
-3164
264
1708
1388
1848
-776
-2108
-2308
-852
2636
4028
-1900
-3412
-312
652
4468
-604
-2028
-1372
-1568
2736
748
1316
-2096
-3344
1860
-172
3564
240
-160
1420
-3716
-2984
-4472
1692
8132
7184
-4132
-3084
-3324
-2360
1260
-4756
1164
7648
8728
-1916
-9688
-4036
1772
1088
1816
1160
-1460
2044
928
228
-1576
-2808
-1992
312
5780
672
-156
-1172
-4628
-504
2488
2796
656
-1384
-1416
924
-496
-2172
620
1120
364
1916
-276
548
-3108
-1044
644
-180
4060
-972
-1472
-2964
728
4184
420
-616
-2796
-104
-52
1328
676
-3120
-1056
2324
4800
2320
-2368
-7936
-1608
4128
1588
2140
-2800
-360
1456
2252
824
-3524
-2124
-2244
4356
3824
-2896
-4088
-2252
5088
3644
2548
-536
-5908
-3668
-1328
2964
2836
776
124
664
16
232
144
-3448
-1796
-1928
636
6432
3048
-152
-3844
-3292
-392
1180
1308
-876
252
804
-692
532
2880
324
-2488
-1204
-2288
176
1952
-1700
3380
-144
1560
708
-1572
-220
-4636
-964
132
2952
2896
1408
692
72
-3936
-3592
-1084
1224
6300
-2004
1848
1712
-8840
-1624
5000
5916
1668
-5672
-3348
3448
-6520
-4632
7040
11088
6912
-11880
-5652
-3576
-624
4160
964
5180
2380
-2548
-1112
-3408
-4428
2992
-216
5284
2736
-2552
-3192
-5744
2528
6664
2604
-1944
-4352
-3372
1008
2204
3472
-860
-3344
1456
464
1712
1056
-4220
-1008
220
1380
1644
-40
-144
-2132
652
1104
1660
448
-3920
-1696
-396
2304
4276
-916
488
-2780
-552
-500
-2164
1948
-728
4764
2776
-4112
-3156
-1564
660
2064
4140
-1452
-2328
-1292
836
2408
-2636
1448
-4060
1652
4104
1552
452
-6052
-2212
256
3344
2880
-1156
-1560
1376
-4
-452
-2440
480
640
272
2196
-2296
-384
-384
-472
3696
1264
-188
-2384
-1864
-2604
-2104
1540
5568
6052
-308
-4768
-5608
-676
-460
5168
1596
-2076
300
-2864
828
4004
1044
-312
-3988
-1900
-488
384
3068
1452
-320
-1932
1584
1376
2468
-5620
-8020
5232
3760
980
128
620
2304
-4868
1308
-872
-196
-1368
-7448
3964
9720
5572
-5820
-4560
-1620
-388
-1052
-236
2112
868
4556
932
-136
-4912
-6388
868
3872
4388
976
-724
-3096
-3460
4068
-1132
1284
2564
-4468
1464
-2460
148
3988
-1404
1080
-380
-2592
1180
-1236
2492
268
-2744
3380
-1520
-1064
-1176
-744
4288
1112
-220
-2964
-2624
992
876
2016
3308
-3076
-2236
-1736
436
3700
-1248
1816
1200
-320
-5504
-936
704
2300
3068
-2588
2392
-356
-744
-1452
188
80
-3712
1820
712
2368
1316
136
92
-2584
-1460
-1604
1740
-252
1048
700
1140
1844
-360
-2032
-5148
684
2528
1100
3420
-1388
-884
-2696
-2100
2664
2696
2060
-3552
-2656
24
1900
1452
1300
-2224
-948
568
516
1568
-1900
-1824
-524
1456
3688
852
-3012
-1692
-888
-916
3364
3004
-828
-2948
-4004
184
5624
3560
924
-6008
-5936
4400
-960
-1380
6420
2776
-2028
-3396
280
780
-3256
3060
-6112
-2488
10476
5584
-1312
-8072
-2384
1400
3072
-360
-4468
1568
3496
3568
-1472
-2812
-3076
-708
1956
1576
2340
-104
348
-5300
-1280
2100
1720
3584
-2164
-1456
-896
0
1284
-372
572
-328
-728
948
-1964
-828
3112
-532
3848
-1584
-4008
60
-2248
1800
3040
1288
232
-3120
-1756
1608
1208
200
-644
-412
572
-2096
-1412
3272
2652
2472
-4740
-2668
-272
560
1420
524
544
-2208
1316
3392
1112
-1016
-4572
-4652
2148
1528
3888
1316
-3156
3016
-1440
-832
1340
-3128
-500
-2032
860
2812
1160
2400
2220
-4384
-4152
-1284
824
7044
-752
-2888
-3276
-984
4568
1080
4044
-1840
-3548
-3004
-2336
3612
316
2440
1532
-1132
192
-1124
-2600
1016
228
-428
1492
1260
1096
-2864
-3364
-1804
4900
5968
-856
-836
-6808
-3340
3116
3000
5648
-5240
-2000
752
1004
2532
204
-1092
-5472
8
1864
1332
2704
3976
-6120
-3816
2240
5576
-344
-9144
1904
3084
3080
-392
-1884
-756
-544
1404
1492
-508
-2812
-3120
2304
4920
-940
2396
-5052
-1572
2976
-2064
2564
-2052
324
1380
-1128
2924
28
-4156
156
-276
1208
2560
-1200
-1060
-1412
2248
-308
96
1352
-3132
2224
-1116
-264
668
-1812
852
792
888
2724
-2828
-1136
240
-3828
3128
-396
2920
388
-604
1548
-6396
1964
936
764
2240
-3856
-2468
1876
4620
2360
-2668
-4868
-52
-256
3012
3052
-2676
-2216
188
1676
796
1588
-3056
-1600
172
1244
2748
-1744
-836
2136
-596
-3072
12
-228
2456
2140
140
-724
-4608
-364
1208
4172
1144
-2596
-2156
-1568
2972
-1568
2600
68
-192
1060
-3096
1356
-2528
-416
884
2224
2296
632
-872
-3288
-2184
-856
2300
3084
496
-1460
-936
-1984
3188
2816
-5760
24
4512
-936
-4128
-1672
6040
-904
-2256
2380
744
1096
-296
-6576
-4628
7608
6940
-496
-7328
-1340
3256
1528
-1264
-672
-812
-296
1364
424
1152
-1900
920
1024
-1808
-884
1276
-636
-972
1284
-2176
4060
3776
-4648
-2292
-1184
372
3704
-1816
-1144
2068
944
1480
-1188
-2064
-1352
-3324
1096
4048
3712
1168
-1660
-4424
-992
-808
-1424
2992
1540
948
2704
372
-1672
-4116
-4460
-824
3152
6396
5528
-1168
-7692
-4028
-2272
4988
6500
-1012
-4360
-5316
3384
5444
1740
-1556
-3636
-1548
496
1284
-676
296
288
800
1004
2104
-1916
-2604
-1960
-1856
4880
1840
2016
244
-4012
-4680
-508
4048
2292
2880
-204
-2528
-2372
-3896
-1448
4472
5944
1128
-1144
-3648
-2480
-480
-1116
2800
1788
-388
-484
-2640
2576
5432
-2936
-272
-3732
-2832
2108
-832
1540
1844
2032
-588
2468
-696
-2620
-4652
-4876
5604
5900
-1672
-52
3568
-4972
-3612
2920
5240
-1272
-7600
-716
2064
3972
6168
-3340
-9944
4140
5976
508
-4524
-3968
2204
1000
-732
-328
4264
1472
312
-1508
-4676
-2652
-176
4180
2036
804
-1204
1276
1020
4
-5748
-7332
6052
5336
5372
-1636
-6368
-2392
384
2684
772
3992
-3360
-1136
-568
-2208
2008
-3400
4272
3296
300
1908
-4816
-3788
-800
-864
3704
3456
-68
-856
-2004
1040
1388
536
-3756
-3176
788
2160
5616
376
-2788
-4236
-1368
4960
1404
260
-5392
-2412
6108
1524
916
-2452
-5284
1824
728
3604
3840
-1884
-4372
-5868
-1600
7016
8880
-1068
-4920
-7564
-940
5840
4912
3192
-7600
-5672
1476
2904
5828
684
-3928
-3504
-1184
3188
1452
904
-808
-3720
884
2204
3496
-1588
-4300
-2708
1688
4488
2112
-1144
-2704
-1124
-1812
2320
640
2408
872
-4920
-324
932
2544
104
-180
-3124
-400
2516
1324
2256
-7104
-1724
5380
1328
-856
-156
2512
-1424
-2412
-3308
-1008
2028
7952
-2488
-6148
4608
1616
240
-3276
-1860
2108
392
-4608
-800
2120
7020
5924
-2408
-7464
-8392
-636
6156
6728
-592
-2508
-1236
-4
2196
-136
-768
-2128
-1972
-320
2216
2704
564
-220
-452
-428
-808
28
-1580
-808
-1036
3316
712
-264
3440
-5648
1276
4116
-564
-2628
-5956
-2152
4924
5368
2612
8
-4512
-1944
-932
-116
-472
124
3376
3520
-196
-5536
252
-2124
3520
4112
-5308
-2420
-1728
3932
6096
1340
-4176
-3924
-3156
256
5444
1992
184
-2008
-2552
224
-144
1116
1436
484
240
-3476
-164
1016
1288
2900
-2704
-1472
-536
-376
3300
-1320
-2668
372
2836
4132
-1372
-3612
-3688
-748
3556
1688
1668
136
-2156
-2144
872
2152
248
-3768
-1484
1144
4364
4064
-1760
-4380
-4068
600
1864
3228
-256
-20
-636
48
1764
-160
-1376
-8984
1872
8364
5144
-3388
-5348
2064
-1644
188
-1268
600
1816
3784
-4284
-5924
8620
2612
-60
-5044
-7196
4384
3960
-696
-1380
-976
3972
4884
-1452
-7300
-7588
3628
5960
5748
244
-6188
-992
-3568
3004
2312
2108
620
-5160
-996
-264
4432
284
-1820
-1336
1136
4360
-388
-2584
-3856
-2804
-580
5448
4820
1892
-3368
-4296
632
-48
2328
-1432
-2104
-932
2504
2216
892
456
-1652
-2504
-1352
1144
-928
4740
-384
-888
-480
-2568
916
1968
456
-5180
1952
3052
5432
-220
-9900
-4808
1800
6080
5584
412
-4204
-1296
-1296
-324
740
1372
-300
-2628
-536
2884
3656
-668
-3160
-304
-668
1108
-444
-964
1400
-780
2996
-1640
-1432
-964
560
5336
452
-4704
-2356
-3064
1644
6656
124
36
-3500
364
856
632
296
-3924
-236
-1116
2260
4296
304
88
-1964
-2332
292
-1288
-56
1648
-244
756
3228
-732
-4304
-928
4464
184
-1388
-2604
-1556
4056
2224
-2000
-4268
4336
5740
-5244
-9480
3180
9632
3904
-6312
-11608
1156
11400
5464
-4276
-8612
1588
5760
-2304
-4320
-1496
2560
6436
2048
-4720
-1700
-20
-2332
-240
3828
1120
420
-3004
-3300
2836
708
4464
-1248
-2024
-1736
-4004
2416
2356
3108
316
-2880
-1460
276
504
260
-260
-788
808
756
-864
-108
1572
-1628
2732
-412
-2656
648
-3004
544
1300
3600
3048
-1188
-7060
-3424
3040
3972
6768
-1984
-8748
-6124
7096
7072
-444
-3780
-508
1920
-748
-4384
-6860
6956
9620
2228
-6240
-7336
2180
3256
-916
-480
672
804
1132
-4468
1148
1444
2016
452
-1232
824
-5860
900
28
2496
3560
-1456
828
-2400
-616
536
-2552
368
2004
-420
1564
1240
-428
-3172
1632
-192
-780
824
-2200
2648
-2312
1172
2052
-1308
564
-688
2556
-396
-3636
-2892
328
4860
2760
-3504
-3124
3116
3700
-5080
1352
2884
-3940
1752
-4220
-3680
5984
6152
-840
-4752
-1512
5428
1216
-5576
-7716
192
11500
3304
-3528
-5492
4136
1976
-3420
-2124
-2696
5720
-508
-1988
92
2016
3688
-2140
-3520
824
672
-2088
168
1624
1656
1648
-4004
-2084
4436
-1480
-1144
144
1972
3636
-4988
-2584
80
1368
3688
-88
52
-3192
-2924
3824
3064
1152
-3764
-5376
-92
4280
4992
-676
-3340
-1752
-972
2992
4692
-972
-5732
-6856
2412
7712
3292
-564
-5228
-1628
5868
640
-7568
-1480
672
4556
4412
-1984
-3588
1860
2988
-7980
-2696
6416
5492
-1076
-7732
-1304
6500
5000
-2792
-6496
-4852
2772
6104
1524
2496
-2080
-4688
-164
-2228
3216
940
-1832
3448
-1156
1264
-572
-4932
1656
1500
1284
1640
-2580
-2124
-2876
4368
5232
1756
-3688
-8180
-76
-400
8720
3312
-3664
-1300
-4612
384
1680
1380
1552
400
-1068
3004
-5608
-3084
2536
3404
-536
-2384
2944
-576
4312
-2968
-3356
-2888
232
4448
-3280
3320
3908
844
-1424
-5560
-1356
608
-1628
-672
4720
8080
576
-8784
-8056
252
9060
5504
1208
-6924
-6420
2684
-720
2920
1260
-164
2496
184
-276
-3004
-3004
-1708
1588
5128
1308
836
-3936
-3956
3764
52
1968
580
-3916
20
-2744
2452
3956
-1136
2556
-2152
-1476
456
-3852
1136
-60
2036
2136
284
240
-3128
-1020
-996
5368
1060
-6324
-1148
1568
5116
3848
-8608
-4952
5336
3308
2440
-2104
-3564
-656
1868
-1316
-1976
5524
1228
-172
-5696
-472
4128
-3700
2280
2092
2084
-504
-5260
-3992
2476
2404
2860
1884
-1452
948
-4496
-256
-552
-836
780
1608
1952
112
912
-1520
2176
-2664
-1828
-2052
-3972
4404
4580
4588
1940
-5076
-6708
-1676
-1248
5104
2872
2464
2100
-5156
-2488
-2744
2040
1940
2036
-44
80
-1544
1608
-1000
-5460
1420
-1772
6164
5196
1068
-4992
-5612
-180
-36
4160
-2188
-2024
-24
6144
4700
1876
-5284
-11996
-1368
4948
5600
588
-232
2728
-440
-1500
-4888
-2908
4716
-40
1580
1208
-3860
1144
2728
88
-56
4
-3892
-1896
-1320
3620
3652
1776
1084
-3504
-3940
-1232
528
476
4444
1040
868
-1940
-3392
-1588
-1536
5144
2060
1100
-1496
-2972
-884
-2124
1400
3000
1108
480
468
296
-1368
-3704
-4620
1520
4752
4616
1788
-3644
-5212
884
5200
-1440
-3916
-2244
1120
3856
3328
-1448
-2108
996
356
-2224
-3572
360
1772
4340
664
-716
-724
-3216
-924
3748
2160
-2624
-2260
-5160
1640
5668
5360
876
-3624
-4204
-4420
1828
1220
2568
1144
456
1504
-1848
-1336
-3472
-1560
3692
2436
3772
440
-6100
-3864
-892
2668
4008
3556
-432
-2476
-3304
-2644
920
768
3040
1764
-552
580
-2516
-1360
200
-1084
2508
180
-2036
3480
24
-824
-1692
-2708
1300
2908
1656
-168
-1624
-5080
140
3808
1716
5848
-2752
-6948
-3684
332
7148
3808
-3280
-3876
-2212
4144
5456
-1740
-4048
-3496
196
3708
716
96
696
-1360
936
-880
-2532
-120
3236
1560
-844
-2316
-1832
1384
2336
688
-580
-24
-1984
-952
-1640
1292
2920
2852
-464
-2076
-1572
-2256
592
64
824
1024
3116
712
-432
-4076
-2060
456
-396
1708
-1056
2160
3716
3916
-1644
-5964
-7996
-1136
4956
6124
5684
-4680
-3300
-1148
-172
4180
-892
-2528
-2052
-1320
2720
3712
2792
-1332
-6992
156
2860
1224
1988
-2912
-1620
-580
2136
-940
-24
1900
168
3256
-632
-3336
-4852
-1448
2656
3388
3436
-660
-968
692
-1792
-2964
-2808
1436
4688
1708
1140
-3964
-3592
1080
3256
1992
-1880
480
-2512
-1480
792
-572
2824
468
2260
1976
-4128
-2132
-3108
-476
2564
2000
2644
444
-1176
-608
-2704
628
852
64
-1108
-824
1460
1576
1044
-2896
-696
-780
1888
5644
-1336
-4988
-4300
292
4012
3160
220
-964
-532
164
-1420
2048
-3984
-2108
1708
796
4980
424
-600
-3652
552
1244
-2524
264
-2528
584
2024
3864
2268
-1036
-3584
-3568
-120
1296
1104
472
924
372
1380
-684
-748
-3184
1356
1176
-700
-348
-2716
3352
1652
1184
532
-2964
-1468
-108
-440
184
780
-392
1248
3532
12
-1464
-5164
-3256
5644
2020
1256
-1324
-4556
2592
3196
-1356
-444
-4368
52
4476
2296
1980
-4788
-5852
-1324
4432
4128
3776
-104
-2504
-3420
-3920
756
-228
568
2232
3528
2328
688
-3236
-4392
-280
-1400
1108
1724
684
2020
-352
-1508
1596
584
-140
-2132
-4264
1036
116
3156
2688
332
-444
-1256
-956
-1588
764
-2124
548
1692
-940
2408
1144
-332
260
-2584
-876
-460
216
2620
-704
-1924
1756
484
48
304
-2132
-592
2600
1108
24
-1908
-3476
-1332
-548
6080
7680
-536
-5104
-8144
-3368
5088
3504
3308
-1344
-1436
-500
-940
2944
-1960
936
-1872
-1348
2780
-1708
716
-1352
748
1992
1644
816
-1856
-2084
-2852
-928
1536
3752
2088
1088
-3824
-1304
-3188
3328
2500
-624
2512
-5760
-1032
-780
2528
4768
500
-320
-3104
-2168
-836
-660
1344
3300
-672
496
-500
-212
-160
-960
376
-604
1948
-504
-1672
-3064
1260
4400
3220
-360
-3716
-3148
-1032
2624
152
-2224
420
4324
2492
1972
-4224
-5724
-188
208
2220
3044
-1808
-1128
3344
-368
2432
-3080
-4084
332
-480
2704
1564
816
-1468
-1356
1588
352
624
-1384
-3044
900
308
1144
-92
1344
2396
-1964
1192
-1892
-2952
-1956
-124
3216
3992
3268
-4648
-2300
-416
-2276
4556
-136
-632
-80
-1504
1672
-952
864
348
28
1976
-1352
-4868
-1608
4592
4104
240
-3676
-3188
1532
4736
1604
-4524
-3256
-4232
2152
7980
3596
1604
-6992
-7232
1624
3044
2004
1860
-2408
-988
1272
912
1348
364
-4396
-2076
-52
892
4248
3000
-2108
-2320
-1616
-232
3720
-152
-2296
-3540
136
3792
1848
2968
-872
-3108
-1380
-3768
-712
3156
904
4580
1352
-1396
-1852
-3972
1316
-2936
-544
2904
2952
3204
-1012
-3612
-744
716
-76
-1204
-1768
996
848
3960
2748
-1976
-3792
-3932
464
276
4388
2328
-1632
648
-3108
-148
964
648
124
-2584
-1936
2968
3852
-1708
-440
-448
-952
-396
688
-656
1860
76
-2644
1504
-972
344
1916
-1292
1416
-624
-396
-4
-2300
892
-116
-1032
2284
2416
1916
-1876
-3084
-3564
292
2328
2668
2436
-2856
-896
-1200
-700
1788
1704
760
-808
-2256
-956
-116
540
2532
396
-192
-2560
-1196
2496
688
1548
-1364
-1804
232
-680
-1044
1104
2216
2308
-2236
-3320
1704
1072
1708
-1052
-4108
-2128
2232
4484
3008
656
-4608
-3980
36
2236
544
-28
648
380
156
-1124
1088
652
-3048
976
964
456
1924
-3632
-3100
1044
2804
2512
1492
-1808
-872
-1744
-3880
3072
544
760
1284
-1624
1088
2372
-168
-2304
-2844
-1768
2328
2096
-80
-1256
-576
4792
2692
-792
-5940
-6560
-1156
5320
6400
2696
392
-4556
-3208
-2904
-2080
4620
5036
2188
-1604
-5264
-4492
2592
3828
4620
-692
-5496
-976
-1496
1924
1820
1788
-332
-1276
44
-1112
176
-336
-1160
2016
1864
160
788
-2604
-3380
-1916
1588
4636
3100
1468
-4248
-3656
-728
944
904
220
1652
188
-216
404
928
-224
-3832
-4224
2596
4336
3016
-220
-2040
-680
-2112
-1420
-864
1844
3064
876
-796
16
-1544
312
-984
-1612
-76
1024
2712
536
-280
-2076
556
1480
1232
-3032
-5048
1396
2544
3248
2024
-2312
-2360
520
-368
1796
768
-2928
-3524
-1784
5024
8596
212
-5032
-5228
-3620
2844
3860
740
-2292
176
1504
4884
1320
-7680
-4284
-1988
3012
7724
2484
-2416
-6016
-2340
3896
2696
1812
-2828
-4460
1352
2424
1508
-248
-1300
-1128
-116
1324
636
-676
-836
-1024
760
2684
-688
-420
-680
-644
592
-464
-1164
608
1584
764
1524
-1444
-3344
-800
32
3312
1696
-1544
-852
1496
-68
-1688
-1380
-2312
2856
3504
532
268
-2188
-5800
320
4712
1692
792
-2040
736
-1024
352
-1856
-3900
2208
3552
2872
564
-3236
-4016
536
3808
2220
-2668
-4928
-528
2924
2476
4132
1132
-1928
-3768
-5280
-2852
1212
4336
6472
4268
-2184
-4396
-5792
-1328
3692
1356
208
-416
-544
832
2228
948
-2700
-568
-1516
-360
2220
-1124
-484
236
2880
3068
-388
-5508
-3236
-152
1280
4268
4568
-216
-8456
-1376
3632
1652
-968
1304
724
-880
-448
-3528
3272
1688
-5776
-3280
5056
9452
696
-4624
-5608
-4136
1568
2016
2900
2528
828
232
-3820
-2976
-1504
2320
5048
-912
-236
-3424
-540
1824
-1504
1792
2576
348
-324
-2796
-2476
-1280
-72
3200
3328
3244
-2304
-5040
-1960
1208
2336
1664
572
-1532
-2492
-1492
1024
3148
3140
-1300
-1472
-2564
-2580
1988
588
3584
-808
-2956
-296
4124
3124
-5112
-796
-3348
-2264
3108
3972
4940
-480
-4984
-5044
420
6404
1128
-3216
-1104
-4044
-908
5312
7240
2084
-5780
-5800
-3184
1440
2272
3204
556
-1428
-292
1792
5156
-724
-8368
-8296
632
7884
9268
2776
-3684
-7852
-8484
3500
7064
4936
1520
-7648
-3172
1096
968
4024
584
-2732
-2364
-808
4632
2604
-2356
-4320
-1776
2704
2288
1328
1156
-1480
-2644
-1656
732
1956
512
208
-2228
-748
2404
1476
2640
276
-6572
-7092
2348
10592
1988
-4024
-2756
252
-264
-1384
3652
1520
2332
-8880
-8780
5468
11552
8380
-3640
-7440
-10384
-2040
5756
4908
3836
1180
396
-3260
-3532
-4112
-3856
4644
8144
5184
-812
-7672
-5392
-1200
2012
5464
972
956
-444
-2636
-568
-3200
-584
3496
3260
2156
-208
-4608
-4788
280
2824
2508
4160
-1188
-2704
-1984
-3220
-1000
3296
4336
3856
-712
-5712
-4568
24
2316
3368
3296
-464
-4708
-4388
5196
1732
-1848
320
-1300
1592
2536
-2156
-2064
-324
60
1376
-232
1336
436
-2812
3112
3184
-6592
-4868
2984
5576
712
-844
-1008
440
-260
-2340
-1720
760
2432
624
-344
-580
264
708
2240
-2236
-2860
-576
1524
1828
-1896
-792
576
5576
3200
-4568
-6220
-3628
884
4556
4444
1504
-28
-5016
-1524
1364
1204
2144
-2996
-2384
552
72
2644
896
-1072
2556
480
-3800
-692
-2208
1096
3868
724
-4424
-3044
8548
3896
-6560
-5836
1420
3812
580
1240
104
-1712
1172
-4088
-5132
4428
8992
2840
-6248
-4068
-3140
1380
2356
-960
1132
5552
3044
-4740
-5824
-4816
2096
5916
5308
476
-4468
-4400
-3400
3308
2596
4992
-540
-3808
336
-3720
-172
2216
-16
1100
2056
624
568
-4424
-2832
1120
2428
3348
-1784
-3052
72
1092
1940
1500
-1036
-2700
-1868
1100
2356
156
28
-1176
-484
1808
-1564
-316
-436
3152
848
-2504
-1964
-1504
692
2600
5828
-2092
-3820
-2252
-2284
2404
3152
1612
-2724
-900
3356
-1864
-3776
4008
3044
-2544
-1960
-3208
1168
2452
312
264
1756
3284
-560
-5468
-6276
-924
5548
8084
-656
-3064
-2040
-2180
264
620
3692
748
-3056
-3324
-232
1852
1652
1576
1764
1316
-2196
-1608
-4376
-4280
2820
3672
5368
1636
-2024
-1948
-1412
-1696
-1460
-2240
-116
5172
3452
2068
-196
-3636
-3752
240
-2656
-2524
7040
5604
-4844
-2244
4196
1764
-3336
-4104
-596
1156
6348
-3500
-9688
4360
13056
3076
-7808
-7816
-3644
4840
3692
4
1188
-1300
1248
-108
-2308
-140
-1940
1816
3184
932
-1832
-4344
-1168
1224
2556
3952
2184
-2012
-4708
-1424
-688
-348
2864
-1312
904
3796
1464
676
-2368
-5188
-2140
-860
2440
4204
1748
440
-1188
380
-3032
-568
-1672
-92
3748
-460
228
64
-2120
-248
3072
12
2096
-1008
-4892
-1568
-548
5388
924
-112
1488
-4456
-2708
3664
1828
276
3572
-5976
-6780
1664
6304
3616
-2684
932
1416
-2024
-4428
-4800
2296
5664
2616
116
-1132
-2068
-696
1276
-2384
660
2256
-2792
-740
-1228
4272
3548
-1168
112
-2756
-2516
-2532
-488
1848
4316
4104
184
-2468
-2624
-5520
12
3104
3116
4356
-3608
-3548
-928
-200
3908
1180
-376
456
-3728
60
552
-820
-460
1568
1104
1036
3544
-2664
-6328
-72
5004
-3424
4
3732
336
-2840
1840
3840
-1372
8
-9972
-4760
6980
10148
1908
-3752
-2224
-5288
-56
2252
1284
-672
2908
1012
-1336
-1252
-5708
1716
3704
2484
1524
-3708
-2892
-2480
2948
5824
-28
-384
-4996
-1648
1036
-556
1600
-324
4520
-64
508
196
-6316
-2024
-1312
1136
6820
3628
292
-3132
-4332
-2264
-940
3828
716
-556
-912
3868
3900
-2828
-2316
-6912
-184
3660
3124
2704
324
-1352
-4240
-860
2180
2056
-1724
-1700
-124
536
2864
-536
116
3768
-2052
-7320
2588
1292
-3520
2260
1608
7172
252
-8100
-4352
-160
3172
4164
3080
1652
-4744
-6376
-1320
4
4012
6292
432
-804
1368
-7964
-2112
-880
-360
7868
2008
968
-2020
-6116
1880
976
812
12
-2320
-424
952
1216
-404
4232
-384
-2596
656
-3688
-1348
-680
-552
6344
4936
380
-4172
-6072
-1720
248
2888
3796
3748
-3508
-7112
3780
5860
-504
-7676
-2236
7024
-496
-600
476
-996
4640
-4952
-5536
3732
7320
520
-6624
-1752
-876
2136
4928
1092
-3316
-1060
-992
-1412
280
840
-368
4164
2984
-2316
-3012
-4084
-1892
3048
4344
3384
-376
-4816
-2216
1064
1948
736
-3272
-2744
3240
2488
2820
2888
-5780
-2204
-2148
-588
3516
64
292
772
1616
1584
-2796
-3496
240
-496
1692
2608
308
368
-364
-4168
416
-1888
2700
4428
-1256
784
-4608
324
1060
-2244
1756
624
716
2728
-5228
156
6456
-1104
-4424
-4892
2436
1060
1260
5620
2084
-4348
-6496
-460
4228
2372
-2932
-2520
768
6320
2828
-1600
-6080
-5256
1820
1880
4276
200
-388
-4932
5124
5604
-884
-3032
-13200
-864
4808
6516
7916
-1268
-4200
-3324
-2768
1028
440
-152
164
1524
936
1600
168
-1816
712
-3988
-20
-1232
2984
2964
-2100
1304
1072
1020
-2764
-3460
-3032
-1148
7012
9380
-5580
-7964
1180
5256
1788
-4628
-2316
-1936
4416
2776
-7232
868
10252
2356
-6128
-3460
-3560
-1944
1388
1884
3580
8816
2028
-9076
-8040
-6828
4012
8436
7964
2928
-5400
-6164
-7264
1632
4944
1760
888
1428
-676
-684
-136
-2976
-1736
1620
3260
1764
1456
-6552
-4744
3896
4580
4692
-4272
-3316
-1772
-796
2912
972
3500
892
-4688
-3376
436
1488
2652
844
-620
-472
-1380
-1192
-1076
4884
1636
-2968
-2900
-2076
1940
1888
4176
-124
-576
-1844
-6168
236
3040
3092
-1100
660
3856
-5160
-3768
3496
1244
1080
-3640
-252
4680
-344
-2284
-2204
-532
2908
2908
-796
-1268
-5116
-2032
5144
7580
400
-4960
-6124
-2156
2720
3192
4652
-3264
804
-632
-1548
2284
-4456
-140
-52
608
3656
-60
1832
716
-4388
-2360
-352
876
3384
-972
-1420
836
1664
4508
-3784
-4360
-3152
-840
5052
4832
3748
-2872
-7388
-452
3688
-440
-4448
1376
7316
-1296
-3556
-396
2048
3352
-3828
-8412
3900
8952
-1804
-3056
664
-492
-1744
604
-2712
-400
7892
1592
-3008
-3296
-3800
756
4992
3676
-3304
-3140
-876
-64
4048
-708
-660
372
-744
2140
-208
-2516
-2268
-908
1232
5032
4656
-2080
-4744
-4332
-2400
3240
4224
2928
-768
-660
-2636
-964
688
-200
-604
-1116
1312
3100
-668
416
-580
-2144
2612
-1768
-104
-2312
-1692
2264
3480
3020
-984
-948
-4884
1096
-1436
-380
4080
-2844
3376
3432
-3796
-4592
1156
4032
-1376
-3664
2148
3628
-408
-800
-1440
-2404
1240
204
1264
80
-436
3524
-2816
-1884
-2268
1568
5164
-848
-2488
-1128
788
904
908
-1484
-1120
-260
1268
1960
-3456
1008
2508
-324
1872
-3316
-2528
204
-200
596
2544
2460
1656
-2712
-3832
-1452
-472
4976
1136
-2012
-616
-2132
-2172
5640
5092
-384
-3300
-6812
-3840
4012
7304
-788
-2640
-372
2184
620
1248
-1336
-5952
-2348
-324
6708
6804
672
-5792
-4104
-4876
3504
9640
-3764
-5316
-4672
6936
8244
-484
-5656
-6364
-40
4024
2840
848
-2112
-4256
2764
1312
2536
-1776
-2656
1836
-1380
688
-332
-324
3812
-1156
-1276
-792
-2700
1016
1020
1252
1696
1540
-1156
-2444
-2076
-948
3300
-424
-716
2932
-1572
2368
-1504
-2808
-2756
-88
7720
3072
-2808
-6544
-3396
3316
7140
1040
-4208
-3576
-88
264
2736
1880
1376
-1840
-6288
3980
4076
-3412
-4164
3044
2116
1372
672
-3428
-2984
-2400
4400
7788
1780
-6456
-7376
-1892
4588
3480
2048
1836
-2944
-928
-1260
-268
-332
-1380
612
2072
3676
288
-3428
-3324
-560
1476
3504
1012
-1780
-4384
284
4220
2068
1940
-3128
-3812
-3052
1276
1548
3532
2352
-1864
-1148
-1092
-1340
-32
620
1864
2480
-2248
-1596
-2432
1176
2944
-240
44
-2004
3092
-2268
-4948
4312
4548
-772
-3880
3472
176
-7984
-1356
5296
6396
-492
-5816
920
-20
-1196
856
-248
1704
616
200
-4
-1664
-2140
144
1392
-48
-288
3016
600
-1716
-392
-1172
24
-1056
-52
1048
2568
-56
-2808
212
1000
3300
-1312
-4672
-1636
-140
3036
4492
1804
-1464
-3556
-2748
80
-68
952
2596
436
688
-312
-2636
556
1172
-1308
316
-1888
672
592
1612
1616
-840
296
-3764
-620
1380
1468
-856
-168
3612
952
-4532
-3656
1028
3144
748
-732
5184
-1852
-4972
-896
796
80
-452
3140
2472
-524
-4248
-48
408
1332
2672
-3512
-2452
-396
1136
3688
4224
-1292
-3244
-2708
-4532
1664
2336
4076
1700
-2672
1368
-760
-1996
-372
-3768
832
4472
724
704
-2148
-944
2612
612
-3164
-1248
-1320
992
3016
-204
368
1972
364
720
-6104
-4704
2140
3180
5068
1440
-1924
-4424
-1520
1396
184
-1232
5756
6260
-8876
-7008
2800
2344
-1472
648
6680
3164
-4480
-7296
1144
668
-496
5400
-1456
-3480
16
2012
4188
3860
-5276
-7568
-1744
996
5764
3396
-2296
-2528
3804
3748
40
-5380
-10280
40
5088
6340
5228
-4136
-1164
-1280
-1352
2076
-3576
-1592
-756
1528
5884
2296
-768
-628
-6472
-1756
2156
-392
3100
1080
-852
-632
1712
40
-2000
-1144
-436
1320
900
304
-2292
2488
1868
-3632
-1976
1384
1944
176
1408
-1112
720
-4340
-2832
5600
3984
-3744
-2092
1656
1196
-40
516
-120
-5172
-3360
2960
7944
3724
-2216
-7220
-2336
1268
2540
1532
-3444
376
1332
3404
4228
-4336
-6592
-3416
2036
7936
2968
-3388
-3776
-1548
2008
2860
-752
-1372
-1588
1504
1176
-148
924
-3468
624
596
-52
488
-320
1404
688
2336
-2944
-3184
-1116
-1544
2776
4508
2248
-952
-3212
-3052
644
-880
-428
2376
5808
2556
-9216
-2044
1472
-2900
4612
6488
176
-8752
-4468
6772
5320
-3848
-5332
2808
564
1552
3648
-1680
-4796
-1716
1476
2580
1412
-2804
-168
2440
1264
740
-2996
-2928
-900
1448
2052
244
912
996
548
228
-2296
-3344
-1932
-1392
5128
4684
2996
-2636
-6060
-684
76
2876
-324
-1056
-1588
3644
2864
-1356
-2916
-1628
920
212
1448
-1936
824
308
1368
576
236
272
-3596
-1552
-1448
4464
2968
-1892
-140
-1776
-1216
1568
596
3684
-3036
-6752
6028
2796
-3272
164
60
-276
-340
-68
3032
-2620
-1408
2168
1236
540
-4096
-496
952
2736
1948
-3556
-1780
1068
1120
852
1476
-1308
-1360
-2892
956
1660
1700
512
-2288
520
136
3660
-1816
-3736
-2240
-548
4972
3668
-740
-3860
-920
628
340
1584
164
-2632
748
-104
684
848
-464
2512
-3936
-392
-144
-304
1872
384
2360
1364
-2544
-4184
1976
-1128
-5268
4104
9340
-1432
-4000
1680
-576
-8884
-484
11488
-340
-4896
-2220
1944
2988
1076
1792
-3672
-3628
-1896
2736
4984
-2312
-4132
2408
2008
1316
4648
-6444
-5720
-948
3244
7404
908
-5180
-3864
1224
2852
1484
-1264
-836
236
-912
880
-960
-984
612
1252
2744
1336
-56
-5320
-4456
312
1132
6556
3924
-2116
-2944
-4040
272
2112
1696
-652
-1588
-1012
1364
3100
-144
-2656
-1536
836
656
1244
-212
2848
-3000
-4632
2644
1584
-192
-2320
4404
3964
-5404
-3904
2184
1276
1772
-1288
-2800
-1340
-1644
5764
6920
2280
-8556
-8352
-420
5732
5904
-1992
-1840
-3144
2444
5336
-2436
-2604
-5332
316
4708
4184
1788
-3916
-2836
-376
-968
1752
-284
1652
1044
-2144
2808
-776
-644
-2544
-3400
2212
2968
3176
1248
-1576
-2676
-1844
-828
-300
-644
1820
1980
2776
604
-900
-824
-4284
80
-2864
-1412
5056
8500
2436
-10328
-3960
4324
-592
-2300
4244
2056
-7900
-1000
10348
5144
-6472
-8088
-800
3280
4668
1516
-2680
-4612
-1564
3604
6564
120
-4700
-3116
-964
2612
2996
572
-3872
-2652
2368
3048
1480
-160
-4484
392
-736
924
3420
-4152
1164
924
-1272
2800
-200
-760
236
-2412
-1504
-604
1536
2940
2264
104
-3592
-628
-1040
2556
-324
-3220
-1336
2064
5156
1976
-616
-4124
-3848
-1040
436
3224
5408
-272
-4468
-1244
-296
-1824
1212
8220
-396
-8556
-1608
7056
1388
-5924
-3620
480
6088
4800
2684
-4372
-7712
-4444
1876
7768
3976
-3056
-4096
144
2200
4236
-4680
-2928
264
-1288
4880
1168
-380
-2496
-764
1892
292
1460
-2676
-3476
2040
1660
1996
200
-252
-1300
-5012
2032
512
4664
1996
-3156
108
-4416
-1180
920
2072
1720
2900
-1476
-772
-1092
-3576
1948
296
280
1116
-1188
-200
3700
-260
-1432
-1632
1728
-644
-8768
3972
7820
-2888
108
3952
1276
-6660
-6872
6352
2500
-5012
-1588
7592
5300
-3476
-1012
-7464
-2188
1220
6264
6308
-5020
-3128
-4140
1872
6756
1684
-4064
-4580
-1472
3476
3952
-600
-988
-1484
-1336
-1268
2612
2892
428
-196
-4860
-1116
1656
2052
1132
-3396
-584
3628
1972
576
-1896
-5104
-368
336
1008
1616
2020
2984
-412
-3380
-428
-324
-2324
448
-3884
2012
6268
436
2736
596
-6300
-3660
100
980
136
-912
6316
3476
-4980
-3000
6028
-872
-9260
-2648
2452
9920
1820
-1016
-2304
-6856
284
4004
2936
120
-4276
-4044
3244
4004
1176
-868
-3020
-2060
860
4520
584
-4112
-940
640
736
1220
-744
604
76
604
-268
-1708
-812
-1280
2848
-388
828
1684
-316
-920
-1044
-368
-2260
1908
144
652
392
88
2088
-2376
-752
928
-1124
552
-1816
-544
1212
2668
5460
-1832
-6056
-2768
2500
-3228
-3020
9472
5212
-1780
-3376
384
-2556
-8040
-32
9872
5356
-3752
-6068
2204
2752
-2828
2052
-116
-1488
-2388
-604
2484
1032
1712
-508
104
1996
-1340
-3304
-5316
-776
6420
5328
1824
-2560
-4600
-2944
316
1544
1728
2408
124
-644
-1644
-1868
1192
-728
-1272
1872
1248
3288
1032
-5132
-3556
-316
4208
1620
-2504
156
332
2144
2384
-2000
-4492
-1548
1564
172
2600
-868
832
3540
2200
-2532
-10240
-752
4220
2084
2520
2988
932
-5436
-2672
3020
1888
-5288
-6332
6108
8648
1732
-3108
-4652
-1760
-1328
1272
2960
2164
-2628
-2032
2616
-868
464
-548
588
680
-264
448
-2724
-388
-92
1524
1372
2784
-1448
-2708
-880
-2512
2932
-240
2908
1744
-2516
-700
-2512
580
2108
1016
-284
-2432
-72
1068
-1352
2276
-608
1156
2168
-2948
-1312
-2528
96
3572
928
1388
-432
-1164
-404
-3712
-2456
4260
7200
-4744
-3576
4480
-1304
-2448
-760
4824
-1712
-2164
1572
-792
4420
-3516
-6344
5036
5256
-1496
-2704
-2092
772
428
-224
2184
2564
-1024
-4640
-60
-1624
4204
3488
-3736
128
-1476
184
660
-244
-408
2332
780
-1248
-536
-2232
-552
956
736
2852
372
-1712
364
-5228
2240
3476
-872
2104
-5804
-4
3400
168
724
-388
-716
-1736
1968
24
156
-2412
-1348
3420
1180
-852
-100
-2160
2472
128
-3856
7092
-2068
-5380
-36
-788
1140
6520
1656
60
-1640
-9160
-2088
4424
2556
1024
1312
980
3664
-6272
-3608
3228
-2416
1244
-3172
2232
6432
628
-1484
-5092
76
260
1268
1156
-1676
-380
-1128
1356
3824
-8
-1528
-5004
120
4528
1232
-756
-3380
-1776
2860
4492
-344
-3464
-2140
-1888
1240
3944
3308
-620
-4876
-2444
964
1728
4308
-2980
-2608
912
1048
4368
-1748
-4144
-344
268
-3900
3364
7124
3140
-5596
-7336
1288
960
1864
4768
-496
-5256
140
-1484
3484
3512
-2140
-2328
-3248
2308
-1252
3640
4832
-3272
-2320
-5228
3076
3880
-664
-652
-3944
2724
3804
-1212
-984
-4268
660
2592
-60
2028
-1824
2232
-2736
-500
2268
-4560
3456
-900
-284
2640
-2484
1208
996
44
560
-3512
-2912
-2964
6032
7992
396
-1276
-7628
-4756
1228
5016
-1356
1764
1008
1752
3624
-4184
-2136
-6012
-2208
6136
3400
1952
2368
-4388
-2952
-1904
2360
3940
-2668
-1468
-1520
1172
1516
-704
2480
2148
1316
-4492
-5532
944
1860
708
732
2232
3456
-3176
-2416
-784
-752
2652
-3212
828
1732
1756
-412
-472
588
168
-976
-3712
-248
-264
3444
3492
-712
964
-3264
-5956
2016
2932
5940
-436
-4984
-4072
-336
5404
1168
-1468
-3764
1144
4820
2108
-1056
-3740
-5592
1452
2208
1540
1688
-2464
2256
2732
2820
-3220
-10308
-1816
5304
4348
32
488
2712
-1636
-4716
2620
972
-4664
-204
2608
1188
748
-1756
-132
3980
-644
-3632
-2516
-1340
5236
2728
-436
1032
-2540
-4660
-3288
492
6420
6680
-1100
-1300
-3484
-5448
-1292
-1276
4104
7056
3832
-2920
-4432
-5276
-72
4828
1180
-120
-2912
300
-36
1704
840
2316
-1572
-1496
952
-2852
80
-4532
-496
7108
6568
764
-4244
-7088
-2836
1628
5376
2492
-1292
-3416
-4044
5916
4192
1868
-4128
-8716
328
3008
4648
792
-2680
1832
1696
-3316
-396
-1508
-1344
1868
3196
1856
-2508
-4000
-984
4592
1032
-1200
524
1268
-3908
-2088
-1960
3444
9932
-1468
-2668
-7200
-4300
3348
4336
4672
-612
-2648
-4568
-1180
4036
2880
1228
-2676
-2516
620
-804
2776
-1536
-4608
5196
244
3640
852
-4160
-2244
-4072
1584
2436
4372
1204
-3540
-2380
2680
1856
-1116
-2824
-4196
2128
4220
520
1352
1248
-5180
-3304
3484
3420
-3308
-348
2812
-580
1428
-1480
-2168
-5368
688
8652
1168
1408
-3784
-932
-344
-5068
-576
1488
5704
4404
-5756
-3076
4136
3476
192
-7428
-7072
564
6636
6264
1968
-3224
-1484
1916
-3016
-2068
-2516
-5088
5608
6488
4516
1280
-8392
-4416
124
236
5888
304
-5872
2816
1776
688
1436
-236
-5148
-1008
-844
1400
6768
-2728
-1284
-228
592
2212
-4564
-1504
2780
-340
2144
64
-2188
2428
2516
-5080
-2000
-2044
2240
8704
-864
-2900
-10116
532
7112
7128
2264
-5128
-4832
-8776
4344
-1568
6620
8552
-2364
892
-7104
-5248
64
3164
-2212
3892
8724
-2596
-4844
-2576
-3628
3964
3528
-1256
704
-2908
464
-876
3220
-44
-1224
140
392
-504
-1688
1696
-1712
1824
3740
-3044
-2108
-3016
-532
3920
2528
5060
-1916
-2612
-5944
-5668
5628
4536
5408
828
-9512
-3416
1804
4084
5828
-2492
-752
-5424
-4276
1552
6948
6200
-3848
-5232
-520
516
236
2420
332
-3804
688
2328
-1172
744
-2456
3432
1864
2432
-4368
-10080
1596
6064
5156
1660
-2132
-4932
1612
-5804
3452
1756
1884
3308
-3904
-676
-5440
1344
5548
1708
-56
-3080
-4356
2208
1356
2188
48
-3340
584
2420
-2024
-424
2464
-1548
3132
-3332
-1544
2548
-4252
1108
2124
-436
6012
-2624
-284
-1140
-5412
1736
-2912
2332
7544
440
-1316
-6932
-232
4556
1316
3064
-5708
-7496
-2208
8108
7664
2972
-1696
-4344
-6240
-4528
1392
2760
5920
3524
-80
-2676
-4308
-1188
1508
-1120
1512
1028
-392
1768
-1560
-544
1248
-484
-504
2604
-2896
-156
-636
-2352
2048
1664
3224
1764
-3988
-2688
-4172
2116
5492
1996
1168
-2960
-4836
-4524
2908
3184
4064
4604
-2328
-3616
-3896
-4764
1840
2328
5536
2812
-2000
1192
-6364
-320
-1360
-884
3932
-136
1392
2936
88
-1268
-3712
-3120
3444
1368
-3424
-788
3672
2028
20
3124
-1888
-4992
-432
-2480
1184
1924
-1036
4588
4412
504
-5804
-5560
-1280
2284
2708
-1148
5396
1964
-4048
-2164
-4192
3816
-312
2304
640
-1216
1648
-4080
2344
-1168
692
-1504
-304
4276
-1424
1196
-2584
-872
16
-152
3724
1180
-2708
-5480
-1492
4900
6264
2536
-3928
-4300
-5724
-308
5004
4056
3520
-3188
-2200
-3516
180
2496
3696
52
-3024
-4932
-3968
7240
7292
3020
-5972
-4172
-2488
-1196
2488
-96
1532
3544
2104
-256
-4036
-2736
860
-1312
2176
608
-3068
3692
1044
1772
-1316
-4380
936
644
296
-1420
2984
-300
-1812
-756
2188
3412
-1692
-5696
-1320
3756
3144
2752
-4764
-2644
-2540
4192
4144
820
-1192
-5052
444
-2920
1780
1936
3764
3720
-3216
-6540
-3576
3448
6388
1636
-1988
-4000
-3588
2692
-168
3220
2496
-164
-1928
-2524
1104
-1792
-416
104
-2048
5952
5116
-1872
-3592
-7456
16
2600
4428
6940
-2016
-6788
-3440
-1388
-608
8104
3436
-980
2044
-8468
-2828
220
2968
4476
-2620
-340
756
1392
1364
-2672
-2368
-248
-1860
3520
1160
-1016
788
2300
-976
-1072
-1372
-2660
4192
-3896
320
3396
372
552
-476
-116
-1116
628
-2400
-188
-624
824
3440
-584
2732
-2368
-1936
-1612
-3328
4884
3176
-364
-320
-4200
-1536
4212
1936
-1284
-3128
-960
1696
6756
-788
-4256
-5132
-2928
4564
3624
5356
-96
-2868
-5152
-1732
-1332
1832
6436
44
-460
-1732
-3232
-1752
4220
2528
-876
-2012
-2880
1472
1892
232
1688
-1580
-3632
4888
-1968
984
-444
-4704
2248
1124
3112
1560
-2040
-3260
-248
-1352
3156
2120
-2172
1552
-3368
848
-2956
2284
5976
-344
652
-7440
-880
1160
-796
436
2332
5172
1016
-2832
-2976
-1792
-2888
2176
1560
216
248
1800
936
1952
1820
-6408
-5812
-216
3888
2064
2388
3876
-2952
-4784
1204
1712
2784
-3900
-6988
992
2884
7932
-44
1724
-1684
-7500
-2744
-348
5580
2532
-656
-1220
-456
64
932
320
232
-1832
-2364
4
656
3924
2444
-3576
8
-300
-2612
1232
-1200
-2568
6808
2240
1104
-1732
-8540
-2436
2324
4288
6568
3476
-7896
-3396
-3172
-1348
4432
3724
1276
364
-760
-1196
-1856
-3776
1660
892
1216
1580
252
96
104
-1788
-920
2424
-100
-2504
-808
-3072
3168
3052
2492
4960
-5520
-6232
-2776
1076
5292
344
828
1420
-3592
88
-588
4104
2080
-6440
-3700
-1656
2336
6104
4360
1364
-820
-8236
-7060
2772
2684
4348
4380
-5956
948
2668
-3676
3064
-4024
-2056
1184
-992
4676
-652
1932
988
-2636
-380
-2744
-1096
-1244
3640
3280
32
356
-3364
-2580
4116
160
-412
440
-5896
1780
1568
-184
6372
444
-1480
-3868
-5116
-1692
3880
3320
1244
3856
-1180
-3948
-2280
-2884
1260
4108
3484
1796
-5864
-8256
820
7976
6308
1512
-3540
-9600
-4936
2520
7676
8564
-2216
-3784
-6448
-5428
4220
4124
3692
1672
-788
-1388
-4424
-4444
592
4804
4748
-660
-1236
-4116
-164
2016
480
3720
-2920
-3256
-2004
-1000
4552
3932
1616
-348
-2192
-5348
-4672
3920
3996
1288
1076
-2708
1812
180
-2328
700
-2840
356
-84
724
2888
1208
-552
-1336
-2468
1260
196
1048
220
-3468
296
-1716
3132
6376
1900
-4768
-7980
-1980
3132
4868
2944
1444
-2640
-7152
-1748
7576
3448
-1364
-5468
-4248
5892
3228
-1164
-532
-1016
-1056
-108
0
1112
-80
1556
8
-1576
-1596
-1348
3964
140
-20
-2244
904
1852
-1148
-588
-1912
-84
3828
-516
-1432
1172
-2908
1764
-320
1784
496
-648
-436
-6392
2656
1632
2280
7180
-3908
-4648
-3184
-1312
2560
1356
3496
2820
-504
-5588
-7916
1520
7516
9224
-1572
-7072
-4628
-5000
2140
9212
6652
-4144
-8888
-3040
4152
6000
3956
-3532
-6556
-5872
-296
8316
8328
4168
-9272
-4932
-1696
-2376
4516
-2044
4788
5084
-2212
772
-5180
-4640
1444
2312
3576
-320
-368
-1700
-1432
1224
1208
948
-1724
684
-760
-1720
2696
-1748
-1592
3612
-12
1260
1492
-5860
-1844
96
3016
3548
444
408
-3920
-4200
636
3588
1672
4748
-4052
-6440
-100
-480
8448
4844
-3764
-8384
-4768
2984
6208
3940
2488
284
-8752
-8244
-432
7900
9560
-12
-3976
-4400
-5168
2948
6264
616
-4352
-5384
1084
6356
3780
680
-3800
-2360
-1644
-2980
-1360
5224
5312
-2060
416
-1692
-2232
3480
-2600
-2020
-16
-680
1688
4284
1316
-2284
-1772
-2796
728
3132
4
-608
-1944
-1752
232
1776
7480
-1412
-4088
-3312
-2140
4188
-2320
928
3264
2792
-772
-4404
-40
-1776
532
2968
132
1724
-3304
-3444
3944
2236
-668
-3536
-720
4156
744
1460
608
-6240
-7000
1668
9300
6296
-2424
-5172
-4516
-32
2276
3488
292
-3064
-1792
880
4900
1200
-1916
-3452
-4780
2372
3336
3004
656
-2604
-788
-2308
-368
2384
2976
-2800
-2216
1948
2016
-1044
-2316
540
1708
780
-148
-1644
-3080
2872
384
2140
1612
-5376
-892
456
1176
4116
12
-2304
-376
-3132
-164
444
2904
3732
-1728
-4184
344
1036
-544
2192
-84
-1720
356
-1476
-3080
4200
4704
2212
-4800
-6952
-416
5520
2728
560
-1292
-4700
-780
2216
6240
-1860
-4496
572
-908
244
2604
-292
924
-724
-2332
2404
-2508
-1676
3096
132
5012
-556
-5248
-2364
-2268
1776
3764
3836
2488
-3908
-4160
-3840
128
4656
2896
2736
-388
-5216
-4128
1784
1880
4108
-1944
-2580
228
1400
3936
-2756
-420
-5220
-1820
4104
5252
2788
-832
-3268
-7872
692
1296
4920
2700
-412
188
-5016
-3796
3700
2952
76
-228
28
2312
-7420
-3776
8236
5712
-1324
-5684
-1884
-3296
2820
7368
52
292
-5584
-4152
1644
1940
2384
724
1772
-1436
-3596
2556
-332
512
-3836
-4256
6416
3772
340
-1440
-3080
140
1776
-964
996
-1660
-1304
-476
224
2624
1280
3072
-1952
-120
-5460
-1220
2476
-3888
5676
424
2356
4400
-1840
-7196
-6536
1848
3916
3812
3924
-604
-2972
-5468
-1160
3828
4160
3972
-6580
-5204
-1800
-600
7784
7264
3484
-5048
-14784
-3300
6388
6584
5184
-1208
-1100
-6972
-6944
5708
9120
-648
-680
-1236
-4820
-1628
-3056
3648
4612
3196
1012
-1408
-4204
-2168
-2236
524
3012
2196
-20
-1380
1768
-96
1656
-2744
-1516
116
-5144
2160
5068
3088
352
-5136
-3300
4324
2876
-1536
-1408
-5096
-396
3352
2472
3688
-740
-1236
-1964
-3528
1740
-2652
1812
1700
-92
3408
36
2652
-1500
-7584
-5596
3192
6164
3424
76
-1068
-2160
-3588
3328
3136
-4920
-4640
2216
5460
3984
948
-7188
-5188
1620
2792
4200
880
-164
-3240
-2032
-1552
-816
2312
2772
3508
816
-3128
-7044
644
3484
2132
2980
-3144
-4096
-876
820
3788
5308
-1396
-4212
-4380
-1868
2688
3396
3464
-1672
708
-2812
-3508
3604
-88
-40
-1868
-616
2608
1756
1392
-1548
-3800
-1340
1708
2148
4008
-1548
-4028
-3852
-832
4532
3704
5196
-1208
-3588
-8288
-5812
3252
6812
9172
3132
-5404
-9356
-3160
1500
4188
3520
-396
-2328
-1244
4332
-24
-4536
-1992
28
5424
3172
-3952
-744
16
-3412
1084
80
1608
3592
-100
-2216
-2596
836
-852
4252
-2448
-5408
4496
468
5236
1016
-6460
-2752
-1572
2664
2696
2288
812
-2932
-2300
-1096
396
3220
1996
-1352
-384
-3976
-1436
3560
4320
1200
-4252
-4192
-1420
5252
1332
412
40
-3440
84
552
1532
240
-348
992
-3860
-1988
1180
5060
2880
580
-1856
-8748
-4792
4860
7700
4144
-1500
-4568
-2648
-2812
2688
4356
-2140
-2676
1128
5764
-732
-4460
-1220
-2108
5224
-204
-2928
4124
-860
-1004
-832
-1844
2240
1372
-612
488
-2204
880
-72
124
1496
-2772
-480
488
5336
-1472
-4320
1508
-652
1260
380
-2208
472
240
1412
1536
340
-632
-1484
-1800
-2028
-2236
3312
5528
820
2652
-3312
-7128
-2492
4128
4288
-664
1396
-4560
-2652
1444
4480
8292
-5408
-9428
-736
2692
2580
2716
1500
-2424
-3432
300
2332
1704
-2796
316
424
-536
-1924
-2804
6172
5608
-2572
-2672
-4436
-1648
2048
-196
3208
3688
1272
-4432
-3576
-124
1108
2496
-628
-568
544
-1520
1560
2240
-816
-1776
-1012
360
-880
-1112
1940
1400
2976
1004
-4492
-2616
-752
836
852
1460
3432
-1000
764
-2424
-1404
-2812
-1620
2964
3428
4444
-3736
-3288
1232
2176
-3884
-3620
4684
2644
-624
2336
-1092
-4680
-3784
2632
6320
2144
-2328
-5212
-2632
1008
3316
5112
480
-1492
-2476
-6668
476
2604
2872
2792
-1180
1736
-3588
-1656
2068
-3648
1508
2232
1444
-576
-2656
-1212
1480
3472
132
-1776
-3196
772
1328
64
1280
-1156
-1068
-504
936
1368
3156
-792
-2056
-1376
-5860
480
2664
4920
5604
-1444
-4148
-3772
-1512
-1292
1712
3168
1512
-1068
-612
1996
1884
-80
-5336
-2628
-1760
472
7120
4312
-32
-6180
-2208
248
1228
524
1000
960
-3064
404
-72
1632
-488
1908
1964
-1844
-4256
-3316
2896
2072
3024
-192
-2028
-1188
276
4712
-1716
-2276
-3148
-2924
1744
3752
4740
3584
-3696
-5844
64
-3220
524
2548
1708
4444
-156
-2352
-1436
-1668
-388
-1480
524
1404
2616
2020
-2156
-1668
2120
40
-3652
-2236
960
3696
376
192
864
-416
804
-2660
-5000
1316
4744
3384
-1852
-4088
-32
-1188
3168
4968
-1296
-4224
-7012
924
9244
2644
-2592
-824
-4764
-188
788
2320
804
-1700
1236
416
1488
-2656
-1724
-76
1352
2472
-2912
1072
2948
-2900
-1992
728
2768
-1128
-1976
-72
204
748
4560
324
-2320
-3628
-5296
3220
3556
4064
1040
-4696
-76
-2396
2552
2544
-8408
-508
6992
3444
236
-1916
-2936
-3720
1104
4264
-60
-2628
-964
40
4264
140
-484
1272
-3968
-1344
-564
1464
1444
248
1716
772
-1376
-4024
-1352
5648
600
-4024
632
1252
384
1540
-2988
2664
-740
-5328
1552
2384
2868
-1084
824
-880
-1784
-1020
-596
-244
324
2660
-500
3488
176
-3144
-2300
-660
716
-1392
1016
2196
2080
-188
744
-2648
988
1208
-9056
-3532
8224
6992
1272
-764
-4968
-2892
-1308
-2188
5732
328
216
1600
-396
-372
-1680
492
-2308
-244
1544
684
2324
-2160
-2012
1456
2708
1732
-2816
-5984
-324
4772
1836
4052
-3176
-3628
-2384
-1376
5748
2332
116
-1712
-3424
-108
80
2536
1332
-2200
672
-1260
3296
-616
-6696
428
3380
3532
4968
-1672
-6200
-6152
-3696
8568
4552
2936
640
-6996
1720
-2628
-5100
2160
3324
5916
-1008
-2288
-2256
-1820
1880
3536
-1684
-4900
-252
3848
4264
-1004
-3136
-2488
1848
-292
-2072
2808
820
2548
3908
-7332
-3276
-1484
-948
5916
3744
1112
-2228
-2220
-2568
-388
456
664
2460
2064
-1704
-2952
-1300
2588
2832
-492
-1496
-596
-3268
-2724
4844
5260
1488
-3776
-1540
-1736
-1808
692
-1208
4044
3024
56
-2520
-1080
252
-1800
4304
-460
-8572
-388
6528
4436
3076
-4060
-3920
-2156
668
2176
-3084
2284
984
3004
840
-5128
-264
-220
356
4164
84
-6560
748
4228
760
-1328
-2388
-1264
1552
3128
2992
-1748
-3840
-3148
-304
2960
2428
616
-2652
1264
2956
1120
-4112
-5560
-560
3484
1044
5284
3504
-5436
-3608
-3352
1716
4368
1112
-2000
-3456
360
1292
4620
3564
-5068
-4452
-480
1832
2320
1336
-5384
-4792
6652
10228
-948
-5792
-5152
-3868
2572
-60
7800
2172
-5056
-232
-1376
820
-164
-552
-800
980
2020
-248
-2064
-424
1252
996
860
1508
-3496
-4956
456
5048
3532
84
-1736
-4256
-1516
1324
1708
2504
484
-1396
-2120
-2724
4832
136
604
-800
-4172
1712
-2172
6316
168
-1108
2048
-4736
-2252
-3444
3080
6128
1292
716
-1884
-5744
456
1028
1300
3344
-3676
-3356
12
5876
912
2004
-352
-5428
-3120
-2296
3236
664
4780
3412
-2064
-1236
-2300
-2236
-2468
-296
3132
3360
1384
156
-484
-3148
-3448
2112
-460
3760
1204
-3320
1380
-2608
1176
280
260
3276
-3140
-2412
240
792
2404
-1480
1956
-64
1360
-2160
-5204
2332
40
4472
-2324
-1624
3392
1060
-268
-4844
-2316
880
2172
5052
4792
-7264
-2932
-4252
-412
11724
-684
-7508
2552
2500
-4956
2772
472
2120
-2036
-5420
5508
2496
-864
-3352
-1236
-1104
532
5768
2432
-1384
-6120
-3300
3136
2532
3896
-2140
-3912
2264
-1196
672
1988
-3020
-744
-184
3400
3776
-3864
-2348
-3528
2072
5940
60
-2000
-2400
-120
-2196
2012
3352
-160
-528
-2472
268
396
128
2856
-1268
-4064
1668
1472
-144
500
-1948
636
2536
636
-2640
-1872
1348
864
-2516
-948
2180
5420
2764
-3372
-5812
-5824
2924
3936
2752
796
-2264
1480
3092
-2328
-5056
-3636
2136
3848
1620
1088
-1024
1460
-1124
-3972
-4012
2552
4648
3728
88
-5508
-908
-1052
-236
2256
1880
996
-1664
-1048
-252
-444
252
1704
-380
308
748
-1892
-2420
-312
2848
240
4356
1192
-6608
-4400
-148
6048
4084
-1168
-5392
-1164
1800
1952
3352
-2080
600
-2412
-7572
-628
9004
3048
1388
-548
-6372
2108
-2684
368
-416
-3448
3376
6588
5148
-3136
-9524
-6352
3516
6884
5412
-2144
-5284
-2380
1292
5124
-364
-2564
-1676
-1612
3620
2232
-788
-3332
-972
1976
1736
1028
-1412
-388
-1240
-1008
4176
-1092
-4852
-1384
2092
7016
5404
-6792
-5644
-1312
652
2340
2248
1692
-1868
-1136
-496
1972
-272
-3228
400
2572
336
60
1884
-1256
-7324
-2120
7736
7768
848
-5528
-11568
-2712
9308
8468
940
-7804
-5524
5636
5688
-1700
-9800
-2756
11980
1456
-4792
-2660
2572
2356
-552
-896
-1808
428
-1656
1212
568
-668
5620
1728
-9612
-2488
1668
6348
4904
-6292
-2392
-1028
1244
3700
-808
280
-3332
-3960
3480
4316
2356
-1396
-3632
-2256
-704
3020
2368
-1520
-1184
-1044
2960
4040
-2088
-9460
-3424
6676
11152
4808
-12272
-10392
3416
4552
4552
4448
-3900
-4880
-1280
-1916
1904
2248
2980
384
2520
-1284
-784task_loop: 0
-2556
-DCU PKT rece616
6064
6ived (25)
324
2508
-
      03 1784
-674000 04 00 56 
-9296
-1534 55 06 02 20
8232
100 00 03 00 0460
4712
00 07 00 
-6420
-6968      01 04
-5200
-20 04 2d 0d 0436
7264
7 00 e2 54 
028
-3016
-3448
-960
224
4696
-440
-5420
-1500
2520
5324
1216
-2876
-5860
-140
1552
2264
6380
-3544
-8388
-84
6248
5140
572
-5612
-3136
60
-424
1792
1872
-2116
-1520
4616
4752
-1392
-7472
-3992
4928
1824
2188
-1596
-2392
252
-1748
3800
3404
1168
-6120
-8188
1612
7192
7428
2320
-7744
-5020
-3648
-380
7140
3816
-2956
256
4908
-4084
-6540
-5404
6404
12008
-788
-7320
-3820
192
-640
1644
4428
4284
-1504
-9136
-6264
5004
12676
4588
-6164
-10464
-4196
3884
1496
5632
2976
-112
-2984
-3468
996
-1720
-480
980
3312
-1104
-572
1424
380
-1992
24
1604
-2104
-2600
992
-1788
4104
9596
-1984
-7236
-6876
340
3128
1120
5540
2488
-5832
-2140
460
2928
752
-3188
-1156
108
1592
-900
960
208
2852
1212
280
-2972
-6092
-4744
-1344
14316
9052
-2424
-7436
-8824
-2180
3936
3480
4560
1864
-3764
-3520
-1276
2352
2624
-80
-2612
-2840
1512
6076
888
-4824
-5728
-288
9360
4208
-3312
-8692
-7764
10280
11136
-960
-7720
-6800
3700
-308
-2004
7296
4792
-4260
-2340
-1220
-4152
3256
328
-80
4668
-3404
-324
1532
-3600
3828
-2720
3160
4180
-8708
-3244
-2460
9524
7296
-3852
-1988
-5952
-3160
1292
3456
7980
1932
-6780
-5484
-8
2152
712
752
-1612
7064
3264
-9308
-8748
2624
12728
3972
-5844
-6400
-3860
-3116
4476
12268
5480
-4664
-11008
-6168
1988
3380
7812
2416
-2960
-2536
-3436
-372
1172
516
2988
2768
-5536
-4260
4116
3424
672
-2024
148
384
-1892
-4224
-4148
5288
10156
5136
-7156
-6952
-3896
-1808
7332
3192
856
-220
-4172
-992
1660
992
-636
-1088
660
1364
-372
612
-2284
-288
-1324
4028
5676
-7032
-5372
-3220
8380
11000
-4376
-7988
-4456
196
5796
4048
988
-2168
-8476
-2600
7260
4144
2648
252
-4656
-6272
-356
1284
3468
2316
-1400
3380
488
888
-7412
-7936
720
6896
10700
2904
-5008
-6384
-5788
-3408
4140
5976
5400
-824
-4276
-772
-1384
-456
620
-272
764
332
1920
632
-3504
316
-396
2680
2536
-5856
-3452
-332
8652
7284
-5828
-6916
-4432
908
4484
4696
2408
-2640
-4624
-900
2468
-1528
1448
2784
-992
-3508
-1072
3204
-1940
1380
-1572
7856
6040
-11244
-13852
-964
15648
7664
-3244
-4756
-1548
-3932
188
3204
4872
604
-3232
-4540
-7040
6600
8684
1616
-1864
-3728
-4804
-2248
880
5076
2932
392
1648
-1748
-3352
-9588
-2192
10428
10184
3340
-7276
-8124
-3984
-824
5620
5644
2368
-188
-4972
-3132
-1312
1272
2164
396
2008
108
616
-604
-1920
-1220
-4960
3052
7104
-1808
-3868
-3144
4500
8416
1116
-8568
-9568
-188
4804
5952
1944
652
-1236
-1372
-412
-1784
-1684
-3368
324
3600
6216
1328
-960
-1588
-9828
-4304
8972
8888
-1096
-8864
-2816
7516
5888
-3016
-10360
-5908
7728
6124
5248
-348
-7624
-2204
-1572
396
4344
1612
748
-76
-4980
-396
384
-1060
2424
4216
1552
-532
-876
-7752
-7332
3712
8828
9944
-3040
-7380
-4732
-2428
4028
4284
2568
-2492
-4604
-648
3552
2044
3328
-4400
-4432
-192
-1876
2956
3268
6680
28
-6668
-2844
-176
-2248
-4332
1768
14776
8096
-11724
-12628
248
8200
2416
-1864
2436
-2736
-4272
1240
2988
5208
-3232
-3052
-2468
564
2584
372
1348
-220
-484
-652
1072
-992
-4564
-2552
6068
6664
868
-4072
-6688
-552
2224
2396
1984
-1496
388
-3128
196
4896
-1736
380
-2720
-2076
2832
220
496
396
-560
376
-352
2492
-3648
-5732
1224
6940
7472
-1752
-6468
-5964
-1204
1424
4044
4512
800
-3536
-2884
5772
-1604
-1132
-3880
-7292
4764
6648
6208
2988
-6540
-10364
-892
5716
4012
-1884
-3236
96
4016
5048
-2556
-4536
-4380
-96
5324
3468
-1700
-4068
-1000
1416
7636
-1692
-4756
-1652
-3736
2872
1584
3576
3244
-1784
-2588
-1512
-1900
-1780
-308
236
6088
4408
464
-3624
-6524
-300
-72
1644
2876
-908
288
1340
-988
2588
-1284
-2788
128
-3968
1984
3412
2128
-472
-840
-1660
-936
2228
-3212
-3364
5336
5752
-956
-6176
-2300
1744
-1296
6668
5980
-5140
-10860
-8464
12740
12728
-3700
-4512
-1608
-1340
-4180
-660
4524
4336
-1016
-832
-64
428
-932
-2876
128
-1292
2680
3140
-1612
-368
-836
140
-992
2268
1512
-2752
-672
-3120
132
5376
944
1304
-2512
-3444
1192
-2244
528
3788
1200
440
-1484
-3360
-2024
2668
3756
1640
-3440
-3796
220
1868
2276
-300
1612
-324
412
-4672
-5620
4696
1920
7380
1596
-10548
-612
688
4788
908
-5280
-1408
-516
3812
4852
2164
-4160
-8400
264
5684
396
2448
-44
-3128
-3104
-968
2620
4164
784
-712
-48
-2504
-1324
-4936
-1416
7764
3428
3460
-104
-6680
-4668
-3580
4536
4048
3192
224
-3976
-760
792
-1028
444
856
-1880
444
404
1000
1788
-472
-1420
292
-1848
-1356
1728
-104
1476
2676
-2484
-184
1516
-4160
228
-744
1632
2108
868
3512
-5820
-2308
-1544
320
10040
-916
-4072
-5304
-824
3808
-2336
4884
7856
-948
-11580
-9584
8660
10604
-900
-6592
404
1468
-5516
-252
9232
-484
-2224
1044
-5600
2292
-2336
-1192
6060
1304
-896
-372
-3304
-980
1452
-376
1780
1464
220
-1528
-2064
-2108
568
5372
776
208
-3448
-4872
2812
1944
2296
296
-1052
-1624
-1544
-824
1472
2280
-472
-900
388
1928
-1256
-84
-1568
-420
760
-1808
-192
2256
1712
564
1096
1616
-2860
-7972
-1648
4600
5896
644
-2120
-196
-2044
384
3772
2512
-7144
-9904
3536
8964
6924
-468
-5008
-4028
-6068
2852
4404
1216
3516
-1528
-2552
-332
-4640
-1140
5380
3020
3736
-4392
-5124
104
-384
3520
1732
188
-1692
-668
-1112
356
1084
-904
768
548
104
-52
-192
-500
1424
-2196
-2728
-320
3040
3632
2460
-824
-3632
-1900
-4372
404
2704
2628
3236
-8
752
-3244
-3736
-1048
1468
3968
-2084
-3760
4864
7064
-1936
-8312
-3668
2128
-360
3932
7740
2660
-10152
-9180
9196
1260
-4184
-1044
6424
5596
-7608
-4028
4688
-108
-1444
-1436
-28
4272
-2088
504
-380
-1628
492
-156
2892
64
-1356
1244
-2336
-332
-1944
-2048
2616
4364
4232
-852
-5912
-3656
1392
220
612
3404
1472
-660
-472
-3780
-2936
1992
3608
2444
356
-2972
-2364
32
76
1840
184
-1692
1544
-1196
2092
1780
-1980
1040
-4476
908
-1436
-2036
4180
4188
5036
-3328
-7456
-3092
-892
2236
9744
2904
-7376
-7196
-408
7984
3640
-1412
-3616
-3100
-1976
1152
5632
1584
2440
-2132
-5292
-3676
-3648
3820
8044
5084
128
-4540
-7244
-3000
648
3436
4540
620
812
-3284
-1660
1656
1084
1000
-4688
-712
428
980
3780
-440
2220
-2060
-1956
-648
-4256
2276
1416
2452
3012
-2908
-1732
1596
-752
-1220
-1704
1156
1376
228
924
-328
444
-1512
-2676
-628
6156
4880
-3484
-9252
-2376
3516
-16
8988
8532
-3036
-17404
-10376
13408
11720
-2168
-7048
908
984
-2136
696
4248
-500
-3784
-2780
1084
4468
-2232
1120
-292
824
1232
-2612
-76
-1396
-416
1496
1192
984
-2472
-240
1332
1136
1744
-1876
-2644
-216
-2488
976
4988
1428
692
-4500
-1440
1344
360
1760
-2196
-816
508
80
360
1540
928
1312
-1648
-1460
-1884
-5572
4524
3144
2444
2448
-3280
508
-2048
-6252
-632
5104
5756
2068
-7052
-5448
2560
4936
6508
664
-10580
-11836
2884
11668
10464
-800
-9816
-5228
-32
1680
1336
-72
2180
4912
1356
-4552
-7784
-3184
5232
5628
3820
-1920
-3992
-2200
-1004
4124
-1136
-544
-1008
600
2788
1272
32
-3524
-1956
-2004
3176
3804
-384
-2168
-552
1076
-284
1184
-1812
-1544
-120
-76
3624
852
-616
-576
-180
-864
-1796
-684
-916
1072
2768
2240
1096
1024
-6936
-4412
6416
6188
-2460
-11304
-1740
5600
6044
8464
1120
-9060
-13556
-1972
11052
8716
-2016
-7552
-40
4168
-860
-1428
524
648
476
-1348
-1320
516
212
1840
540
-640
256
-896
-1980
-2700
1216
6056
3448
-8
-6064
-8484
912
5584
6508
992
-3520
-2288
-2976
1172
1204
1760
244
-1620
-700
-616
1064
1416
1488
-604
-116
-3504
-1884
1144
1900
4224
-400
-1600
-2784
-2352
1336
2068
2080
1800
-984
-2648
-3704
-4088
4484
8156
6032
-6612
-11220
-676
3516
6724
2488
-1104
-4176
-4624
2904
4076
-1276
-2780
-744
1516
3728
728
-1004
-1220
-6156
-792
3972
4860
644
-2824
-56
-2052
508
1420
-1328
-1444
-612
3072
1904
-948
-792
-2720
1928
2732
-2152
-1136
-2600
1104
4148
312
-12
-3688
-1976
2096
2432
1512
-312
-2200
-2400
432
1600
692
-1332
272
780
2152
596
-3652
-1032
-1456
1708
3632
896
-1620
-4972
-1884
7892
6052
-4704
-10320
-1104
4944
1980
7016
2892
-3628
-11084
-9136
10920
8456
1092
-3024
-3544
1892
-1892
-1232
-648
1000
1804
1672
688
-2104
-2184
-356
1968
1348
1380
-1896
-3096
-244
108
3160
1804
-684
-660
-928
-1808
1148
684
-1460
-536
-44
2092
2124
164
-1316
-708
-1064
-3556
1932
1964
-652
2260
588
204
-140
-2776
-2564
372
360
2224
2856
748
-1080
-2752
-1756
132
2776
-1800
892
1744
-4476
2412
5132
388
-5340
-6376
276
7280
4028
-1116
-2180
-3968
-2204
3612
4776
-44
-2936
-5668
-2052
8044
3360
512
-3816
-7196
1212
6444
4972
-2836
-7096
-3740
2880
5760
4636
-1416
-5536
-3728
1560
4668
-3728
2048
624
1152
2304
-6400
-332
-872
2136
2316
2056
1580
-4020
-3204
-2408
1188
3668
2452
1740
1312
-5512
-4028
88
-884
5880
1816
776
612
-4168
-5012
-16
4376
4272
1096
-3832
-5204
-2500
7544
6400
-1108
-8036
-6360
5296
1540
5748
3304
-5368
-8600
-2452
11324
5216
-4616
-7272
324
4280
1048
-80
-3408
-2164
4244
5940
-1864
-4504
-3080
184
2020
-636
1668
1908
1620
-424
-2592
-1116
-1120
-1400
1276
1780
1392
1300
-1056
104
-2388
-1080
2168
4
744
-2852
-1768
1996
4540
2692
-3000
-4704
-1532
1124
1452
2628
828
-2000
-1692
768
1920
-576
-444
-1888
-956
1712
660
1260
1796
452
-5700
-3876
4732
6160
-520
-6816
-3224
3320
5972
2044
-2644
-3044
-2952
-2696
2636
5416
656
-2164
-532
1284
196
-1188
-2248
-2468
1032
2244
3700
2520
-2296
-3892
-3808
2136
3272
-224
-108
-544
416
1012
-872
-920
-236
900
52
-204
-844
-1264
1200
2284
1188
-508
-1560
-2536
-836
1496
1440
316
488
548
-380
-636
-64
-1916
-1952
1256
3544
3192
-736
-3980
-3580
-548
2264
3272
2208
-184
-4804
-676
5864
300
-6472
-5380
3496
6548
1588
-1604
2164
712
-6804
-8472
4048
10772
1616
-5680
-4764
3800
4628
-288
-5352
-4172
1652
5540
3556
-3428
-4384
-136
3600
2372
-864
-2452
-3256
172
2600
1472
1616
456
-1736
-2556
-976
600
2176
1496
-2688
-644
1320
1752
2080
-3820
-3364
940
1804
3416
-148
-3224
-1804
-344
3252
3656
-1204
-3156
-1992
-696
1756
1156
468
168
-68
652
1416
-944
-2784
-1760
-3156
2208
7028
4000
-608
-6280
-8644
-556
8740
7128
-940
-4648
-3312
-2952
228
4684
2740
-996
-1908
928
1624
-584
-3868
-3472
376
4720
5992
-56
-3516
-4928
-1588
2776
2044
1624
-756
-1920
-320
-176
936
1432
-516
-472
464
-460
-1504
-584
316
1356
1544
812
-476
-1876
-1268
-568
724
1748
-612
-140
744
728
640
-1804
-1784
676
284
-160
1876
760
-1716
-836
424
-352
888
272
-3048
3516
5196
-2744
-6424
-5020
3188
5812
1872
3480
2032
-6524
-9124
-5476
7636
12116
2176
-5316
-5880
-716
732
1372
-1304
-500
4032
3384
296
-5140
-5888
-508
4332
5164
1604
-1416
-3592
-2616
168
1568
2296
-476
-1036
-124
700
1980
-1828
-3176
436
1900
2060
1244
-1520
-2684
-1052
980
1504
740
-636
-336
-360
844
1164
-2076
-1080
976
1436
-188
-228
-60
-2036
-1284
1768
3700
1240
-1492
-720
-3156
-6384
1276
7952
6696
1136
-8032
-9088
244
7488
5808
-1080
-3848
-1064
-1780
-2860
1000
4160
3796
1780
1524
-3356
-9340
-6396
2808
8968
7928
2044
-4700
-7096
-3812
1520
3396
1544
428
-1096
-148
1476
-552
-464
-720
-868
1104
-100
-40
492
-1084
280
1156
1240
812
-4572
-2028
2956
2936
1936
-3532
-3328
16
2520
2672
328
-2152
-1568
-252
252
1760
-176
-704
652
112
84
-648
40
-1552
-3320
5448
6028
-1444
-6676
-4844
2128
4292
1204
480
3972
-960
-7260
-8728
4244
13220
3964
-6420
-9288
-620
5564
4000
-2704
-3288
1804
2748
1476
-3484
-2788
-320
2360
3688
-100
-2928
-3276
136
3396
4808
-1056
-6624
-2236
2652
4692
1044
-1660
-3112
-3072
1568
3816
3304
-1096
-2772
-3176
0
1424
212
1272
2280
-132
-3336
88
1940
-360
-3136
-200
1992

vt# [S->SB] Send_Keepalive(seq:37,len:6, time:4096)
(S)broadcast pkt timeout, drop
[S->SB] Send_Keepalive(seq:37,len:6, time:4096)
(S)broadcast pkt timeout, drop
(S)broadcast pkt timeout, drop
[S->SB] Send_Keepalive(seq:37,len:6, time:4096)
(S)broadcast pkt timeout, drop

