4748
-1912
-700
396
-1732
748
5880
-5296
-1652
3212
-5612
6732
2104
-5304
-5072
8852
1612
-7380
1624
1736
760
-1336
-3852
6296
5944
-13496
-3376
14332
1200
-13824
6220
4432
-5168
2444
-3040
1904
3048
-4268
-1664
4480
4120
-7612
-4744
9696
2572
-6800
-3088
4812
3144
-4356
-1500
3260
-640
1112
-2092
-1392
4116
-232
-2476
-3952
6248
3044
-7796
1376
5600
-2940
-6040
6260
2632
-6688
1108
6660
-5068
-3788
7272
-4636
612
3012
-2124
-2956
5368
-744
-7288
9648
-3272
-3736
3768
196
588
-5220
1948
7332
-3732
-9008
4692
10208
-7260
-6524
7432
1396
-2752
-2636
240
6596
-2080
-7116
2716
7732
-4052
-6400
3584
5628
-2424
-5008
496
3464
1628
-2580
320
-380
652
-2452
948
2804
284
-60
-10560
9176
11192
-15688
-8264
20800
-3036
-14340
9964
3392
-3784
-7568
6808
5120
-4196
-5152
3048
8140
-12332
1740
8000
352
-8616
-1164
8744
-468
-3884
-4656
6712
2504
-4864
-3876
8276
3264
-14836
3276
13340
-5676
-10512
6596
9192
-9628
-2148
1300
5632
-312
-7028
5160
-328
1464
-2756
-4060
3892
7968
-10128
-2404
10676
-2268
-5636
-3052
6328
6140
-5964
-7820
4208
8944
-600
-12904
2112
11652
-3108
-8832
4244
5412
-3156
-7652
7356
5876
-6836
-7132
8504
6980
-13160
1712
6408
-1368
-4052
2500
96
976
-2948
-3068
10268
1260
-13524
1372
13468
-7972
-5852
5192
4452
-2028
-5220
3792
3120
-4356
-2408
736
2792
5496
-6040
-2700
5812
-2152
-6992
7596
3376
-7196
-1540
6052
3760
-4136
-7808
880
13980
-8868
-5336
7420
2956
-6932
-2560
6028
3412
-4220
-6764
5816
4704
-2176
-8104
6392
4340
-5760
-1036
-772
8300
-3564
-7324
1964
4380
6196
-4872
-5768
-4796
12268
3524
-12148
1896
1692
6104
-6360
2708
460
-8404
6688
1220
1676
-1308
-3068
-3464
9112
-636
-16852
17168
10824
-19676
-7876
19492
-1140
-13196
6424
6192
-3696
-1664
1348
-2552
-600
-1172
4004
6792
-5332
-13084
14380
9176
-19880
-5668
15268
9688
-12688
-3648
3704
2984
3460
-14328
2536
14608
-6444
-8184
10208
716
-16668
12756
10168
-12636
-6996
8820
2152
280
2160
-17032
6836
22296
-13512
-17896
14272
10172
-15792
-1080
10100
2348
284
-9472
-2872
4584
6320
-5584
-856
5888
-7168
6560
2524
-9380
-2752
4464
-116
5084
10416
-20912
-544
18712
-9412
-14324
11016
10812
-12524
9824
-2412
-12960
10464
5412
-16000
2384
19288
-9144
-7284
5928
-4992
-816
11200
-6252
-12216
13368
8212
-10476
-772
-3104
-2944
10548
4284
-9468
-4152
8000
2592
-7072
-1448
2720
3696
-1264
-5764
7792
2204
-9948
-2548
11028
-5724
384
11060
-11392
-6540
7756
3316
-2232
2900
-7404
-6928
20372
-3388
-13568
6948
8340
-14652
-4212
23088
-11348
-6416
10236
-3916
-4124
4216
-1380
-8332
13828
4688
-13560
4248
1712
-10492
-504
19808
-2828
-10644
-1984
-3112
12868
5352
-14504
-6248
13816
3080
-11192
-1404
4484
8688
4848
-16664
-9332
13880
6896
-11768
9168
-380
-14048
13248
9332
-21612
-996
22804
-10872
-13552
15868
-1312
-6268
11604
-5496
-15752
13440
9736
-17612
4024
7288
-2400
5688
-3268
-16824
9100
9944
-8796
5224
4008
-11436
2220
12856
-16084
-8260
18772
11268
-10844
-13312
-5064
10204
19012
-9728
-16744
8280
10660
-9260
-4840
4516
-4324
14908
3024
-17984
-2152
10296
-5580
-4328
15600
-4672
-1716
4744
-11312
-5512
4672
12736
3088
-5828
-14508
788
22236
-7424
-17616
7020
14536
-7140
-44
-1380
-12092
9944
10136
-5560
-2972
-2476
-3560
4792
7320
-12308
6964
12984
-17552
-10704
17348
4620
-15028
16296
-4028
-22312
20944
8760
-21132
2120
21568
-14464
-9536
12340
-9408
1584
15336
-764
-14484
2648
524
-7840
12164
-3284
-1668
12532
-564
-14332
-8308
12256
-6332
9864
10324
-12776
-928
3424
-10484
-5584
19832
340
-10852
5600
928
-2164
-1436
-5348
4960
7080
-5024
-4708
4884
-2556
-1104
10632
-2964
-12688
856
10184
-768
-5464
2768
-868
7116
5588
-20956
-5216
15628
6040
-7740
1224
4
108
5188
-11484
-4408
11968
9368
-15904
-1480
14564
-13052
-1948
15312
-1780
-15160
-224
8884
1768
3156
-9352
5488
13164
-20092
-15332
14804
18656
-4536
-7900
-4368
-2136
15380
-5992
-15388
5928
12864
-8944
3556
16284
-21468
-8068
13824
-7088
-4760
19524
5636
-20880
5824
-892
-13484
20752
912
-12236
-1020
14556
-4584
-8208
2644
-7320
12496
2364
-8016
3488
-840
-4824
-4208
16064
-112
-10768
3544
-5572
-800
7844
6240
-7596
996
-7108
-5964
25924
-7104
-21140
10744
10472
-2728
-3524
-6604
-8180
22060
7668
-24952
-972
14016
504
-5844
1488
-4204
5724
8856
-19352
-2884
19204
1452
-18800
10712
8468
-18528
6684
11220
-12064
-8440
18860
5324
-15976
-1092
-4496
7360
10736
-1544
-10132
-3736
7088
-6040
9900
-2652
-3556
8632
-6528
-7292
-368
12048
-4592
2040
4692
-15880
8864
12864
-20336
-13336
27904
11492
-17808
-2880
-4260
-2260
14672
380
-15956
5740
20116
-14208
-11852
9716
824
-3372
-2672
8080
6320
-4712
-11268
2472
10584
-13156
2716
9760
-1340
-4172
580
-2912
-3308
17600
-14644
-11688
20300
3840
-14016
-1932
12600
-3888
-960
-4100
-10416
17012
4428
-13976
1864
20920
-11072
-23512
7520
6376
11068
5192
-10856
-10012
7576
3032
-11700
11188
2192
-10364
12072
-76
-6536
-1588
-2176
-4124
13936
5916
-20320
6984
12044
-10244
-14524
17868
11256
-15356
-5348
-3764
5160
18224
-2852
-14780
540
6248
-9652
3004
5504
332
7968
-6844
-7096
-616
6076
-4484
1540
3532
400
3292
-1484
-5704
-6776
5708
5792
-5344
10300
-4832
-12208
12220
5036
-17288
-1040
25660
-11480
-13684
12036
-5960
1060
9184
-644
-11500
8128
-748
-13660
15672
-2236
-7440
12812
5480
-17004
-7640
15992
-5244
-1748
8712
-8760
9968
856
-12736
-8404
17252
3216
-8304
-580
-3896
15140
-3884
-15412
10244
12584
-17304
-11580
21088
-1832
-5812
15168
-9084
-12176
6208
4380
-9732
4244
14324
-6740
-3408
7200
-13424
-8996
15156
6688
-9488
8088
-2384
-8668
8768
-3504
-7004
6388
8780
-11844
3628
1332
-6520
13400
-5888
-6432
860
4148
-2484
2220
9252
-15028
-2200
15164
-1696
-15740
9220
5176
-10664
13072
-6228
-12580
19808
4656
-20124
-7940
19452
2604
-1056
-3960
-15076
17680
5008
-16788
-824
16104
2320
-13712
-3176
-3292
11716
16420
-12224
-14476
-24
7792
-2904
11520
888
-18548
12424
3452
-10192
2740
984
-6084
5784
16488
-16784
-5412
11288
-9448
-1248
7920
4516
-7104
4840
-9480
-728
14536
-5116
-12048
4432
14884
-8360
-8068
4228
-5220
15120
2172
-18460
804
11756
-2728
-5960
4628
-5912
12532
7548
-21652
-7188
16288
1724
-8564
4892
9384
-8236
-280
-3348
-7360
2444
15808
108
-11068
6192
-9548
-404
12872
-6152
-4620
6244
-1708
-6996
12772
-3380
-7920
13344
-7216
-12668
4540
16372
-4300
-7788
4888
-6832
8140
2740
-14164
1112
6816
4628
2932
-1340
-15160
1496
15932
-10944
-6504
16700
-2740
-7564
6764
-5368
-9232
14004
-3936
-708
13224
-10100
-11844
7004
8592
-16356
7576
21100
-15476
-12696
12972
-3800
-9228
14492
1308
-4836
4496
-6804
-7764
5992
9284
-4532
840
-5108
-664
10088
-6888
-8348
10280
11200
-15704
-1944
216
-1924
14980
2264
-15980
-3844
15852
-5260
-9640
17792
-12992
-6572
19556
-1792
-13004
-1552
10372
-4808
2720
-1140
-7896
13820
3044
-17676
-744
18816
-1596
-16996
5060
-1784
8236
10164
-10052
-11692
5024
7920
-9348
3316
9172
-4688
2144
-6752
-8068
6008
9608
676
-4424
-1840
-9144
10568
6052
-8524
-5028
9016
1604
-8916
9528
-7976
-7620
25236
-9956
-21908
14580
20240
-14100
-14124
7708
-3772
14584
3224
-19236
1204
16416
-5788
-12840
8304
-2840
5120
10444
-15908
-188
9480
-1016
-16740
7124
12416
-4372
5096
-8072
-8240
2424
13488
-8444
3636
4444
-18692
6960
16888
-9180
-15888
17084
4112
-13624
2824
-724
4268
12076
-14296
-16728
17432
17932
-15396
-10368
1480
6700
11344
-6456
-15920
4272
16244
-6500
-5476
6832
-10128
-3596
17132
2692
-10972
-3156
1528
-4492
13008
-3204
-12324
15368
1436
-10300
-2744
10120
-8736
36
9192
-9132
11556
5368
-20680
-10248
16784
14144
-10068
-2184
-4616
4236
6468
-13448
-4804
16396
11924
-18448
-7256
7992
824
4992
-5740
-6060
10084
4356
-9364
-3764
9180
-6448
3220
2972
-3148
2012
-5156
-2340
7844
8816
-19980
-3796
26876
-6404
-17852
5428
9768
-5448
3260
-3684
-11788
19060
3996
-16996
-1808
19212
-9180
-10808
8984
-2604
1060
11144
-2064
-14552
1396
4904
-412
4812
-5972
-1768
14680
-6900
-9052
-632
4584
-672
7788
1168
-16900
12832
5344
-14844
-1452
14140
-2904
-12032
18692
-11792
-4788
18452
-11448
-9364
6016
9540
-8248
5208
-1852
-14060
20304
-852
-14932
6556
12220
-12100
-12356
18676
-260
-7916
6320
-3536
-4136
8460
796
-11572
8720
-1116
-10452
19028
-548
-18508
3980
12712
-2608
-4252
-4672
-4980
12448
9188
-11768
-7140
6848
2236
-1380
-392
-10204
9768
14468
-15188
-8840
12256
1804
-11844
10288
1056
-16820
19952
6100
-25676
6208
20528
-14296
-10396
13544
-7376
3152
11052
-6252
-8384
1008
4104
-2664
968
2648
476
3656
-4272
-4504
-2524
6892
252
-580
1060
-9788
15332
1840
-19856
1668
19628
-4636
-12172
7492
-7876
-1480
22160
-2700
-22644
4608
15260
-13260
3040
6528
-13212
6312
16692
-8856
-18840
10028
5436
-5424
1908
4272
2608
-3864
-5576
128
-480
5120
2780
-1028
-7556
5368
10792
-20772
-1916
16452
-652
-4476
4580
-1028
-19060
15528
11604
-14940
-1428
5776
780
-1848
4556
-10304
-1224
13492
248
-10792
-2192
5632
6792
732
-11496
-10324
15548
16156
-14976
-13880
12980
-128
-616
4368
-13088
7816
11716
-10080
-11928
13984
2160
-11072
988
8696
4200
-7244
-8068
4660
7320
-5880
1492
1524
324
-8444
9232
-2140
-5808
7436
-104
-3660
5488
3192
-24580
10440
25556
-13712
-18876
13344
5700
-6084
6296
-11132
-4880
17660
3552
-14012
-1368
14136
-12640
-9372
11440
4564
5208
-1912
-7204
-8732
5308
7524
-5708
1572
1396
6868
-3172
-11196
6988
-3316
-5736
10432
10896
-10040
-14692
18272
3936
-21280
4788
11228
-1952
-3436
3008
-9600
9344
13168
-20116
-9576
12228
10804
-5904
1440
-12320
6624
10116
-12240
2904
1580
-6364
3392
13176
-5784
-15028
6916
4968
-4164
3908
4172
-4620
-4132
-2704
-3784
14028
15276
-19780
-15724
12692
4436
1712
-1404
-5756
1960
14052
-12856
-10016
9280
2228
2524
3500
-10776
-8540
24648
-2344
-21452
3388
16532
-7320
-4732
9648
-10168
-232
13760
-5632
-10468
3644
5264
-2888
2672
-2776
-528
5544
-4396
2156
-1484
-3648
-2568
9012
-272
-8568
10184
6972
-14488
-8992
14396
828
-8616
9424
-6288
3120
8484
-12384
-3648
8636
28
-5712
6860
-7012
-1368
18504
-4512
-18352
2396
7668
-4676
1244
23616
-18008
-17816
14176
5252
-5784
340
6772
-9480
5196
-88
-4132
5228
-912
-2668
-7084
14712
6436
-15524
-13548
11048
21872
-8984
-15440
752
12012
-6928
-3676
14020
-4344
-8140
6400
-4868
-1772
10812
-4912
-9044
9840
1888
-10144
7276
3180
-4008
1292
-1228
-8296
2424
12352
-10372
5708
12156
-16168
-10732
10084
5616
-8408
11600
-5396
-7864
13168
4664
-16368
-6992
13364
800
568
-5208
7676
1960
-7472
-4368
-1532
-784
3136
20220
-392
-22304
-3172
14768
-11868
-3056
18268
-3188
-6384
11932
-10424
-21468
24260
14692
-23632
-8532
20528
2800
-7940
1340
-11536
5640
10452
-5108
-9316
10652
3604
-10296
7224
-10236
2112
11216
1200
-16020
3828
12156
-10324
924
2484
-2344
2008
5452
-3808
-7888
-508
6552
4016
-3212
-4660
7956
4768
-11656
-9772
1496
13532
11820
444
-23672
-10808
29624
-1840
-20676
7224
17676
-14348
-2452
13252
-16508
4788
11224
-10348
-3188
10248
-5780
-9192
17012
-3516
-7124
6800
-1800
-11724
4956
15676
-6848
340
-12860
1412
19804
-5364
-19164
4140
13740
-156
-1800
-8412
-7756
19628
10408
-22644
-5232
7164
1292
2016
12656
-9656
-14508
15800
-3356
-15984
13968
16568
-13084
-4212
5096
-12468
4660
5416
1296
-1600
576
-932
-76
6248
-17388
9116
11020
-10948
-13336
16464
16056
-14772
-6304
-3168
1792
9736
-172
-10584
-1656
14400
-696
-5628
-7396
2976
16292
-7916
-13976
2328
7960
2568
368
36
-5632
888
1372
-6476
-3576
15128
10524
-16784
780
-524
-10952
7660
12964
-8700
-2592
6584
-5864
-6184
15980
-3464
-11056
7300
-5072
-3736
12300
11676
-18700
-5804
9572
-3252
2492
-2652
-1752
3952
7312
-772
-5588
-1544
-14204
11600
7064
-1028
2876
-6116
56
-888
6436
-7708
-3532
4764
-3736
7088
3544
872
-7376
2036
-6536
-7712
19552
-3072
-1664
4440
-4876
-5600
2644
-408
-9988
17612
8092
-15208
-5168
9812
224
-14044
7108
13308
472
-14160
-6032
5252
10244
2892
-11120
4304
-2336
-11920
12644
10612
-9572
-3616
3316
3200
836
-10976
-8828
18808
12776
-15388
-11676
8392
4296
-4776
7040
-824
-8992
8292
980
-11196
10248
8344
-20056
-4852
19768
-852
-11436
10428
6472
-12496
-4036
3364
1732
1368
-4448
4592
9464
-3444
-14212
-4992
14052
2136
-2300
-832
-3672
6380
5772
-11324
-10328
11588
8900
-4264
-7216
-3560
15316
-948
-20944
2684
23980
-1084
-16916
4876
-1180
-10280
12288
10496
-9700
-5644
5636
-3968
272
6684
-8292
5788
1288
-6996
2180
9032
-7668
-6352
9868
-6760
288
12020
-8292
-8880
8300
12116
-10688
-9176
-4
4304
16084
-5676
-10952
-836
3460
-2924
7692
6636
-18552
5944
13460
-14408
-2960
7748
1208
-1724
4480
-13568
4352
14596
-12928
-2816
11484
-1352
-13512
9136
3724
-17632
16788
13332
-20000
-8072
16212
-2852
-7592
11424
-11200
3888
11384
-9420
-10780
12432
4644
-13564
5116
4664
-3508
5444
-652
-10852
24
10856
-5840
5024
-688
-11796
13524
4260
-11864
-6212
12304
-5512
5088
10504
-22980
-5572
26644
2252
-21676
4720
9404
-9592
-1940
5388
1396
7988
-4420
-14732
1816
18720
-6216
-13252
12368
-5032
-2288
15144
-9588
-12860
10672
10048
-12996
1904
-448
-4692
9628
12584
-8104
-20568
4416
4016
10116
8076
-20496
-516
18384
-5384
-18928
9340
17388
-11424
-8588
-6600
24720
7556
-27340
-9628
23092
7712
-19444
4752
3388
-8800
13960
7104
-16960
-7708
9752
-1256
1904
15312
-18836
-4276
18008
-5732
-16504
9376
11512
-7036
1292
-4052
-3316
8424
-1800
-6600
1112
13212
-5200
-11808
2700
3536
12764
-7196
-10724
-1088
8500
3788
-1400
-1260
-10092
9860
-4268
200
9160
-1080
-6988
-5104
8940
-7588
-608
13276
112
-12436
1632
7796
-7848
-1676
2516
3456
6316
-3204
-4044
-4012
268
-3964
4788
12236
-8868
-292
8132
-10556
-9368
8756
7176
-1624
-3216
-2956
3300
10240
-13104
-4412
7860
-1220
-3172
6124
4960
-9628
2048
2656
-3428
-3776
1984
2292
4736
6052
-15600
-5264
15892
-3460
-4764
9304
-3180
-11140
3304
5164
3084
3996
-8680
-4500
3512
5984
-2936
-8132
8888
1448
-936
2196
-4556
-7028
3828
3332
-1592
8008
-4116
-4220
6700
-6720
1328
-2876
-3216
4248
10252
3004
-17024
4976
4632
-4136
-6236
1388
7148
7212
-24
-19736
10380
8964
-14536
-192
8200
3584
-6280
2520
-1176
-4864
7596
-700
-9152
6436
3560
-5996
5140
6172
-12604
-4388
11540
-4180
-156
3144
1900
-2884
-144
-4900
-9568
20044
11180
-18308
-12204
11228
5380
-2440
-308
-4800
4568
3552
-956
-7612
-2452
6672
1776
8640
-10512
-7044
9460
-3960
-868
4336
1308
-7372
6668
1756
-10584
8528
2588
-5072
-4864
7316
-984
-2476
3168
-8772
7428
11964
-8540
-17572
9796
11452
-3548
-6480
-976
5720
-1308
-164
-2360
1748
2812
-6184
1084
-952
5984
8236
-6892
-11604
-3892
8100
8552
108
-288
-7552
-448
7092
-5188
-6372
4836
3192
-712
15712
-16020
-11376
15596
-2184
-13128
9720
11564
-8180
5476
-6444
-12684
3576
14552
2684
-13320
7908
-1660
-5244
2112
-2712
4060
8612
-10928
-5244
13660
-1792
-8316
6620
-1128
-11316
11328
1184
-1800
3088
-3192
-3652
2388
2556
-12680
7616
21492
-11848
-17692
2928
8804
3404
1208
-13236
4912
18952
-15448
-10532
3632
10416
-2876
864
1016
-3232
5220
-5396
-9880
4132
12236
-652
-6324
6872
-9104
-1720
10912
-6440
-9876
9840
10304
-9584
3080
-6352
-3904
13272
-3420
-12232
2008
14580
7184
-8536
-15572
-4576
12384
5944
4016
-4204
-4212
-1680
-420
-384
-2516
8808
8660
-17380
-1772
14096
-4356
-12460
9436
6280
-6764
2728
-184
-6044
-2688
12840
-116
-8528
3656
-4328
-412
14592
-9276
-12648
4188
16308
588
-12200
-4456
4920
7484
-4840
-4824
628
7384
-2024
-3796
2168
-1116
9848
-13280
-10948
21388
2140
-6924
-2328
2148
-8452
3864
8728
-4436
332
-2688
2404
-1912
5776
-9092
-11212
30840
-3464
-19148
-1636
8596
4752
-2916
-2308
-6136
11728
3920
-11144
-7944
9828
11820
-18028
3312
9680
-2184
-1164
-14036
6144
8820
2528
-7008
-1704
3544
-4704
9244
-2660
-3556
-7140
-736
15176
-1084
-1688
-9520
5884
7452
-16992
-2132
14476
11408
-10824
-7228
-2856
-4340
16720
2324
-7652
-4584
4708
-1936
-1312
3372
-4172
10444
-4076
-9872
3184
7900
-1672
-6700
2496
3200
-124
2276
-5204
-5948
6812
4748
-4564
4712
-3716
-8560
13132
-3884
-7176
3612
2780
2484
5752
-7684
-12412
4308
15016
-192
-13068
3772
108
-1660
9964
-6016
-2120
3212
-7512
-5404
16188
9948
-13320
-8044
1784
-2564
8604
5764
-8144
-1844
6076
-2372
-4072
6900
-12848
1736
14932
5256
-13856
-9240
10384
136
-124
-2620
-484
9892
-3416
-9668
3016
9776
-8156
-1160
-5828
11044
14288
-17476
-13312
7072
13824
-2956
-3208
-4972
3148
3684
4220
-8584
-6708
2780
3060
9308
7944
-16008
-12356
14856
-1176
-5632
7128
7752
-5236
-9124
5168
-6276
2248
8264
-6980
5368
7240
-8248
-13276
8928
2988
-1248
8404
-6928
-7104
6452
5296
-5140
548
-3512
-8420
13464
9264
-4096
-12820
-404
1728
128
12264
-7308
584
2892
-9960
-456
7152
4168
-8644
-380
10864
-9424
5740
-1576
-8564
3972
4056
-2564
3224
3044
-9120
7016
1044
-10668
1120
1268
10080
2340
-5372
-2832
-7356
1752
7680
1604
-6792
9044
-4572
-2836
2716
-9852
8440
3412
-2880
5916
-7572
1344
1444
-5980
-4068
9720
9544
-9776
-4760
4008
1672
-3824
4032
-6368
-1040
16936
-10412
-9204
14864
-7232
-5964
7068
2928
-10680
10572
9680
-15412
-5836
3608
3604
996
9172
-9372
-5784
11640
-2652
-10148
-1136
13764
-1624
-1748
1612
-11776
3992
7712
956
-5572
-1116
1408
1280
-3800
-1640
13344
-540
-12348
-1208
4908
2604
-5084
3796
-3464
2680
13408
-14504
-7628
7296
6308
-10280
10012
516
-17084
13868
7396
-7876
-5472
2132
-428
-4024
15388
-6752
-3684
12532
-15236
-9168
9448
13936
-8240
-1908
1292
-5364
10844
-6748
-10148
8380
11284
-5512
-9444
9800
-8224
1300
4264
-1000
1212
-2588
172
-1364
6040
-3068
-4092
7200
-7160
-520
3276
5500
-2200
-3032
-2496
-9088
20204
-2788
-11648
8836
-196
-2188
-4764
2812
-4924
8808
9468
-15044
1636
856
-1940
-3852
12804
968
-14920
9524
2056
-7972
988
5620
-4676
316
6932
-8432
7836
248
-11640
-220
6384
7840
-2708
-4960
-7824
6756
12364
-10844
-4848
724
1664
4536
428
2032
-3500
2944
-7092
-8664
11220
7260
-5764
200
1288
-6836
2608
6528
-5360
-2216
4628
2896
-9596
3936
52
-4856
12432
4280
-12192
-8548
8156
-1852
3228
10172
-6160
-1376
-7204
-4784
9784
3808
-1728
-2824
3012
-3252
3972
-4848
-3736
3912
1980
6968
-5668
-1872
-5216
-1264
14320
-1100
-13612
2344
8568
-7356
11088
972
-18252
2260
8180
5296
-5584
-1640
1768
-1960
2464
-1256
-4148
7648
1084
-8000
2520
6620
-9136
724
1404
-4852
17844
-2268
-15640
-1124
892
11432
4420
-5108
-12676
2324
10596
-2608
1316
-6164
3588
-1160
636
-4888
7492
7716
-18724
5272
7640
216
-9108
3716
-832
-8812
20068
3624
-17864
-2740
5304
-2708
3912
14532
-13024
-9628
13116
-2336
-7036
2600
4884
-3520
3152
4220
-10988
3876
2716
-4748
-1168
11128
-1832
-11508
4544
-696
4936
5616
-10584
-3632
1808
7416
3696
-16
-16440
-64
20304
-6380
-7064
328
1992
-1312
5916
-720
-12268
9580
9108
-11840
-824
2152
-424
1936
2812
-7044
2876
8480
-11756
-4392
9144
4700
-1308
-76
-7852
-7704
9968
14064
-10672
-12104
11508
5072
-6716
-1472
-4920
6408
9060
-5072
-6412
388
1168
-6044
6328
5452
5688
-6112
-11672
264
4624
8492
-2812
-3836
-2272
764
10024
-3012
-9996
-268
4636
-2580
7492
7688
-18292
4524
7384
-7632
-1396
3440
-1876
808
12172
-10804
-7572
14056
-4616
-15760
11484
16712
-12380
-2844
1660
-10120
10024
4676
-4996
-6884
6864
8416
-9496
4316
-10112
4092
3972
-6368
8700
1264
-976
-8960
4408
-1248
-4124
10060
432
-3164
-4776
3772
-1360
-280
4684
-11200
9252
9724
-13316
-3660
5404
392
24
3344
-7292
-2032
13480
-1920
-5976
-2780
1372
-4632
1676
18900
-13792
-896
960
-4812
1744
1136
3652
-4584
13348
-10808
-7124
12432
-8956
-5892
5128
17396
-1944
-15740
-3228
-236
13540
-268
-4272
-2996
-1392
6428
-1100
-1456
-8912
7108
12308
-11584
-2268
4656
-3448
-232
5408
-7768
-1492
17000
-8284
-8416
6708
276
-6052
876
5836
-7800
15172
5036
-20612
-4948
8432
2776
-3008
10088
-5600
-4128
10036
-7196
-10280
4772
9776
836
-4344
-3744
1204
5688
-5788
-3696
5180
3500
-3668
-1260
1644
-872
8248
-2764
-12480
-624
2988
7748
10096
-3672
-18288
1628
14816
-9144
-5656
11044
3000
-5640
2736
-3396
-12032
16484
-996
-12460
12640
9276
-14344
-10364
15216
-5068
3552
5308
-12184
-3144
13300
3772
-13016
5636
-8216
-1028
13468
-360
1552
-7872
-3992
568
4904
1628
-8732
10940
1220
-4424
-2904
328
-4624
3808
13792
-16568
6032
7612
-17372
2616
7664
2704
-3184
4320
-7988
-11708
19180
3892
-4104
-6996
16
-3868
2780
12040
-11800
864
10196
-7176
-3504
3000
-2212
-5748
11636
3784
-8776
6428
-9864
-1844
2232
10600
-256
-9556
2760
-5468
10848
4196
-11860
-5840
4160
11476
-1904
-2244
-7668
1232
8732
-11984
7664
2732
-792
-1352
764
-1768
-10300
12144
-2316
-2896
9588
228
-8928
-492
732
-10412
18244
11748
-19476
-8152
8040
3724
-2512
4872
-6228
-944
4672
2168
-348
-4404
-2288
464
204
1624
5456
4268
-10736
-5208
7844
488
-168
-1412
3612
-15220
15296
14512
-24952
-1908
10680
1040
-1236
3580
-11600
44
16284
-7560
-4636
1576
768
-5564
2312
17372
-11628
-3500
1108
-9380
2080
17648
-6036
-8784
11304
-10320
416
9364
-13428
3784
10644
-3068
-5488
1988
-4340
-4536
11984
2172
-976
-7776
-1076
3716
4
4884
-11264
4660
13544
-15580
-172
8412
-2980
-5908
6464
-7828
5208
14476
-13340
-5968
2764
1504
-1048
10068
-4908
-10632
8344
7124
-7156
-6412
2120
924
7248
10168
-18932
-2856
10472
-6400
-3744
12436
4360
-12128
400
-4644
2268
16384
-7560
-10152
1288
4452
7348
-9816
-1832
-2108
11948
1660
-6840
-2824
-1548
5140
-3072
6652
-5292
-2428
3288
-3032
6496
2096
-8296
-2288
8164
-7512
-4780
18480
896
-13200
-3592
2392
6432
-740
268
-8872
6700
12312
-15244
-7712
12272
6916
-8260
-1932
-4980
4552
15696
-14524
-9652
16692
-4204
-5412
560
3536
584
6868
-3252
-11604
1052
3420
-112
8252
4744
-16060
248
9748
-2288
-5284
1672
-1180
6308
228
-7236
180
10432
-8028
-5896
9508
1076
-4652
388
332
-7456
12344
228
-9596
4228
9616
-11652
-9880
13544
5624
-7976
5136
-912
-9956
3720
3400
-3268
5432
7508
-12308
488
3624
-6432
-2908
11468
2992
-5240
-704
-7120
1732
10764
-4464
-4356
2252
3192
-2428
-344
-7772
2660
17112
-7396
-9292
-240
5988
-492
1692
-2856
-4836
8888
1432
-9724
-84
11872
-6408
-4432
7244
-9572
3420
12508
-7808
-5288
1952
328
-1336
3400
-988
-980
7592
-6776
-2184
-3208
5500
8312
-11096
60
-864
6708
3384
-7296
-3720
4224
3124
-6836
3940
-4664
7156
12248
-15360
-6324
3804
-2256
2496
12472
-3612
-13608
13044
-284
-14588
1204
16744
-3100
-10692
8576
-6792
4244
9660
-14812
-10184
20068
3516
-12984
5484
-2248
-1784
11412
-7468
-10616
7756
2212
-2308
4996
1736
-7040
5312
1192
-18576
7784
15480
-5440
-2532
2784
-10740
56
17572
-9400
-8732
2188
5476
2924
4380
-4120
-11596
10920
-620
-11388
2408
11744
1988
-5348
5488
-13952
-1284
10436
-12800
16688
13936
-21088
-12236
11136
-2004
776
15664
-8756
-10460
6200
2300
-4088
6132
456
-16900
9360
19080
-11876
-13104
6240
3228
-1172
6544
-10116
1032
13452
-4436
-11980
2032
3948
-1544
560
1464
5832
6892
-15648
-9812
9588
1604
4264
3920
-1644
-11900
8304
6096
-13400
-3912
8312
5752
-2216
12448
-15712
-13748
19960
-5868
-6720
10968
6288
-9392
-240
-1916
-6876
13612
1124
-12360
164
13280
596
-12048
6480
-4224
-1868
9504
-9256
-2660
11676
1960
-7744
1220
-4156
-5684
12408
5252
-8008
-1328
484
-3220
2000
5488
-8292
7424
5648
-12956
-2412
8768
-2168
-908
5192
-8236
6924
6752
-12604
-5824
4504
7084
-372
2144
-2820
-9972
11812
3512
-9680
-2208
4728
-2788
3152
8920
-14564
3800
13504
-15312
-8540
8164
9040
1420
1120
-10968
-5688
7420
2288
1104
340
-2128
2364
-1116
-8744
-148
15588
2140
-11852
-3152
1292
2596
-284
5436
-7188
6404
6660
-16688
-4048
14968
228
-9024
9916
-5836
-8028
16304
-2500
-11588
564
3900
7004
816
-3820
-9712
1348
12072
2648
-16604
4424
6544
-2072
3972
-10280
-1696
16020
-4564
-6676
984
-3788
4900
4236
-3256
-1904
7160
-10524
-2596
11588
1644
-5624
-3776
2736
-11728
10672
23516
-14332
-17908
672
6064
2136
13124
-6236
-16944
13160
6416
-10288
-6632
11804
1168
-5332
1876
-9016
14324
6056
-14536
-10512
13320
7092
-9984
-1164
-296
12548
2960
-11920
-8136
2076
6984
-3728
5892
7180
-11532
728
1360
344
-1176
-2592
-228
2964
7428
-8440
2292
5260
-9904
-3940
3748
11844
-5248
-5316
456
3052
11676
-14720
-7624
3856
5452
5804
3700
-7860
-9840
8496
1512
328
-1488
1416
-1508
-6852
10452
-1012
-6076
8192
-4788
-4544
8300
-5452
-2152
11516
-10088
-5528
20352
-7660
-12816
3464
948
8576
1648
-4936
-9048
7188
2732
-3644
2780
3728
-4844
-7916
7456
-1280
-376
8076
-5428
-1840
6552
-7200
-6148
8160
-8188
3932
26160
-14516
-18796
3160
10400
-6632
1024
9728
-10692
4964
13764
-15972
-11636
13964
516
-8356
9368
5208
-10720
7040
-3036
-6900
2664
6916
-6468
-5144
12892
2992
2480
-11116
-12164
5696
5796
556
6080
8092
-15604
-5904
8500
-1756
-728
6360
444
-13868
11444
1092
-11616
14344
3956
-17472
-2984
14232
-344
-1764
2308
-10052
5436
4960
-8572
-1676
9752
7540
-15224
-1280
2456
-2212
7068
4584
192
-8156
-2604
-2076
3360
4336
-5924
9712
716
-5756
596
-5836
528
-2844
5028
8804
5544
-5708
-13760
-4716
5660
10700
-3488
3464
-2128
-5688
12996
-11500
-11484
11668
2892
4320
2436
-9756
-10712
13884
8700
-10944
-4492
2696
4092
-7396
14900
372
-18400
5288
5008
-2480
-1824
8032
-2220
-24
-3740
-11304
11216
7864
-1768
-3288
-3520
4076
-5844
-5880
5228
16568
-4096
-15448
3488
4124
-1416
884
10816
-12712
-12028
19456
-1236
-9812
10584
-868
-13660
12156
8384
-24812
8020
23084
-15224
-13832
11468
3704
-7056
9516
-3416
-9448
10680
-3204
-10280
12040
13276
-18256
-6568
11252
-1904
-836
1444
-284
-236
2968
-1400
-6648
5072
388
-1876
-120
5868
1804
-9764
460
580
2476
-2100
4616
2056
-3104
-1192
-1932
-376
4500
760
-10992
7008
5808
-8492
3112
7272
-4652
-7024
1032
3940
2668
-1400
220
-940
-1268
-1640
888
-808
3424
1756
-1760
-1712
-2360
5352
-1572
-3408
772
3424
-676
-260
2864
-4564
-5056
4704
4816
-3512
-1764
3332
24
820
-3808
-2912
4168
1072
552
448
-1968
-2092
2724
-764
-224
1820
-2536
-2176
2656
3104
2436
-4172
-1928
1556
-3800
-1688
6280
3184
-4132
2240
-3184
-2092
4468
-1768
-2584
4260
1068
-4396
736
3244
-1444
-1796
3976
-6644
-4572
8900
6776
-116
-6672
-6060
2384
5004
-4316
2124
1112
-1304
2292
-1264
-316
1320
-556
-4520
-248
2324
5588
1540
-5780
-1912
1556
-2048
400
3304
88
-1312
-380
2632
396
-3772
-1856
432
884
5556
784
-4092
-2364
-1596
1820
1860
2084
-1084
-2608
1376
852
-404
-1436
1244
260
-1824
-1004
3268
3500
-4908
-1552
1868
-2604
4108
3476
-7680
-176
6448
-3992
-1368
4400
-2124
-2332
2504
208
-1156
384
-656
2120
-2276
776
1812
-1968
-36
-2624
912
6168
-136
-6740
1244
2744
-3296
1424
1768
-420
-756
-600
1216
68
-1264
-624
1452
920
-1316
-344
684
1044
-2252
488
1908
-1664
556
-1692
-1296
4724
2588
-5188
-1212
1652
-1036
908
820
892
-1756
996
-384
-152
2372
-13296
10640
13816
-14036
-5664
6748
376
-4132
3460
700
-768
240
-776
1036
28
-2584
2432
-496
904
-376
-10700
9380
11808
-4740
-9868
-2972
4652
844
2120
1032
-2052
-160
292
84
-332
-292
812
-1868
2604
-548
-12616
11744
15796
-9800
-12796
1128
4192
516
1680
1316
728
-3180
272
1156
-784
-1272
1508
-948
1788
-1016
-13788
17800
12824
-15200
-9568
4124
1940
-724
5272
-1084
-928
-44
-1608
1080
1508
-3988
2708
-520
1920
-5172
-9104
21192
7144
-18052
-7000
9256
-1564
-2172
4472
540
1892
-544
-1516
-1860
-2132
-600
4228
-2316
2960
-704
-6632
12444
4420
-13372
-7252
6432
2340
800
3168
1256
-3364
-2728
-1952
4504
2360
-3188
912
-4556
4140
-4440
-3632
17384
2288
-14204
-4796
4948
-32
1144
1792
984
-196
-2176
420
1696
-2368
-1656
3776
-1392
1024
-8004
2576
16636
-5140
-12172
744
2548
-776
3352
1856
-836
-2388
772
-184
1940
-3108
-1756
3564
1380
-204
-14148
13180
14260
-11612
-10032
1968
3504
-1324
4736
-420
-496
-1536
-520
1408
324
-3536
2920
336
-20
-3376
-7704
17372
6368
-14772
-6024
5672
700
-572
3864
-968
-1388
1228
-1768
1348
20
-3504
4036
-592
888
-10024
1912
19900
-3888
-13432
-3232
5652
64
788
3248
476
-1792
-4820
2936
4488
-4792
24
620
1224
-1592
-9900
12824
11692
-10456
-9732
2004
3360
-1444
3284
1976
-2556
320
-1856
1424
2184
-3264
608
-2028
4460
-6820
-3680
17672
1636
-11676
-6376
4584
400
1648
2108
484
-1248
-2004
868
2560
-2752
-836
640
492
2660
-13708
10092
15872
-10240
-9800
836
2644
-424
2884
1880
-1204
-1784
-124
2208
-20
-4456
2608
-732
3880
-6772
-6548
20668
436
-12636
-3764
3684
-464
1996
2232
-768
632
-1932
-360
3544
-2468
-4024
2960
2148
628
-12824
8488
17996
-9740
-13024
1588
4264
-968
3352
500
-12
-28
-2116
-440
1352
-836
-36
-1376
5132
-7564
-6020
20700
2636
-15316
-7820
7712
3064
-468
928
-188
424
-2072
184
1264
120
-1900
-304
2140
-348
-9920
10060
12852
-9596
-9860
1976
2032
340
2452
1116
188
-2208
16
872
-4
-3064
516
2984
3044
-14172
3416
21900
-7440
-13976
792
4892
-3568
4180
3064
-2284
-340
-1544
1816
412
-3348
1676
-704
2576
-3080
-8936
17132
5836
-12788
-6452
4912
-684
-284
7204
-2400
-3380
2404
-812
556
-584
-2244
904
2616
192
-12552
11368
13312
-9688
-10036
1172
3652
-1212
4344
452
-2184
-1020
244
4020
-3236
-5284
6836
-352
-320
-9916
2628
20364
-5708
-13748
-852
5272
-1236
1976
2228
-508
-1100
-1400
1100
2124
-4012
344
520
3860
-7268
-6048
20000
1808
-13264
-4932
4684
-320
1316
3168
-68
-1180
-2236
780
2276
-1364
-1124
-800
3056
-1800
-11580
15608
10920
-14048
-9112
7296
1544
-2920
5816
-2096
-3376
2408
1392
-2004
-240
1456
-628
1128
-1012
-10228
8556
14644
-8920
-10508
2924
2028
-232
2676
616
-1332
-396
356
-160
-716
484
188
-1908
4204
-11080
4260
17544
-5816
-11612
-1920
5016
-2584
5116
1624
-2804
708
-1936
2812
-1496
-2176
1904
-504
2884
-11052
1952
20640
-5088
-13648
524
3232
-4156
5404
3616
-3444
-156
-1036
1868
1572
-3616
-868
628
4028
-8188
-5164
21800
2256
-16816
-3880
4696
1172
28
3544
-636
-1044
-16
-1284
2744
-2716
-72
-1012
3708
-4592
-8536
19088
6676
-15124
-7216
4764
1452
556
2580
-408
140
4
-2252
1692
-684
-284
-1052
3084
-5072
-8128
18820
6632
-14352
-6696
5308
-740
420
4376
-536
-988
-1252
-248
3412
-2752
-1684
-260
4000
-3384
-10108
18112
8988
-15648
-10432
7180
3600
-1092
2696
-732
-668
572
-2644
3128
-1292
-2552
2696
2500
-5576
-9924
17928
7048
-9096
-7864
-1120
3020
2280
2664
-1148
-40
-732
-1172
1432
-748
696
-1396
604
648
-12336
14424
13924
-14520
-8744
2864
1528
1072
3056
1352
-2272
-1100
-444
1096
1620
-2172
-2096
3652
-1060
-13180
16308
12564
-14632
-8200
4320
1052
-1388
6148
-1388
-2772
-8
2692
1220
-4696
-72
1980
1236
-3196
-8700
14564
9088
-11092
-6832
568
1172
948
4612
160
-2288
-752
-456
3532
-3720
1520
-1132
664
-2960
-8492
18916
5540
-11880
-7244
3564
-764
1036
6224
-3524
16
-4
-1188
3048
-1556
-2296
-1280
4128
-1468
-9912
14972
9328
-13672
-8920
4976
2828
-600
2952
844
-3140
1456
-1820
2096
-280
-2448
668
2136
-4920
-6424
18524
4256
-12676
-6788
3228
1952
100
3700
-352
-1444
-280
844
304
-2880
1136
-1512
5224
-6988
-7160
20244
3336
-13004
-7744
5488
828
720
3364
-1452
1384
-2536
216
536
-688
144
-1632
4472
-9372
-2076
20128
996
-15956
-3036
4044
-660
4040
3100
-4128
-1824
4180
-672
-1772
228
544
-2040
1716
-8144
2796
18060
-2292
-13452
-6260
5788
4156
132
-500
556
1016
-3436
1620
3152
-4168
-2792
3684
2640
-13560
8600
17944
-9692
-11788
644
4136
-1760
2616
3188
-1836
-1160
-196
2232
-2132
-796
-632
1024
2116
-11012
11332
10564
-10448
-10192
5856
2280
-1692
5432
-2416
-3396
1448
1396
576
-132
-2452
-560
4424
-7068
-5000
18844
3128
-15832
-3344
4360
-808
4232
4436
-5796
-2832
4932
-1360
-1480
1488
928
-3408
4096
-7964
-4972
23592
2924
-20388
-7992
11328
1440
364
4580
-4492
-1784
60
2636
-1548
1076
-896
-4328
7632
-10836
1788
20068
-1776
-19224
-5816
10596
2116
2420
-1116
-108
592
-2768
-160
1088
-268
-3108
3440
1736
-12568
11212
16464
-11984
-13016
-1628
7564
2960
-256
3376
-960
-3828
-2692
5008
-1272
-1524
-452
2664
-2468
-8716
16336
8148
-12532
-8356
-1084
2640
6336
2444
-408
-60
-4052
-3652
5864
-1536
-2500
3280
2080
-8688
-1568
18988
-1744
-13292
-648
-812
-472
7568
2348
-3084
1352
-3768
-1028
3308
-1388
-2880
1528
5612
-12316
5468
15924
-5668
-13348
984
3796
-6504
7800
4884
-1764
-844
-3028
-620
-512
1504
-2336
4144
-688
-13556
17300
10416
-14268
-7552
4964
996
-6408
8164
2656
-1768
924
-2168
-1772
152
716
-4384
8164
-4932
-10052
20512
5100
-18028
-4272
9584
-1340
-5728
5520
2632
-304
-1036
1424
-2020
-3436
892
764
3632
-10368
3576
18416
-5776
-13892
-1496
6704
3288
-5764
-1304
6488
2924
-5032
412
1740
-6056
1340
3532
-1408
-9628
13680
9192
-12460
-4976
1592
1648
-20
3460
-5580
2868
3944
-1924
2236
-5364
-1664
2668
5504
-14928
572
24024
-5060
-12164
-3564
5652
-1976
2264
4556
-6968
444
4396
-520
140
828
-4260
-1100
3516
-12556
10396
18064
-10856
-12352
2744
2880
-2304
3256
5384
-4368
-5748
2648
5740
208
-2028
-4596
1740
-2604
-8276
19540
7008
-14816
-6284
5124
-1852
1372
5372
-2712
1164
-4212
-428
4544
1576
-2168
-3084
2072
-10228
5300
16712
-2968
-11748
-2716
2628
-244
4072
2512
-4148
2928
-2748
-3232
4592
628
428
-276
-5724
-10420
20360
9300
-13824
-7476
2016
2388
420
2712
-660
2116
-3500
1028
-608
-408
-384
-160
5068
-11644
1048
18556
-2304
-14284
-820
4152
-2012
3956
2168
-2372
-120
528
1824
-1848
-4460
300
4416
508
-8616
8136
10924
-8024
-10432
932
4364
-216
3312
-60
-1808
692
-348
1664
-1032
-1936
-4232
6236
-6336
-1516
20692
-2900
-15676
-2780
6204
-1984
2648
3576
-2100
196
-1008
324
1340
720
-5092
-3744
7144
-8408
7376
17464
-9476
-16468
1256
6396
-1624
4508
356
-2876
4156
-2264
-924
-2064
844
2600
-36
-9864
-3168
23560
1500
-12956
-7052
1460
3140
-724
3088
2692
76
-3520
-1020
2004
-96
-2648
1516
4096
-15408
6672
20704
-7876
-11424
-1532
1936
1268
2772
-128
660
1432
-3680
1856
-1064
-448
-456
2724
-2432
-9548
14056
7980
-11692
-5904
7084
-1784
-3800
5388
532
-108
-1096
-1784
4308
-1016
-6812
4756
5300
-15544
7208
17048
-8912
-10604
624
5744
-760
872
-272
500
-1728
-864
4440
-2180
-704
32
1104
-6288
-4772
19340
5388
-17616
-6160
6916
176
3164
4964
-7632
136
1664
-384
568
404
-712
-1164
2796
-12012
7188
15948
-3940
-12572
-5212
5844
2092
2672
2664
-3264
-4248
2844
4112
-6564
1924
2008
-820
-1976
-10728
17784
9708
-14880
-6020
3260
-2400
2560
4564
-164
2200
-2892
-5880
4128
4100
-6260
572
3808
-9384
2624
18136
-4256
-15356
1892
4776
-4408
1668
4900
-1364
1860
592
-5360
504
1484
-3312
4116
-2476
-8280
17260
5060
-15408
-412
2308
-2104
1592
1516
-2756
4892
4036
-5620
-1472
1240
-1320
-2740
4904
-8168
1488
19956
-4108
-16624
-356
6684
-2836
2464
3216
-3676
72
2112
1268
-268
-2772
-4964
6628
-2704
-10308
17640
9060
-12468
-10008
1964
4644
132
2956
1116
-3788
-2504
2668
2428
1204
-2212
-4384
3156
-9216
4468
20068
-6296
-14980
1828
2108
-1588
5392
940
-1512
448
-4172
2784
1516
-1680
448
2312
-9688
-4592
21276
2596
-10820
-8752
2624
3968
-952
3836
-172
192
-2300
16
-2124
1516
988
-492
5256
-15432
5960
18308
-8196
-10876
-692
3920
1772
2864
-3376
1148
1840
-3240
4864
-5696
-2012
2052
5092
-5592
-6028
17360
96
-10488
-5668
5572
-436
72
5644
-3612
-72
1032
-844
396
2432
-7904
-508
8696
-12388
10376
14844
-12460
-11900
2920
1940
2048
5844
-4772
-820
3392
-564
-4604
3360
3488
-8380
1540
-1936
-2076
17668
3656
-17560
-6612
7116
-168
2488
3092
-1112
-1644
796
-3524
3192
3824
-6064
32
92
-10316
12412
14808
-8832
-10668
-2804
3540
1280
3840
732
-3152
1088
1932
-1884
-1460
640
-936
4556
-10544
-3244
21252
1172
-13132
-2792
512
-1136
4296
2252
672
-1804
-1852
1816
988
-3220
-160
3320
-1804
-9980
11560
10644
-10092
-8068
4920
2824
-7128
6180
2416
-4500
1448
1216
112
-728
-1960
-1244
5996
-11684
2556
20572
-10748
-9896
3000
1932
-456
3100
-1880
-1072
2624
-2188
2676
-3308
484
2316
1092
-6144
-10372
21156
9656
-17404
-11352
9792
2916
-1408
3920
-2784
-80
-1948
308
2964
936
-5260
224
6272
-14608
8012
15240
-4264
-11120
-6464
5280
3236
5328
-2144
-3472
2068
-1516
-1948
3416
2144
-4620
1080
-3704
-4760
17420
3576
-13876
-4556
3092
3624
-2068
956
5584
-4740
-3692
6804
-12
-5648
-148
4084
-1092
-11388
10636
15616
-11180
-10624
3164
2768
-1840
1212
2684
2732
-3080
-4452
4448
1316
-2816
-3216
6056
-7232
-4300
19708
1136
-13432
-6280
5464
772
1880
3448
-3448
-1824
2020
2020
-936
-704
-1808
-968
-536
-7220
15632
8160
-15328
-3016
4412
-3132
-2704
10240
-1312
-5068
2084
424
2064
-2604
-1192
-688
3968
-8964
-1524
22116
-2780
-15308
-3832
7200
720
-744
2912
-952
548
-2332
944
1164
-536
-2216
804
-704
-9092
16812
7120
-12592
-7924
3608
1420
952
4692
-3696
1944
-1376
-864
-480
2312
-872
-3504
6364
-12216
2480
20148
-2656
-18620
8
8672
-2884
1148
2596
224
-3208
156
1916
928
-2404
-2976
5840
-6728
-5648
18476
4884
-16196
-4576
7460
-2292
-112
4056
-1600
2988
-3012
-2136
2924
1656
-3800
-2096
4436
-10784
10084
13532
-9492
-10184
1116
1996
108
6468
-2972
-988
44
588
516
-2084
1848
-3724
5104
-8936
-328
18520
-1600
-14012
-3452
8180
-1972
-256
3096
264
-1536
-1128
1076
2388
-2236
-3496
3456
-20
-11828
13964
12292
-11760
-9268
792
5144
-604
1496
1044
-604
-392
-1412
2240
-1048
-804
-1012
2196
-8844
5404
17900
-10132
-8476
-12548
6908
24052
1636
-20720
-6804
7344
-428
7424
2436
-4520
-2160
3896
-9368
-5040
19720
3088
-13764
-3348
4240
212
384
2036
-228
-956
1100
-252
-928
-948
960
368
-1948
-8148
11468
12244
-11084
-8252
1364
3756
-2212
1012
2616
1624
780
-4680
32
-4
2940
-3996
2860
-6132
-1348
18236
-2160
-11404
-5564
7232
-2940
1920
6076
-3044
-1568
-1556
2768
-172
-492
-4028
4968
-1068
-12040
15364
10180
-12876
-8820
5704
2624
-2888
2264
3788
-972
-7204
1692
7984
-4212
-3172
2996
1488
-13360
6736
18256
-8860
-7880
-1212
2688
-1676
2364
3332
-1232
-1308
-740
2596
-2496
324
-1996
4992
-7152
-7124
22152
2232
-15416
-5964
7640
-340
-236
3020
72
-856
-1876
2688
-1272
740
-3744
980
2568
-9416
9812
11076
-8992
-9324
2252
1836
804
2340
-144
-424
556
-1592
-524
1328
1044
-3648
2556
-6600
328
17672
-3980
-11620
-1084
3684
-1580
2460
2920
-1288
-1612
-1416
4632
-1632
-2936
-948
5196
-5432
-8068
18788
4740
-13420
-6600
4736
1932
548
376
-156
3432
-3688
-1400
3436
-408
-3980
1364
2612
-11244
9056
14832
-8588
-11288
-380
5784
-1220
2656
1412
-3424
1252
768
980
-2376
-340
-980
1948
-5732
-868
18128
-2976
-12040
-3020
4988
104
-572
5008
-3624
1156
-708
532
1344
-2180
-1628
1332
-736
-9356
15776
7712
-10828
-7980
2080
1176
1320
6968
-6228
-2372
5280
-364
-2992
2004
184
-3100
936
-8316
8972
14800
-9852
-10400
1988
2952
-1520
2688
1772
-640
-1460
-424
1488
760
-2548
-2716
6728
-7232
-5664
18932
2768
-14324
-5200
5776
2288
-2928
3136
2280
-1416
-3508
1480
2592
-1308
-2764
-80
2300
-8772
11000
9876
-9616
-8948
988
4644
-392
3464
-1044
-2444
-420
3000
944
-2696
-1364
-508
4032
-10700
4756
17860
-6692
-13604
1820
4728
-4752
4148
5580
-3664
-4304
3352
2288
-3244
-956
184
2428
-5544
-4148
17860
2724
-15692
-2396
3844
-756
2612
4012
-3240
-544
1112
-688
-404
-2176
1196
3136
-512
-12668
12092
13104
-13552
-6844
3876
2076
-1908
2216
2876
-1080
-2432
20
2420
-2628
-1328
2924
1260
-10108
3444
16836
-4180
-12228
-2648
5644
760
204
932
1128
384
-3728
2104
756
-1360
-4000
4792
-2904
-3876
15048
-1556
-9716
-3440
5804
-2064
-1160
7332
-1292
-5404
828
6292
-4300
-3072
1160
4236
-1984
-12672
13960
13724
-15164
-10532
10208
3208
-7272
2660
3156
-1116
568
-1456
-2640
3732
3460
-7240
2672
-5696
24
17356
-4324
-11644
-1768
5668
164
1312
2284
-5048
188
2648
988
-2092
-196
-984
2316
-3976
-7136
18960
2600
-13716
-4876
5736
1188
-1524
3396
-812
780
-3164
1916
1332
-1788
-1256
1436
-612
-9884
11672
12248
-8872
-11804
2336
4176
-432
2728
-1108
76
604
-2432
956
1640
360
-4360
2064
-5316
1344
15552
-2936
-13208
-348
5964
-4008
3468
5240
-5320
-4100
5932
2604
-6392
1140
508
2480
-6868
-5356
18804
4664
-14396
-7864
6668
2652
-1136
1972
-1412
2436
-1400
-2856
3448
544
-3696
-1024
3412
-8716
10720
9512
-11832
-5516
3528
868
-3196
6372
-700
-1448
-172
392
532
-1568
-704
564
6304
-14852
860
21772
-4444
-14364
-436
6656
-2692
1492
2072
88
-324
-3540
484
2692
2980
-5400
776
-3524
-4536
16644
2584
-11948
-3604
4260
-2328
1540
5416
-2672
-5112
5360
3032
-5796
-144
2640
-920
-2676
-7652
12724
10836
-11864
-6384
2056
1844
-1520
1872
2416
104
-1420
-2220
3264
132
-2064
-2980
4608
-8768
2848
18528
-6740
-12572
-96
6232
-4548
4164
3228
-3912
472
-448
1156
928
-572
-5152
4976
-3664
-7040
18192
2964
-13184
-5416
7764
-1608
-3824
7416
1092
-3540
-2536
4840
-724
-1588
-3540
1724
3844
-10844
10276
10132
-7968
-9672
2280
1576
1988
2072
-3348
1236
2600
-436
-3000
1552
-1600
-784
3584
-10640
6412
16380
-7748
-13368
2584
5476
-3112
2016
1644
-616
632
-1600
288
1008
-444
-4940
4988
-1860
-7092
16136
2840
-12088
-6844
6180
2272
-320
1388
-1904
2912
-2292
864
-2560
1964
236
-1048
-964
-7972
14548
6984
-11080
-8124
4236
2844
-1020
2340
-664
1812
-3816
392
2612
36
-3436
-176
5228
-11644
6064
14036
-5908
-11808
956
5544
-916
352
-792
3980
-412
-4840
580
2636
-260
-2664
3444
-4492
-5404
16012
3256
-12300
-6420
6164
672
-784
5800
-1780
-2840
-1604
3076
-656
468
500
-1448
-1568
-11424
17196
12108
-14916
-6012
1244
316
2496
3348
-3276
2800
-1440
-2272
3404
-312
-2568
-296
5368
-13544
2452
20080
-5920
-11504
1852
5756
-8336
1472
7700
-1896
-3664
380
5116
-2972
-3196
636
6228
-7884
-6648
14120
6764
-10528
-7872
9108
620
-6504
2700
4140
-2624
-964
3628
-1912
-192
-1356
-144
-1128
-4360
13684
-1128
-9080
-464
3384
1536
-2144
1172
-756
-272
-1264
3084
2248
-3876
-2216
3224
1500
-11328
7692
17768
-15712
-12684
10924
5360
-4008
1112
-1176
-3016
3988
-780
-1744
4652
-652
-6060
3676
-6016
648
16988
-2244
-14712
-4360
9876
212
716
1132
-1640
-2472
680
2632
-688
-76
-4348
6544
-4480
-9972
17132
7708
-10952
-9532
608
4432
2992
1412
-420
1796
-4532
-2776
3496
2644
-3548
-404
2496
-8844
7788
10240
-4708
-9316
1828
-3340
-688
9864
-464
-584
-2352
108
-1512
-184
-428
-208
4528
-7904
1588
12620
-1740
-8640
-6508
6860
1536
-3792
1552
5472
1656
-5356
-1080
1344
40
-4492
4060
-6352
-4124
26680
556
-20692
-5624
6512
912
-1708
5208
2504
-164
-3036
1112
-1524
-3200
660
1596
696
-8020
11520
9700
-10052
-11152
3248
4824
728
668
-3432
4880
-4484
-812
6732
1360
-7336
-3592
6564
-9316
5640
12480
-6024
-7664
4460
2380
-9304
4708
3272
-6552
3668
6372
-1852
-1652
-3196
-3380
6480
-5076
-5456
17228
1692
-13368
-1404
4612
-1228
112
4216
-2504
-3652
1064
3532
1528
1332
-5516
-3412
3468
-6760
11152
8072
-10448
-7416
4644
2372
-1912
2316
2020
-1440
-7768
5092
6820
-5880
-792
2824
-344
-11648
7396
14444
-7556
-8520
-460
6916
-2148
-1472
1492
2964
1396
-9608
760
7868
140
-3944
3396
-8240
-3412
16748
-460
-9876
-1876
5780
-3264
-812
4792
876
-5740
3168
2456
-6648
2900
1512
3244
-5436
-8676
13524
7980
-11768
-7612
7080
1840
-88
632
-3004
2588
-1000
-380
1740
-1424
-1348
88
2720
-7484
6716
10104
-10072
-6780
3980
3180
-3188
3196
912
-2640
560
-744
5232
-2520
-8272
3804
9488
-15112
1544
23884
-11780
-13832
3612
6404
-3260
236
3772
172
-3424
-880
4660
-352
-1284
-7376
3176
1696
-2280
12660
-212
-11964
-3284
5196
-976
2244
2092
-2560
1252
32
-1164
3236
-2852
-2752
1220
120
-7204
10096
14756
-12168
-14000
4804
6960
-4264
2400
2168
-2152
1736
-2124
-2608
6012
1800
-7480
-3496
-452
7076
8344
-2212
-7096
-4252
320
2960
2704
-808
1092
-2928
1564
3532
-3716
-2164
-116
8164
-10908
-7796
22004
2472
-14844
-1176
7144
-6524
1156
3140
-1252
4096
-1764
-2616
144
2056
-2816
1996
-348
-6156
7264
5484
-5556
-4004
4152
-1544
-4296
5128
2036
-3540
-80
2444
988
-1196
-3300
-228
3444
-6632
6628
6760
-7092
-4076
136
4840
-1228
-116
-756
-312
316
364
2116
-1512
872
-3424
2148
-5744
1656
16920
-9808
-11244
5576
6012
-4628
1272
1272
-3064
2184
-1008
1480
-180
-128
-3060
3736
-2200
-7296
12884
6668
-12560
-7872
7660
1836
1284
1264
-3828
-340
736
776
168
1600
-5204
3808
288
-10180
11700
9680
-10240
-10044
3440
6012
-888
-724
3264
-228
-5604
-652
6544
500
-6908
-1452
11472
-11192
-3108
18092
-2296
-10448
-5360
4068
2480
3380
1276
-388
-4004
-4028
6592
-972
0
-964
876
-6032
-1316
16208
-432
-12728
-264
5380
-7340
2172
8464
-948
-3000
-1076
-1528
1824
2220
-5616
2736
2040
-8188
8604
7636
-6768
-7940
3508
1444
-3048
4508
-3048
2096
8760
-8304
-7440
7904
1172
-5896
4060
-5632
3480
13780
-9148
-8804
3464
4460
-2756
-4960
5736
4300
-544
-5336
972
1640
-1396
-3800
5644
-3236
-4800
15524
-2648
-8968
-656
884
904
5796
-5028
-4760
7648
612
-768
-592
-1608
-3692
5100
-4572
-8680
20032
9080
-15832
-13512
10908
3704
-5880
1296
-536
7220
3740
-6576
-2476
-2364
-2720
5420
4092
-10752
9424
7916
-9148
-4744
2308
276
-2368
5640
1564
-6020
-324
3744
1592
-780
-880
-3828
2836
-3112
-5640
18892
336
-16548
-336
8092
-1476
-916
2120
-564
-840
-2988
4412
832
32
-4864
192
2248
-5864
11920
1788
-9716
-2488
4036
-1304
2324
2164
-4172
3376
-956
-4524
2988
3228
-3260
3316
-1944
-11404
11128
11536
-9936
-9308
4188
5508
-2848
-1568
4308
-104
-576
-4280
-976
6184
-1504
-932
2292
-10172
3436
15588
-6860
-8664
92
5200
-2336
-1520
7016
-480
-8988
5068
7792
-11468
-1964
6296
5892
-8048
-7808
16748
1876
-12688
-3136
8212
-2892
240
3736
-3064
3032
-2072
-1660
384
2496
-3660
2320
-1168
-7232
14248
3828
-11976
-4884
7396
-260
-2612
2580
3508
-2972
-3896
2772
2408
68
-4348
752
3296
-8612
5044
13640
-9264
-6676
-1028
3476
4248
-2592
-1524
3968
-848
-4604
5168
-856
-4008
896
5824
-9236
-1900
17524
-2600
-13108
-568
8980
-4632
-1620
5960
-1236
-1684
-1500
3252
-636
-1600
-2680
5820
-2020
-9628
12096
7316
-9052
-8688
5412
2900
-636
-800
996
1080
-2076
688
-144
2296
-3648
-48
1828
-9916
12464
10668
-13212
-10700
10116
3788
-7644
3260
4868
-3008
-3780
1840
3256
-920
-3144
-936
5116
-6296
-1200
14212
-2720
-10900
-664
4180
484
1240
536
-540
-584
-3216
6140
-948
-6560
1928
8036
-6480
-10784
20020
940
-14200
-332
6580
-860
-2476
3376
-1164
520
-1508
-16
3016
-724
-5064
1952
5456
-10848
7072
8900
-6552
-7868
2360
3608
-2024
4508
-2360
-2476
1516
2388
-1476
-1756
508
884
1800
-8836
2548
15564
-5224
-13828
3276
8100
-3508
-2628
2468
2580
-920
-4540
3328
720
-1368
-668
2132
-2884
-5768
16248
-1932
-11560
-424
6492
-1816
-1836
4940
-2020
1088
-2152
956
-1852
-164
1020
2788
-1444
-10860
15472
4128
-12708
-3924
8228
2196
-4584
-336
-208
5088
-2708
-1860
792
3244
-4512
-1728
5780
-5848
5280
5836
-9428
-4492
6964
1572
-5392
3684
3616
-3916
-3160
2224
2072
-1584
656
468
-1184
-3276
2408
7128
-5476
-3760
3372
524
-1572
488
2236
-1692
-404
-304
88
900
220
-248
-96
-628
-1832
4172
-676
-2904
2192
12
-1572
-980
3988
860
-4348
-3220
7456
2452
-8644
-988
6444
1520
-4916
-180
2772
-100
-1108
-2456
560
6520
-4380
-2708
2548
1960
-3236
-168
3496
-2584
-644
1128
308
740
-244
-2164
208
2544
-1400
-756
304
1820
-1040
-1568
1260
-104
1812
-2260
-1152
2496
-380
-1136
548
2028
-1720
-3240
3912
2132
-5280
1668
4228
-5924
-1140
9064
-5292
-6344
9016
300
-5284
732
3008
-1732
-680
360
420
748
-1412
324
1492
-876
-964
808
32
-1020
-1068
4060
-76
-3484
-836
3384
496
-2840
1784
-740
-580
960
996
-2896
692
3572
-2296
-1612
1712
640
-3708
3104
1764
-3340
1008
1908
-3392
-88
4620
-2860
-3056
4680
952
-4612
-128
4428
-1060
-2324
-328
644
1012
2412
-4
-5920
224
5772
-2324
-3304
6272
-1420
-5952
4228
4008
-8312
1260
7996
-3852
-3884
1912
1592
-2200
2652
-1516
-400
2264
-2928
-148
3432
-932
-5264
4476
3604
-3300
-4388
3332
1880
-656
-256
-1812
2700
-3832
2860
-1304
-2996
11188
-868
-11296
-2580
7688
2088
-2824
4772
-4376
-5840
6804
3700
-3008
-4292
1768
196
-568
2420
-896
1136
-1084
536
-1088
-1512
1668
732
-672
96
1568
-2608
-228
940
2428
-1640
-968
512
136
-760
-2032
1876
4428
196
-5584
-756
1736
416
1456
-296
-696
-2624
892
2404
5032
520
-11148
-5552
9700
5412
-5252
3032
2336
-5724
-4416
3916
3376
-1112
-2712
1512
3072
-2600
-2076
1848
1984
-2616
-756
2364
284
-1768
-1780
3020
1244
1248
-7876
-228
9272
2772
-8972
-3252
7276
-64
-6792
-2776
13660
3980
-10000
-5968
4816
656
-1252
2232
204
1792
-8076
4604
11696
-8168
-11492
2624
10752
-2440
-4544
3476
2968
-4848
-1032
2088
-480
-1644
3144
1136
-3708
584
2192
-896
-3476
4424
1640
-4276
-6472
9764
7796
-11308
-3848
4140
3368
-4484
3848
-156
-2460
2012
-1604
-440
1192
2660
-6560
3160
4084
-2616
-3080
1552
716
-1100
3420
-2512
2116
-2720
-2428
1644
3928
-460
-3416
2372
1804
-4624
-3584
8696
-600
-4896
2312
1868
-2088
-1100
4000
-4884
248
4156
-1288
-3656
3648
3048
-5740
-712
3268
1380
-4140
984
2316
-152
4
-2180
-984
2040
2176
-3512
-452
4896
-1448
-4160
1056
3108
-900
-3148
2388
3624
-5676
180
3372
496
-2920
-68
772
-452
1760
-444
-1040
184
1544
-1948
-1196
2272
1052
-1596
-968
2388
-1428
780
-1716
-1632
6312
-3352
-2856
1996
4100
-2604
-3800
2828
1216
-1240
-892
-860
2656
4000
-4040
-5540
3448
4900
-4292
-2384
4728
2804
-7648
1012
6120
-3812
-2988
2624
2624
-5072
4136
728
-3140
1444
-1152
-280
-388
2744
-876
716
-408
-2136
84
2276
-1700
-40
3588
-4640
516
4288
-1952
-5128
3188
5364
-5492
-1528
3716
-652
-344
2576
-5800
-800
8488
-1820
-8536
4216
9424
-8588
-4372
4808
2976
-4016
304
3432
-2168
-1516
612
1864
-1448
268
-176
-420
-264
1384
352
-828
692
-1112
-1368
1116
2692
-2552
-8
1644
-3036
1564
668
1088
640
-1124
-4768
324
4816
96
-244
-392
984
-2464
-2604
2952
852
-1748
5020
-2216
-6844
6384
3240
-7004
-1984
8532
-1360
-4396
2328
-1564
216
1200
1668
-2692
-628
2932
-1148
-2284
2764
-56
-2196
1148
852
-968
888
828
-2128
-784
1928
-724
0
924
552
104
-3272
856
2280
-1528
836
32
-1928
2536
992
-3300
-1636
4972
-1672
-1772
2392
508
-3896
1360
4492
-3932
-1584
1016
3300
-1396
-3468
1628
3780
336
-6724
4
5864
1348
-6604
1080
4172
-804
-2624
-44
1968
-244
-796
-1364
2400
-724
1664
-904
-3916
3192
2280
-4936
1476
4696
-2900
-2704
1492
1372
-1512
568
1464
-2740
756
2964
-2832
-1644
4456
-1712
-4732
5620
1396
-3464
-2892
6052
-380
-5404
1936
2908
88
-2512
-500
592
3348
-1360
-3704
-564
4536
932
-3212
332
3044
-5384
-80
6748
-2284
-4976
1316
3168
852
1296
-4200
-3560
5048
992
-3648
2320
2128
-1908
-68
436
-3548
-2012
8528
-1232
-5224
5036
1480
-7720
316
5456
-816
-1796
-228
2560
-344
-3572
2368
4280
-3348
-7340
2560
7652
-440
-4148
296
4056
-6548
1048
1340
972
-304
-1020
5440
-4572
-5008
6736
3660
-7788
-3552
7084
1576
-4564
4384
2088
-6976
-1228
4792
-1752
-1568
3212
324
748
-1064
-4360
2544
4488
-1740
-9708
5796
6776
-4276
1492
-220
-3988
-1120
4220
-1144
188
816
-748
1008
-1760
648
1596
-1880
-232
-2128
564
5240
708
-3328
-1668
-1096
1716
1016
-1324
2236
-236
-2668
2432
-116
-1688
1648
1540
-3956
-4168
8012
604
-2724
2068
20
-6076
1236
4468
-3072
3592
696
-6100
1640
2796
1184
-3116
832
-1440
-3388
6992
1004
-2832
36
472
-3992
184
3712
880
-1392
-112
-36
-464
-108
564
-276
848
-404
-3856
2028
5816
-3528
-2384
2960
-152
-3684
-184
3072
1588
-1468
-900
716
-856
-912
2860
1200
-4692
-1160
2516
1468
1660
2964
-9932
112
9240
-5572
-3740
6500
1936
-6976
3848
-156
-1604
1836
1228
-6104
52
8000
-2560
-636
-1280
-220
3032
-4832
-2364
8544
-308
-8636
5368
5004
-6192
-3156
6056
4312
-11172
-3160
11100
4368
-7236
-1632
764
-768
1988
-632
-96
1140
-272
-372
-2140
1328
4632
-588
-8380
-1304
8376
1532
-3512
2352
-1028
-5812
2256
4232
-1876
-844
-124
1324
1404
-2124
-1032
1444
2244
-4952
-1236
3472
2080
2680
-4528
-2272
2400
-408
-2584
2768
2628
-3948
2128
1460
-2280
-944
1704
-1240
-3084
3328
3516
-3344
-132
3648
-2220
-3288
-3180
4812
3900
-2324
-372
-892
-4
-1012
2104
308
-984
-4108
2792
3468
-112
-1632
-1844
1116
1500
-2948
-1672
6364
-2628
-2504
3024
404
-1240
-1008
3904
-5332
-3240
6960
1712
-2688
1544
-1540
-3952
2864
936
-80
-1168
2404
-248
-2724
1060
2036
-132
-996
-4448
336
6736
-2076
2668
-2236
-5232
1732
3184
-1220
-112
2184
-3488
2196
-992
224
252
2388
-1868
-7240
6328
3532
-3856
3572
1360
-10252
1544
8632
-5936
244
4728
-2100
-2536
1004
1396
-2572
2648
-1436
-2868
3560
776
204
1216
-2248
-3788
1864
1952
996
-1212
-1720
3200
-164
-4128
3668
1764
-2672
-5660
4432
4432
-3488
1864
652
-2628
-3696
3576
428
1524
-1732
-388
2568
-2384
860
-2572
3852
-332
-5248
2300
2416
4084
-4204
-2732
308
2320
-1612
-24
3804
-3440
500
-100
428
-132
864
1116
-4616
-1224
5312
284
-1740
2792
-3172
-2088
1796
972
-452
288
-560
1900
-1360
-1460
1240
2584
-380
-7568
2220
5048
1220
-972
-876
-3864
684
2992
-1952
648
2080
-1264
-2100
2688
44
-3724
4276
1652
-8732
1176
9036
-1940
-2340
-1404
-696
1376
-1548
2500
556
-1096
-664
1464
-1916
68
1828
1960
-5632
-1668
7860
-4208
208
4756
-2588
-6688
5052
324
-2808
4488
476
-4420
584
4664
-3632
-680
2624
-6828
3796
6920
-4564
-3796
4384
356
-2928
-2148
1168
6080
-3316
-3496
4160
888
-4488
1512
4524
-5272
-4580
7040
1820
-1356
684
-3232
-1108
972
1520
-384
1284
-2440
2944
-784
-4348
4188
2092
-840
-6480
204
6884
-100
-820
-1484
-1856
536
876
176
220
-280
616
924
-3416
2648
1308
-2464
-2576
3436
2212
-6828
3592
8936
-7612
-7672
6364
4340
-4044
-3136
3932
2468
-1856
-3052
1652
2656
-980
-5396
308
6728
-1236
684
-2440
-1120
-44
200
780
640
1376
-2920
1180
40
1036
-1248
444
-368
-3484
3120
1520
932
1472
-4312
-3388
4672
92
-2248
2516
2172
-3708
-2588
4476
1412
-3260
1808
-2308
-3432
4300
4640
-2040
-3124
112
-640
660
588
1780
-1936
-496
1464
-1040
1172
-1424
1820
236
-5068
568
4056
4520
-2308
-8652
2596
6464
-4224
-1332
3496
-1536
704
168
-2624
1276
2148
1788
-9416
3520
7028
-5904
1496
4600
-4260
-7736
5828
6560
-4780
-3548
4336
1588
-4864
2140
-1012
2356
1940
-7784
1968
1940
5320
-552
-7668
404
4480
-1024
-2304
3672
-928
-2096
764
960
1336
-880
-72
-6236
4792
4720
-6536
2324
5388
-5196
-4884
4004
2868
-1928
-1720
2192
1872
-3228
-1128
2312
2380
-2656
-4724
3936
3004
-1504
976
-2020
-468
-788
152
1328
1708
-1108
-624
-568
476
356
-680
2448
-2588
-2064
2620
-988
4040
-196
-5352
1184
3144
-2808
-916
2628
552
-860
-1572
2720
-84
-5560
3344
6372
-7300
-2964
8180
-1420
-4532
-584
8836
-6732
-3180
7856
-4868
-768
3144
1792
-5960
2324
2004
-2016
1140
-208
-1316
408
1532
236
-2672
860
3164
-4172
1080
1232
768
-3608
1740
3972
-5304
-1232
4640
2312
-6580
804
3672
-1212
-1784
1492
-1380
1272
2912
-4520
-824
2224
3656
-5428
160
3072
-696
-2076
-8
4740
-3336
-3776
4124
4060
-5712
-2888
5660
1560
-4812
736
2332
-2372
832
2220
-2876
-80
2068
-1800
-128
2296
-1220
-1828
1556
2608
-2824
-3464
4180
3028
-3380
-3152
2672
2272
-760
-2840
936
1508
452
-2364
760
1696
-3068
2448
1240
-2636
-1416
3780
-1532
-1900
4468
-3624
-576
3764
-2056
-2576
3496
92
-1716
-152
868
-620
976
532
-2448
1852
-276
-276
156
-508
240
492
596
-1348
656
-784
288
968
284
-2356
1680
-204
-492
3032
-3600
-2748
6128
948
-7484
3020
5184
-3220
-3084
768
2404
184
-952
-2348
4488
-1204
-3976
3504
1536
-3816
1516
1056
-2104
1756
1284
-3056
-1336
5664
-1796
-3844
2452
872
232
-2684
1988
1356
-2384
-564
2300
788
-5112
4092
1412
-2584
-656
1304
380
-1432
384
1396
440
-4332
3832
3360
-8824
1868
9540
-6176
-7928
8516
4980
-9212
-428
7208
-2480
-4364
2184
4980
-5924
112
2884
-560
656
-1916
-1236
1716
3184
-4048
-684
3156
-408
-1984
688
912
-1204
544
-220
2372
-2680
-1424
1892
2968
-3124
-1176
416
2360
808
-3912
132
1612
2976
-2548
-3064
2532
2712
-2936
-880
512
80
3412
-2876
444
-1124
-596
1300
2640
-3036
-1320
4072
-3136
-392
2660
-168
-3584
2660
844
-1076
-280
1444
-3204
1572
2256
-2492
668
-1320
3556
-1808
-1608
-40
3032
-608
-4472
3100
2800
-2036
-1952
432
1292
388
376
-2076
-1040
3928
-476
-3436
840
3996
-2076
-4112
3200
3436
-3800
-3156
5704
1316
-5740
396
4480
-1588
-3656
3024
1068
-1368
68
436
-2096
1852
3344
-5804
-1044
6704
-1824
-5324
4224
4752
-7612
-2632
6820
1924
-4420
-2072
4136
676
-2724
-1828
2828
1380
-1836
-248
796
-1272
1108
2212
-3816
-1032
3724
24
-3420
3904
-1224
-2592
2116
1340
-948
-2148
1356
516
1560
-2820
-456
2392
556
-1556
-1040
252
3080
-2268
-1876
632
5132
-1340
-8308
5988
3600
-4924
-2380
7272
-1788
-5204
2252
3556
-1728
-2944
2996
-1312
-316
2620
-132
-5108
3424
2264
-3416
1184
1080
-2676
-220
5460
-1340
-7208
4204
4464
-5248
-900
4556
8
-3604
-168
2564
-872
-852
1124
56
-1148
2236
-724
-2584
952
2116
-1788
164
632
844
-304
-2532
616
3424
-2504
-1820
3960
-2780
868
1564
-2640
-152
2028
52
-3232
3004
1220
-412
-3296
164
1504
808
896
800
-4956
-2032
6420
4884
-7544
-4644
6712
1108
-2868
-1572
3628
-184
-492
-2600
-436
5536
-1340
-4072
-988
4552
1040
-2864
-1248
4540
-4448
-1292
4128
988
-2600
80
512
-2248
3836
-1664
-1992
3020
-364
-2724
2020
2992
-4336
176
788
236
-256
224
732
3836
-5616
-9576
14320
7628
-15744
-2672
10996
-1488
-4488
1572
2428
-2064
-884
1068
1280
-1396
-896
1392
-728
1384
-824
-124
-1708
3436
-1128
-3552
2704
3056
-1540
-3916
1420
2608
420
-3732
1068
2104
-2536
1552
2580
-3724
-1848
3872
264
-3240
804
3656
-2996
880
20
-3264
1444
3288
552
-3992
-64
4448
-4376
-3724
9920
-64
-8888
-712
7880
2128
-8520
2400
2124
176
-4016
196
7452
-1016
-9880
1876
11968
-7556
-5588
6548
2312
-6160
812
3908
-1392
-1108
-244
420
1164
-2004
1132
2472
-5680
2516
4100
-4348
-2256
5760
232
-7748
3384
4880
-580
-5612
1768
3084
-3644
-164
4244
-796
-5036
4520
684
-3004
-836
3228
320
-1568
-700
44
-1952
3544
6484
-10020
-3356
6288
5876
-8260
-2556
9248
-2416
-5436
844
4892
-1532
-712
-1500
-60
3028
-772
-1940
752
1352
-2504
548
2876
-448
-4504
3136
936
-1472
504
336
-1592
512
2352
-1216
-1992
1208
1960
-2908
4
2192
604
-1764
256
-2392
1320
4060
-3332
304
-536
-284
720
3516
-6920
1028
8616
-5832
-5812
4912
4860
-4808
-468
288
1364
324
-600
-2416
2696
628
-4084
3572
-320
3016
-4636
-3188
5668
1348
-4592
2900
-440
-2416
3596
-1132
-2764
1092
4300
-2160
-3228
1260
2544
-916
-1896
360
1388
524
-2016
2020
-1736
372
2152
-3600
-8
5656
-4760
-1736
5880
-5192
-188
5368
-928
-5456
1124
4088
-1020
-1252
-2152
2868
2540
-3564
-3088
5124
1448
-5340
696
2652
624
-2160
752
-272
-72
264
-2516
3200
3524
-6376
-2280
8368
-2084
-6316
5036
2968
-5904
1328
528
1412
1664
-4584
604
1340
896
-780
1144
-2416
1336
344
-4108
4512
4540
-7348
-3408
9472
-1904
-6636
3480
6404
-6928
-2668
5264
1872
-2764
-5032
6180
1984
-4076
-2188
3480
860
-1088
-1460
720
228
8
904
432
-1928
-1608
4704
-2912
-624
2152
-300
-872
-556
1144
-736
-276
1604
-528
-636
-1328
1432
3340
-4276
-1308
1900
1300
1092
-524
-4212
-132
5936
-76
-4928
-692
3156
1484
-3292
2216
868
-2588
-1388
1828
2000
-688
-1244
-64
1184
-2396
164
3624
396
-4712
-204
4904
-1576
-2804
1388
1920
-1828
-1104
1608
2864
-3672
-1400
2188
1064
-1508
-504
2284
-984
-1452
-124
1220
-80
2916
-3404
-2128
3648
-148
-2904
1296
3464
-2636
-252
-216
824
-2568
88
5944
-768
-6396
-364
6292
96
-4592
296
1008
1732
-484
-56
900
-2508
-1824
-24
4868
300
-1524
1552
-5392
1344
3708
-4652
1668
3844
-1356
-3624
1700
1100
48
584
-2528
-2256
1420
5604
212
-3820
-2424
2188
332
-2236
2180
3652
-4896
-940
4816
-3572
1120
1272
376
-6260
2404
1292
2124
5992
-7056
-5448
1464
7560
-3152
-2480
832
2060
1720
-4964
312
6864
-4188
-8008
6740
1908
-1056
1512
1744
-5364
-2212
4924
-600
-980
636
-1536
2008
1000
-580
-968
208
2132
-8600
2556
8304
-712
-5396
2292
1084
-6936
4992
368
1376
-1736
-1404
3364
-2272
-12
2236
372
-6012
-520
4956
744
3728
-1812
-7332
-604
6024
268
-4920
5524
1368
-6040
28
4412
52
-1628
-1200
-4128
4340
3648
-2492
576
1232
-3272
-1176
-456
1092
5780
-2944
-6044
6676
152
-4356
3828
2748
-11596
1992
11560
-4904
-2460
3256
-1368
-3608
3436
-3048
-460
6868
-2524
-2652
1600
-452
1168
-1168
-1916
-1272
4468
580
-3056
3436
504
-2628
-5996
6024
1720
-3152
1240
2144
188
-6204
3936
1972
580
-6240
-440
6984
-2132
412
708
-788
-5232
3588
1716
-524
-2456
1364
3340
-1988
-2172
-316
6008
-3808
-7240
3996
6732
-1740
-888
56
-4008
56
3784
-1648
-728
1328
1284
-76
-3720
1816
2924
596
-7788
16
7056
-104
-720
356
-2776
-2324
3980
-1456
440
1700
-1940
236
1564
-876
-704
396
740
-3592
-1356
6976
2228
-4816
-3516
3076
1736
-3032
524
1752
-840
-608
1956
-1828
1040
2104
-2328
-5604
2896
5372
-940
-1540
836
-1024
-3144
2444
-844
2516
768
-4328
452
5888
-444
-7876
2624
4216
-5832
144
7208
-760
-2884
-2044
1472
-1116
-1280
4680
-1776
-1592
2388
3524
-8416
-2032
13332
-5072
-9956
5448
7364
-6052
-684
5776
-4908
-3072
2964
1744
-944
-864
2108
-900
-1408
800
640
2288
-7056
780
7732
-4036
-1384
3684
792
-7520
-772
7628
984
-5056
-1032
3356
624
-1660
16
1684
-1556
-4876
5164
1576
-1236
2404
-4640
-796
4320
-3412
-56
3384
-292
-560
-4224
1256
7108
-2888
-6884
1208
5444
-476
-1104
2416
-2844
-4208
4484
1272
-3160
2752
-1380
288
1764
-3424
516
4660
-356
-9908
1660
7828
3712
-4920
-3384
-1368
2748
1944
-2816
2396
-1052
808
-636
-1400
844
3576
-2812
-3784
1908
244
2976
3232
-3260
-7032
5288
2704
-6852
3880
3388
-3148
140
568
-1000
388
2204
-3704
-3952
6388
2376
-616
-2712
-1140
764
-2332
2640
1916
516
-3532
-1296
2660
2076
-228
-2068
-1616
-4064
7392
3564
-6504
2012
36
-1296
-1440
1012
1916
-104
-684
-1280
2496
-920
-1768
3532
-368
-5536
-424
6180
1112
-1968
-336
-2152
176
-564
1340
3092
-3892
80
4344
-2732
-4476
5388
3292
-8204
-3256
8764
3040
-3448
-1044
-1788
-2188
2100
3444
192
-5864
2896
6084
-7476
264
3488
2420
-9464
528
8412
-1464
-1612
-928
3940
-5712
-2680
5784
5464
-11628
708
13292
-7696
-7432
7672
4216
-9324
-332
5912
-620
-740
3424
-4000
-3296
2384
1444
352
-1036
1200
-1052
784
-1560
2344
1060
-4148
-1840
2892
2880
-4524
5584
2272
-9208
8
2212
5436
-4748
-1528
4388
-1196
-688
-2040
4300
488
-9068
2100
7272
160
-1768
-1668
-2740
3368
1076
-5152
744
6788
-492
-7128
2180
4732
-1960
-2508
-2768
2672
3416
-1136
1252
392
-7368
1248
6344
36
-5764
1960
2380
-1348
-1304
2784
156
-3744
3116
-5240
1004
7036
2900
-7684
-4828
5332
528
968
-392
-920
-1584
2720
-1900
3076
340
-4648
772
-1520
3972
-1556
3352
740
-6040
824
-92
2384
704
-1428
-460
-952
1796
1856
-1376
252
-4880
1456
5956
-5556
1548
6520
-5592
-6348
4352
3916
-2800
-492
2728
-660
-1964
916
-1680
1496
1772
-3688
980
1700
-248
3724
-6092
-1804
4528
1228
-2964
-580
2312
992
-2260
-1288
2336
1664
-1812
-5964
5724
1916
-284
56
-3928
-184
4900
-3824
-3484
10580
-6856
-1500
3752
616
-2624
108
3516
-9248
5224
4368
-2856
1816
564
-8460
2604
7812
-4068
-4236
3092
3940
-2488
-2924
848
3272
-2624
-2248
1584
3308
-1872
1976
-1076
-3884
788
1492
520
320
952
-428
-1220
-1876
3324
-1084
948
-2864
268
508
1188
7064
-6872
-6960
5704
4412
-3616
-2640
3464
2688
-3732
-3024
3940
472
-1040
1192
-2592
484
2604
224
-6632
4580
5176
-7408
-688
6560
-1552
-6760
6380
2076
-7752
1592
7588
-3976
-4588
2844
1716
1604
-3680
-1160
3140
-744
-884
1788
-1956
1592
-340
-1268
-160
3492
-2028
-4656
5376
1948
-4000
-1348
5172
-2912
-2320
1568
1892
-1412
1428
92
-1944
-996
1640
1704
-1576
-1284
100
2720
-1488
432
-896
-208
1196
-1396
580
1456
-2036
1184
1516
-5608
1612
6448
-2144
-4992
1648
712
2256
-1616
-1276
1164
-100
428
-892
1052
-1884
2348
-1404
-356
2920
-3192
704
-324
780
-480
1232
-1400
172
2020
-2012
-2172
2748
3104
-5972
1908
1412
480
-1204
-1232
1408
340
-700
-176
892
-1472
1748
-440
-820
-172
2488
-2892
-1240
7724
-8528
-2584
11232
-20
-9580
-3480
12380
2176
-14128
3620
10404
-5148
-8692
7552
4532
-8804
3660
1356
-1012
-2400
2284
1804
-3084
604
640
868
-2304
1316
-916
2016
-232
-1276
-364
-884
2860
292
-3044
476
2984
-1120
-3236
2876
952
-4568
4492
388
-1448
-2692
2224
2004
-1980
-316
-252
2432
-2164
-2152
1388
5788
-1716
-7116
912
6112
-328
-5040
2348
2148
-2296
-524
1016
556
-1168
360
60
2152
-2836
-784
1508
1204
-544
-808
-1324
2300
2552
-6504
1552
2616
1148
-4532
260
4364
-564
1516
188
5768
-32768
-4120
32764
17328
-32768
-32768
15656
3340
6660
20148
-6604
-6988
184
-3384
-8784
5828
3452
-3576
7700
-2148
-3040
-1300
2140
3048
-2464
-3512
1896
4428
-4404
-1672
4108
668
-5016
2936
1120
132
-2300
-280
3944
-5516
3864
-536
-384
-676
-128
1352
-120
660
-2716
1980
-308
-1960
2560
932
-1940
-784
2004
-1372
52
1624
-1696
-212
-480
3468
-2560
-1068
2272
-92
-1840
444
2844
-5476
1164
7480
-3292
-7044
2476
4344
528
-1588
-2780
-1192
6224
-232
-7704
4632
3792
-4236
-3376
6304
948
-5972
1972
2136
-2492
-656
4668
-1000
-5088
3132
2664
-4744
912
2092
-276
-424
-192
1164
-1300
-1912
3060
408
-2676
-1112
4264
660
-2744
-688
-1508
3372
1212
-3936
332
4084
-1132
-2364
-1644
1336
3672
-848
-1836
-2772
3240
724
-688
-72
852
-1392
-1052
-508
4376
-2076
-3072
4684
72
-3512
-964
4444
-1528
-2144
588
1980
1612
-2792
-2012
3424
-732
-4060
4796
1612
-3192
-284
1112
-140
-1464
136
1368
1776
-2520
-1796
3488
-1124
1472
-1056
-3672
3732
-948
1308
-1460
416
-564
1776
1732
-4956
-644
3036
3020
-5080
-652
3884
1516
-3616
-1916
3440
212
-3104
968
3248
-1444
-828
-340
-88
-768
2744
-1212
-1576
764
1876
28
-1864
152
-440
-68
648
1184
728
-2156
-296
-120
828
2256
-3368
400
384
504
-836
4060
-2000
-6492
6128
2076
-5432
-1780
7508
956
-6464
256
2552
24
-764
-2236
3476
416
-3088
1612
1616
-1524
-1328
212
916
160
-312
844
540
-1596
-28
1312
-1948
-440
1592
1876
-2876
2140
-2544
420
5216
-5548
-2280
1816
6748
-4920
-2556
2088
2928
-2540
-3428
4744
188
-2240
-1252
4824
-3316
-1576
3456
436
-3264
-1296
4500
864
-5648
256
7008
-1492
-6004
-400
6724
-520
-6896
3912
6484
-8920
-1792
8796
-1760
-6780
4372
1988
-2032
-1368
2980
-536
-2816
1360
1092
-364
-1356
3100
-2556
-1672
2656
2348
-2404
-3092
2276
1032
228
-1156
344
1924
-3512
-384
3136
264
-2448
976
928
-2928
2740
1208
-2700
172
844
-332
-44
-228
-460
2616
156
-3688
-532
4108
-924
-1000
-3296
5580
-132
-3216
-148
2704
444
-5528
2864
2852
-136
-3408
1640
520
-1028
188
-1268
1152
3536
-2084
-7292
7440
6116
-10564
-1996
8792
-1056
-8004
5356
4832
-4280
-2856
1860
-908
4396
-2592
-2084
3008
-2464
1312
-796
2764
-2760
452
1656
-3160
260
616
5300
-3148
-4260
272
5376
-560
-6060
4960
1244
-3164
-1196
4568
-984
-4648
2596
2164
-1408
-820
-332
3212
-1132
-1548
-2004
1736
2476
-1248
-776
-896
1872
-116
156
-2392
3180
-828
-3160
1048
3156
-764
-188
-2028
1676
540
-3352
2444
748
660
-3772
2588
2152
-1544
-2688
-1244
2884
3612
-2776
-1824
232
1600
1392
-3604
-436
2120
2432
-3416
-1224
4980
-2804
-912
-136
1500
-120
-644
228
-1408
1948
916
500
-4644
2064
1916
-2388
-164
2732
676
-3796
1732
-656
1812
-456
-2500
244
1608
2856
-3884
-136
2444
-320
-3040
324
3204
-728
-1552
912
120
-1564
1796
2120
-3128
-2912
3636
604
780
-2128
-2004
4652
828
-5172
-1212
6416
-2092
-5096
5208
3492
-5916
-1748
5848
-1056
-5508
2908
4908
-3956
-4412
7304
-696
-3648
-24
2392
-228
-3300
5216
-2924
260
1304
-1428
-1688
1340
1968
-1684
1080
-1376
1500
-1172
-1200
1848
1152
-984
-3040
2320
2016
-3888
1880
4556
-4360
-3972
1916
5352
-1308
-5548
3316
4060
-5516
-1820
8696
-5216
-3104
2132
2128
512
-2360
1792
-2368
2320
-1864
-444
2396
592
-3228
120
3128
-1420
-512
436
224
-1572
752
624
-808
1512
516
-2244
284
1372
-2536
-432
5420
-1788
-3152
-136
3480
164
-4532
496
4780
576
-6780
2144
3468
-1880
876
-600
-4840
5828
1492
-3564
-1248
2780
908
-3176
412
2008
-280
-1992
508
744
3484
-4388
-592
976
1560
-276
-2008
2056
-1612
1080
1392
-3152
296
3048
-1096
-1592
724
500
-2052
1748
3088
-2548
-3888
3172
316
1840
-2436
-664
1512
312
-144
-3980
5644
-1752
-428
-1264
1504
512
-104
-1320
-3740
8992
-2368
-5336
584
4948
-320
-4956
1220
4652
-1156
-4256
900
1876
720
-1056
-176
-564
1384
60
-2248
908
1324
-1020
2196
-348
-3568
-1136
2492
3368
-3440
2184
3304
-8680
832
3652
-804
1684
-1248
-1068
1804
788
-3348
3400
-244
-7504
2928
7540
-1776
-2992
1512
-816
-3156
1608
404
2384
-592
-3680
4276
1812
-4316
-2152
5484
-2876
-4844
5580
5728
-5352
-3336
3040
2156
-4088
-3344
6064
1848
-3528
180
2952
-4072
264
2584
-676
-2532
-1124
2380
4704
100
-6504
812
116
2472
-3476
1884
4720
-4672
-712
760
1668
-1096
1000
-4348
-416
6216
972
-4200
1988
-96
-6340
5284
536
-2680
2888
3224
-4276
-5364
8164
1480
-6652
-308
844
3624
-1508
2548
-844
-1908
-3608
2412
4596
-7048
3708
1672
912
-4288
940
2860
-1164
-2644
-3020
5396
980
-188
1260
-1924
-4032
1192
4916
-4216
-1812
4492
3144
-4384
-3428
3232
2896
-536
-8228
3200
6644
-1912
-2928
1420
1072
-972
-2964
-2056
6536
3552
-9004
904
7160
-6364
920
4656
-4880
-5960
6972
5368
-5384
300
1908
-4196
-676
3016
1000
-2404
288
3356
-1316
-3716
1308
5188
-2408
-8116
3492
7936
-2312
-3688
1368
-152
-1000
868
-1752
1256
160
3056
-644
-4628
1104
4772
-1484
-7308
3072
4916
636
-4416
796
5304
-6956
-3928
7900
2224
-6816
-192
8140
-4148
-4788
4756
2220
-3420
-5944
4120
6892
-1428
-4340
-392
2496
-1600
-3692
4800
2344
-3796
-740
3656
-2440
-56
4032
-4368
-6076
4752
7156
-2188
-3788
784
-528
312
-588
-772
3696
-2312
-8
636
852
-1864
912
1312
-4076
280
2856
300
-776
3416
-3364
-2624
1176
1180
-140
1004
-1220
-168
3412
-1388
-5032
3776
3960
-9024
1936
6780
-3532
1344
1096
-6376
1880
4600
-5216
192
6448
-2832
-5096
2300
5988
-1796
-5212
-1760
2912
3304
-3148
4344
1136
-7792
-1104
7552
-632
-7540
5872
1860
-3048
24
2824
-2908
-1096
3976
-6120
1268
5420
-836
-936
-72
-3244
644
4144
-3128
-4796
5136
6660
-4636
-6984
4488
6452
-3996
-10152
5060
9696
-5496
-3372
5128
-1036
-3444
1320
1232
-3440
1036
5068
-2968
-2120
2232
4764
-5180
-5984
4384
2680
-1280
628
3020
-3464
-540
-84
-508
832
-588
-3464
9660
-68
-14068
11788
4920
-13100
-2344
9868
972
-5952
5464
-1008
1356
-6336
-6620
14040
3440
-12420
4984
3256
-11376
8888
9436
-11820
-11844
16304
2976
-5892
1740
-6236
316
12796
-8648
-12860
22916
-2268
-21732
10180
15336
-12988
-3616
13408
-12836
-4112
15064
-2812
-9368
7576
-1368
-4496
11884
-5176
-11044
280
13640
2112
-11868
2168
1224
6744
-2784
-13520
4872
11256
-2448
-3628
1228
-152
-828
-3080
-3072
5960
8592
-5724
-8000
3396
6616
-5288
1428
-3756
-6560
12836
4908
-5400
-1720
-2112
-11428
10372
16316
-18544
-5320
19552
-2984
-16580
8936
2428
-5628
9060
-5340
-8132
13764
5332
-20228
4020
11312
-11152
7724
6704
-16536
172
16988
-7740
-14484
13644
9272
-4032
-12840
-8160
14672
11284
-8780
-6804
4676
108
-5360
12296
-4228
-20296
14824
15596
-10440
-6784
9456
-11588
-1208
13628
-9500
-3220
15344
56
-18880
8892
4300
-9876
10236
-2252
-10800
14888
3272
-15972
400
16084
-8656
-7012
8584
-5832
972
12424
-9012
-10308
12760
728
-9336
9376
-3252
-12016
13116
7704
-10112
-3088
6572
-7556
6412
924
-13876
11916
11052
-13268
-3568
11420
-9760
-3128
11332
-9152
492
12428
-4036
-10880
9192
1476
-18388
15616
1824
-10928
16488
6492
-21512
-10528
13584
6312
4676
-4536
-8688
2180
6004
1600
-7648
68
-2624
4916
9820
-9144
1916
2092
-12932
856
13696
-1832
-6060
8784
-5852
-11900
12668
6076
-11056
2052
8340
-11120
-2512
14828
-12684
-1140
17480
-4888
-16448
3932
9260
-6596
7936
-740
-11976
9384
7220
-15032
2824
6200
-11060
12072
8220
-15844
-3892
12840
-3824
-8028
11576
-3676
-2952
3492
-7624
-536
19600
-1056
-21892
1068
6516
2184
8036
-5332
-10404
12664
6324
-17860
-10572
17424
5200
788
6200
-15444
-8948
8300
7476
-3672
-1120
2672
112
8652
-12944
-13104
12532
12912
-6924
-5712
7232
-6352
4512
-4824
-9872
13632
9552
-1656
-14892
-6172
8192
8344
5440
-12312
-7248
11940
3340
-10396
5840
1180
-11948
13684
6132
-20352
-996
18980
544
-9980
1532
-3496
-1180
8080
-6092
-984
12500
-2792
-18856
10192
11544
-9892
1224
-5368
-4568
15544
9316
-17328
-10460
16200
-4084
-204
5948
-14720
6108
17836
-8260
-24532
14172
12328
-5252
1620
-9300
-4688
11048
5704
-7332
-3052
6704
-8668
7684
1592
-18956
11196
17828
-8028
-12424
6752
-6092
352
12768
-10604
-224
13172
-6840
-11460
1844
4736
2368
12544
-12540
-11172
14124
-384
-9928
-280
12772
-3948
5896
4764
-30820
-2296
30592
4076
-17912
4064
3672
-8132
7128
-6480
-6388
12180
5924
-6104
-316
-3216
-6792
10340
3696
-13252
5664
11716
-9216
-8904
9740
540
-1008
5088
-11768
-3988
7908
7144
-1528
2896
-2100
-15716
9648
-1064
-6784
15652
4892
-12132
-1400
11776
-22528
1424
21488
-10936
-1900
13756
-2860
-15664
-948
5424
4632
6996
-10244
-140
4968
-5420
876
1612
1308
-3068
7132
-5392
-10760
15604
328
-9508
2668
9292
-7696
-8536
7412
-2296
9280
3128
-9780
-5448
6036
1848
-6376
7356
-3796
-3920
12608
1008
-10156
-6692
4988
-828
8984
5396
-16428
4280
12828
-11348
-19644
18500
14192
-9600
2628
-5136
-10952
4236
11268
-3436
-2740
5580
-2856
2616
-8880
-7264
16836
68
-8540
7664
3568
-18452
6304
16804
-17064
-4440
15832
-36
-10736
4208
400
-8204
14780
1520
-18360
1420
13588
-656
-4868
