-2020
-860
3304
-1052
1152
-124
-1800
-1068
296
1292
836
240
-1304
2060
-2316
-2000
3768
-352
-1904
992
-344
-1428
3228
516
-2192
664
-1484
-44
1508
-312
-544
1116
-552
-480
492
-292
2164
-3184
-1576
4368
1072
-4368
-72
312
2612
3356
-9408
9872
-8200
-304
7884
-5904
4888
-7020
4204
-876
-144
1196
-1320
528
1224
1108
-4388
1040
1204
-1236
1624
-316
-1056
2484
-128
-1180
-2912
1392
3664
-3140
-448
1948
-1204
1056
-752
-980
1740
-1604
1400
1212
-2616
-880
1784
2484
-1316
-3904
2704
-228
-4020
9332
-140
-8172
-684
2948
3396
-4036
6676
-6244
-684
1072
-1812
6944
-4352
1656
-3776
-184
2036
-188
4096
-2188
-2288
-588
308
1632
-1092
1024
276
-1480
1760
-608
-1288
1204
-1108
2676
-2488
-2388
4188
-1056
1428
-948
-940
-1444
1332
1728
-784
340
-2452
-236
2728
896
-2336
1696
-860
-3428
1384
3560
1004
-1312
-3096
-1432
2552
1992
-644
76
-508
-4148
2732
4004
-1172
-2140
-1416
1044
-120
1420
144
-848
876
-2580
1368
2764
-4432
1464
2808
-2696
768
-500
-1224
1460
44
648
420
-2364
1056
-1100
1412
3248
-3928
-1000
1360
636
-1364
744
484
-2112
2696
1812
-2548
-1420
528
692
804
-1132
-1076
1544
180
436
-224
-1260
1572
-408
-728
-484
-716
2352
-436
-352
288
-2424
3212
1764
-4104
-100
312
1896
400
-2372
1088
480
-1756
192
2520
-988
-48
552
-3208
1384
2096
-528
292
-1832
-1784
1620
1584
2384
-444
-5404
1224
2420
-2220
2536
1048
-2316
-936
-360
104
1948
2184
-1792
-2620
712
400
-148
3460
-1924
-1636
-516
-612
2040
-552
2768
-1700
-1504
2780
-1768
-3184
844
3736
388
-3252
1408
444
-2088
3060
-1568
804
112
-4532
3176
2572
-1604
-216
-500
-1440
228
2104
1864
-56
-3656
-2708
3240
2172
-156
-1192
-1552
444
-556
2748
2204
-2884
-2568
1396
176
-348
268
-420
3332
-424
-4900
2656
1672
-2888
2576
-600
-2112
884
1880
500
-2948
-596
3008
-1024
-436
876
-2168
4296
-1212
-4684
3048
-472
960
824
-128
-2008
-1776
3920
1392
-1636
-2532
-1348
3288
744
-1528
2412
-132
-2140
-3172
1032
4136
-344
-688
1108
-2080
-1316
404
-384
4164
-1224
-5280
7156
-1024
-7720
4940
3356
2396
-10332
5984
-1144
-3256
6620
-6524
8024
-3732
-656
-2840
824
4476
-3728
3784
-2056
-5072
3232
4416
-1660
-2124
-2656
2248
3808
-1712
160
-2296
-1120
2148
-476
1688
-420
-2540
1552
-296
912
2076
-2644
352
-1364
-2900
4992
1604
-872
-3012
-988
3776
-1144
132
-1484
-388
4760
-3784
-3208
3780
3928
-7788
6664
188
-10472
8912
-3300
4636
-1340
-2468
1728
-2200
488
-580
2232
92
524
-1772
-808
1748
-980
976
1304
-3528
-2032
4292
1060
-784
396
-1428
-748
-464
1016
1584
288
-2904
-16
1648
32
584
-972
436
508
-3268
436
4924
-1572
-1752
-224
-300
904
-1224
1888
1548
-3136
-812
2500
728
-864
-1616
-32
820
-876
1220
1628
-1292
168
-1292
-1180
2572
-1464
-216
3184
-2724
488
808
-2192
1532
-968
2044
296
-3788
1020
2080
280
-60
-2212
-176
1728
-784
508
2224
-2780
-2940
4800
-616
-1396
1580
-904
-120
-1224
-736
3084
1440
-3468
-880
3164
-916
-1356
2760
-2968
-1076
2000
1444
388
-1808
-904
-824
3784
-1112
-1784
2196
-1688
-352
980
-392
1084
-1840
616
1960
-3020
2668
-304
-2160
1224
-744
184
2408
-1460
-2196
1508
1144
708
-1180
-1348
-8
1836
-1780
304
2400
-3416
364
4296
-2152
-1444
-332
812
1752
-4824
2932
2156
-3356
2596
-528
-700
612
-1504
744
184
-564
688
1532
-1440
-1992
1036
1180
1304
-1496
-1504
1096
560
324
-360
-636
64
-1604
564
4284
-2024
-1544
2028
-3812
248
2704
572
808
-2612
-660
-176
-52
4896
132
-5640
-280
1024
560
2192
1316
-2344
-2424
1148
760
844
-436
1176
-1584
-2516
1832
1060
3284
-2756
-3208
2300
-1344
48
3312
876
-2756
-1064
-132
276
1320
-168
848
1076
-3892
-1156
2420
1456
2188
-3148
-2248
768
748
3004
784
-3276
-2852
1264
1364
1204
1508
-1280
-2212
180
-412
1364
1056
752
-296
-3260
-244
1424
1444
-356
-240
-232
-424
128
1812
-1656
-884
2548
-2836
-1128
3424
196
-856
1224
-3400
-276
2388
804
64
-1152
360
-1012
188
-1392
1356
3152
-1608
-2496
968
-64
604
2424
-2164
-1404
-1548
1664
2332
-420
544
-1984
-936
2392
-364
-1480
560
1396
-1336
-2668
2888
1232
936
-784
-3464
912
1504
724
-1176
-2084
4276
-2196
-1544
4804
-5200
-820
6988
-856
-8340
3660
1124
4652
-5284
608
3236
-8732
7848
-4764
6728
-3368
-2884
4616
-4124
1496
-768
2704
-1188
12
-1496
-932
2820
828
-1580
-1288
1068
-760
788
1280
-304
-1432
64
308
-1864
1696
1988
1180
-2704
-4156
3064
2416
-180
-1008
-164
-1144
-1688
4104
-980
-616
3400
-4324
-2288
7344
-4172
-5028
6060
988
1008
-6520
7548
-5636
-1400
6656
-5616
5076
-3508
-488
1408
-724
-1656
2808
1124
-2008
-1660
1788
2972
-4124
-996
3068
56
-1488
-288
1088
-560
-168
356
1108
228
-2600
1248
-1192
1292
1212
-2500
3456
-1448
-4872
3152
3372
-716
-1736
-1480
1552
416
-1596
232
2852
-1352
-1124
508
-684
-648
652
4624
-2616
-3612
-456
1564
4928
-2456
-3284
2892
-3124
1080
4368
-2108
-1360
-2636
2512
2484
-2204
-236
376
-88
-1220
796
2312
-1732
428
-1048
-2536
4408
688
-2996
1484
-812
-1352
1428
892
1048
-2696
-144
1728
-1456
1264
-52
-556
396
-1092
1076
520
-1096
-744
484
920
1228
84
-3252
328
636
948
1992
-3156
-212
1192
-1316
1736
1884
-2584
-1632
824
1164
1328
-476
-2592
1188
308
-1428
2652
468
-1108
-1388
-696
1572
656
56
-1112
-616
600
48
1412
-428
-820
744
-696
-1084
1664
-760
-1260
2948
800
-2772
-2064
2356
2152
-932
-2024
1848
-160
-2300
1048
620
96
132
1624
-1816
-1640
1952
184
420
-464
-2044
-140
2140
784
-1924
1712
-204
-1708
1268
524
-2372
444
3248
-1816
-1948
-40
2876
152
-1980
1116
-1676
884
2544
-2168
-1288
-636
668
3056
-672
-1324
-932
-628
2952
-260
-436
-1024
-324
1076
-1848
760
2032
468
-2740
504
452
-1428
2844
-776
-1348
2068
-2604
-688
4052
-828
-3240
2252
220
-1484
1100
64
400
-216
-1464
1780
1048
-3264
-1180
2936
2496
-2892
-880
1092
588
-976
460
2304
-3300
-3688
4484
2928
-2548
1432
-2892
-992
4092
-2840
1332
412
-1496
744
-1608
872
2620
-2916
1720
1720
-5924
1720
5220
-756
-6924
1936
2020
3860
-4868
3312
-2548
-5044
10428
-6744
3924
-2476
-676
1060
-1408
3332
-3880
2064
732
244
-640
-1316
888
-2204
1840
2380
-2148
-640
1272
-1336
32
2892
-1516
-1064
-548
-1176
1048
3752
64
-4180
828
-2916
4828
2652
-4004
84
-2344
256
2240
1492
80
-1828
-2632
4528
-1400
-3288
3524
1552
-1896
-2528
6712
-9616
5124
2736
-5604
4900
-2900
2900
-4296
1444
2636
-848
300
-4676
1376
3864
-540
-996
-536
-300
1044
-696
-644
2328
-3380
1372
1748
-988
920
-2744
2512
-320
-3536
2932
544
1348
-100
-4492
2052
32
-428
2896
-1052
-108
-1400
-1556
2892
604
-104
-2556
1924
-344
-4416
4768
3784
-3004
-3068
-164
1032
1268
820
-332
60
-1640
-1212
904
2560
-1096
440
992
-4996
456
2856
1864
776
-2748
-2556
728
1876
1676
-200
-2416
-536
436
-596
2700
1688
-2720
-428
-424
-2104
2440
712
2872
-1476
-5224
2268
504
1776
880
-1592
-1636
80
1124
708
-84
-1500
1584
340
-3384
1216
2920
776
-2416
-1844
-100
896
2108
432
-560
-3200
1236
2872
-2844
380
1800
-2804
2760
232
-5000
4352
64
-3300
4468
24
-4344
2596
996
-4564
4428
-1348
-1676
4564
-2812
-492
1244
-208
-1132
-1552
2580
1944
-3504
-84
2772
-1972
668
0
-596
392
-1124
780
2380
-972
-1740
-276
-1316
4612
-2720
-2604
6000
-2500
-1028
1512
-1280
668
-3200
1192
5560
-4904
-596
2788
-1804
2372
-2080
1176
-780
-4376
3052
2224
2376
-1296
-3536
-940
1860
1332
-1768
1388
1432
-2980
332
1640
-656
352
-1880
1144
0
-1716
3044
-908
2748
-2120
-3492
2672
-788
-808
1732
1456
-2300
556
1932
-3176
160
2852
-868
-2092
-224
1112
2244
-468
-1876
-104
-1368
876
2240
1624
-2796
-1676
964
456
2048
-1412
-1624
2024
-2408
-800
3848
748
52
-1912
-2828
892
280
2824
-328
-1800
1588
-1340
552
-116
-808
1168
-96
-216
120
-1588
-312
3536
172
-2660
-208
1024
-2208
1536
5288
-5644
-1168
4080
-3052
-2220
3284
2340
-632
-1340
-2548
-136
3332
644
-1660
120
-376
-1756
1188
2944
-372
-3696
2384
-1172
-2084
3904
312
1252
-2536
-3332
972
2148
1592
1168
-2192
-2844
984
712
1856
1456
-2936
-524
-1472
-484
4836
2824
-6016
732
-2408
-3640
11180
3920
-11336
-2388
4768
-1872
7808
-8680
5724
-3992
-4324
11896
-9316
6084
-3252
-668
172
-2160
3996
-104
528
-2684
1856
-1076
-2104
2504
1604
-604
-3276
1836
2884
-2420
-3544
4160
2440
-4644
-1264
1196
4252
140
-2068
-1288
-2820
1008
2588
2560
-1864
-2112
876
732
-1244
864
1736
-1824
-1372
-288
580
1684
2216
-5040
4948
-3412
-3536
9724
-8776
3064
1308
180
-2976
140
2944
-3404
4800
-2560
-1540
1028
-1248
2928
508
-1432
-876
-2160
-328
4056
676
308
-492
-6744
6964
-2580
-1960
8284
-7436
1344
1444
-7212
6544
4760
-3980
1256
-6576
-1476
10648
-5080
1164
4740
-12840
2520
8208
-6564
7700
976
-14056
9676
-2212
-2328
12980
-13376
-2396
8840
-7564
10768
-1968
-11880
12216
-8400
520
13188
-14712
3140
5448
-9392
11336
-4288
-9576
14152
-7800
-1996
14272
-14956
832
6400
-9036
14636
-4428
-13824
12836
-4760
368
11672
-13764
1568
2736
-11796
20880
-2408
-16620
14444
-9720
108
14868
-18232
9472
3904
-18044
23752
-7952
-15692
20756
-13452
3508
13560
-23508
11012
6508
-15680
22048
-10672
-15656
22468
-15440
7272
16180
-27880
8792
3764
-12436
25484
-9792
-11940
13584
-19932
14448
15604
-26156
12348
-2148
-12020
23460
-12156
-5068
15284
-19460
9836
12152
-25520
14420
2932
-12960
21660
-14316
-7896
17472
-17536
11612
12840
-26204
11152
-200
-9760
25644
-17256
-6552
15536
-18308
14704
8304
-20512
13684
-9920
-8584
28184
-16312
-2980
14728
-23468
15660
8444
-22644
17316
-7884
-8268
26632
-19988
-3144
18388
-22268
14868
4020
-24348
23484
-5016
-11000
23772
-19148
-3744
17764
-20132
12316
7908
-22412
16844
-3704
-6456
20800
-18048
-3876
9880
-16844
20348
7880
-25184
16572
-10032
-5780
27332
-21628
144
12344
-23444
20552
4900
-22576
21256
-9752
-6632
20896
-24432
5644
17040
-19260
15880
-620
-23544
18184
-3188
-2972
19492
-21716
864
9188
-15428
23376
-1800
-20600
14936
-16316
3528
27844
-22196
3888
4680
-23104
24732
-888
-17948
21968
-13896
-5276
21196
-19884
4780
10300
-16068
19644
-9912
-18604
24792
-9392
956
16044
-24696
5000
8428
-15440
23348
-7300
-16932
21180
-15572
5688
15716
-25116
10976
3244
-19752
26924
-3868
-17148
19004
-17936
6996
20032
-28888
6812
8196
-15840
22468
-4736
-16452
18176
-15568
6680
17300
-29792
13900
8172
-18804
21392
-8124
-11760
18528
-15780
6672
13396
-25688
13332
2392
-13952
26152
-12664
-11288
14716
-21196
12368
23540
-25668
3764
1780
-14932
29788
-17544
-4520
17396
-29792
22828
7896
-20152
15272
-4468
-11144
22052
-18124
-10224
26136
-16720
11944
6408
-27432
17720
-1676
-11548
25876
-18164
-6800
21520
-23000
12280
11280
-24996
19756
-7664
-13440
29468
-17940
-6564
20560
-23064
14904
12060
-29792
16036
-2280
-8828
29404
-20896
-6688
19496
-24676
15228
13408
-29792
16984
868
-6112
16484
-16404
-1712
11720
-13120
8208
9152
-25588
19908
-2368
-11156
26648
-21920
-2396
13636
-22400
19512
7920
-22012
18512
-13420
-7016
29788
-23848
136
15068
-23508
20072
3068
-25104
21972
-3544
-6636
19496
-26320
-628
17800
-13964
20896
-2436
-25132
16900
-8636
396
22052
-22548
2604
9680
-18592
21968
-2932
-18672
21888
-16716
-544
22536
-22532
6668
6860
-20508
25152
-188
-24344
18188
-11584
180
26064
-23004
1976
6236
-20088
25272
32
-23316
20648
-11744
-652
23304
-27156
5764
12744
-20280
19380
-3820
-17908
21416
-12112
128
19660
-23880
9184
4724
-22140
25128
-4852
-12852
20964
-18036
2176
19664
-27652
9400
9496
-20840
25536
-4024
-19572
18404
-14480
5920
20660
-27820
4864
7972
-16208
24624
-6980
-13636
19136
-19536
4436
19900
-25608
6940
8088
-13828
23324
-12784
-12384
25136
-24872
1144
22116
-19308
15332
-4816
-20736
29788
-14012
-16688
26712
-14472
5240
10660
-26528
14848
4528
-15924
24492
-9264
-15960
15504
-14736
13564
15192
-29792
14540
4608
-17124
23008
-16000
-9060
27600
-20532
4880
15676
-25996
14748
-3336
-13616
29788
-17932
-11160
24988
-17220
3492
9100
-21352
20308
-2744
-17248
27424
-14744
-9736
15936
-16072
16600
9672
-29792
13672
4176
-12976
25448
-15000
-6648
15672
-22760
17364
9516
-28300
15772
-1204
-4516
23540
-24032
-2140
19396
-24176
10768
8040
-13384
18496
-13860
-9108
26636
-19536
-4764
18700
-17468
14060
1440
-25256
24132
-5120
-10780
29040
-20532
-9240
12308
-18192
25160
8396
-29792
15800
-7064
-4436
23588
-23424
3288
14512
-22528
19244
5688
-24172
15260
-8248
-3636
26060
-23576
-1944
18524
-19400
13532
2276
-16604
19628
-15756
-7112
28896
-19740
-2724
12216
-14008
20256
-3660
-23524
17672
-7512
-1924
23592
-18888
612
6016
-19588
24860
-1720
-22656
20008
-8180
852
18260
-27384
7008
14200
-23828
19764
2048
-17928
18364
-16096
1220
23564
-26172
5700
11248
-17380
18740
-9296
-13108
25384
-20060
2876
25652
-26980
420
4488
-12084
28660
-8556
-19564
24988
-18212
-2328
21884
-22396
10428
3336
-19196
28132
-6620
-21356
17424
-9556
11128
6052
-28420
23560
2844
-22452
19668
3232
-20040
16212
-11540
1640
20120
-29792
18988
6176
-20892
24592
-8572
-11836
12200
-19004
11224
23576
-25928
4684
4644
-15704
24964
-12336
-13952
25452
-18964
4212
18884
-26208
9104
2708
-12180
26744
-17816
-12016
25112
-17792
8288
7984
-24184
20440
-3908
-16864
29788
-13676
-15048
18512
-9180
8220
3984
-23132
23776
-5932
-20564
29788
-18364
1372
17356
-22440
12252
6180
-26804
16556
5748
-10464
21524
-19904
-5536
18076
-21268
17052
9972
-29616
15304
1048
-6320
22464
-21996
-6344
19836
-18300
11956
9564
-23380
17364
-8832
-10308
29788
-20724
-4864
16064
-24548
17624
9448
-22660
20016
-9844
-13292
29532
-16196
-6336
12336
-19108
20984
5320
-26508
18452
-2104
-10336
20748
-19160
24
14372
-21804
22704
5044
-28436
16736
-4652
-2284
19844
-24516
4880
15192
-24532
18628
6128
-19160
15308
-16272
-1372
28112
-23428
2252
15060
-23052
15532
2168
-17120
20420
-14696
-4660
28092
-23244
-1008
12244
-17952
24348
-4016
-28224
26724
-9772
-3672
25120
-25608
5324
6456
-21084
26724
-4008
-22336
26448
-11756
-5256
18900
-22032
12920
5332
-29172
27016
3712
-21428
19968
-13712
196
19040
-28612
13848
14144
-26936
17448
536
-13764
16348
-14092
7556
15852
-29792
8484
11464
-11448
21928
-13616
-12588
18756
-18508
8236
18712
-25676
5588
7456
-11532
20224
-11892
-12496
24548
-18700
-712
17388
-19220
13456
-1636
-15800
28168
-15792
-13692
25292
-19456
6020
14256
-21900
14708
-3184
-14400
26716
-10368
-16732
15452
-10424
12968
10656
-29424
14592
2204
-14048
27056
-16088
-12568
18180
-14724
14796
8948
-29296
16564
1264
-12660
21644
-15080
-3740
15440
-20360
16476
9472
-27624
14120
-3720
-3600
24320
-24244
-1328
19880
-24080
13260
13472
-25228
10224
-4664
-3608
29788
-24436
-8124
20004
-20400
15512
5692
-22012
18824
-11228
-6688
29788
-21300
-8496
18328
-13436
13156
-4336
-19836
24896
-7940
-7796
24380
-18792
-3512
7816
-19296
26716
976
-23388
24024
-13512
-9252
21928
-16908
7992
8556
-25728
20876
2448
-21396
22128
-9452
-2736
17500
-26008
7680
12620
-18444
20384
-2556
-19648
17916
-12424
3508
20136
-29792
9044
15512
-21560
19572
-4464
-17268
22856
-18220
540
24692
-26128
5944
8556
-17120
23168
-7560
-16396
22660
-17480
-1552
23968
-20412
4272
3620
-16816
27300
-7640
-20348
21872
-11024
-336
18556
-22176
6428
5260
-16708
26144
-10824
-17468
23004
-12640
7108
10660
-27932
16624
4260
-20268
23876
-8688
-6212
14596
-24920
18240
12528
-26456
12468
6468
-23928
22792
-4076
-12068
25200
-28596
14568
13244
-29792
16280
-564
-7944
22576
-19228
-6980
23476
-22604
10872
13224
-29492
17368
-2360
-6868
27096
-23000
-7072
19192
-21612
12900
11220
-22684
19612
-6992
-14444
28148
-18644
-5872
19936
-20428
14912
4660
-28540
23968
-1788
-11696
28356
-18364
-13076
8492
-14028
28920
3552
-27292
18400
-14932
3844
21936
-25428
2412
12668
-20232
19744
7420
-27148
14652
-4924
-2152
20864
-23332
3188
17576
-24656
15440
3760
-19264
21892
-15084
-5396
27688
-25152
3312
16876
-24288
18972
-1160
-18400
24128
-18188
-2892
25360
-22140
2796
10300
-15540
21324
-6064
-27208
23952
-3552
-3928
23736
-21868
-4548
5352
-12684
28932
-2940
-26004
20016
-11852
188
21220
-24224
13336
2644
-25352
27288
-4252
-17120
20728
-11816
5220
12916
-29792
13456
9616
-20648
23740
-4476
-15700
15832
-15564
9268
20136
-29792
5064
7876
-11136
25900
-15240
-12580
21340
-20264
8928
17852
-25980
7468
2732
-9096
24628
-18688
-11788
26496
-16008
1940
10908
-18264
11692
-2488
-12704
29524
-11788
-15636
17164
-18848
9920
13612
-19876
19600
-6856
-21448
27952
-7868
-11976
14408
-16568
17080
8880
-29792
19324
-1052
-13836
23956
-15288
-2804
12884
-24972
21324
12116
-29792
17496
-3260
-7208
21452
-25312
4012
20868
-24740
11836
9992
-21220
14608
-10700
-3968
29424
-25236
-2400
18168
-20756
16732
4812
-20124
15764
-17768
-2536
29788
-17740
-3132
5260
-17748
22056
-3784
-17984
26592
-13272
-11836
22772
-18364
6660
13704
-23268
19232
-5288
-22844
26380
-6016
-1300
15720
-27992
9868
11032
-24376
26212
-2396
-18144
19336
-17028
4752
19904
-27532
6880
11980
-19604
20308
-3888
-14220
22020
-20196
1020
23100
-25660
7404
4324
-15680
28880
-14564
-16928
29788
-20512
-2764
19552
-26092
12356
1404
-14524
29788
-12148
-19016
22324
-12768
2644
11240
-23396
20980
144
-22504
25316
-7148
-11224
14388
-15968
12472
12432
-29128
15368
3536
-14348
22860
-14216
-7740
16352
-21356
13648
17512
-25556
8120
336
-5368
19624
-22820
-4428
22492
-16656
12380
6780
-24636
17040
-8496
-9164
29788
-20064
-10636
18368
-15540
15048
1816
-24740
27548
-7772
-20588
29640
-12564
-4728
12684
-21152
22556
1512
-29792
22568
320
-7968
19652
-19424
-644
10524
-21080
24952
8988
-29792
9336
-3384
5112
24496
-27444
800
13664
-22472
18272
1588
-17616
21688
-16884
-2456
27136
-23556
1108
9604
-14864
20204
-9940
-16096
29788
-20244
-13132
28940
-16356
10400
-7744
-15032
29232
-11948
-12204
16292
-4984
-2500
13480
-25760
12276
9864
-23304
27280
-4156
-14416
12120
-19152
12856
19096
-29792
7472
10316
-14096
19488
-8856
-8316
18560
-23544
1276
23212
-19112
9844
516
-17980
25472
-13648
-9716
25092
-18840
5164
6428
-21916
24732
-5884
-15808
28832
-17244
-6636
8160
-18188
27092
10604
-29792
12492
4924
-21716
24412
-11288
-164
16272
-29792
19352
12584
-25256
15036
-2788
-9168
18860
-23224
3020
26220
-24684
8084
7636
-19344
19732
-13016
-8272
29788
-23800
-4488
20760
-19324
14628
-1484
-21880
28012
-12180
-10928
25660
-14804
1792
4368
-21892
21004
6800
-21704
14720
-6188
-1112
16892
-22976
5896
14304
-19216
11776
412
-15768
17788
-10184
488
24104
-29500
2192
15668
-18144
20348
-10840
-17116
29788
-17748
-4948
26600
-22368
2152
1936
-17548
29788
-2528
-21644
16740
-11912
3708
14348
-24056
14604
6840
-26960
26008
1168
-16964
13616
-20840
15372
18320
-29792
12996
6836
-14124
22504
-17548
-7384
28400
-23856
2336
17968
-27096
10316
5040
-9320
28924
-16524
-23548
21928
-10812
8720
12164
-23692
21060
-7248
-24516
28724
-2272
-8300
8128
-19396
17944
13500
-29792
13424
3796
-9884
19948
-20468
-212
21820
-27572
11472
18532
-25676
11808
-5536
-9624
28572
-21256
-5468
24320
-19148
8304
1132
-21192
29284
-7516
-20936
26020
-11080
8
6404
-18296
25092
-3644
-26504
21744
-2820
-8216
23748
-21732
-1736
19268
-26260
17892
9360
-24924
14132
-10144
1108
29788
-23996
-10340
12860
-9292
18692
-8940
-17284
27372
-14768
-4776
20028
-18080
6208
2568
-18012
25124
-4800
-19864
20464
-8988
3912
13680
-29084
11776
11120
-23268
21488
-116
-15684
17892
-18768
5708
25684
-28976
-528
6120
-8072
26648
-14984
-15968
27280
-16700
-1456
14308
-21312
17960
-3172
-19096
29788
-10312
-19344
17208
-12280
8408
12176
-26872
19172
6400
-23328
18012
-10908
-1088
20192
-25328
10940
14892
-25880
11100
-2276
-5380
28344
-23436
-11656
22516
-14532
9820
5256
-19620
21472
-12112
-14652
29788
-15608
-4300
9792
-21928
25524
4396
-29792
22172
2092
-9456
19140
-27688
3048
24360
-27872
17596
9252
-23820
14600
-15212
1204
29788
-24736
-5768
7388
-10032
24180
-12732
-16820
27016
-16260
-5688
23544
-13984
3792
-1144
-23636
29788
5328
-25636
16068
-13456
2432
23608
-27980
9132
12312
-22272
19408
-9432
-11196
26352
-22804
4012
24004
-25524
4768
-2256
-7992
29788
-17772
-17348
29788
-15976
-1784
16052
-24044
22560
-7532
-22592
25428
284
-4148
4604
-16460
7068
20524
-29792
10036
11036
-14812
23348
-17828
-9348
24012
-16204
2608
9392
-19456
16192
-4072
-12712
28832
-13768
-12308
11824
-12152
19332
1624
-28600
19624
1936
-11144
17240
-15676
5056
16228
-29792
12540
20676
-18788
9756
-9136
-2180
21272
-20908
-1700
12204
-13140
17692
-292
-27148
29788
-16308
-14312
29788
-23616
6680
2972
-21600
27116
3876
-24716
13628
-6444
1884
19968
-29792
7380
18564
-22580
15912
-2584
-13832
24720
-20076
-6540
28116
-16352
2332
-4324
-14008
29788
-10384
-28892
28712
-892
-4220
6664
-25304
20312
5228
-23856
27776
-4084
-18916
12676
-16832
14520
23756
-29792
4800
5228
-11004
24800
-19404
-14192
28688
-11544
828
10532
-20156
13792
-3432
-16100
27608
-9536
-9688
13072
-20420
18908
14784
-29792
13248
5612
-12596
24276
-20744
-7488
28048
-23812
4780
16040
-17896
12164
-13384
-9976
29788
-13908
-15680
10868
-12612
21024
2088
-29792
23268
-3232
-11844
26336
-19628
-1704
19096
-23484
9912
2248
-18588
25412
-6880
-5204
21264
-27524
-5176
18344
-8896
18156
-6360
-26980
28496
-5460
-12412
19628
-18680
12332
5888
-29628
26140
4048
-19340
16576
-16824
3636
27592
-29792
388
15000
-12616
22892
-12408
-18924
28112
-14932
-4772
20292
-23252
12160
4692
-22776
29788
-5444
-20100
14956
-15288
13072
20816
-29792
3680
10428
-14116
24764
-13388
-8828
27648
-29792
-3272
28064
-15844
10324
-2388
-24220
29788
-4492
-18164
16064
-13552
12108
12056
-29596
12812
7964
-10660
17432
-21876
-5892
28500
-23484
10028
16544
-26440
13344
-8920
-9072
29788
-17632
-13740
15484
-15936
18976
8736
-29792
19876
-360
-15404
21116
-16572
2448
20964
-29616
9200
16528
-21876
14480
-8812
-9612
29788
-20204
-4084
14320
-16528
21076
-5640
-29792
24744
2376
-1852
17812
-29792
3356
14064
-18592
22080
-2228
-20116
17604
-12284
-436
28640
-25720
-3840
13984
-14996
19632
-7872
-19292
27628
-11000
-2432
14732
-25896
16848
3872
-24808
29076
-4036
-13412
14812
-23840
9372
27820
-26640
-364
3176
-9924
29736
-13156
-19408
24972
-14604
892
12628
-22320
18856
300
-21260
28584
-9808
-12580
17700
-21748
11384
18928
-22492
4032
-6100
-1068
28924
-24692
-9304
27400
-18780
8616
2544
-26760
28280
-2632
-16048
24912
-15424
-3704
12472
-25664
20108
15760
-26608
14172
-8324
-7444
26944
-24156
-1924
20768
-16756
14488
-4972
-22268
29788
-10044
-11564
21936
-22404
8256
9208
-22104
22232
7356
-27320
17920
-9244
-8364
29788
-29676
4460
12848
-13672
21820
-13016
-16688
25232
-16052
-3388
25264
-24888
10656
6120
-28456
29788
56
-18776
16008
-21996
12036
24660
-29792
9052
9660
-21968
25168
-7484
-18904
24968
-11236
3160
8388
-24828
18772
2804
-21224
25620
-9624
-9052
18492
-25524
16584
18644
-29792
14104
152
-12064
27888
-11364
-17760
19580
-12416
5400
14892
-29792
22404
-76
-20980
25412
-11992
268
12920
-29488
19128
15316
-29364
13092
-4276
-2256
27156
-25420
-7148
18472
-11256
13588
-6680
-22728
27748
-5340
-7120
20884
-23752
4368
12416
-24688
16308
12000
-19484
12564
-14544
-260
29788
-20696
-4356
2828
-14380
23484
1536
-16660
14736
-10372
3824
5720
-21364
14036
8636
-18012
22616
-5396
-14224
10048
-18184
11976
20808
-23384
7360
2424
-13268
23036
-21356
-4924
25528
-17772
5904
13096
-28068
14756
-536
-12460
29788
-15708
-15664
25780
-18128
4388
9496
-25220
24848
-1576
-19720
28344
-12216
-7352
14916
-29792
25084
22180
-29792
12140
-3024
-9704
25580
-26732
-1308
28552
-22508
10960
7884
-28440
24624
-7408
-21824
29788
-14240
-2208
14144
-23568
19152
7792
-29792
22900
888
-8144
24564
-22352
-2672
15420
-25500
17896
12032
-21228
12164
-6044
-5452
23208
-21272
-8996
23956
-16712
12164
3004
-16200
17436
-11596
-13644
29788
-13840
-11744
11024
-5740
20168
-3964
-29792
14360
9000
-1044
10504
-15960
-16
8692
-13876
5180
8224
-8080
10272
-10080
-2060
19080
-12144
-10776
5696
-7460
20712
-1676
-14512
12680
-8592
-820
5760
-9412
6816
480
-4536
19312
-12544
-11592
3360
-2852
15552
2092
-18656
13228
-1024
-5804
5756
-9032
4356
7152
-13896
12016
10160
-16860
-988
-7896
6888
23420
-16680
-8364
15256
-13288
5500
-8864
-3216
27580
-10724
-11916
12492
-10704
8824
-1264
-21328
21016
5808
-11884
11992
-11320
-368
13156
-22788
11020
6020
-13468
20512
-2488
-17408
14396
-19152
7772
23720
-25212
5252
8760
-14936
18268
-12024
-15832
29404
-11736
-6308
18024
-16736
9044
1916
-28516
29556
2772
-16648
11952
-10572
5540
13540
-29792
10712
14904
-13224
18000
-9408
-16304
19484
-17664
2864
23400
-25544
10992
5876
-14888
21436
-13872
-20684
26984
-9044
4396
11344
-17740
7304
-608
-17984
20276
-308
-10704
14752
-10648
7332
10192
-29792
2508
16288
-4460
12860
-13900
-2184
14912
-18436
-1552
14776
-5968
7852
-12912
-4036
24664
-10752
-15932
8712
292
6144
4528
-13448
8204
-1100
-12168
19712
-15080
848
11188
-12368
22724
-15880
-12340
5124
2172
10964
7012
-20016
3884
4036
-7508
12128
-12552
3244
12944
-16372
5060
12708
-12352
5088
-15632
-5816
29788
-7200
-11264
12588
-13940
6064
-200
-14836
18264
284
-8660
16932
-13900
-2144
6424
-20664
24412
4916
-22780
19984
-8800
-8932
19336
-20172
5528
16256
-17692
1944
16692
-20664
13460
-14168
-7176
29788
-19984
-6500
8804
-16196
18552
1896
-25560
23512
-3788
-6452
18296
-19552
628
13428
-27996
23624
6500
-18664
16340
-14140
1728
19884
-27492
1564
17716
-14500
15288
-292
-17256
16000
-10832
-10532
25892
-11224
-3752
6816
-9748
16592
-1328
-29736
21396
1964
-4440
14400
-19376
5104
12140
-23160
11336
8208
-13240
13452
-10136
-76
15180
-15536
-4728
8404
-6360
16568
-3812
-11636
8924
-8968
-6200
17608
-3064
1736
-6576
-6948
22812
-10852
-17964
7816
5764
11832
-1048
-19748
9948
3744
-3784
-1360
-7636
9808
8260
-17880
14292
5920
-15480
156
-6816
7164
16284
-12384
436
4744
-13172
9020
-4220
-304
11976
-15308
828
20240
-14356
-556
-6388
-6740
26224
-3216
-18416
12748
-8112
6224
6624
-24784
16468
6916
-11884
16248
-11484
-8668
15940
-22532
14500
17000
-23212
10044
968
-15544
22456
-16836
-7672
28188
-18648
1236
15844
-19764
14912
-12664
-19328
29788
-10048
-15056
13336
-12412
11124
6540
-29792
22740
7400
-14264
19696
-16420
-6104
18980
-22272
11196
13124
-24548
11856
3380
-5852
19036
-21020
-11496
23568
-13144
9612
5848
-18872
17388
-5548
-22216
28852
-6732
-5108
9512
-17120
14880
6108
-25720
11976
5960
-3788
13848
-17756
-496
11884
-16224
7548
9320
-13752
9940
-4456
1944
13872
-19736
-12984
15204
1380
11532
-1088
-12536
5848
-5812
-5720
9288
-1244
3764
320
-8652
15216
-4652
-12016
452
232
9740
5404
-12756
5964
-584
-3092
3568
-7984
2684
7688
-9824
11588
4624
-17216
4628
-8516
5148
23032
-14400
-13308
10992
-5240
10872
-6356
-11972
20456
-8208
-7292
17920
-14932
4980
-2424
-18420
29788
2344
-22652
11684
-2748
-1692
11936
-29420
19812
12508
-26112
25428
-5096
-12960
9592
-20260
10000
23832
-19956
1288
8384
-16372
19372
-10704
-15132
23628
-13484
5000
18476
-25204
8272
1800
-22444
29788
-4748
-13104
11836
-12052
8440
14140
-29792
9836
16196
-15296
13120
-6524
-7184
19128
-22264
-752
24568
-20756
5800
1844
-7196
19668
-13392
-17292
22660
-8972
3444
14816
-23424
13656
-6008
-18500
27628
-4596
-4820
6692
-12036
9388
8096
-24332
6284
9460
-4996
16708
-17884
-4464
15792
-10196
2020
2464
-11132
14372
-7160
256
15148
-14800
-7156
4348
-1072
15260
-5224
-14500
15476
-4104
-5272
3828
-4304
7980
-1420
-13400
18108
-112
-9716
-1540
-6368
15228
8552
-22136
8384
3164
-4296
10208
-18672
1652
17196
-15036
10104
12184
-22872
3132
-8724
6596
26008
-20648
-6064
13992
-15136
14972
-9232
-15216
27228
-9328
-5304
19032
-19404
5204
3952
-24368
26216
2960
-17004
17672
-11728
-3960
18704
-29792
13112
18208
-23484
17968
-952
-17476
21760
-24620
2292
29788
-27368
-2156
7360
-14596
28088
-9584
-25088
29788
-12284
-192
17948
-25308
7240
5372
-21096
28936
-5660
-16008
18380
-11736
3076
15160
-29792
11280
18072
-19884
20904
-11432
-12164
24168
-22728
-1216
22880
-19540
11772
-2404
-11952
25336
-9916
-19076
14784
-12276
11564
13628
-20612
14300
-2596
-20968
17688
-5072
2008
10228
-20632
24120
808
-29100
9960
-1688
9004
16932
-29792
10872
9200
-18728
16076
-5772
-8716
19488
-19056
7792
15416
-24444
6728
-1432
-2964
25352
-18640
-10832
22108
-20768
11288
5664
-18212
22444
-11644
-15896
29788
-18236
-1504
12196
-23812
20508
4980
-23616
21424
-5960
-5140
18224
-29792
10124
18276
-22324
25024
576
-25808
23312
-26844
-224
29788
-27476
2524
13376
-25856
23188
-10336
-20984
29788
-13464
-4600
20304
-29324
12712
2920
-26964
29788
-8792
-21280
24572
-20272
4684
20544
-29792
18884
7524
-19436
27736
-16208
-11996
26096
-27336
7648
21624
-29176
15732
-276
-14428
29788
-18316
-19596
28412
-18096
12552
10204
-26928
21256
-4696
-24728
29144
-8120
-3536
15524
-24800
18572
8672
-29792
15536
-960
-756
22080
-27360
5556
13756
-23100
11316
7224
-15440
16928
-12984
3404
21152
-24928
-2420
4068
-5880
26588
-13612
-12416
17704
-15832
8328
3996
-17776
18308
-1212
-10980
23720
-19632
-5964
7460
-11668
22140
4676
-27592
17564
-2272
-5244
12676
-21736
10764
15048
-26272
16932
7932
-18004
12692
-25700
10648
29788
-24436
-3548
17948
-25488
19432
-3896
-21184
29788
-24856
1872
29596
-29792
11044
-2352
-26580
29788
-6584
-20844
25112
-18436
4132
13812
-29792
21444
12332
-21672
26548
-11260
-19728
26812
-28168
12756
24072
-29792
17452
-532
-19380
29788
-21888
-9544
29788
-26276
15524
5532
-29792
29492
-7008
-19176
29788
-22868
-4080
18328
-13184
12584
10808
-29792
14008
10596
-10124
28072
-27332
4444
13532
-29792
19216
6288
-16032
20364
-17120
3608
21764
-29532
-1024
15996
-11072
20544
-10184
-14468
18836
-15776
-1504
18116
-13424
10524
-2212
-13704
21932
-13280
-10540
10028
-6788
18152
5740
-25676
14796
-7672
-3624
14888
-19160
7232
12096
-18828
23160
-1624
-16748
9120
-21500
12316
22520
-27704
10400
11460
-13912
14772
-23408
-3960
28440
-16640
4228
15556
-26188
15144
-10820
-13768
29788
-16172
-8644
21924
-23120
11388
3044
-26372
29788
-7600
-17428
29788
-21564
-2000
22092
-29792
25428
15220
-29792
21436
-8392
-9736
29788
-29792
1968
23444
-27276
21192
3436
-26500
26972
-18564
-9160
29788
-26628
-1312
15156
-22640
24100
-332
-29792
29768
-5680
-624
20724
-29792
10516
9452
-29792
29788
1140
-19768
19184
-20412
9540
24412
-29792
5268
13512
-13296
23728
-16332
-8632
21816
-21792
2656
18924
-25856
15756
1076
-10368
26588
-16840
-19672
14012
-4408
15660
3736
-21820
16804
-7180
-10128
13248
-9144
8632
7744
-20320
17960
-3364
-13476
8748
-7416
9688
11980
-23920
9640
5012
-8068
8000
-10812
124
12864
-11596
2604
17248
-14212
-3568
-9196
1620
23648
-9876
-5724
9300
-16680
11752
-3964
-8112
21936
-10432
-6040
12536
-15972
8572
936
-12668
21400
-7992
-13156
13996
-2280
3748
5136
-25808
12628
8192
-10668
13864
-4848
-6904
12204
-23272
7636
19620
-16592
7104
1152
-8360
12908
-14704
-6372
17576
-6072
4136
452
-8348
10172
-1636
-17224
12744
3168
-1832
2484
-1796
2132
-2036
-16660
9444
12660
-2996
88
-5236
332
5640
-9532
-4516
13200
-2760
-1108
2236
-2436
-548
3636
-8836
3232
4364
-1304
-68
2108
544
1492
-13740
-1160
15656
-1948
-1248
-832
-3512
7012
-4788
-14444
15932
7380
-7652
-1504
-1844
1264
5032
-13128
8496
9932
-11836
-4468
7220
3240
3964
-11068
-4588
9336
-2568
2852
1596
-1576
2856
-9088
-8340
17836
-584
-4728
3960
-4280
1444
4924
-17788
7240
12272
-7052
-256
1852
-2584
5664
-8124
-2584
6268
-3276
4908
3280
-732
-8992
7392
-16816
12124
11980
-14324
7848
-5948
4920
3784
-17680
4424
12868
-2432
-4160
-572
-2912
9164
-6248
-8000
13936
-3540
-3560
4796
-972
2332
-3056
-15304
11868
7708
-4004
1080
-1212
-512
3080
-13008
4900
11528
-7700
-1392
4280
-2624
5076
-6340
-8628
10956
2792
-1108
-5452
1208
9364
700
-23128
13400
-1460
904
10476
-8232
5656
-4748
-11352
4260
9608
-1484
-2480
1448
1744
2488
-8652
-8772
12196
4184
-2356
-1288
-1716
3640
2080
-16836
8048
10576
-3412
-1764
-424
-2736
1860
-5508
736
9720
-1312
-5596
1620
2868
1160
-3044
-13108
12084
5864
-5992
3080
-3568
-424
6152
-13560
6388
8784
-6152
-1884
3496
212
3648
-11144
-7436
14832
2128
-2328
2008
-3708
2324
-3476
-11128
16616
-188
-7032
5388
-3544
2668
3880
-17824
10656
7792
-7908
2828
132
-1772
7884
-10272
-8936
14340
-2220
-1024
6372
-3896
1244
-2604
-14116
14052
5536
-6180
2736
-756
-2184
3664
-14572
6276
14008
-4900
-2828
-3104
-1064
6768
-4840
-6784
11476
-164
-4716
1484
1440
1180
-2684
-10776
8732
5988
-2252
2576
-3624
-1816
6288
-15264
3920
10872
-4200
1032
-636
512
4140
-10748
-7336
16260
3120
-5932
-3284
2456
4440
-444
-17028
7312
9924
-3980
3980
-1264
-3756
5704
-13844
3164
12112
-8472
-596
6396
-2324
1912
-2928
-11112
9432
3996
-980
748
-196
-408
-424
-13488
6616
12092
-4624
-3024
3652
-312
3580
-14892
-2516
16412
-1100
-1832
516
-6372
7284
-3932
-11588
18032
-2916
-7424
6888
992
-2072
1520
-14940
6156
13900
-4816
-4944
752
-372
9784
-11396
-8920
15396
-2600
-2232
6872
-3040
8
-6240
-9568
14740
4124
-4168
228
-1448
-1680
4184
-11444
7836
6364
-4736
-1012
268
352
1480
-7032
-2500
13008
-2552
-4868
3540
-452
5528
-3716
-17840
10480
8436
-1248
1440
-2444
-3200
2168
-10088
6928
9896
-4216
-4852
1176
1344
4372
-8972
-8716
16508
-1052
-3636
3976
-3296
2592
-1540
-11844
11968
2668
-4592
664
-48
2672
4344
-17968
1360
17628
-7156
624
4252
-8480
5628
-5964
-7684
15364
-3528
-1048
3840
-4816
4032
412
-15380
9316
9284
-5844
-2300
1684
156
11748
-29792
9108
25604
-19532
8240
-2440
-7152
5588
-2824
-7256
13980
-64
-7244
1516
-56
5560
-1472
-13580
12856
2564
-12668
7472
4728
76
-2812
-6620
-3832
8740
6412
-8128
5204
-5084
5684
-6152
-9328
14632
-576
740
-832
-2768
-3712
2820
-3432
3392
6520
-5020
-3160
2820
2412
4716
-10764
-5280
8528
2184
-444
-2092
-1380
6632
644
4128
-29792
168
29788
-10000
9632
-7752
-11640
-10732
3188
14300
5448
1172
-11736
-376
5788
-5532
-1244
11676
-8352
-4168
7924
-1740
4836
-7772
-8676
7772
5660
900
-512
-2780
-680
2952
-9784
2740
6780
-2560
2144
-528
-2096
4960
-9012
-3160
9792
1368
-2668
-408
-256
4464
-5308
-8952
9184
1676
-896
3840
-1800
-2620
3360
-8612
17116
-26516
-10332
29788
-7840
8124
-332
-19404
-8468
3188
8708
3316
7000
-3664
-32
-6864
-10200
12912
1756
-2040
2072
728
-1692
3784
-11580
-2104
9040
1340
1888
-1776
-3232
5140
-2664
-7460
5952
1432
-2988
432
1144
6288
-1004
-12172
6200
2996
-3004
1968
-1572
-1872
9012
-10748
-1532
10840
-3764
-2088
1716
2016
1200
-7956
-9608
26468
-1932
-29792
28620
14292
-5412
9728
-20540
368
-1852
-928
5216
4732
3136
-2736
-11136
1960
8788
-600
-372
-60
-1744
4048
-7032
-6644
8164
2488
-1700
2680
2228
-1420
-3372
-10464
9800
6560
-4176
876
-5528
-432
8552
-8396
248
6924
-3516
-1068
3404
-2972
4224
-4560
-10260
12216
2628
-2948
984
-1368
2536
-1504
-12824
7408
7072
14464
-12560
-29792
29788
15424
-12256
8208
-7860
-5644
-7812
8516
4392
4748
-1500
-11780
5648
-3884
6380
5152
-5000
1332
-944
-10108
4836
7948
-3748
-2144
884
456
6452
-8264
-3432
6428
588
-1396
-1044
948
4424
-4500
-8596
7712
2016
64
364
896
2784
-3980
-12392
5148
8784
508
-700
-948
-2616
3748
-9252
2220
6784
9932
-3700
-29792
23368
29076
-13580
-1304
-2740
-6828
-5084
7624
3448
1744
6124
-15720
2524
4948
-3544
1572
4348
-64
428
-6924
-3848
9472
-484
-696
-908
-5216
9604
-3780
-7972
9200
184
-1100
-3744
2344
3688
-1144
-10032
3240
9468
-1576
-3204
-504
-1220
3712
-5840
-964
5892
172
-284
1348
-644
-760
-4392
-5436
27308
-25376
-24408
29788
-2092
4328
1552
-25072
808
3176
4916
3412
6428
-3536
-3180
-7700
-3852
13468
696
-2496
1320
-2464
4808
-5136
-8596
4984
3424
224
1616
3188
1348
-3832
-14072
10564
1904
1036
-2792
2256
2436
-2824
2940
-16060
13388
672
-3772
8116
-4496
1088
-6008
-4652
8612
5020
-6544
440
-584
500
4724
7508
-11456
-29792
29788
12836
-2776
9056
-11304
-14932
-8840
16652
3140
1732
972
-7840
7764
-2864
-8768
5984
3132
904
-968
500
-3052
1700
-9200
3264
10472
-200
-7652
-676
4768
7100
-12328
-2288
7128
-3612
4336
-3232
3528
872
-4500
-6184
7560
4868
-3208
-2396
596
1852
904
-9060
1056
5772
1616
-52
-928
2172
-2620
5592
-272
-29792
23748
20372
-10660
14712
-9452
-13512
-12164
11604
8288
3264
3260
-10392
720
2700
-7044
3012
3476
1204
-3400
5520
-644
100
-8788
-7464
12312
2812
2428
-3372
12
3380
-8948
-5112
9924
2596
-5152
996
1044
2988
2580
-13196
2468
5784
860
-96
-644
-1604
1820
-4440
-2356
8128
844
-6200
2224
3608
8
-3524
2224
6696
-29792
16300
29788
-11164
9852
-8304
-18816
244
5448
2824
5468
3824
-4000
2732
-13804
-1788
13828
-1736
2272
-1804
-3560
1672
1292
-7244
2116
4296
-2276
1072
1856
3820
1224
-15344
1112
9904
32
-888
-744
-3392
6716
-5348
-4760
9788
-3480
-2236
2320
140
2840
-1016
-11324
7180
7408
-4480
-992
1960
-6340
4816
-5464
14404
1100
-29792
27756
20524
-7524
11440
-22600
-10732
5884
6604
3876
1180
856
-2948
592
-11616
6356
8496
-4288
2196
656
-2704
-544
-7792
1552
7464
1944
-2472
360
-2216
5360
-5284
-5912
8592
-1536
-1760
1380
1704
1956
-2240
-11732
8596
6288
-3716
1488
-2476
-148
5708
-9980
-1468
5992
-464
148
6184
-5420
496
-2664
12164
-14740
-25892
29788
-64
-1992
10912
-13528
-17800
1740
11176
1248
6724
-1656
-1776
2224
-16616
5048
11152
-4
-4328
-1400
-1612
4740
552
-8048
5476
64
-3520
6440
2032
-3548
-1544
-8436
5940
8596
-4736
-4404
1484
2592
3684
-8616
740
4872
340
-700
-760
-2140
3412
-6568
-3256
13016
0
-3056
-2016
-2104
1984
724
-9404
20956
-1504
-29792
28688
16876
-7852
11808
-23364
-4312
4812
3504
2148
2464
972
2220
-7092
-10184
8716
4608
3992
-388
-6176
1220
-4056
-3604
7720
2260
-1248
-3500
160
5192
4404
-13952
976
6520
-3208
1532
2236
1356
1592
-9192
-3932
9036
1480
-912
28
-4300
4260
6880
-16236
2308
5932
1456
5284
-8944
4724
-4240
-7476
5692
4112
15612
-4248
-29792
12536
29788
-14976
4580
-2864
-9132
-4480
1532
6680
3320
4588
-14468
5048
4508
-2200
-152
-2292
5272
528
-9840
412
7368
-436
-2024
2204
-2144
4484
-8716
-3880
15604
352
-8720
-2888
2468
3604
-1668
-5024
8260
-4756
-1316
5428
488
-2900
5972
-15812
2776
12036
-8252
6620
-184
-4956
4972
-4608
-8904
9092
2252
12148
-3104
-29792
24752
19788
-14652
16488
-8944
-10784
-6992
4716
10076
7320
-10304
-6932
5336
-436
3896
1560
-2060
3424
-10072
-2156
11272
928
-6908
-340
952
2880
3780
-9488
4352
-460
-1572
4280
-1704
1720
1276
-12452
4764
8512
-2900
616
-2540
-1984
7688
-7844
-2832
6072
40
1440
-744
-2584
3268
-2496
-6232
7292
3240
-5364
12596
-6340
-29792
29788
4800
-6624
15396
-16936
-1928
-2216
1924
4508
-6188
2072
4760
3244
-5900
-2032
2204
2272
2092
-7632
4364
-2484
156
3824
-2496
704
720
-8664
5192
9600
-4796
-2680
-764
-484
6224
-5688
-5488
2884
3868
136
3468
860
-3380
-2756
-7964
7560
6444
-1372
-2808
-2668
56
6016
-9020
1832
4368
7516
6304
-29792
14404
29788
-18148
5748
720
-5660
-8888
404
3364
9420
4540
-15424
4120
1268
-1612
3172
4388
-1092
-5172
-10000
4904
14216
-3352
-6112
-2104
-2328
10448
-4152
-2216
5244
-5064
-1564
1856
3304
1804
-6384
-6956
10036
4124
-2700
-2356
-1560
2872
1784
-8980
3020
4476
-2184
3044
1024
-4808
5972
-8820
-4928
10836
1944
-2108
14792
-19472
-29428
29788
2632
2612
6576
-16904
-4224
-2012
7708
1704
-6636
5428
4380
416
-7344
1552
-660
5108
-2156
-7940
7516
-3712
1732
6844
-3932
2136
-7148
-7832
11232
5020
-1836
-2900
-3204
1324
3936
-7388
4884
1856
-1504
-1164
576
3632
-444
-9708
292
8112
1452
-1112
-668
-4088
4252
2156
-8960
2656
1872
1320
16236
-26780
-16296
29788
-14024
4716
9996
-13900
-5176
-7480
7064
9956
-4112
-2648
3580
-1812
-3124
5692
-796
1912
-5548
-6476
10920
1660
-4240
-3660
-932
5412
6008
-11068
3544
2156
-4340
5084
-88
-2040
4116
-10904
-3144
11736
4060
-3332
-2852
-776
3624
-3736
-5548
6832
-88
892
-1564
10220
4844
-29792
7372
29788
-1968
9280
-13248
-11304
-4872
8112
-44
1920
8644
-6776
-3844
1520
3608
5844
-9064
-9104
8716
6348
-1804
-780
-4104
-1244
6444
-8608
5228
4020
-4936
1204
-260
544
3084
-7000
-1304
6252
1184
-1144
-1028
-5396
7692
-1324
-4436
3904
-2084
-664
11888
1636
-29792
21052
15912
-6060
18304
-14012
-9624
-7792
5340
10036
-9412
7256
784
4792
-9596
48
6896
-5000
268
-11216
15012
-8
-304
-928
-6060
4184
-3848
-1036
8556
1792
-6756
-1384
676
2980
4332
-12452
-396
7612
3616
-32
-1344
-2216
2320
-7152
-5728
9152
17464
-17468
-29740
29788
9268
-5052
-5784
-8156
536
-5340
8172
568
928
7664
-9860
-5000
5228
2756
1180
-4284
3116
5744
-9272
-4764
5228
1952
-1668
4024
-2888
1684
1000
-8608
7104
1536
-3224
708
-644
644
5376
-10944
-2860
10916
-20
6532
6884
-29792
10408
26460
-10228
20508
-11640
-14936
-3100
-336
14096
1140
-7440
692
-1080
2608
2580
-40
-528
956
-11552
4948
7628
-1252
-3752
-2504
2364
6088
-5296
-5944
6576
2424
-768
264
-1504
-1740
-468
-7492
6372
7680
-1672
12656
-22436
-24292
29788
-1372
-3688
3976
-9308
-4220
-3268
7440
4968
-4956
-3064
8020
296
-7964
3936
-1076
3756
1284
-11760
6616
-104
1176
2600
-2156
-1224
2740
-8492
2696
12920
-4148
-7148
-2372
-1568
9668
-1836
-6188
5852
-2132
15752
-14560
-29792
29788
2344
-14248
15664
-7328
-6712
-8888
4056
8788
6300
-7752
-3088
3652
-2908
3460
1788
-2584
3932
-11684
360
12148
-2856
-2524
744
-4012
5064
716
-8440
8296
24
-2096
168
-1440
4140
-1180
-11964
5252
9488
16328
-28284
-24500
29788
2916
-4276
512
-11744
-1896
-4432
6772
7388
7040
-9704
-12712
9212
3172
4004
-560
-5372
-64
296
-4224
5916
3180
-7372
-52
4004
1148
6620
-11616
-3356
5880
2384
1396
-3676
-1188
3492
-2892
-4392
7148
372
-2736
12428
-1856
-29792
23320
16256
-5272
16480
-15532
-6104
-6708
256
11868
-5424
6016
2148
-4836
-6196
1884
5984
2740
-2888
-12456
9488
3468
344
1272
-6736
1192
2036
-8920
3836
10764
-3064
-4048
2052
-408
3020
-11240
-1176
12588
-2620
-2212
-8
12392
-448
-29792
17420
27684
-7040
5764
-12748
-5532
1916
2540
-6416
6728
5304
-4280
2920
-4684
828
4744
-9432
2332
6868
-2168
-3200
3116
-3180
2292
-180
-7840
7200
2484
484
688
-4368
-60
844
-8264
10012
4628
-6056
-1456
-3544
-496
24700
-16608
-29792
29788
13420
-8952
7956
-13332
-2096
-10940
1300
15608
3116
-2120
-6060
1196
88
-336
-7028
6736
5556
-5044
3528
-1800
-1488
2196
-14684
8372
11932
-8104
264
416
1112
2052
-5668
-144
-3080
6548
-220
-944
1724
-388
240
-12796
21604
3204
-29792
20172
23584
-5348
12972
-25268
-3096
-120
-1256
10300
3344
1844
-4024
-6220
-3112
7396
2696
-860
-1436
-3220
7348
-4748
-8424
6260
1020
1616
2380
76
-1780
1200
-11356
3080
10308
3884
-7008
-7596
640
9008
-7280
2840
7260
-9332
4996
15416
-26012
-20288
29788
-8988
8016
10200
-16724
-2792
-6432
2724
10604
-3288
-808
2272
-5644
-1068
7344
-1940
7564
-9820
-9956
11768
-348
3696
-412
-6228
3568
-2272
-5668
9864
1408
-6568
2696
-2440
5176
6060
-17092
2444
5996
64
1140
-4788
7060
14680
-29792
-2068
29788
-8652
3100
-2444
-13868
1980
556
-4040
7112
8192
-3472
-1248
-4944
-1896
6420
-8388
8276
2944
-3552
780
-4400
104
6144
-9192
-3724
12636
-464
160
896
-6056
4108
-6720
-4940
13160
296
-3096
-2624
-1000
2728
19156
-26960
-27152
29788
4696
-3220
7048
-16648
-4484
-9236
7480
13116
1044
-3624
-5728
2052
4648
-5652
-3880
7752
-2140
172
5024
-4624
84
-2012
-8344
9976
3160
-1228
-460
-2180
-1940
7296
-4776
-3984
4900
-4948
3040
664
856
4232
3228
616
-29792
13952
29788
-9828
4932
-7464
-6068
-14552
6868
13516
504
1600
-5412
-268
1992
-12868
5304
11256
-2536
-1928
-116
-3112
3104
-4260
-4812
9660
-2200
-652
2272
828
6332
-7148
-13656
8628
4064
824
2040
100
-4256
-4268
-1320
9100
18920
-28168
-26724
29788
3424
7300
-4632
-23832
6368
-2244
7000
5744
-1648
2140
-3824
-10464
9144
5240
-5348
-312
-668
1540
5336
-8820
-652
3152
2576
-340
-480
-664
1036
-4156
-2836
8408
672
-1744
-1428
-4056
7036
-1020
-11996
9668
3284
-3452
17800
-20464
-28468
29788
-5736
2132
11908
-18212
-1984
-4892
4424
10608
-4344
-6908
4284
996
-1404
6248
-5196
3856
-3112
-12012
11996
3288
-776
-4132
-2384
3872
5148
-10780
1180
7484
-4272
1624
312
-632
3868
-9572
-1020
8920
404
-4132
-1812
6508
13912
-29792
-6388
29788
-6804
3280
-3836
-6152
-3848
-1256
-2212
6320
9796
-4484
-2544
-4548
-1032
8876
-7864
728
8592
-2516
-4552
-424
220
4552
-4868
-9252
13024
3892
-2768
-1684
-5020
4220
2448
-8496
4012
3388
-3416
-216
20
4252
2604
-996
3500
-29792
15684
29788
-12192
7204
-5800
-15468
-6724
11836
5096
2712
1488
-7548
5316
-816
-11752
7216
4368
-1392
1024
-656
-2268
4588
-10416
2016
9752
-6460
560
912
2576
6104
-10916
-5936
5096
1548
5144
-728
-896
-684
-5912
-4700
11832
20216
-29792
-20660
29788
-4584
5276
-2844
-14736
3936
-10380
17976
-700
-3664
9496
-15736
-444
4124
6704
-2568
-700
-1624
2400
4192
-13876
5032
2904
-2108
2688
2648
1944
-1040
-11960
1036
9032
224
888
-3492
-4516
9224
-5264
-5588
8476
-3536
7920
10496
-29792
8492
29740
-18048
16680
-4236
-10576
-4712
-5700
15156
5664
-9420
-1012
4372
-6200
1552
6764
-6512
11420
-14136
-3364
11440
-656
2764
-7760
-1804
5028
-408
-6704
9604
-424
-3036
2668
-4136
4432
528
-12784
4668
8184
-1184
-1548
-1708
10316
3372
-29792
13572
29076
-7860
7520
-9944
-8880
3236
-1864
-4996
6956
6488
-1084
1468
-5892
512
3776
-13484
11308
5520
-6096
-1056
-1552
128
8004
-7956
-6308
12420
-2580
-1940
2132
-856
2388
-4572
-5704
7036
3668
-4012
284
-2296
1244
4848
11300
-20156
-27376
29788
4724
2864
1840
-13048
-13952
-4964
20000
5140
-316
-4276
-6488
5048
-1024
-5084
4236
4260
-552
-1972
-4
1564
-940
-13780
9252
8392
-1932
-1060
-1304
-840
1616
-4840
-2288
6652
596
-2772
2968
-1244
4540
-7616
-6712
7928
13228
372
-29792
16660
29788
-6716
-2596
-6328
-5304
-7968
4720
10420
3672
3756
-18484
-2164
9276
3436
660
-1984
-172
-1736
-3452
148
8560
-788
-8492
1188
2612
5784
-848
-12428
6232
2884
436
2040
-1916
-4972
5380
-6816
2084
7052
-3920
-2668
18576
-16228
-29792
29788
3096
-168
10212
-16708
992
-8520
4336
4448
-5464
7196
1104
-120
-5432
824
2224
5528
-9720
-628
7968
-4632
1160
-1924
2156
5052
-12300
1116
9528
856
-4528
-1408
-64
3056
516
-7840
6180
-720
-2324
3696
-632
956
2192
-8220
18036
-28480
-10884
29788
-11044
2576
5144
-19700
-6488
5940
7488
-524
6048
-4408
1020
-3240
-11500
12132
4588
-456
-2296
-2580
-236
-368
-5352
5012
5636
-4364
4
1336
1980
4808
-13868
-4504
9552
3356
876
2364
-6388
156
-2776
-4796
11280
1012
-5200
15800
-12364
-29792
29788
2388
-3724
14608
-15896
-3908
-5292
6348
8600
-9892
1688
4536
-848
-4220
1500
748
6424
-3236
-11024
9452
-768
-196
876
-2460
1924
560
-6688
3108
7992
-2388
-4112
-756
64
5952
-8624
1800
6168
-3964
-1452
236
312
10112
7320
-29792
3276
29788
-10376
3884
84
-14968
-3672
-4784
12296
4288
-144
3604
-11016
5268
-80
-8344
3472
6408
3552
-4068
568
-6644
4528
-6192
-1180
10920
-2096
-200
-2148
136
5348
-768
-14736
6104
6140
-3004
5396
-3692
448
412
-10688
9052
21132
-25108
-29792
29788
7416
6160
-3936
-21940
3952
-5540
9488
2848
4464
4408
-14788
-6032
8816
10356
-7628
1164
-3504
-1904
10552
-13092
6072
-1708
-92
2532
1596
564
844
-9192
-3096
14384
-1012
-4612
-3584
1108
3176
1056
-6724
4020
1420
11068
-212
-29792
23144
23608
-19220
14416
-4944
-7472
-4748
780
3316
8888
-3188
-8320
5228
-3552
1796
2696
1456
5012
-7356
-10076
7416
6248
-1864
-1340
-2968
500
5568
-8832
5024
4092
-4308
-328
-932
1360
7420
-10128
-6028
10704
-2296
2944
-264
-5668
5652
12004
-8140
-29792
22880
22084
-5992
9612
-8456
-5156
-19524
8504
10984
1256
4244
-4748
-2344
-1688
-6468
6012
8144
680
-5336
-3784
-1584
7136
-2684
-9952
10412
1548
-1000
2740
-2828
-452
-208
-8844
5436
7524
-2912
-2144
-560
264
4824
-7760
-2556
14912
5436
-29792
12264
29788
-7840
304
-14968
1756
1896
-972
5656
-3512
5088
-1180
-8992
5616
1184
-1896
1040
5064
-672
1724
-14128
1600
7752
-2592
4624
-3412
-68
7500
-7140
-4284
4956
-664
-2260
2688
-300
3508
-1024
-11724
7360
4428
3460
-1516
10736
-29596
-20280
29788
6552
9056
-6428
-18320
-2536
-2532
15344
-5564
-436
5712
-4716
-296
188
1260
276
700
-9636
7156
9748
-5720
-4116
-3444
2532
5104
-9468
4624
5288
-2728
616
-548
252
2800
-10660
-1192
12308
-2172
-3212
-644
7592
10340
-29792
2652
29788
-8496
6788
-5364
-8004
-2680
-276
-5620
7888
9900
-5988
1028
-4252
-2100
7000
-5484
2908
2880
-3272
-3656
1520
2736
4328
-5032
-10976
9624
4028
1024
-848
-4792
2224
1264
-6352
2300
4976
-2832
-2136
1312
3008
1484
-1224
9352
-29792
6496
29788
-10828
4100
-3752
-12280
-9172
11108
9632
-3908
1004
-3796
3016
-840
-11404
7508
5808
1032
504
-1876
-3436
-1128
-7504
5328
8504
-2124
-1872
-676
216
5700
-5396
-7060
4788
1028
-64
1916
3580
192
-5676
-8740
4880
8364
-1116
14524
-17580
-29792
29788
-1168
-684
13096
-18512
-4720
-3504
6852
9956
-3784
-6472
1800
2016
-2180
72
1748
4204
-1144
-8440
5584
2136
-3904
-1324
2204
3336
-124
-10032
3780
8624
-1536
-1824
-1948
-4024
4384
-1872
-64
6420
-3136
-3168
-3256
3104
7260
1268
6528
-29792
-7804
29788
-3156
4136
-3496
-14784
-11552
7148
14168
-1416
1340
-4716
-1476
4148
-10416
2420
8332
2468
-5824
5216
-6672
2456
-100
-16120
17084
1516
200
-1792
-3712
5156
1688
-10004
1924
3712
-2668
2240
3164
-1964
3976
-10672
-3084
9124
16004
-9192
-29792
28256
19408
-9072
3952
-9032
-5212
-6728
4832
8088
6712
556
-18076
4156
5488
872
192
-1756
-780
7032
-9652
-2736
9996
-1340
-5776
2240
2784
2088
-1352
-12348
10876
1524
-1304
1620
-4184
1612
160
-8000
7936
4944
-3908
-1748
-3112
2936
6824
11968
-29792
-19348
29788
-1568
7380
2460
-15412
-11740
-6636
18324
4884
740
-2144
-8436
5460
1428
-9468
7940
2492
-4360
2692
2376
-3576
1924
-9940
516
8740
1412
876
-1996
-2800
3484
-4180
-2880
5644
-96
-3420
2272
-144
4520
-3072
-1076
11368
-29792
18764
25840
-15528
13324
-10052
-14856
700
6944
3572
-612
3108
-2784
7120
-12260
-5912
10884
1144
1936
728
-3800
252
-1928
-9192
11308
3412
-5548
420
996
2400
2860
-10512
812
5128
-180
-344
1236
-748
-992
-6972
5360
23640
-29792
-13312
29788
-10000
8472
-2024
-20176
2264
-1884
7448
4280
5092
-3904
-2668
-10460
2772
13724
-3028
-3204
-2584
-948
7848
-8144
224
3232
-3836
2888
2944
560
3592
-8520
-9356
10568
4196
-564
-772
-3304
-2080
3908
-6284
6092
1760
11112
-5764
-29792
27848
22764
-17276
8104
-7368
-4188
-1152
1676
1236
6380
-1788
-10052
10372
-3688
-3508
3936
-244
5908
-932
-9604
308
4828
-768
320
2928
-1568
1792
-12688
6924
8904
-4544
-1704
-1240
-424
6776
-4080
-8192
8248
-1860
444
1504
-2480
3424
7796
968
-29792
10992
29788
-10428
9564
-9796
-7788
-8920
2680
10700
-432
4468
-1612
-4280
1876
-7220
-2060
9020
6472
-2416
-6528
-3056
4460
160
-6884
7244
2384
-3488
288
-12
3752
2944
-13324
-188
5916
3728
308
-1832
-2824
5624
-10324
10308
10164
-29792
21324
23196
-9660
14988
-18096
-16280
4452
6332
3856
6776
2916
-9812
-2552
-8760
8604
8752
-1856
-2208
-4344
1012
6276
-5132
-5848
5760
392
-1376
2832
20
5844
-9344
-7956
12220
604
-2308
-272
-3112
4244
2540
-11168
6448
20328
-29700
-19084
29788
-328
1340
-8092
-11240
5588
-5152
6460
468
1696
6216
-8824
-4068
5564
1148
-1564
412
-2648
6192
4620
-19496
6928
5196
540
2084
-3620
3472
-6692
-1264
1064
9092
-2640
-6424
3860
-4100
12184
-11356
-5396
8620
10572
1552
-29792
18912
25896
-9364
2108
-4736
-2244
-10092
1548
9000
3484
6512
-16028
-4676
6228
2988
4788
1236
-1064
-3580
-6116
-2436
8724
3996
-6012
-532
-424
3308
1728
-4680
2856
-3460
-3772
9304
-1164
2932
1380
-21556
10356
6068
3388
-1132
-3604
-3960
11996
3872
-29792
19640
28156
-12668
9960
-9456
-4352
-6656
-9616
16688
6468
-944
-3276
-5792
-1468
7988
-4628
736
6908
-5960
-3568
3008
1632
4340
-12476
-452
9156
836
2956
-1736
-5472
516
-1576
-5412
12576
644
-6968
1452
-1444
4388
1144
-4900
14016
-29792
804
29788
-8780
5396
-5644
-19280
-1128
9504
6356
-788
2648
-6576
3672
-2612
-8184
9984
-1580
1996
3440
-3112
-768
-1340
-9016
4348
8100
-2176
1020
-492
-2736
7628
-10188
-2912
7788
-1920
592
820
1652
2660
-9248
-5856
12676
464
11488
-10872
-29792
29788
10696
-14884
16844
-11732
-8788
-5564
7592
9584
4104
-13200
-2788
6464
-2968
4444
736
-932
1612
-6852
124
7832
-1032
-7100
544
2456
3964
-836
-8392
7992
24
-2700
5200
-4144
-3244
6100
-12912
9336
8348
-8148
-1848
12460
-1676
-29792
22956
19640
-4812
10772
-15884
-3396
-4012
4388
-2008
-3432
12964
-1548
812
-4636
-5468
4988
4768
-6916
3544
544
-4428
3576
272
152
3572
-11656
176
9576
3008
-2948
-3732
1776
2324
-5636
-6268
10976
-1336
-1152
-1532
2964
4788
8320
-11640
-29792
29576
22712
-10516
6068
-12104
-1616
-10736
4972
11556
-364
1088
-4408
-3384
7024
-4008
-8424
9520
368
80
2864
-4644
396
-1280
-7744
10880
2548
-4308
-928
-1384
4428
5272
-11968
-3700
9488
616
-2464
3316
-2108
1404
-6924
-884
25996
-29792
-10544
29788
-11484
6588
-1388
-19548
1812
-208
7708
4636
2072
-4420
616
-11204
1080
12952
-1688
-2180
-568
-2968
4908
-4092
-4032
5780
1100
-3304
2648
3124
360
-5796
-11336
11576
8168
-2984
-2872
-4440
2996
2324
-8932
6512
3768
-3644
4872
9172
-29792
13180
20768
-16040
16932
-7888
-5572
-2900
-3300
9236
-512
-1912
2876
-1172
-5060
2064
3568
2412
2848
-14032
3200
4236
-544
2612
-1456
-400
2856
-10416
1612
13336
-3596
-9952
1456
5632
11192
-15316
-6128
10536
-7588
8392
-792
216
1196
-2452
8124
-20060
-11044
29788
-7752
-348
1904
-6932
-11232
528
14524
-3328
3960
276
-7040
3796
-5288
-3708
10184
2240
-4984
-1132
-1408
4452
2000
-12960
8620
2360
-4280
4216
4816
-4072
-3060
-12344
6864
11732
-2712
5052
-11464
-4244
12420
-8436
-2156
16240
-8992
-13536
26652
-21788
-10448
29788
-23104
3104
5496
-9540
9104
-6604
12
5644
-8384
6192
400
-5672
5400
1132
704
2524
-12688
168
8844
-8
-1072
1800
-4076
3284
-4652
-4840
14824
-5240
-3988
632
968
7140
-3432
-13016
6192
1940
2244
5444
-2480
-1504
-1700
-11040
7880
10572
-9088
468
244
-1440
7896
-2156
-5252
-14872
21412
2400
-7656
7264
-12220
3548
-7252
11900
1860
-5688
2408
-4864
3084
8156
-11908
1224
3176
-5688
4480
5708
-840
-36
-11452
-548
13544
-2464
-2116
-2408
-2564
5416
356
-3556
3040
-2624
-1700
4368
2896
-3232
-2156
-4240
5892
156
832
292
-5120
852
6232
-3956
840
1372
-5804
2584
2380
-412
324
-6052
3400
5788
-2136
2248
-7532
-2584
4400
3124
208
52
-4116
212
1220
1880
2652
-2756
-5240
-144
3268
5388
-16
-4792
-2684
676
-820
5692
3436
-8056
-372
2640
-852
2408
376
-3752
-1020
2392
3908
-4756
-1060
2844
-1428
2420
296
-1936
-296
-2288
832
3096
2088
-5296
-1076
3284
212
2144
-1892
-1948
644
-1804
3760
592
-2888
-652
-3376
5736
4764
-4232
128
-5008
-1688
8048
-196
-1444
-3688
-912
3360
1096
2392
-2624
-3316
380
2764
1524
-1304
-2356
-628
1048
1608
1456
-1360
-2256
-424
2852
972
1824
-4384
-4432
3752
924
3320
744
-6016
-1136
3616
2636
932
-3884
-4840
2268
5108
920
-1904
-2452
-2972
3860
3684
-2676
-804
-1148
-1056
3224
1384
-3360
372
-476
-496
4184
-336
-2092
-1804
-720
2432
604
1456
-1520
-3480
952
3524
2604
-4080
-5348
4684
1892
-344
2524
-4272
-4260
3480
4256
-1168
-348
-832
-2764
784
1364
836
1952
-3432
-796
2752
-412
-468
-1384
456
516
1624
-1296
-2156
1100
2092
1456
-2388
304
-3256
-236
3488
2280
432
-5412
-1356
3032
712
1928
1264
-6188
1176
1772
232
2152
-4612
-1504
4308
1724
-2116
132
-1508
-460
2900
756
-1644
-4092
292
316
4776
3664
-3468
-1720
200
-548
-1676
1408
-2916
-1808
2916
3612
4508
-568
-5536
-1144
1128
-1888
-352
1728
-1236
860
5172
-2964
-4092
2716
28
2092
1124
-2228
-2104
-2780
3544
856
-1760
1012
352
1872
-1020
-88
3152
-5744
-3724
6208
-132
4452
-9188
1992
3812
-5928
13188
-9556
-88
-2152
1156
4928
-4256
3892
-4660
-828
4136
448
-2236
-2260
2532
3464
-3412
-76
-396
-3436
5260
3536
-6320
568
-1424
-1220
6484
956
-3420
-1228
-776
484
2220
-1668
316
-760
-504
3020
244
-772
-3112
-1304
7568
-3868
-2156
2464
-636
-3544
4224
4980
-10976
7104
-2684
1488
416
-3056
3436
-3332
3384
-200
-1220
-3188
116
4532
1984
-1340
-2584
-2000
1304
1492
-1436
1668
-744
244
1212
-1828
360
-1316
1484
2344
-2160
-416
-1144
-1748
3460
2208
-2416
-84
-128
-704
1724
-2340
1000
2420
-4960
3172
3368
-5976
-184
2792
856
1388
-1728
-3000
-660
2984
2444
-2020
-412
-1636
-1372
4772
776
-3836
228
-224
1896
1964
-4236
-680
1200
1544
2620
-1624
-3168
-1864
1936
3444
804
-1192
-4252
560
4420
-1264
-2960
784
2344
-808
-1084
2544
-1540
-3168
2852
2448
-2524
-1336
884
200
1272
-784
-424
360
-996
1132
560
-720
564
-1580
616
652
-2296
2296
616
-960
1352
-2296
180
944
-1144
2604
-208
-2372
-1164
1288
1660
-1088
1152
-284
-1880
2556
-944
20
-480
-4312
4156
2400
808
-2460
-4100
2648
988
1028
1172
-1152
-2484
-868
1340
1696
-992
836
48
600
-1020
-3888
4288
-24
-504
2344
-3412
-1572
3304
-1860
196
2840
-2264
1316
-344
-880
-428
-1140
576
3040
-768
-1780
412
-1060
2416
-1192
232
-1232
1456
2952
-3044
-2284
-1928
3036
3440
-188
-1024
-1788
-3452
3604
3220
-2664
-332
-584
-648
1564
400
-2136
1252
1912
476
-2628
-1152
460
72
3268
-1340
-2356
1796
-860
644
1920
-4280
1808
2480
-2672
1788
-824
-2448
2248
104
-1004
768
344
1304
-1004
-1220
-776
1476
1028
-2672
3580
-1516
-3636
2308
112
2872
256
-3384
1120
-660
668
-752
-1944
4024
-612
-1004
-312
-516
588
1140
1016
-804
-1328
-1580
-12
1308
3328
-1824
-3220
1212
2660
-864
-116
-152
-564
-460
-2544
4268
2052
-4272
-836
2236
-2352
1800
3860
-1288
-1868
-3024
312
1920
-112
320
1648
-2148
520
2040
-1940
252
-1340
-628
3308
-1184
-2736
2192
980
-108
-700
-1236
1956
336
-1380
-1276
4156
-4600
-1588
7256
-2568
104
-7044
9328
-4932
136
5832
-7708
8020
-7600
484
1476
280
1948
1160
-2764
-3476
4124
296
160
904
-3276
-1056
3768
-532
-1804
496
16
1476
28
-508
-412
-1684
2528
-1412
388
1304
-2384
1624
-412
-1228
404
1588
684
-76
180
-4600
-2132
10952
-3168
-6908
1328
4724
1076
-4540
6484
-10380
6560
784
-3272
3040
-3904
3476
-2180
1624
-376
-416
280
2228
-1584
-3228
800
3444
644
-4156
120
-288
3312
2544
-3560
-548
-2540
1572
4528
-3572
-2952
3064
2892
-1468
-2664
712
-884
900
4428
-3608
-1416
1224
-1580
3208
-1264
-3328
4192
1532
-4352
-896
3984
632
-2244
296
-1268
-3048
5220
5672
-7820
-2000
1760
-1408
5892
664
-4352
-1484
272
1644
1572
-912
-8
-1524
-328
2204
-1576
-172
1640
992
-728
-2420
-564
2940
-664
-1816
1864
-368
-44
1228
-1760
944
-408
-2392
3584
-40
-984
-1076
504
736
-3520
2760
5136
-1980
-4320
-2932
2140
5304
-592
-1304
-1744
-1700
1648
-412
1224
2700
-744
-2468
-752
-456
-532
3420
2840
-4544
-3692
3156
2852
-248
-1416
904
-2520
-204
3836
-3948
-940
4648
464
-1864
-1480
-1380
1504
2832
-1672
-1588
1636
840
-1328
-1704
2056
1184
-3304
1256
692
-1816
4020
2092
-5504
-2284
1552
2004
2412
-2728
-1136
1328
-180
624
152
-724
160
2128
-4676
-1368
5692
-416
-376
4
-3756
1376
2848
-252
-1620
-1000
776
2252
1276
-6352
-1088
6820
1268
-3948
-1640
-40
3280
1676
-2948
-716
-1556
848
2344
712
-1744
20
320
-796
12
-964
3328
1060
-3704
-3420
3688
3640
-2860
-728
-1504
1868
3640
-2880
-2152
-680
912
3480
-1944
-1316
1268
488
1560
-3992
-1876
3952
3108
-992
-4988
-156
2584
896
532
-2888
976
3408
-2944
-1368
688
-52
2040
1152
-2972
-1940
1912
1912
-1504
-1108
3684
500
-4232
-2792
2756
5256
-1132
-5904
844
2888
1632
48
-3272
-1956
2312
3232
-1764
-1052
-1344
928
2880
-2584
-2676
4880
2380
-5352
-2632
1300
5592
892
-5464
-2188
3084
3972
-1996
-3440
-8
2752
1472
-500
-4824
248
5464
-1000
-3616
1848
1348
188
824
-6240
1472
6000
-3092
-1788
1324
52
1500
168
-132
-6292
3784
4784
-6580
5644
-7064
9804
-4580
-7832
8328
-1316
6908
-10852
668
3620
1876
-1744
-3656
1760
3100
1400
-5116
80
2324
376
-212
-344
-3424
4680
1804
-7460
1444
4628
708
-1988
-3036
1916
2576
-2496
-1712
-308
3348
2920
-2592
-4916
-248
6888
824
-5068
-1916
1024
7760
-4184
-8452
5024
6340
2336
-13292
3776
2504
4756
-1760
-8824
7184
-796
1560
-4608
992
2940
2608
-2504
-5536
2568
3344
1684
-5680
-2000
5532
4480
-4404
-7328
3560
5400
-396
-2912
-2356
2504
4172
-3304
-4388
2468
3896
-2728
-3408
2924
5216
-1632
-7092
1848
3304
2152
-2140
-5692
1992
4080
1228
-1936
-2052
1952
540
-1688
-1768
-1376
8904
-952
-10144
2328
6320
1856
-5736
-3752
4412
3908
-1644
-4280
-1760
7616
2272
-6748
-6316
2668
10436
-1948
-4560
868
932
12
-4312
-3108
8352
4780
-6800
-5096
3460
8352
-4580
-6792
1104
5268
2040
-3340
-5224
3044
7820
-5820
-4964
4432
4836
-1144
-6668
-4268
8748
6528
-6200
-6416
1880
5932
-1548
-5052
1684
7012
-56
-7740
-3296
6252
3572
-1828
-4320
-3320
9200
1464
-7752
684
3108
1088
-808
-7188
3152
11164
-7388
-6192
3792
2948
2076
-4264
-6440
6992
8088
-5960
-7264
1816
6352
-2048
-3548
1676
3256
1676
-5944
-4016
9020
1624
-6824
-1224
1552
6044
-312
-8960
-1736
11088
3544
-8784
-3224
3244
1096
-608
-1396
892
6668
-1744
-9476
-808
9532
1272
-5048
-2080
2032
3772
-3064
-5244
2612
9624
-4604
-6884
1868
3324
2368
-3564
-2688
3228
5192
-7012
-5460
7320
4956
-996
-7356
-2840
8024
2484
-5352
-2828
2160
7884
-4160
-10176
6552
7160
-3068
-8352
532
11800
-1584
-9156
-64
3840
5520
-3428
-7148
4788
4816
-4508
-4804
3188
6412
-64
-6476
-2876
6460
4280
-9136
-2968
8008
3316
-3784
-6788
1556
11352
-2944
-11728
3532
8432
440
-8592
-2724
7168
4660
-4600
-5868
4824
3904
-5588
-3552
6192
4160
-2504
-5760
-1820
6188
2580
-3724
-3556
3456
3916
-5000
-4316
6692
4684
-3540
-9076
-256
12880
732
-9188
-2956
5904
4192
-6652
-3492
8960
3864
-8596
-7940
6332
10320
-2208
-10752
-64
10628
-1792
-5876
400
4260
-156
-5804
-44
6064
4960
-6492
-7880
4116
7856
-564
-5968
-840
6188
-2716
-8712
3672
14028
-4468
-11572
380
8880
3372
-8436
3312
-10032
13440
780
-14064
9560
144
2724
-6028
-1280
6428
2020
-9004
-1256
9888
-284
-7564
-2992
6904
3412
-2184
-3784
868
4532
-2828
-6924
3816
10040
-4068
-10036
-248
11548
1880
-8964
-2660
6168
2908
-6864
-904
7380
492
-5508
-4164
1572
8340
1676
-9668
-2312
7176
5188
-6388
-7752
14616
-7024
-3192
-1036
2328
11904
-11656
-2996
3888
6100
-2864
-8940
4132
8080
-4312
-6264
3288
5024
-1408
-6368
504
8504
1728
-9556
-2084
7752
-724
-3464
-696
1548
5000
-3396
-6940
6188
6764
-5948
-5212
3480
4052
-2988
-5048
1508
8868
-2068
-7668
2176
4712
2272
-6228
-5848
8556
3880
-10328
600
8436
1064
-4400
-6260
2984
9388
-5552
-7844
5400
5916
-2524
-6984
1408
6868
-964
-5520
2000
6248
-1244
-9392
-2876
10572
4272
-8508
-828
3672
-572
-220
-1676
2476
4884
-6164
-7940
6688
8760
-7932
-5668
6840
4668
-1220
-7240
-176
5312
-1164
-2024
-860
5916
876
-11020
2064
8516
-120
-4704
-4440
5512
5832
-6952
-3820
5296
1824
-2472
-4580
3244
6400
-3844
-5984
4024
7028
-5328
-7644
4548
8748
-5756
-7948
4556
8600
-2008
-9016
900
8440
-496
-8200
1176
5852
536
-6660
-796
6240
1312
-4576
-1932
5932
252
-5708
-656
4872
1472
-4708
-3784
6668
4268
-5536
-5004
3236
8672
-5488
-7308
4476
5928
-2472
-7340
1376
8548
-1040
-6828
648
5768
8
-6512
1644
3304
-444
-4268
-108
7508
20
-8160
-1572
10072
544
-8868
-624
6116
940
-4400
-1808
5464
2680
-8336
-1888
10464
-544
-6492
-1820
1612
7692
-3564
-6976
4972
2556
-3672
-632
3512
3616
-7792
-3832
8096
3176
-2676
-7864
2436
7976
-3948
-3324
2020
3932
-1956
-5996
2676
5476
-1844
-5940
1836
7700
-3032
-7376
3876
3788
-1524
-3520
-896
7288
240
-7620
-796
5548
3060
-7456
-232
7280
-1676
-5596
-220
6008
1244
-5892
-1160
5716
-500
-4076
-1504
5520
3372
-8812
1964
3100
-1424
-2728
2116
5624
-6260
4268
-11576
8352
6964
-10884
3548
-928
6924
-7132
-2176
5904
708
-3748
-3660
4628
3680
-4124
-5040
8268
2412
-7516
-808
2648
5284
-5892
-6140
9092
2408
-4904
-2080
2316
4988
-5972
-3836
8692
-1048
-4672
-1232
3364
4548
-4420
-4388
3532
5160
-6308
-288
7652
-4468
-3848
-4648
9916
1688
-2772
-1476
-5908
11872
-6960
-2128
5336
2176
-5924
-4740
6492
3392
-2548
-3784
5156
592
-4144
-3068
1820
8820
-4132
-8396
4612
5720
-4616
-1804
5320
-2420
-2672
-1436
4864
5136
-7712
-4840
5432
4164
-2892
-3440
3064
3232
-5820
-1336
5208
3660
-4336
-6900
3356
6184
-2260
-4308
4084
3240
-6408
-3064
7380
2616
-6172
-2636
4072
2120
-2176
-2684
2792
4136
-5300
-4632
7240
3904
-5812
-3084
1720
5052
-4260
-4316
8516
1268
-8220
616
6396
100
-4900
-4120
6688
3200
-7444
1012
4532
-2036
-2024
-152
4240
2300
-7660
-856
4488
-36
-1064
-632
2060
1044
-5352
264
7544
-1956
-4664
-800
3352
1388
-4536
808
5708
-1916
-5496
1156
4592
208
-4696
2344
1152
-3556
684
1564
4044
-2184
-6988
4372
4156
-3020
-3764
2828
4836
-4232
-3656
3432
2300
-1940
-1192
-384
3452
-1296
-4072
3712
2452
-3316
-2756
3496
2524
-2596
-3368
3520
4020
-6988
-2660
7144
3212
-6176
-3036
5064
2192
-3508
-760
764
444
-1600
-2504
8212
1020
-8812
268
5752
-2456
-1000
2216
-784
1612
-5472
-760
7352
-1012
-3156
1224
1676
-644
-6580
2600
8856
-4292
-5304
2460
2780
-3256
-1396
5300
3424
-7276
-4812
5944
3796
-1820
-3488
1532
1392
-3396
560
4388
836
-5896
-2272
6416
2648
-5304
-4072
7652
1372
-8096
2344
3616
-752
-3108
780
4472
-2432
-4988
3228
4892
-2816
-4252
1720
3236
-2648
-620
3444
664
-5204
-1552
5468
2168
-2132
-5028
808
4368
-1504
108
1196
-1340
-376
-1500
2140
1516
-4464
1056
3992
236
-4484
-2036
5704
272
-5212
4448
620
-3164
360
-1676
4596
416
-5212
760
3124
-96
-1568
568
2320
-4076
-3264
7340
804
-5140
1264
772
-316
48
-724
3644
-2132
-4228
2028
3824
-28
-4764
1760
2548
-1776
-1744
-380
4340
436
-4868
1904
2188
-3284
-1744
4180
1420
-4156
-544
2184
4160
-3304
-4504
4700
912
-4940
444
7156
-1744
-9688
3036
4804
7520
-9696
-280
5704
-13940
11252
-2508
5720
-1660
-11092
8572
2356
-4320
-1352
5716
-752
-1688
-4972
3584
4344
-5020
-252
1956
2088
-3640
-1908
5668
752
-4652
-188
2136
-896
-1396
456
6012
-1372
-10288
4840
7728
-6488
-700
2936
-1772
588
-3400
3944
5068
-10308
3484
6168
-8428
-744
3008
6908
-4536
-340
-4168
248
3892
-3620
5608
-728
4
-7240
4112
4508
-5968
1992
2844
-2224
-1872
-1388
2620
5052
-5284
-1664
3160
0
-2008
264
3264
-560
-4280
-2288
6544
1388
-4900
636
2804
-904
-3508
3100
3952
-6964
-404
3988
-216
-668
-3604
4976
1944
-4300
-1160
2052
2320
-3204
-1532
4268
-912
-5648
4400
4776
-4484
-2688
2172
3080
-1440
-3784
2436
1424
-2508
-648
2792
760
-2200
-708
2736
556
-3684
184
1504
1548
-2612
-1248
4136
-244
-4224
2272
3436
-2924
-1628
-316
2368
88
-1520
2872
-1228
-4272
1452
4992
-188
-4468
-1656
4508
416
-2576
2712
-1444
-1916
-392
304
5060
-1620
-4028
3664
-604
-3268
1640
1592
1644
-3184
-2968
4456
3008
-4644
-1636
4656
-976
-3636
2024
3532
-2780
-3868
3976
2064
-4392
-416
3004
3964
-3756
-4948
4688
-324
-1096
2532
-1268
-480
-2996
140
7876
-1920
-6124
2088
2028
-2996
2040
2696
-1296
-3004
-3800
6412
3432
-5848
868
2012
-4364
1788
2792
628
-2400
-4028
4592
1860
-3424
-908
2296
2320
-1688
-3448
1072
1304
580
-784
1540
1168
-5976
1644
4820
-1964
-1984
-1060
3408
64
-4500
4008
860
-2196
-840
-644
5144
-1332
-4816
2616
1552
-3476
2580
2464
-3312
-2016
288
5360
36
-5688
48
4032
-1252
-196
1004
-1680
-408
0
456
2916
-2156
-2616
4224
-1964
-688
-808
2280
3488
-7380
1460
4496
-3412
1140
-1420
648
1104
-3860
4272
884
-2180
-808
1004
1400
-2808
-1756
4572
932
-4416
4028
-1220
-5320
4176
2360
-1380
-956
-2584
3892
2212
-2432
-928
-3660
1780
3580
-1476
2072
-1336
-3152
3316
-1924
236
1988
-2928
1568
1044
-1124
-88
1388
-1028
-896
-388
1468
832
-4844
3244
4832
-3976
-1960
136
944
2248
-2076
156
4
-984
2052
-656
200
-684
-2164
3076
-2448
1572
5144
-6228
1636
-716
-4364
6492
128
-4616
4472
400
-5424
3588
284
-1940
1508
3076
-5572
-1020
3308
3000
-2116
-1264
5728
-14352
9404
-272
-828
6308
-7300
1744
-4388
4340
2716
-564
-3356
-1056
2364
-76
444
132
-544
24
-1000
-1096
2036
1836
-572
-1272
-200
-3560
3376
3664
-3184
452
-1196
-2248
2608
2036
-1092
484
-1448
-2564
1640
2272
108
180
-588
-3104
2204
-532
428
-164
3536
-4264
-1108
6104
-8904
7440
-2476
72
416
-2404
3656
-2036
1044
-1080
260
-692
24
1580
420
-1500
-716
1564
-1112
20
8
-412
3840
140
-5840
916
3264
-4324
3280
3332
-5520
544
2460
-2196
2272
528
-3376
940
540
-1532
1144
4752
-3640
-3016
2612
-2556
2636
844
-960
1592
-2884
264
1184
-236
-752
148
1652
-1304
-892
1728
1588
-1608
-3980
1376
1884
380
2884
-1688
-3560
100
2568
572
-1168
668
-2140
-864
4312
-1920
-1212
3288
-2172
-920
348
876
-132
-1480
1864
236
-1984
3184
-588
-4544
1508
3092
448
-1620
-3288
2916
1068
-1244
3052
-4772
-332
4180
-1688
1024
-908
-4124
5096
188
-3140
3024
-1572
-240
-48
-368
3016
-2272
-452
1428
-3192
2748
928
-2288
1456
-1316
1308
1056
-2960
1176
532
-1772
1432
1108
-728
-1276
1816
-440
-2260
2668
-812
-332
1188
-652
-1252
-1532
2420
3340
-1036
-3784
-1236
2616
1476
-844
348
-1428
-28
376
1000
356
-3524
2220
2840
-4080
108
2984
-116
-568
-3952
1456
2368
704
-312
-3832
3404
1104
-2884
388
620
-1120
1672
1184
-1252
-2580
224
4880
-1604
-2752
1524
-988
-296
1616
-976
2384
-1316
-1056
420
-3656
4412
988
-1880
3492
-3972
-2620
3528
-80
696
-52
-1880
-928
1864
2040
-744
-468
-2908
1708
1844
-2900
812
3044
-1600
-2484
2336
-1632
-144
4028
-2508
-1824
2056
-896
484
-68
-1624
1640
504
1044
-1464
-2324
3060
-408
-1708
2652
-796
-2224
-304
2024
2032
-2152
-96
-316
-644
2044
-1564
2076
1116
-5992
1432
1744
-64
1360
-180
-580
896
-1968
-1400
3092
-704
-64
-1256
536
-172
-1304
5560
420
-5404
-840
44
876
2548
1036
-260
-3576
-1496
2148
2432
312
-876
-1160
-1924
840
2960
-824
40
-1616
-2744
4172
728
-2876
2684
2228
-6144
752
4224
-2936
-284
52
1096
1244
-2068
412
596
896
-1728
-2988
3896
2944
-5764
992
1864
1004
544
-6908
9768
-9392
3088
4828
-4552
5296
-8904
4740
824
-572
-2712
2156
2588
-2604
1484
-3112
1384
2648
-3036
916
-756
-1800
5044
-1176
-2688
1712
-2052
2316
296
-2960
3664
-672
-1552
528
-188
72
-1408
1296
668
-976
3496
-1584
-2324
688
-3532
640
9016
-564
-9652
-64
4064
3308
-4216
7792
-7320
-4388
5640
-2436
4696
-2344
196
-3092
2804
524
-216
644
-1896
1004
-1412
260
356
808
1184
-2100
-292
1732
-1916
2280
264
-3456
1532
-604
944
1612
-1156
64
-1484
892
1224
-2748
984
668
1180
1364
-3928
188
1096
-792
724
916
1508
-2476
-3012
3728
780
-752
1548
-3828
-1728
3688
1624
1408
-3044
-3080
1448
-436
4968
-964
-5100
4512
-1492
-2500
5472
-2420
-1980
1504
-3592
4132
2124
-2260
-412
-1744
1584
112
-156
1072
-1116
-1324
1504
680
-1428
828
980
-660
-204
-2120
340
3332
-1776
8
-312
496
140
-1672
2212
-976
-736
768
1088
372
-3796
1748
3180
-3716
-384
916
1552
-144
-1120
3080
-3424
-3172
5404
-852
-1508
1304
-2276
2952
-396
-1692
1548
-856
1396
-964
-1660
1004
-2752
3736
3884
-5136
524
-184
-776
2192
-1024
-1772
2180
772
-2020
308
724
1632
-3364
-572
3232
-664
576
-384
-1140
-544
-1308
2716
2296
-3184
-256
-344
516
3932
-4164
-1744
4156
-2080
180
64
64
600
-2652
4428
368
-4260
44
860
1820
-1936
-188
3984
-3000
-1224
1484
-324
1572
-4368
456
6532
-2668
-2396
2184
-2296
-1432
2320
952
1428
-1692
-3688
4068
28
-2608
2280
1020
816
-4892
-1144
3988
1652
224
-3076
488
-1452
236
3776
-224
-2400
-1196
1516
-276
96
1460
-1136
-1332
2432
-864
-2192
3724
-1232
-2272
2288
-1512
56
1988
-268
-368
-2224
1424
1616
-1852
176
336
-428
1340
-1676
924
712
-2912
3388
-664
-1696
2584
-2620
-440
2928
-3008
1924
1636
-2672
-104
512
2232
-1824
-2204
808
1612
2020
-744
-3816
916
508
1556
1340
-2644
1120
-2988
1208
3928
-2820
-44
172
-1112
2208
-1988
-708
3896
-1780
-1772
-172
1588
1700
-1964
-188
-560
-224
2500
-1432
-176
180
-2184
3688
16
-3008
684
544
1628
-4
-2556
136
80
196
2168
328
-1836
-1568
676
4016
-3888
-1736
2268
1716
376
-5124
8492
-8300
1616
1472
-1456
7432
-6992
188
-2300
3344
20
1120
932
-3412
-524
1012
3292
-2632
-2308
2256
-60
1364
356
-3956
1624
1260
-1888
4092
-388
-4944
1060
688
1456
1624
-2904
212
-916
-168
3156
-388
1344
-3908
-2028
2964
1340
-744
516
2724
-6760
-1504
5360
5308
-7528
2876
-424
-5988
7380
-5656
7136
-1800
-4536
2192
360
1572
-1152
468
-232
-3072
-308
5296
-1468
-2668
2656
-192
-64
-1332
-1120
2348
140
-208
-1300
-1420
2388
1072
-1180
1496
-2892
-476
2512
832
-812
-3364
2672
1624
-2700
264
8
384
1732
-1272
1388
-504
-4288
1220
4352
336
-4512
1316
356
-2172
4032
1296
-2576
-1820
-1664
3560
1080
-1664
1960
-1624
-2528
1200
1676
128
-84
-1304
1456
-772
-1800
1596
1276
2252
-3432
-5276
4388
4040
-3640
1976
956
-3816
-644
128
4584
-560
-4420
3136
-1388
-1820
3432
1164
-440
-1420
-2840
-188
3200
2796
-1572
-3956
996
-52
200
4308
-1024
-2300
-2016
316
2352
396
1268
-2900
-544
896
-2228
3140
2416
-2916
756
-1796
-1096
3448
-1428
140
420
-1752
916
-68
60
2644
-1580
-1116
108
-1712
932
1944
1676
-1716
-2916
192
2036
296
1088
-1200
-388
-196
-1588
2044
-352
932
1344
-3736
-280
2168
-232
1224
-436
-240
-2668
648
3400
-3088
828
1304
-1228
688
-1580
-736
3860
4
-1988
-1280
-556
544
2160
2024
-3468
-2200
2408
1744
-948
444
-1488
-936
2052
-436
-184
80
24
1160
-2660
-404
2180
20
1768
-1688
-976
308
-1004
1396
32
-1636
1784
1300
-792
-2304
-780
3688
-64
-592
-1592
184
-248
-320
2976
-928
-1536
-180
112
1696
-424
-1408
1528
-972
408
220
-2168
3476
-1192
-2752
3040
-1256
1280
700
-2364
1908
-1140
-2208
1456
2320
-1644
-900
3712
-1888
-2776
1068
1876
920
-1340
-3464
1248
3660
-2516
2092
436
-4828
2488
624
-200
1480
-2192
1144
396
-4184
3136
2648
-2268
-960
-1024
2656
808
-1956
740
-792
-128
544
-1724
2200
-80
-876
1744
-1320
-1696
896
3184
868
-5468
-1340
2428
812
4424
-2512
-2580
-184
-1500
3884
496
-1508
-812
-664
1236
-712
1784
912
-2608
576
-2148
1424
3320
-1516
-1012
-1300
-556
2268
-524
3524
-3556
-4232
3916
3084
208
-6472
8164
-9296
4328
1684
-5104
9984
-7492
1656
-2272
1536
940
24
-112
-1332
3100
-2636
-1740
2464
424
-1604
1808
-768
-1548
732
1600
1136
-2064
-576
148
-1716
2932
204
-1436
1564
-3048
1316
3472
-3556
-1020
2244
824
-1012
-1512
-224
1100
1376
-1372
3452
-3564
-4244
3324
6152
-4392
-2152
4576
-7916
6108
-1808
3160
-804
-3980
3064
-4588
5932
880
-4228
1384
-1436
148
4552
-3424
-1388
1108
-1788
3552
556
-3032
564
1808
992
-4476
-2080
5644
224
-1172
196
-2456
364
3364
-496
-1192
-560
-2032
2984
304
-1924
908
544
304
-2280
868
1828
-1144
1012
-604
-1204
416
-1316
