task_init: wd_cnt = 86400
task_init: assigned pan id = 0000
task_init: restore_pan = 0
task_init: nv meter id >>

      01 00 00 00 00 00

ChipVer : V6306
System Init, LBD
  macMaxFrameRetries = 3
  macMaxRobustFrameRetries = 3
  macMaxSegmentFrameRetries = 3

  PHY_CR1               a00000c0        <- 00001003
[A00000C8] -> 00000000 bbp busy ...
bbp ready ~
set_vango_band_freq_range:(init/total/perGrp) 64/36/3
set bandplan 3, modulation 0
  macMaxFrameRetries = 3
  macMaxRobustFrameRetries = 3
  macMaxSegmentFrameRetries = 3
set bandplan: 3
set modulation: 0
Clear tone mask
Bandplan as FCC
set pmb syncp sym: 8
set pmb match sym: 3
set TDP FIR3 scale_max=134 scale_min=10 thr=15, start_scale
set LD gain select: 12V

vt# set PGA mode: 0
set urgetnIn_en 1
set apdt param: 1 20 1 32 20 500 2 1 10 3 9 6 9 6
set ant param: 1 24 5 30
set pmb det idle gain misc: 00000054 00000024 0000002a 0000002a 00000002
set max fa cnt in rx :10
set syncm inv det ratio :55
set ack tx additional gain :0 dB
set modulation: 0

  PHY_CR1               a00000c0        <- 00011003
ChipVer : V6306
Eable SWTD 86437651
Role = (1)....as LBD
task_init: nv_table_t.wd_cnt(86400)
>> holley_send_3088(58)

      68 34 34 68 5a 99 99 01 00 05 88 30 00 aa aa aa
      aa aa aa aa aa aa aa aa aa aa aa aa aa aa aa aa
      aa aa aa aa aa aa
vt# aa aa aa aa aa aa aa aa aa aa
      aa aa aa aa 25 9b 6a 4d a7 16


vt#
vt#
vt# >> holley_request_4011(25)

      68 13 13 68 08 99 99 01 00 05 11 40 00 00 03 00
      00 1c 80 01 ff 02 00 32 16

vtmm_flush_nvram(1170) nvram_rom= 0x0007f000 0x0007e000, ptr = 0x20001214, size = 1892 chk = 0x456dc03b
i
Send Beacon Request
vtmac_pkt_submit() Tx pause(wiat bbp 907 ms)
fconfigReceive Beacon
Beacon state 0
Beacon LQI 47, LinkCost 255
Beacone table[0]: PAN 905D, Addr 00F8, R_C 011D, LC FF, Priority 0
bbp adaptive scale ready

Receive beacon_request
    ->form: 991134FFFE020000
join

set device join pan
ChipVer : V6
vt#
vt#
vt#
vt#
vt#
vt#
vt# ro
Receive beacon_request
    ->form: 926733FFFE020000

vt#
vt# route p
Receive beacon_request
    ->form: 936733FFFE020000
905D

Set PAN_ID 0x905D

vt#
vt#
vt#
vt#
vt#
vt#
Receive beacon_request
    ->form: 709739FFFE020000

Receive beacon_request
    ->form: 001234FFFE020000

Receive beacon_request
    ->form: 896733FFFE020000
g3test gmk 0 0000000000484f4c4c4559474d4b0000
Receive beacon_request
    ->form: 894932FFFE020000

Receive beacon_request
    ->form: 479532FFFE020000


GMK index = 00
  GMK KeyID : 00
     GMK[0] (D): 00 00 00 00 00 48 4f 4c 4c 45 59 47 4d 4b 00 00
     GMK[1] (D): 00 00 00 00 00 00 00 00 00 00 00 00 00 00 00 00
           PSK : 00 00 00 00 00 48 4f 4c 4c 45 59 50 53 4b 00 00
            ID : 00 00 00 00 00 00 00 00

vt#
vt#
vt#
vt#
vt#
vt# route s 1110
Receive beacon_request
    ->form: 579532FFFE020000


Set Short Addr 0x1110

vt#
vt#
Receive beacon_request
    ->form: 991134FFFE020000

vt#
vt#
vt#
vt#
vt#
vt#
vt#
vt# pinge 0


Ping Test : size 7, loops 1
Send RREQ, Dest 0x0000, Seq 0, Flag 0
There is no LBS route information, Drop Beacon_Request
Route error (give up)!!

Total Send Tx/Rx : 1/0, AvgTime 99999 msec
PER : 100.0 %

vt# pinge 0


Ping Test : size 7, loops 1
Add D:0000 O:00F7  seq:23 to RREQ History[0]
Add D:0000 O:00FF  seq:46 to RREQ History[1]
Add D:0000 O:0118  seq:05 to RREQ History[2]
LR F,G RERR
RERR dest is myself, Stop RERR
Wait RREP(0x0000) Timeout

Receive beacon_request
    ->form: 001234FFFE020000
Route error (give up)!!

Total Send Tx/Rx : 1/0, AvgTime 99999 msec
PER : 100.0 %

vt#
vt#
vt#
vt# Send RREQ, Dest 0x0000, Seq 1, Flag 0
pinge 1


Ping Test : size 7, loops 1
Send RREQ, Dest 0x0001, Seq 2, Flag 0

Receive beacon_request
    ->form: 479532FFFE020000

Receive beacon_request
    ->form: 896733FFFE020000

Receive beacon_request
    ->form: 709739FFFE020000
Route error (give up)!!

Total Send Tx/Rx : 1/0, AvgTime 99999 msec
PER : 100.0 %

vt# Send RREP, Dest Addr 0x0001, Next 0x00fc, Seq 0, Flag 0, size 14
check_link_repair() send packet to 0x0001 (next 0x00FC)

Receive beacon_request
    ->form: 579532FFFE020000

vt#
vt#
vt#
vt#
vt#
vt#
vt#
vt#
vt#
vt#
vt#
vt#
vt#
vt#
vt#
vt#
vt#
vt#
vt#
vt#
vt#
vt#
vt#
vt#
vt#
vt# ifocni>> holley_send_heartbeat(20)

      68 0e 0e 68 5a 99 99 06 82 05 55 30 00 aa aa 00
      01 00 77 16



command not found !

vt#
vt#
vt# ifconfig Wait RREP(0x010d) Timeout
a There is no LBS route information, Drop Beacon_Request
0

Route 0x0000

vt# Send RREQ, Dest 0x0000, Seq 9, Flag 0

Receive beacon_request
    ->form: 896733FFFE020000
There is no LBS route information, Drop Beacon_Request

Receive beacon_request
    ->form: 709739FFFE020000

vt#
vt#
vt#
vt#
vt#
vt# ifconfig a 0x10d

Route 0x010d

vt# Send RREQ, Dest 0x010d, Seq 10, Flag 0

Receive beacon_request
    ->form: 001234FFFE020000
Update D:0000 O:010A  seq:01 to RREQ History[5]
Update D:0000 O:00FB  seq:07 to RREQ History[4]

Receive beacon_request
    ->form: 991134FFFE020000

Receive beacon_request
    ->form: 479532FFFE020000
Add D:0070 O:0000  seq:654 to RREQ History[6]
Send RREP, Dest Addr 0x010d, Next 0x00fc, Seq 2, Flag 0, size 14
Wait RREP(0x0000) Timeout

vt#
vt#
vt#
vt# ifconfig a 0x10d

Route 0x010d

vt# \
Receive beacon_request
    ->form: 579532FFFE020000

Receive beacon_request
    ->form: 896733FFFE020000
There is no LBS route information, Drop Beacon_Request

Receive beacon_request
    ->form: 894932FFFE020000
Wait RREP(0x010d) Timeout
Update D:0000 O:00FB  seq:08 to RREQ History[4]

Receive beacon_request
    ->form: 709739FFFE020000

Receive beacon_request
    ->form: 936733FFFE020000

Receive beacon_request
    ->form: 926733FFFE020000
There is no LBS route information, Drop Beacon_Request
Update D:0000 O:00FF  seq:50 to RREQ History[1]
Send RREQ, Dest 0x0000, Seq 11, Flag 0

Receive beacon_request
    ->form: 991134FFFE020000
Update D:0000 O:0118  seq:10 to RREQ History[2]

Receive beacon_request
    ->form: 001234FFFE020000

Receive beacon_request
    ->form: 479532FFFE020000

Receive beacon_request
    ->form: 936733FFFE020000

Receive beacon_request
    ->form: 709739FFFE020000


command not found !

vt#
vt#
vt#
Receive beacon_request
    ->form: 926733FFFE020000

vt#
vt#
vt#
vt#
vt#
vt#
vt# ver


Magpie PLC Platform - Copyright (c) 2015 Vango Technologies, Inc.

Version: v6.1.3.102_6.0.0.0 2019/05/21 09:44:37
vt#
vt#
vt#
vt# rev


Magpie PLC Platform - Copyright (c) 2015 Vango Technologies, Inc.
================================================
SW Ver : v6.1.3.102 @3ab26bdb (2019/05/21 09:44:37)ASIC
FW Ver :  v6.0.0.0 @e8de071e (2018/11/15 15:37:01, 0x80003733)
LD Ver  : MP B01
ChipVer : V6306
Band    : CEN-A FCC Vango
Module  : ROBO mode
ZeroX   : OFF
SoftAck : ON
Others  : Data coherent modeTwo RS blocks mode
================================================

vt#
vt#
vt#
vt#
vt#
Receive beacon_request
    ->form: 936733FFFE020000

vt# ifconfig

Bandplan   : FCC
Device     : LBD (FFD) (start time 589 sec) AC:50 Hz Pan 0x905D  Joined
Short Addr : 0x1110 (RC_COORD 0xFFFF)
Extended Addr : 0x0100 00FF FE00 0000

Routing Table : [000]-[511]
                    Dest   Next_Hop  Route_Cost  Hop_Count  Weak_Link_Count
[001](65527m15s):  0x0001   0x00FC     0x0044        2             1
[002](65532m03s):  0x00FC   0x00FC     0x001B        1             0
[003](65530m01s):  0x010A   0x010A     0x001A        1             0
[004](65532m03s):  0x010D   0x00FC     0x006F        4             0
[005](65531m17s):  0x00F8   0x00F8     0x002A        1             1

BlackList Table : [000]-[127]
                    Dest

BlackList History : [00]-[127]
         Dest

RREQ History : [00]-[31]
         Dest    Ori     Seq
[00]     0000    00f7     24
[01]     0000    00ff     50
[02]     0000    0118     11
[03]     0000    0018     93
[04]     0000    00fb     10
[05]     0000    010a     2
[06]     0070    0000     654
[07]     010a    0000     664

Neighbor Table : [000]-[64] TX Use Neighbor table
      TMR/Neighgor   Dest    LQI  Mod(expect) Scheme    ToneMap    TXRES TXGAIN Phase
[000](000/254 min): 0x00F8  00/31   0/0(2)     0/0   FFFFFF/000011  0/0    0/ 0   0 FCC
[001](000/255 min): 0x010A  00/66   0/0(3)     0/0   FFFFFF/FFFFFF  0/0    0/ 0   0 FCC
[002](000/255 min): 0x00FC  00/5D   0/0(3)     0/0   FFFFFF/FDBFF7  0/0    0/ 0   0 FCC
[003](000/254 min): 0x00BA  00/1C   0/0(0)     0/0   FFFFFF/FFFFFF  0/0    0/ 0   0 FCC
[004](000/251 min): 0x0018  00/1D   0/0(0)     0/0   FFFFFF/FFFFFF  0/0    0/ 0   0 FCC
[064](002/255 min): 0xFFFF  00/00   0/0(0)     0/0   FFFFFF/FFFFFF  0/0    0/ 0   0 FCC

MHR SEQ History : [00]-[15]
         Src     Seq
[00]     000002feff329549     219

vt# Add D:0000 O:00F8  seq:25 to RREQ History[8]
Wait RREP(0x0000) Timeout
Update D:0000 O:00FB  seq:11 to RREQ History[4]

vt#
vt#
vt#
Receive beacon_request
    ->form: 896733FFFE020000
Send RREQ, Dest 0x0000, Seq 14, Flag 0

vt#
vt# ping
Receive beacon_request
    ->form: 579532FFFE020000
e 0x01a


Ping Test : size 7, loops 1
Send RREQ, Dest 0x001a, Seq 15, Flag 0

Receive beacon_request
    ->form: 894932FFFE020000
There is no LBS route information, Drop Beacon_Request


Receive beacon_request
    ->form: 709739FFFE020000

Receive beacon_request
    ->form: 926733FFFE020000
Route error (give up)!!

Total Send Tx/Rx : 1/0, AvgTime 99999 msec
PER : 100.0 %

vt#
vt#
vt#
vt#
vt#
vt#
vt#
vt#
vt#
vt#
vt#
vt#
vt#
vt#
vt#
vt#
vt#
vt#
vt#
vt#
vt#
Receive beacon_request
    ->form: 479532FFFE020000
pinge 0x01a


Ping Test : size 7, loops 1
Update D:0000 O:0018  seq:94 to RREQ History[3]
Wait RREP(0x0000) Timeout
Update D:0000 O:00F7  seq:25 to RREQ History[0]

Receive beacon_request
    ->form: 991134FFFE020000
Update D:0000 O:00FB  seq:12 to RREQ History[4]
Send RREQ, Dest 0x0000, Seq 16, Flag 0
There is no LBS route information, Drop Beacon_Request
LR F,G RERR
RERR dest is myself, Stop RERR
Wait RREP(0x001a) Timeout
Route error (give up)!!

Total Send Tx/Rx : 1/0, AvgTime 99999 msec
PER : 100.0 %

vt#
vt#
vt#
vt#
vt#
vt#
vt#
vt#
vt#
vt#
vt#
vt#
Receive beacon_request
    ->form: 001234FFFE020000

Receive beacon_request
    ->form: 579532FFFE020000

Receive beacon_request
    ->form: 936733FFFE020000
There is no LBS route information, Drop Beacon_Request

vt#
vt#
vt# pinge 0x01a


Ping Test : size 7, loops 1

Receive beacon_request
    ->form: 896733FFFE020000
Update D:0000 O:00F8  seq:26 to RREQ History[8]
Update D:0000 O:0118  seq:12 to RREQ History[2]
Wait RREP(0x0000) Timeout
Route error (give up)!!

Total Send Tx/Rx : 1/0, AvgTime 99999 msec
PER : 100.0 %

vt# v

command not found !

vt#
vt#
vt#
vt# LR F,G RERR
RERR dest is myself, Stop RERR
Update D:0000 O:0018  seq:95 to RREQ History[3]
Update D:0000 O:00FB  seq:13 to RREQ History[4]

vt#
vt#
vt#
vt#
vt#
vt#
vt#
Receive beacon_request
    ->form: 001234FFFE020000

Receive beacon_request
    ->form: 894932FFFE020000

Receive beacon_request
    ->form: 926733FFFE020000

Receive beacon_request
    ->form: 709739FFFE020000

Receive beacon_request
    ->form: 991134FFFE020000

vt#
vt#