[2019-10-31 15:48:54.766] [000]:0x56 0x02 0x08 0xFF 0xFE 0x02 0x00 0x00 |    O   |    00/00   |  0x000f (         0,     426921,     429429)
[2019-10-31 15:48:54.781] [001]:0x58 0x02 0x08 0xFF 0xFE 0x02 0x00 0x00 |    O   |    00/00   |  0x0017 (         0,     853799,     856765)
[2019-10-31 15:48:54.781] [002]:0x22 0x15 0x08 0xFF 0xFE 0x02 0x00 0x00 |    O   |    00/01   |  0x000e (         0,     402574,     406846)
[2019-10-31 15:48:54.797] [003]:0x25 0x15 0x08 0xFF 0xFE 0x02 0x00 0x00 |    O   |    00/00   |  0x0009 (         0,     266501,     272857)
[2019-10-31 15:48:54.812] [004]:0x26 0x15 0x08 0xFF 0xFE 0x02 0x00 0x00 |    O   |    00/01   |  0x0007 (         0,     218885,     221588)
[2019-10-31 15:48:54.812] [005]:0x28 0x15 0x08 0xFF 0xFE 0x02 0x00 0x00 |    O   |    00/00   |  0x0002 (         0,      16653,      17383)
[2019-10-31 15:48:54.828] [006]:0x30 0x15 0x08 0xFF 0xFE 0x02 0x00 0x00 |    O   |    00/01   |  0x0001 (         0,      12499,      12882)
[2019-10-31 15:48:54.844] [007]:0x31 0x15 0x08 0xFF 0xFE 0x02 0x00 0x00 |    O   |    00/00   |  0x000a (         0,     279946,     281414)
[2019-10-31 15:48:54.844] [008]:0x88 0x35 0x10 0xFF 0xFE 0x02 0x00 0x00 |    O   |    00/02   |  0x0010 (         0,     458797,     465451)
[2019-10-31 15:48:54.859] [009]:0x95 0x55 0x11 0xFF 0xFE 0x02 0x00 0x00 |    O   |    00/02   |  0x0003 (         0,      59098,      59496)
[2019-10-31 15:48:54.875] [010]:0x96 0x55 0x11 0xFF 0xFE 0x02 0x00 0x00 |    O   |    00/00   |  0x000d (         0,     376957,     379321)
[2019-10-31 15:48:54.875] [011]:0x84 0x60 0x11 0xFF 0xFE 0x02 0x00 0x00 |    O   |    00/01   |  0x0004 (         0,     137985,     138553)
[2019-10-31 15:48:54.891] [012]:0x52 0x07 0x18 0xFF 0xFE 0x02 0x00 0x00 |    X                          (         0,          0,          0)
[2019-10-31 15:48:54.906] [013]:0x65 0x40 0x19 0xFF 0xFE 0x02 0x00 0x00 |    O   |    00/02   |  0x000c (         0,     339254,     339984)
[2019-10-31 15:48:54.906] [014]:0x66 0x40 0x19 0xFF 0xFE 0x02 0x00 0x00 |    O   |    00/01   |  0x0008 (         0,     247665,     253556)
[2019-10-31 15:48:54.922] [015]:0x33 0x41 0x19 0xFF 0xFE 0x02 0x00 0x00 |    O   |    00/00   |  0x002d (         0,    3659317,    3661636)
[2019-10-31 15:48:54.937] [016]:0x35 0x41 0x19 0xFF 0xFE 0x02 0x00 0x00 |    O   |    00/00   |  0x000b (         0,     308241,     309371)
[2019-10-31 15:48:54.937] [017]:0x37 0x41 0x19 0xFF 0xFE 0x02 0x00 0x00 |    O   |    00/00   |  0x0005 (         0,     138023,     138626)
[2019-10-31 15:48:54.953] [018]:0x42 0x41 0x19 0xFF 0xFE 0x02 0x00 0x00 |    O   |    00/00   |  0x001c (         0,    1005264,    1007294)
[2019-10-31 15:48:54.969] [019]:0x92 0x72 0x20 0xFF 0xFE 0x02 0x00 0x00 |    X                          (         0,          0,          0)
[2019-10-31 15:48:54.969] [020]:0x85 0x24 0x21 0xFF 0xFE 0x02 0x00 0x00 |    O   |    00/01   |  0x001f (    771872,    3592345,    3599495)
[2019-10-31 15:48:54.984] [021]:0x79 0x92 0x10 0xFF 0xFE 0x02 0x00 0x00 |    O   |    00/00   |  0x0011 (    772204,     778635,     780003)
[2019-10-31 15:48:54.984] [022]:0x73 0x40 0x19 0xFF 0xFE 0x02 0x00 0x00 |    O   |    00/00   |  0x0019 (    802436,     925992,     927651)
[2019-10-31 15:48:55.000] [023]:0x72 0x40 0x19 0xFF 0xFE 0x02 0x00 0x00 |    O   |    00/01   |  0x0013 (    807796,     808389,     809619)
[2019-10-31 15:48:55.016] [024]:0x61 0x02 0x08 0xFF 0xFE 0x02 0x00 0x00 |    O   |    00/02   |  0x0014 (    822658,     824228,     826467)
[2019-10-31 15:48:55.016] [025]:0x74 0x92 0x10 0xFF 0xFE 0x02 0x00 0x00 |    O   |    00/00   |  0x0018 (    842238,     917461,     920122)
[2019-10-31 15:48:55.031] [026]:0x25 0x10 0x18 0xFF 0xFE 0x02 0x00 0x00 |    O   |    00/00   |  0x0016 (    852355,     852788,     854329)
[2019-10-31 15:48:55.047] [027]:0x24 0x15 0x08 0xFF 0xFE 0x02 0x00 0x00 |    O   |    00/01   |  0x001a (    927759,     928692,     930453)
[2019-10-31 15:48:55.047] [028]:0x19 0x12 0x08 0xFF 0xFE 0x02 0x00 0x00 |    O   |    00/00   |  0x001b (    971892,     972507,     973192)
[2019-10-31 15:48:55.062] [029]:0x43 0x41 0x19 0xFF 0xFE 0x02 0x00 0x00 |    O   |    00/00   |  0x001d (   1009134,    1009667,    1010397)
[2019-10-31 15:48:55.078] [030]:0x04 0x56 0x18 0xFF 0xFE 0x02 0x00 0x00 |    O   |    00/01   |  0x001e (   3586526,    3587259,    3588090)
[2019-10-31 15:48:55.078] [031]:0x91 0x60 0x11 0xFF 0xFE 0x02 0x00 0x00 |    O   |    00/01   |  0x0020 (   3590303,    3592383,    3596206)
[2019-10-31 15:48:55.094] [032]:0x39 0x41 0x19 0xFF 0xFE 0x02 0x00 0x00 |    O   |    00/02   |  0x002c (   3593077,    3656317,    3657147)
[2019-10-31 15:48:55.109] [033]:0x34 0x10 0x18 0xFF 0xFE 0x02 0x00 0x00 |    O   |    00/00   |  0x0023 (   3601304,    3604639,    3607675)
[2019-10-31 15:48:55.109] [034]:0x34 0x41 0x19 0xFF 0xFE 0x02 0x00 0x00 |    O   |    00/01   |  0x0024 (   3601536,    3604709,    3609711)
[2019-10-31 15:48:55.125] [035]:0x36 0x41 0x19 0xFF 0xFE 0x02 0x00 0x00 |    O   |    00/02   |  0x0025 (   3606639,    3610351,    3611281)
[2019-10-31 15:48:55.141] [036]:0x99 0x55 0x11 0xFF 0xFE 0x02 0x00 0x00 |    O   |    00/00   |  0x0026 (   3614620,    3615599,    3617852)
[2019-10-31 15:48:55.141] [037]:0x73 0x56 0x18 0xFF 0xFE 0x02 0x00 0x00 |    O   |    00/00   |  0x0027 (   3614866,    3616108,    3619491)
[2019-10-31 15:48:55.156] [038]:0x29 0x15 0x08 0xFF 0xFE 0x02 0x00 0x00 |    O   |    00/00   |  0x0028 (   3617460,    3619631,    3621061)
[2019-10-31 15:48:55.156] [039]:0x38 0x41 0x19 0xFF 0xFE 0x02 0x00 0x00 |    O   |    00/02   |  0x0029 (   3628600,    3629933,    3631163)
[2019-10-31 15:48:55.172] [040]:0x27 0x15 0x08 0xFF 0xFE 0x02 0x00 0x00 |    O   |    00/00   |  0x002a (   3631502,    3632349,    3633764)
[2019-10-31 15:48:55.187] [041]:0x40 0x41 0x19 0xFF 0xFE 0x02 0x00 0x00 |    O   |    00/00   |  0x002b (   3649167,    3652965,    3661709)
[2019-10-31 15:48:55.203] [042]:0x81 0x72 0x16 0xFF 0xFE 0x02 0x00 0x00 |    X                          (4291316694,          0,          0)
[2019-10-31 15:48:55.203] [043]:0x41 0x41 0x19 0xFF 0xFE 0x02 0x00 0x00 |    O   |    00/00   |  0x002e (   3653298,    3661785,    3663762)
[2019-10-31 15:48:55.219] [044]:0x84 0x72 0x16 0xFF 0xFE 0x02 0x00 0x00 |    O   |    00/02   |  0x002f (   3666901,    3669434,    3671696)
[2019-10-31 15:48:55.219] [045]:0x83 0x72 0x16 0xFF 0xFE 0x02 0x00 0x00 |    O   |    00/01   |  0x0030 (   3671567,    3672736,    3675729)
[2019-10-31 15:48:55.234] [046]:0x95 0x72 0x20 0xFF 0xFE 0x02 0x00 0x00 |    O   |    00/01   |  0x0032 (   3672773,    3676995,    3681831)
[2019-10-31 15:48:55.250] [047]:0x44 0x41 0x19 0xFF 0xFE 0x02 0x00 0x00 |    O   |    00/00   |  0x0033 (   3674063,    3678729,    3682780)
[2019-10-31 15:48:55.250] [048]:0x97 0x55 0x11 0xFF 0xFE 0x02 0x00 0x00 |    O   |    00/02   |  0x0031 (   3675695,    3676269,    3678795)
[2019-10-31 15:48:55.266] [049]:0x74 0x40 0x19 0xFF 0xFE 0x02 0x00 0x00 |    O   |    00/00   |  0x0034 (   3683421,    3684154,    3684584)
[2019-10-31 15:48:55.281] Total 50 (Msg1 3, Msg3 0, Accept 47, ReJoin 0)
[2019-10-31 15:48:55.281] 
[2019-10-31 15:48:55.281] vt# rebooy t
[2019-10-31 15:49:03.826] uart_init
[2019-10-31 15:49:03.826] SW Version : V1.0 03e02962@(2019/06/08 10:29:59)
[2019-10-31 15:49:03.842] Start Time : 0.0 sec
[2019-10-31 15:49:03.842] dcu_restore_nvram
[2019-10-31 15:49:03.842] nv1(1) 0x0920980b 0x0920980b
[2019-10-31 15:49:03.842] nv2(1) 0x0920980b 0x0920980b
[2019-10-31 15:49:03.842] load nvram from 0x08008000 to 0x2004c000 (0x3034)
[2019-10-31 15:49:03.857] SPI1 HAL_SPI_MspInit
[2019-10-31 15:49:03.857] 
[2019-10-31 15:49:03.857] vt# 
[2019-10-31 15:49:03.857] task_init: system init
[2019-10-31 15:49:03.857] task_init WHITE LIST: ON
[2019-10-31 15:49:03.873] task_init BLACK LIST: OFF
[2019-10-31 15:49:03.873] uart_init
[2019-10-31 15:49:03.873] SW Version : V1.0 03e02962@(2019/06/08 10:29:59)
[2019-10-31 15:49:03.873] Start Time : 0.8 sec
[2019-10-31 15:49:03.873] vtsdk_calloc 0x10003158(35840)
[2019-10-31 15:49:03.873] cs:0x0920980b nv1:0x08008000 nv2:0x0800c000 (0x3034)
[2019-10-31 15:49:04.654] vtsdk_calloc 0x1000beb0(300)
[2019-10-31 15:49:04.654] vtsdk_calloc 0x1000bfe8(6)
[2019-10-31 15:49:04.654] vtsdk_calloc 0x1000bff8(4)
[2019-10-31 15:49:04.654] vtsdk_calloc 0x1000c008(20)
[2019-10-31 15:49:04.670] vtsdk_calloc 0x1000c028(300)
[2019-10-31 15:49:04.670] vtsdk_calloc 0x1000c240(255)
[2019-10-31 15:49:04.670] vtsdk_calloc 0x1000c348(25)
[2019-10-31 15:49:04.670] 
[2019-10-31 15:49:04.670] task_init: 1376.2 rule 2013
[2019-10-31 15:49:07.247] spi 0 start
[2019-10-31 15:49:07.450] ack 0
[2019-10-31 15:49:09.169] fn_set_magpie_dcu_panid (7a1c):
[2019-10-31 15:49:09.184] assign_magpie_panid 0 78 1c
[2019-10-31 15:49:09.184] first task Tmr Svc (priority 2) size 28
[2019-10-31 15:49:09.184] vtsdk_calloc 0x1000d250(56)
[2019-10-31 15:49:09.184] FnLocalModuleMode [03H-F10]
[2019-10-31 15:49:09.184] 68 38 00 c1 00 00 00 00 00 00 03 02 01 d1 3f 01 
[2019-10-31 15:49:09.200]       01 00 00 3c b0 04 2c 01 c8 00 ff 46 23 00 35 00 
[2019-10-31 15:49:09.200]       00 00 04 14 00 13 01 01 13 09 18 54 56 31 52 08 
[2019-10-31 15:49:09.200]       06 19 11 55 80 25 1b 16 
[2019-10-31 15:49:09.215] _vtsdk_send: UART pbuf=0x1000d250, len=56
[2019-10-31 15:49:09.278] FnLocalModuleMode (0) send(56):
[2019-10-31 15:49:09.278] 68 38 00 c1 00 00 00 00 00 00 03 02 01 d1 3f 01 
[2019-10-31 15:49:09.278]       01 00 00 3c b0 04 2c 01 c8 00 ff 46 23 00 35 00 
[2019-10-31 15:49:09.293]       00 00 04 14 00 13 01 01 13 09 18 54 56 31 52 08 
[2019-10-31 15:49:09.293]       06 19 11 55 80 25 1b 16 
[2019-10-31 15:49:09.293] vtsdk_free 0x1000d250
[2019-10-31 15:49:09.403] >>>>>>
[2019-10-31 15:49:09.403] task_loop: Rx from UART (15) 1000beb0
[2019-10-31 15:49:09.403] 68 0f 00 41 00 00 28 80 25 80 03 08 00 99 16 
[2019-10-31 15:49:09.403] vtsdk_calloc 0x1000d250(55)
[2019-10-31 15:49:09.403] task_loop Packet Serial Num: 128
[2019-10-31 15:49:09.418] FnQueryMasterAddr [03H-F4]
[2019-10-31 15:49:09.418] FnQueryMasterAddr MasterAddr: 46 23 00 35 00 00
[2019-10-31 15:49:09.418] _vtsdk_send: UART pbuf=0x10002094, len=21
[2019-10-31 15:49:09.450] FnQueryMasterAddr (0) send(21):
[2019-10-31 15:49:09.450] 68 15 00 81 00 00 00 00 00 80 03 08 00 46 23 00 
[2019-10-31 15:49:09.450]       35 00 00 aa 16 
[2019-10-31 15:49:09.450] vtsdk_free 0x1000d250
[2019-10-31 15:49:09.497] >>>>>>
[2019-10-31 15:49:09.497] task_loop: Rx from UART (15) 1000beb0
[2019-10-31 15:49:09.512] 68 0f 00 41 00 00 28 80 25 81 f0 10 00 8f 16 
[2019-10-31 15:49:09.512] vtsdk_calloc 0x1000d250(55)
[2019-10-31 15:49:09.512] task_loop Packet Serial Num: 129
[2019-10-31 15:49:09.512] AfnInternalTest [F0H-F5]
[2019-10-31 15:49:09.512] AfnInternalTest [F0]
[2019-10-31 15:49:09.512] FnBlackWhiteListStatus [F0H-F5]
[2019-10-31 15:49:09.528] vtsdk_calloc 0x1000d290(16)
[2019-10-31 15:49:09.528] FnBlackWhiteListStatus WHITE LIST: ON
[2019-10-31 15:49:09.528] FnBlackWhiteListStatus BLACK LIST: OFF
[2019-10-31 15:49:09.528] _vtsdk_send: UART pbuf=0x1000d290, len=16
[2019-10-31 15:49:09.543] FnBlackWhiteListStatus (0) send(16):
[2019-10-31 15:49:09.559] 68 10 00 81 00 00 28 80 25 81 f0 10 00 01 d0 16 
[2019-10-31 15:49:09.559] vtsdk_free 0x1000d290
[2019-10-31 15:49:09.559] vtsdk_free 0x1000d250
[2019-10-31 15:49:09.606] >>>>>>
[2019-10-31 15:49:09.606] task_loop: Rx from UART (18) 1000beb0
[2019-10-31 15:49:09.606] 68 12 00 41 00 00 28 80 25 82 10 02 00 01 00 0f 
[2019-10-31 15:49:09.621]       b2 16 
[2019-10-31 15:49:09.621] vtsdk_calloc 0x1000d250(58)
[2019-10-31 15:49:09.621] task_loop Packet Serial Num: 130
[2019-10-31 15:49:09.621] FnSlaveMsg [10H-F2]
[2019-10-31 15:49:09.621] FnSlaveMsg total num: 20, start SN: 1, query slave num: 15
[2019-10-31 15:49:09.621] vtsdk_calloc 0x1000d308(120)
[2019-10-31 15:49:09.637] FnSlaveMsg id: 56 02 08 02 00 00
[2019-10-31 15:49:09.637] FnSlaveMsg SN: 0, commProtocolType: 0, SNR: 0, phase: 0
[2019-10-31 15:49:09.637] FnSlaveMsg id: 58 02 08 02 00 00
[2019-10-31 15:49:09.637] FnSlaveMsg SN: 1, commProtocolType: 0, SNR: 0, phase: 0
[2019-10-31 15:49:09.653] FnSlaveMsg id: 22 15 08 02 00 00
[2019-10-31 15:49:09.653] FnSlaveMsg SN: 2, commProtocolType: 0, SNR: 0, phase: 0
[2019-10-31 15:49:09.653] FnSlaveMsg id: 25 15 08 02 00 00
[2019-10-31 15:49:09.653] FnSlaveMsg SN: 3, commProtocolType: 0, SNR: 0, phase: 0
[2019-10-31 15:49:09.668] FnSlaveMsg id: 26 15 08 02 00 00
[2019-10-31 15:49:09.668] FnSlaveMsg SN: 4, commProtocolType: 0, SNR: 0, phase: 0
[2019-10-31 15:49:09.668] FnSlaveMsg id: 28 15 08 02 00 00
[2019-10-31 15:49:09.668] FnSlaveMsg SN: 5, commProtocolType: 0, SNR: 0, phase: 0
[2019-10-31 15:49:09.684] FnSlaveMsg id: 30 15 08 02 00 00
[2019-10-31 15:49:09.684] FnSlaveMsg SN: 6, commProtocolType: 0, SNR: 0, phase: 0
[2019-10-31 15:49:09.684] FnSlaveMsg id: 31 15 08 02 00 00
[2019-10-31 15:49:09.684] FnSlaveMsg SN: 7, commProtocolType: 0, SNR: 0, phase: 0
[2019-10-31 15:49:09.700] FnSlaveMsg id: 88 35 10 02 00 00
[2019-10-31 15:49:09.700] FnSlaveMsg SN: 8, commProtocolType: 0, SNR: 0, phase: 0
[2019-10-31 15:49:09.700] FnSlaveMsg id: 95 55 11 02 00 00
[2019-10-31 15:49:09.700] FnSlaveMsg SN: 9, commProtocolType: 0, SNR: 0, phase: 0
[2019-10-31 15:49:09.715] FnSlaveMsg id: 96 55 11 02 00 00
[2019-10-31 15:49:09.715] FnSlaveMsg SN: 10, commProtocolType: 0, SNR: 0, phase: 0
[2019-10-31 15:49:09.715] FnSlaveMsg id: 84 60 11 02 00 00
[2019-10-31 15:49:09.715] FnSlaveMsg SN: 11, commProtocolType: 0, SNR: 0, phase: 0
[2019-10-31 15:49:09.731] FnSlaveMsg id: 52 07 18 02 00 00
[2019-10-31 15:49:09.731] FnSlaveMsg SN: 12, commProtocolType: 0, SNR: 0, phase: 0
[2019-10-31 15:49:09.731] FnSlaveMsg id: 65 40 19 02 00 00
[2019-10-31 15:49:09.731] FnSlaveMsg SN: 13, commProtocolType: 0, SNR: 0, phase: 0
[2019-10-31 15:49:09.746] FnSlaveMsg id: 66 40 19 02 00 00
[2019-10-31 15:49:09.746] FnSlaveMsg SN: 14, commProtocolType: 0, SNR: 0, phase: 0
[2019-10-31 15:49:09.746] vtsdk_calloc 0x1000d388(138)
[2019-10-31 15:49:09.746] _vtsdk_send: UART pbuf=0x1000d388, len=138
[2019-10-31 15:49:09.918] FnSlaveMsg (0) send(138):
[2019-10-31 15:49:09.918] 68 8a 00 81 00 00 00 00 00 82 10 02 00 14 00 0f 
[2019-10-31 15:49:09.918]       56 02 08 02 00 00 00 00 58 02 08 02 00 00 00 00 
[2019-10-31 15:49:09.918]       22 15 08 02 00 00 00 00 25 15 08 02 00 00 00 00 
[2019-10-31 15:49:09.934]       26 15 08 02 00 00 00 00 28 15 08 02 00 00 00 00 
[2019-10-31 15:49:09.934]       30 15 08 02 00 00 00 00 31 15 08 02 00 00 00 00 
[2019-10-31 15:49:09.934]       88 35 10 02 00 00 00 00 95 55 11 02 00 00 00 00 
[2019-10-31 15:49:09.950]       96 55 11 02 00 00 00 00 84 60 11 02 00 00 00 00 
[2019-10-31 15:49:09.950]       52 07 18 02 00 00 00 00 65 40 19 02 00 00 00 00 
[2019-10-31 15:49:09.950]       66 40 19 02 00 00 00 00 63 16 
[2019-10-31 15:49:09.950] vtsdk_free 0x1000d388
[2019-10-31 15:49:09.965] vtsdk_free 0x1000d308
[2019-10-31 15:49:09.965] vtsdk_free 0x1000d250
[2019-10-31 15:49:10.012] >>>>>>
[2019-10-31 15:49:10.012] task_loop: Rx from UART (18) 1000beb0
[2019-10-31 15:49:10.012] 68 12 00 41 00 00 28 80 25 83 10 02 00 10 00 0f 
[2019-10-31 15:49:10.028]       c2 16 
[2019-10-31 15:49:10.028] vtsdk_calloc 0x1000d250(58)
[2019-10-31 15:49:10.028] task_loop Packet Serial Num: 131
[2019-10-31 15:49:10.028] FnSlaveMsg [10H-F2]
[2019-10-31 15:49:10.028] FnSlaveMsg total num: 20, start SN: 16, query slave num: 15
[2019-10-31 15:49:10.028] vtsdk_calloc 0x1000d308(120)
[2019-10-31 15:49:10.043] FnSlaveMsg id: 33 41 19 02 00 00
[2019-10-31 15:49:10.043] FnSlaveMsg SN: 15, commProtocolType: 0, SNR: 0, phase: 0
[2019-10-31 15:49:10.043] FnSlaveMsg id: 35 41 19 02 00 00
[2019-10-31 15:49:10.043] FnSlaveMsg SN: 16, commProtocolType: 0, SNR: 0, phase: 0
[2019-10-31 15:49:10.059] FnSlaveMsg id: 37 41 19 02 00 00
[2019-10-31 15:49:10.059] FnSlaveMsg SN: 17, commProtocolType: 0, SNR: 0, phase: 0
[2019-10-31 15:49:10.059] FnSlaveMsg id: 42 41 19 02 00 00
[2019-10-31 15:49:10.059] FnSlaveMsg SN: 18, commProtocolType: 0, SNR: 0, phase: 0
[2019-10-31 15:49:10.075] FnSlaveMsg id: 92 72 20 02 00 00
[2019-10-31 15:49:10.075] FnSlaveMsg SN: 19, commProtocolType: 0, SNR: 0, phase: 0
[2019-10-31 15:49:10.075] vtsdk_calloc 0x1000d388(58)
[2019-10-31 15:49:10.075] _vtsdk_send: UART pbuf=0x1000d388, len=58
[2019-10-31 15:49:10.153] FnSlaveMsg (0) send(58):
[2019-10-31 15:49:10.153] 68 3a 00 81 00 00 00 00 00 83 10 02 00 14 00 05 
[2019-10-31 15:49:10.153]       33 41 19 02 00 00 00 00 35 41 19 02 00 00 00 00 
[2019-10-31 15:49:10.153]       37 41 19 02 00 00 00 00 42 41 19 02 00 00 00 00 
[2019-10-31 15:49:10.168]       92 72 20 02 00 00 00 00 a6 16 
[2019-10-31 15:49:10.168] vtsdk_free 0x1000d388
[2019-10-31 15:49:10.168] vtsdk_free 0x1000d308
[2019-10-31 15:49:10.168] vtsdk_free 0x1000d250
[2019-10-31 15:49:12.887] s2e
[2019-10-31 15:49:13.699] 
[2019-10-31 15:49:13.699] black list OFF
[2019-10-31 15:49:13.699] white list ON
[2019-10-31 15:49:13.699]                   EUI64                       | Joined | spi_id/pdc | short addr
[2019-10-31 15:49:13.699] ===========================================================================
[2019-10-31 15:49:13.714] [000]:0x56 0x02 0x08 0xFF 0xFE 0x02 0x00 0x00 |    X                          (         0,          0,          0)
[2019-10-31 15:49:13.714] [001]:0x58 0x02 0x08 0xFF 0xFE 0x02 0x00 0x00 |    X                          (         0,          0,          0)
[2019-10-31 15:49:13.730] [002]:0x22 0x15 0x08 0xFF 0xFE 0x02 0x00 0x00 |    X                          (         0,          0,          0)
[2019-10-31 15:49:13.746] [003]:0x25 0x15 0x08 0xFF 0xFE 0x02 0x00 0x00 |    X                          (         0,          0,          0)
[2019-10-31 15:49:13.746] [004]:0x26 0x15 0x08 0xFF 0xFE 0x02 0x00 0x00 |    X                          (         0,          0,          0)
[2019-10-31 15:49:13.761] [005]:0x28 0x15 0x08 0xFF 0xFE 0x02 0x00 0x00 |    X                          (         0,          0,          0)
[2019-10-31 15:49:13.777] [006]:0x30 0x15 0x08 0xFF 0xFE 0x02 0x00 0x00 |    X                          (         0,          0,          0)
[2019-10-31 15:49:13.777] [007]:0x31 0x15 0x08 0xFF 0xFE 0x02 0x00 0x00 |    X                          (         0,          0,          0)
[2019-10-31 15:49:13.792] [008]:0x88 0x35 0x10 0xFF 0xFE 0x02 0x00 0x00 |    X                          (         0,          0,          0)
[2019-10-31 15:49:13.808] [009]:0x95 0x55 0x11 0xFF 0xFE 0x02 0x00 0x00 |    X                          (         0,          0,          0)
[2019-10-31 15:49:13.808] [010]:0x96 0x55 0x11 0xFF 0xFE 0x02 0x00 0x00 |    X                          (         0,          0,          0)
[2019-10-31 15:49:13.824] [011]:0x84 0x60 0x11 0xFF 0xFE 0x02 0x00 0x00 |    X                          (         0,          0,          0)
[2019-10-31 15:49:13.839] [012]:0x52 0x07 0x18 0xFF 0xFE 0x02 0x00 0x00 |    X                          (         0,          0,          0)
[2019-10-31 15:49:13.839] [013]:0x65 0x40 0x19 0xFF 0xFE 0x02 0x00 0x00 |    X                          (         0,          0,          0)
[2019-10-31 15:49:13.855] [014]:0x66 0x40 0x19 0xFF 0xFE 0x02 0x00 0x00 |    X                          (         0,          0,          0)
[2019-10-31 15:49:13.870] [015]:0x33 0x41 0x19 0xFF 0xFE 0x02 0x00 0x00 |    X                          (         0,          0,          0)
[2019-10-31 15:49:13.870] [016]:0x35 0x41 0x19 0xFF 0xFE 0x02 0x00 0x00 |    X                          (         0,          0,          0)
[2019-10-31 15:49:13.886] [017]:0x37 0x41 0x19 0xFF 0xFE 0x02 0x00 0x00 |    X                          (         0,          0,          0)
[2019-10-31 15:49:13.886] [018]:0x42 0x41 0x19 0xFF 0xFE 0x02 0x00 0x00 |    X                          (         0,          0,          0)
[2019-10-31 15:49:13.902] [019]:0x92 0x72 0x20 0xFF 0xFE 0x02 0x00 0x00 |    X                          (         0,          0,          0)
[2019-10-31 15:49:13.917] Total 20 (Msg1 20, Msg3 0, Accept 0, ReJoin 0)
[2019-10-31 15:49:13.917] 
[2019-10-31 15:49:13.917] vt# >>>>>>
[2019-10-31 15:49:14.308] task_loop: Rx from UART (18) 1000beb0
[2019-10-31 15:49:14.308] 68 12 00 41 00 00 28 80 25 84 f0 01 01 01 00 0f 
[2019-10-31 15:49:14.308]       94 16 
[2019-10-31 15:49:14.308] vtsdk_calloc 0x1000d250(58)
[2019-10-31 15:49:14.308] task_loop Packet Serial Num: 132
[2019-10-31 15:49:14.308] AfnInternalTest [F0H-F9]
[2019-10-31 15:49:14.323] FnHeartbeatSuccessRate [F0H-F9]
[2019-10-31 15:49:14.323] vtsdk_calloc 0x1000d308(58)
[2019-10-31 15:49:14.323] FnHeartbeatSuccessRate total num: 0, start SN: 1, query slave num: 15
[2019-10-31 15:49:14.323] vtsdk_calloc 0x1000d350(210)
[2019-10-31 15:49:14.339] FnHeartbeatSuccessRate total num: 0
[2019-10-31 15:49:14.355] send_to_uart (0) send(18):
[2019-10-31 15:49:14.355] vtsdk_free 0x1000d430
[2019-10-31 15:49:14.355] vtsdk_free 0x1000d350
[2019-10-31 15:49:14.355] vtsdk_free 0x1000d308
[2019-10-31 15:49:14.355] vtsdk_free 0x1000d250
[2019-10-31 15:49:14.667] holleyTimer_cb Allow msgupload!!!
[2019-10-31 15:49:19.791] add task spi5r (priority 3) size 28
