
[2019-10-31 15:45:00.409] send_heartbeat_probe send heartbeat 
[2019-10-31 15:45:00.441] send_heartbeat_probe meter id = 33 09 18 02 00 00
[2019-10-31 15:45:00.441] send_heartbeat_probe SendTickTime =    4950515, 
[2019-10-31 15:45:00.441] vtesc_rx: p=0x1000d368, len=35 
[2019-10-31 15:45:00.441] PLC ESC
[2019-10-31 15:45:00.441] 03 00 01 00 56 33 09 18 02 00 00 83 00 00 11 00 
[2019-10-31 15:45:00.441]       01 04 04 f3 89 4b 00 01 02 03 00 00 62 01 03 01 
[2019-10-31 15:45:00.441]       06 2d 54 
[2019-10-31 15:45:00.441] Src Type: 0x00
[2019-10-31 15:45:00.441] Src short addr: 0x0001
[2019-10-31 15:45:00.441] Lookup id is :33 09 18 02 00 00 
[2019-10-31 15:45:00.441] >>>>>>
[2019-10-31 15:45:00.441] task_loop Rx from PLC (37)
[2019-10-31 15:45:00.441] 56 33 09 18 02 00 00 83 00 00 11 00 01 04 04 f3 
[2019-10-31 15:45:00.441]       89 4b 00 01 02 03 00 00 62 01 03 01 06 2d 54 33 
[2019-10-31 15:45:00.441]       09 18 02 00 00 
[2019-10-31 15:45:00.441] task_loop Src Addr (33 09 18 02 00 00 )
[2019-10-31 15:45:00.441] vtsdk_calloc 0x1000d368(55)
[2019-10-31 15:45:00.441] task_loop VT User Data(17)
[2019-10-31 15:45:00.441] 01 04 04 f3 89 4b 00 01 02 03 00 00 62 01 03 01 
[2019-10-31 15:45:00.441]       06 
[2019-10-31 15:45:00.441] task_loop Mode [VT_TYPE_HEARTBEAT]
[2019-10-31 15:45:00.441] task_loop SNR = 6
[2019-10-31 15:45:00.441] task_loop Meter: 33 09 18 02 00 00 
[2019-10-31 15:45:00.441] recv_heartbeat_probe meter id = 33 09 18 02 00 00 
[2019-10-31 15:45:00.441] recv_heartbeat_probe NowTickTime, SendTickTime = (   4951134,    4950515)
[2019-10-31 15:45:00.441] recv_heartbeat_probe lbdPTT[3].SumTime =          1, lbdPTT.lbdCount =     1
[2019-10-31 15:45:00.441] recv_heartbeat_probe Next Hop Short Addr : 0x0000
[2019-10-31 15:45:00.441] recv_heartbeat_probe Next Hop LQI = 98
[2019-10-31 15:45:00.441] vtsdk_free 0x1000d368
[2019-10-31 15:45:01.034] s2e
[2019-10-31 15:45:01.472] 
[2019-10-31 15:45:01.472] black list OFF
[2019-10-31 15:45:01.472] white list OFF
[2019-10-31 15:45:01.472]                   EUI64                       | Joined | spi_id/pdc | short addr
[2019-10-31 15:45:01.472] ===========================================================================
[2019-10-31 15:45:01.487] [000]:0x33 0x09 0x18 0xFF 0xFE 0x02 0x00 0x00 |    O   |    00/02   |  0x0001 (         0,      16799,      18929)
[2019-10-31 15:45:01.503] [001]:0x68 0x41 0x19 0xFF 0xFE 0x02 0x00 0x00 |    O   |    00/02   |  0x0002 (         0,      76334,      80099)
[2019-10-31 15:45:01.503] [002]:0x53 0x87 0x38 0xFF 0xFE 0x02 0x00 0x00 |    X                          (         0,          0,          0)
[2019-10-31 15:45:01.518] [003]:0x94 0x72 0x20 0xFF 0xFE 0x02 0x00 0x00 |    O   |    00/02   |  0x000b (    111411,     241005,     243784)
[2019-10-31 15:45:01.534] [004]:0x91 0x72 0x20 0xFF 0xFE 0x02 0x00 0x00 |    O   |    00/02   |  0x000c (    120619,     281509,     285740)
[2019-10-31 15:45:01.534] [005]:0x08 0x80 0x20 0xFF 0xFE 0x02 0x00 0x00 |    O   |    00/02   |  0x0005 (    135707,     136991,     138636)
[2019-10-31 15:45:01.550] [006]:0x90 0x72 0x20 0xFF 0xFE 0x02 0x00 0x00 |    O   |    00/01   |  0x0006 (    156377,     157438,     158536)
[2019-10-31 15:45:01.550] [007]:0x31 0x09 0x18 0xFF 0xFE 0x02 0x00 0x00 |    O   |    00/01   |  0x000e (    165075,     359912,     361686)
[2019-10-31 15:45:01.565] [008]:0x93 0x72 0x20 0xFF 0xFE 0x02 0x00 0x00 |    O   |    00/02   |  0x0007 (    182907,     184351,     188572)
[2019-10-31 15:45:01.581] [009]:0x21 0x06 0x18 0xFF 0xFE 0x02 0x00 0x00 |    O   |    00/02   |  0x0008 (    192211,     193686,     196287)
[2019-10-31 15:45:01.581] [010]:0x95 0x72 0x20 0xFF 0xFE 0x02 0x00 0x00 |    O   |    00/01   |  0x0009 (    205729,     207462,     209392)
[2019-10-31 15:45:01.596] [011]:0x25 0x96 0x10 0xFF 0xFE 0x02 0x00 0x00 |    O   |    00/00   |  0x000d (    329579,     331912,     333142)
[2019-10-31 15:45:01.612] [012]:0x77 0x25 0x18 0xFF 0xFE 0x02 0x00 0x00 |    O   |    00/02   |  0x0010 (    368918,     441924,     445754)
[2019-10-31 15:45:01.612] [013]:0x62 0x21 0x18 0xFF 0xFE 0x02 0x00 0x00 |    O   |    00/01   |  0x0011 (    461793,     465226,     469656)
[2019-10-31 15:45:01.628] [014]:0x96 0x72 0x20 0xFF 0xFE 0x02 0x00 0x00 |    O   |    00/01   |  0x0012 (    522895,     526028,     529828)
[2019-10-31 15:45:01.643] [015]:0x81 0x92 0x10 0xFF 0xFE 0x02 0x00 0x00 |    O   |    00/01   |  0x0019 (   1032848,    1901772,    1903102)
[2019-10-31 15:45:01.643] [016]:0x91 0x60 0x11 0xFF 0xFE 0x02 0x00 0x00 |    O   |    00/02   |  0x0024 (   1245826,    2018992,    2024154)
[2019-10-31 15:45:01.659] [017]:0x75 0x92 0x10 0xFF 0xFE 0x02 0x00 0x00 |    O   |    00/00   |  0x001d (   1477370,    1966233,    1974414)
[2019-10-31 15:45:01.675] [018]:0x83 0x09 0x18 0xFF 0xFE 0x02 0x00 0x00 |    O   |    00/01   |  0x0014 (   1490387,    1561092,    1563271)
[2019-10-31 15:45:01.675] [019]:0x24 0x96 0x10 0xFF 0xFE 0x02 0x00 0x00 |    O   |    00/02   |  0x0013 (   1499309,    1501142,    1502285)
[2019-10-31 15:45:01.690] [020]:0x52 0x07 0x18 0xFF 0xFE 0x02 0x00 0x00 |    O   |    00/02   |  0x0015 (   1564075,    1568338,    1570870)
[2019-10-31 15:45:01.706] [021]:0x92 0x72 0x20 0xFF 0xFE 0x02 0x00 0x00 |    O   |    00/02   |  0x0016 (   1633621,    1634098,    1637018)
[2019-10-31 15:45:01.706] [022]:0x39 0x41 0x19 0xFF 0xFE 0x02 0x00 0x00 |    O   |    00/02   |  0x0023 (   1758595,    2007368,    2012852)
[2019-10-31 15:45:01.721] [023]:0x97 0x55 0x11 0xFF 0xFE 0x02 0x00 0x00 |    O   |    00/00   |  0x0017 (   1854971,    1859552,    1861402)
[2019-10-31 15:45:01.721] [024]:0x04 0x56 0x18 0xFF 0xFE 0x02 0x00 0x00 |    O   |    00/02   |  0x0018 (   1892204,    1896737,    1902834)
[2019-10-31 15:45:01.737] [025]:0x99 0x55 0x11 0xFF 0xFE 0x02 0x00 0x00 |    O   |    00/01   |  0x0044 (   1906935,    2383549,    2387301)
[2019-10-31 15:45:01.753] [026]:0x36 0x41 0x19 0xFF 0xFE 0x02 0x00 0x00 |    O   |    00/00   |  0x001b (   1908467,    1911614,    1917648)
[2019-10-31 15:45:01.768] [027]:0x75 0x25 0x18 0xFF 0xFE 0x02 0x00 0x00 |    O   |    00/00   |  0x0049 (   1911323,    2759508,    2761338)
[2019-10-31 15:45:01.768] [028]:0x40 0x41 0x19 0xFF 0xFE 0x02 0x00 0x00 |    O   |    00/01   |  0x0029 (   1917887,    2058440,    2063370)
[2019-10-31 15:45:01.784] [029]:0x43 0x41 0x19 0xFF 0xFE 0x02 0x00 0x00 |    O   |    00/00   |  0x0033 (   1957260,    2178031,    2187555)
[2019-10-31 15:45:01.784] [030]:0x19 0x12 0x08 0xFF 0xFE 0x02 0x00 0x00 |   AD   |    00/01   |  0x001e (   1961940,    1969913,          0)
[2019-10-31 15:45:01.800] [031]:0x38 0x41 0x19 0xFF 0xFE 0x02 0x00 0x00 |    O   |    00/02   |  0x002c (   1966196,    2104480,    2119525)
[2019-10-31 15:45:01.815] [032]:0x34 0x41 0x19 0xFF 0xFE 0x02 0x00 0x00 |    O   |    00/02   |  0x0020 (   1967866,    1979087,    1982857)
[2019-10-31 15:45:01.815] [033]:0x71 0x40 0x19 0xFF 0xFE 0x02 0x00 0x00 |    O   |    00/00   |  0x0022 (   1993637,    2002172,    2003985)
[2019-10-31 15:45:01.831] [034]:0x83 0x72 0x16 0xFF 0xFE 0x02 0x00 0x00 |    O   |    00/01   |  0x0038 (   2022825,    2222986,    2227744)
[2019-10-31 15:45:01.846] [035]:0x33 0x41 0x19 0xFF 0xFE 0x02 0x00 0x00 |    O   |    00/00   |  0x0027 (   2032840,    2037886,    2041646)
[2019-10-31 15:45:01.846] [036]:0x74 0x40 0x19 0xFF 0xFE 0x02 0x00 0x00 |    O   |    00/00   |  0x0034 (   2044587,    2190285,    2198108)
[2019-10-31 15:45:01.862] [037]:0x73 0x56 0x18 0xFF 0xFE 0x02 0x00 0x00 |    O   |    00/00   |  0x0041 (   2075409,    2335388,    2336218)
[2019-10-31 15:45:01.878] [038]:0x41 0x41 0x19 0xFF 0xFE 0x02 0x00 0x00 |    O   |    00/00   |  0x0032 (   2084403,    2162542,    2168749)
[2019-10-31 15:45:01.878] [039]:0x84 0x72 0x16 0xFF 0xFE 0x02 0x00 0x00 |    O   |    00/02   |send_heartbe  0x0036 ( at_probe sen  2112747, d heartbeat    2204192,
[2019-10-31 15:45:01.893] send_heart    2209438beat_probe m)
[2019-10-31 15:45:01.893] [040]:0xeter id = 6881 0x72 0x16 41 19 02 0 0xFF 0xFE 00 00
[2019-10-31 15:45:01.893] send_x02 0x00 0x0heartbeat_p0 |    O   |robe SendTi    00/00   ckTime =   |  0x0037 (  4954518,   2123664,  
[2019-10-31 15:45:01.909]   2205155,    2210076)
[2019-10-31 15:45:01.909] [041]:0x85 0x72 0x16 0xFF 0xFE 0x02 0x00 0x00 |    O   |    00/00   |  0x004a (   2141648,    2847215,    2851525)
[2019-10-31 15:45:01.925] [042]:0x29 0x15 0x08 0xFF 0xFE 0x02 0x00 0x00 |    O   |    00/00   |  0x0035 (   2188494,    2201548,    2213317)
[2019-10-31 15:45:01.940] [043]:0x42 0x41 0x19 0xFF 0xFE 0x02 0x00 0x00 |    O   |    00/00   |  0x0039 (   2223519,    2229761,    2233970)
[2019-10-31 15:45:01.940] [044]:0x44 0x41 0x19 0xFF 0xFE 0x02 0x00 0x00 |    O   |    00/00   |  0x003a (   2224162,    2230149,    2235106)
[2019-10-31 15:45:01.956] [045]:0x57 0x55 0x18 0xFF 0xFE 0x02 0x00 0x00 |    O   |    00/01   |  0x003b (   2231241,    2235347,    2238023)
[2019-10-31 15:45:01.971] [046]:0x27 0x15 0x08 0xFF 0xFE 0x02 0x00 0x00 |    O   |    00/00   |  0x0042 (   2239562,    2359816,    2362373)
[2019-10-31 15:45:01.971] [047]:0x92 0x72 0x16 0xFF 0xFE 0x02 0x00 0x00 |    O   |    00/01   |  0x003d (   2256449,    2260689,    2267898)
[2019-10-31 15:45:01.987] [048]:0x82 0x72 0x16 0xFF 0xFE 0x02 0x00 0x00 |    O   |    00/02   |  0x003f (   2259927,    2266763,    2270525)
[2019-10-31 15:45:01.987] [049]:0x55 0x55 0x18 0xFF 0xFE 0x02 0x00 0x00 |    O   |    00/01   |  0x0040 (   2303264,    2304748,    2307518)
[2019-10-31 15:45:02.003] [050]:0x34 0x10 0x18 0xFF 0xFE 0x02 0x00 0x00 |    O   |    00/00   |  0x0043 (   2360749,    2365316,    2368992)
[2019-10-31 15:45:02.018] [051]:0x85 0x24 0x21 0xFF 0xFE 0x02 0x00 0x00 |    O   |    00/01   |  0x0045 (   2406115,    2408986,    2411816)
[2019-10-31 15:45:02.034] [052]:0x52 0x14 0x08 0xFF 0xFE 0x02 0x00 0x00 |    O   |    00/00   |  0x0046 (   2490702,    2492035,    2496690)
[2019-10-31 15:45:02.034] [053]:0x35 0x87 0x10 0xFF 0xFE 0x02 0x00 0x00 |   AD   |    00/01   |  0x0048 (   2688265,    2691225,          0)
[2019-10-31 15:45:02.050] Total 54 (Msg1 1, Msg3 2, Accept 51, ReJoin 0)
[2019-10-31 15:45:02.050] 
[2019-10-31 15:45:02.050] vt# vtesc_rx: p=0x1000d368, len=35 
[2019-10-31 15:45:02.143] PLC ESC
[2019-10-31 15:45:02.143] 03 00 02 00 56 68 41 19 02 00 00 83 00 00 11 00 
[2019-10-31 15:45:02.143]       01 04 04 96 99 4b 00 01 02 03 00 00 78 01 03 01 
[2019-10-31 15:45:02.143]       07 65 54 
[2019-10-31 15:45:02.159] Src Type: 0x00
[2019-10-31 15:45:02.159] Src short addr: 0x0002
[2019-10-31 15:45:02.159] Lookup id is :68 41 19 02 00 00 
[2019-10-31 15:45:02.159] >>>>>>
[2019-10-31 15:45:02.159] task_loop Rx from PLC (37)
[2019-10-31 15:45:02.159] 56 68 41 19 02 00 00 83 00 00 11 00 01 04 04 96 
[2019-10-31 15:45:02.159]       99 4b 00 01 02 03 00 00 78 01 03 01 07 65 54 68 
[2019-10-31 15:45:02.175]       41 19 02 00 00 
[2019-10-31 15:45:02.175] task_loop Src Addr (68 41 19 02 00 00 )
[2019-10-31 15:45:02.175] vtsdk_calloc 0x1000d368(55)
[2019-10-31 15:45:02.175] task_loop VT User Data(17)
[2019-10-31 15:45:02.190] 01 04 04 96 99 4b 00 01 02 03 00 00 78 01 03 01 
[2019-10-31 15:45:02.190]       07 
[2019-10-31 15:45:02.190] task_loop Mode [VT_TYPE_HEARTBEAT]
[2019-10-31 15:45:02.190] task_loop SNR = 7
[2019-10-31 15:45:02.190] task_loop Meter: 68 41 19 02 00 00 
[2019-10-31 15:45:02.190] recv_heartbeat_probe meter id = 68 41 19 02 00 00 
[2019-10-31 15:45:02.206] recv_heartbeat_probe NowTickTime, SendTickTime = (   4954820,    4954518)
[2019-10-31 15:45:02.206] recv_heartbeat_probe lbdPTT[3].SumTime =          2, lbdPTT.lbdCount =     2
[2019-10-31 15:45:02.206] recv_heartbeat_probe Next Hop Short Addr : 0x0000
[2019-10-31 15:45:02.221] recv_heartbeat_probe Next Hop LQI = 120
[2019-10-31 15:45:02.221] vtsdk_free 0x1000d368
[2019-10-31 15:45:04.252] s2e
[2019-10-31 15:45:04.658] 
[2019-10-31 15:45:04.658] black list OFF
[2019-10-31 15:45:04.658] white list OFF
[2019-10-31 15:45:04.658]                   EUI64                       | Joined | spi_id/pdc | short addr
[2019-10-31 15:45:04.658] ===========================================================================
[2019-10-31 15:45:04.674] [000]:0x33 0x09 0x18 0xFF 0xFE 0x02 0x00 0x00 |    O   |    00/02   |  0x0001 (         0,      16799,      18929)
[2019-10-31 15:45:04.690] [001]:0x68 0x41 0x19 0xFF 0xFE 0x02 0x00 0x00 |    O   |    00/02   |  0x0002 (         0,      76334,      80099)
[2019-10-31 15:45:04.690] [002]:0x53 0x87 0x38 0xFF 0xFE 0x02 0x00 0x00 |    X                          (         0,          0,          0)
[2019-10-31 15:45:04.705] [003]:0x94 0x72 0x20 0xFF 0xFE 0x02 0x00 0x00 |    O   |    00/02   |  0x000b (    111411,     241005,     243784)
[2019-10-31 15:45:04.721] [004]:0x91 0x72 0x20 0xFF 0xFE 0x02 0x00 0x00 |    O   |    00/02   |  0x000c (    120619,     281509,     285740)
[2019-10-31 15:45:04.721] [005]:0x08 0x80 0x20 0xFF 0xFE 0x02 0x00 0x00 |    O   |    00/02   |  0x0005 (    135707,     136991,     138636)
[2019-10-31 15:45:04.736] [006]:0x90 0x72 0x20 0xFF 0xFE 0x02 0x00 0x00 |    O   |    00/01   |  0x0006 (    156377,     157438,     158536)
[2019-10-31 15:45:04.736] [007]:0x31 0x09 0x18 0xFF 0xFE 0x02 0x00 0x00 |    O   |    00/01   |  0x000e (    165075,     359912,     361686)
[2019-10-31 15:45:04.752] [008]:0x93 0x72 0x20 0xFF 0xFE 0x02 0x00 0x00 |    O   |    00/02   |  0x0007 (    182907,     184351,     188572)
[2019-10-31 15:45:04.768] [009]:0x21 0x06 0x18 0xFF 0xFE 0x02 0x00 0x00 |    O   |    00/02   |  0x0008 (    192211,     193686,     196287)
[2019-10-31 15:45:04.768] [010]:0x95 0x72 0x20 0xFF 0xFE 0x02 0x00 0x00 |    O   |    00/01   |  0x0009 (    205729,     207462,     209392)
[2019-10-31 15:45:04.783] [011]:0x25 0x96 0x10 0xFF 0xFE 0x02 0x00 0x00 |    O   |    00/00   |  0x000d (    329579,     331912,     333142)
[2019-10-31 15:45:04.799] [012]:0x77 0x25 0x18 0xFF 0xFE 0x02 0x00 0x00 |    O   |    00/02   |  0x0010 (    368918,     441924,     445754)
[2019-10-31 15:45:04.799] [013]:0x62 0x21 0x18 0xFF 0xFE 0x02 0x00 0x00 |    O   |    00/01   |  0x0011 (    461793,     465226,     469656)
[2019-10-31 15:45:04.814] [014]:0x96 0x72 0x20 0xFF 0xFE 0x02 0x00 0x00 |    O   |    00/01   |  0x0012 (    522895,     526028,     529828)
[2019-10-31 15:45:04.830] [015]:0x81 0x92 0x10 0xFF 0xFE 0x02 0x00 0x00 |    O   |    00/01   |  0x0019 (   1032848,    1901772,    1903102)
[2019-10-31 15:45:04.830] [016]:0x91 0x60 0x11 0xFF 0xFE 0x02 0x00 0x00 |    O   |    00/02   |  0x0024 (   1245826,    2018992,    2024154)
[2019-10-31 15:45:04.846] [017]:0x75 0x92 0x10 0xFF 0xFE 0x02 0x00 0x00 |    O   |    00/00   |  0x001d (   1477370,    1966233,    1974414)
[2019-10-31 15:45:04.861] [018]:0x83 0x09 0x18 0xFF 0xFE 0x02 0x00 0x00 |    O   |    00/01   |  0x0014 (   1490387,    1561092,    1563271)
[2019-10-31 15:45:04.861] [019]:0x24 0x96 0x10 0xFF 0xFE 0x02 0x00 0x00 |    O   |    00/02   |  0x0013 (   1499309,    1501142,    1502285)
[2019-10-31 15:45:04.877] [020]:0x52 0x07 0x18 0xFF 0xFE 0x02 0x00 0x00 |    O   |    00/02   |  0x0015 (   1564075,    1568338,    1570870)
[2019-10-31 15:45:04.877] [021]:0x92 0x72 0x20 0xFF 0xFE 0x02 0x00 0x00 |    O   |    00/02   |  0x0016 (   1633621,    1634098,    1637018)
[2019-10-31 15:45:04.893] [022]:0x39 0x41 0x19 0xFF 0xFE 0x02 0x00 0x00 |    O   |    00/02   |  0x0023 (   1758595,    2007368,    2012852)
[2019-10-31 15:45:04.908] [023]:0x97 0x55 0x11 0xFF 0xFE 0x02 0x00 0x00 |    O   |    00/00   |  0x0017 (   1854971,    1859552,    1861402)
[2019-10-31 15:45:04.908] [024]:0x04 0x56 0x18 0xFF 0xFE 0x02 0x00 0x00 |    O   |    00/02   |  0x0018 (   1892204,    1896737,    1902834)
[2019-10-31 15:45:04.924] [025]:0x99 0x55 0x11 0xFF 0xFE 0x02 0x00 0x00 |    O   |    00/01   |  0x0044 (   1906935,    2383549,    2387301)
[2019-10-31 15:45:04.939] [026]:0x36 0x41 0x19 0xFF 0xFE 0x02 0x00 0x00 |    O   |    00/00   |  0x001b (   1908467,    1911614,    1917648)
[2019-10-31 15:45:04.939] [027]:0x75 0x25 0x18 0xFF 0xFE 0x02 0x00 0x00 |    O   |    00/00   |  0x0049 (   1911323,    2759508,    2761338)
[2019-10-31 15:45:04.955] [028]:0x40 0x41 0x19 0xFF 0xFE 0x02 0x00 0x00 |    O   |    00/01   |  0x0029 (   1917887,    2058440,    2063370)
[2019-10-31 15:45:04.971] [029]:0x43 0x41 0x19 0xFF 0xFE 0x02 0x00 0x00 |    O   |    00/00   |  0x0033 (   1957260,    2178031,    2187555)
[2019-10-31 15:45:04.971] [030]:0x19 0x12 0x08 0xFF 0xFE 0x02 0x00 0x00 |   AD   |    00/01   |  0x001e (   1961940,    1969913,          0)
[2019-10-31 15:45:04.986] [031]:0x38 0x41 0x19 0xFF 0xFE 0x02 0x00 0x00 |    O   |    00/02   |  0x002c (   1966196,    2104480,    2119525)
[2019-10-31 15:45:05.002] [032]:0x34 0x41 0x19 0xFF 0xFE 0x02 0x00 0x00 |    O   |    00/02   |  0x0020 (   1967866,    1979087,    1982857)
[2019-10-31 15:45:05.002] [033]:0x71 0x40 0x19 0xFF 0xFE 0x02 0x00 0x00 |    O   |    00/00   |  0x0022 (   1993637,    2002172,    2003985)
[2019-10-31 15:45:05.018] [034]:0x83 0x72 0x16 0xFF 0xFE 0x02 0x00 0x00 |    O   |    00/01   |  0x0038 (   2022825,    2222986,    2227744)
[2019-10-31 15:45:05.033] [035]:0x33 0x41 0x19 0xFF 0xFE 0x02 0x00 0x00 |    O   |    00/00   |  0x0027 (   2032840,    2037886,    2041646)
[2019-10-31 15:45:05.033] [036]:0x74 0x40 0x19 0xFF 0xFE 0x02 0x00 0x00 |    O   |    00/00   |  0x0034 (   2044587,    2190285,    2198108)
[2019-10-31 15:45:05.049] [037]:0x73 0x56 0x18 0xFF 0xFE 0x02 0x00 0x00 |    O   |    00/00   |  0x0041 (   2075409,    2335388,    2336218)
[2019-10-31 15:45:05.064] [038]:0x41 0x41 0x19 0xFF 0xFE 0x02 0x00 0x00 |    O   |    00/00   |  0x0032 (   2084403,    2162542,    2168749)
[2019-10-31 15:45:05.064] [039]:0x84 0x72 0x16 0xFF 0xFE 0x02 0x00 0x00 |    O   |    00/02   |  0x0036 (   2112747,    2204192,    2209438)
[2019-10-31 15:45:05.080] [040]:0x81 0x72 0x16 0xFF 0xFE 0x02 0x00 0x00 |    O   |    00/00   |  0x0037 (   2123664,    2205155,    2210076)
[2019-10-31 15:45:05.080] [041]:0x85 0x72 0x16 0xFF 0xFE 0x02 0x00 0x00 |    O   |    00/00   |  0x004a (   2141648,    2847215,    2851525)
[2019-10-31 15:45:05.096] [042]:0x29 0x15 0x08 0xFF 0xFE 0x02 0x00 0x00 |    O   |    00/00   |  0x0035 (   2188494,    2201548,    2213317)
[2019-10-31 15:45:05.111] [043]:0x42 0x41 0x19 0xFF 0xFE 0x02 0x00 0x00 |    O   |    00/00   |  0x0039 (   2223519,    2229761,    2233970)
[2019-10-31 15:45:05.111] [044]:0x44 0x41 0x19 0xFF 0xFE 0x02 0x00 0x00 |    O   |    00/00   |  0x003a (   2224162,    2230149,    2235106)
[2019-10-31 15:45:05.127] [045]:0x57 0x55 0x18 0xFF 0xFE 0x02 0x00 0x00 |    O   |    00/01   |  0x003b (   2231241,    2235347,    2238023)
[2019-10-31 15:45:05.143] [046]:0x27 0x15 0x08 0xFF 0xFE 0x02 0x00 0x00 |    O   |    00/00   |  0x0042 (   2239562,    2359816,    2362373)
[2019-10-31 15:45:05.143] [047]:0x92 0x72 0x16 0xFF 0xFE 0x02 0x00 0x00 |    O   |    00/01   |  0x003d (   2256449,    2260689,    2267898)
[2019-10-31 15:45:05.158] [048]:0x82 0x72 0x16 0xFF 0xFE 0x02 0x00 0x00 |    O   |    00/02   |  0x003f (   2259927,    2266763,    2270525)
[2019-10-31 15:45:05.174] [049]:0x55 0x55 0x18 0xFF 0xFE 0x02 0x00 0x00 |    O   |    00/01   |  0x0040 (   2303264,    2304748,    2307518)
[2019-10-31 15:45:05.174] [050]:0x34 0x10 0x18 0xFF 0xFE 0x02 0x00 0x00 |    O   |    00/00   |  0x0043 (   2360749,    2365316,    2368992)
[2019-10-31 15:45:05.189] [051]:0x85 0x24 0x21 0xFF 0xFE 0x02 0x00 0x00 |    O   |    00/01   |  0x0045 (   2406115,    2408986,    2411816)
[2019-10-31 15:45:05.205] [052]:0x52 0x14 0x08 0xFF 0xFE 0x02 0x00 0x00 |    O   |    00/00   |  0x0046 (   2490702,    2492035,    2496690)
[2019-10-31 15:45:05.205] [053]:0x35 0x87 0x10 0xFF 0xFE 0x02 0x00 0x00 |   AD   |    00/01   |  0x0048 (   2688265,    2691225,          0)
[2019-10-31 15:45:05.221] Total 54 (Msg1 1, Msg3 2, Accept 51, ReJoin 0)
[2019-10-31 15:45:05.221] 
[2019-10-31 15:45:05.221] vt# 