[000]02080256
[001]02080258
[002]02081522
[003]02081525
[004]02081526
[005]02081528
[006]02081530
[007]02081531
[008]02103588
[009]02115595
[010]02115596
[011]02116084
[012]02180752  X
[013]02194065
[014]02194066
[015]02194133
[016]02194135
[017]02194137
[018]02194142
[019]02207292  X
[020]02212485
[021]02109279
[022]02194073
[023]02194072
[024]02080261
[025]02109274
[026]02181025
[027]02081524
[028]02081219
[029]02194143
[030]02185604
[031]02116091
[032]02194139
[033]02181034
[034]02194134
[035]02194136
[036]02115599
[037]02185673
[038]02081529
[039]02194138
[040]02081527
[041]02194140
[042]02167281  X
[043]02194141
[044]02167284
[045]02167283
[046]02207295
[047]02194144
[048]02115597
[049]02194074
